%!PS-Adobe-3.0 EPSF-3.0
%%Creator: MATLAB, The Mathworks, Inc. Version 7.10.0.499 (R2010a). Operating System: Microsoft Windows 7.
%%Title: C:\Users\wwu\Desktop\warping\James_code\comp_wave.eps
%%CreationDate: 04/12/2011  15:07:13
%%DocumentNeededFonts: Helvetica
%%DocumentProcessColors: Cyan Magenta Yellow Black
%%LanguageLevel: 2
%%Pages: 1
%%BoundingBox:   212   320   399   470
%%EndComments

%%BeginProlog
% MathWorks dictionary
/MathWorks 160 dict begin
% definition operators
/bdef {bind def} bind def
/ldef {load def} bind def
/xdef {exch def} bdef
/xstore {exch store} bdef
% operator abbreviations
/c  /clip ldef
/cc /concat ldef
/cp /closepath ldef
/gr /grestore ldef
/gs /gsave ldef
/mt /moveto ldef
/np /newpath ldef
/cm /currentmatrix ldef
/sm /setmatrix ldef
/rm /rmoveto ldef
/rl /rlineto ldef
/s {show newpath} bdef
/sc {setcmykcolor} bdef
/sr /setrgbcolor ldef
/sg /setgray ldef
/w /setlinewidth ldef
/j /setlinejoin ldef
/cap /setlinecap ldef
/rc {rectclip} bdef
/rf {rectfill} bdef
% page state control
/pgsv () def
/bpage {/pgsv save def} bdef
/epage {pgsv restore} bdef
/bplot /gsave ldef
/eplot {stroke grestore} bdef
% orientation switch
/portraitMode 0 def /landscapeMode 1 def /rotateMode 2 def
% coordinate system mappings
/dpi2point 0 def
% font control
/FontSize 0 def
/FMS {/FontSize xstore findfont [FontSize 0 0 FontSize neg 0 0]
  makefont setfont} bdef
/ISOLatin1Encoding where {pop /WindowsLatin1Encoding 256 array bdef
ISOLatin1Encoding WindowsLatin1Encoding copy pop
/.notdef/.notdef/quotesinglbase/florin/quotedblbase/ellipsis/dagger
/daggerdbl/circumflex/perthousand/Scaron/guilsinglleft/OE/.notdef/.notdef
/.notdef/.notdef/quoteleft/quoteright/quotedblleft/quotedblright/bullet
/endash/emdash/tilde/trademark/scaron/guilsinglright/oe/.notdef/.notdef
/Ydieresis WindowsLatin1Encoding 128 32 getinterval astore pop}
{/WindowsLatin1Encoding StandardEncoding bdef} ifelse
/reencode {exch dup where {pop load} {pop StandardEncoding} ifelse
  exch dup 3 1 roll findfont dup length dict begin
  { 1 index /FID ne {def}{pop pop} ifelse } forall
  /Encoding exch def currentdict end definefont pop} bdef
/isroman {findfont /CharStrings get /Agrave known} bdef
/FMSR {3 1 roll 1 index dup isroman {reencode} {pop pop} ifelse
  exch FMS} bdef
/csm {1 dpi2point div -1 dpi2point div scale neg translate
 dup landscapeMode eq {pop -90 rotate}
  {rotateMode eq {90 rotate} if} ifelse} bdef
% line types: solid, dotted, dashed, dotdash
/SO { [] 0 setdash } bdef
/DO { [.5 dpi2point mul 4 dpi2point mul] 0 setdash } bdef
/DA { [6 dpi2point mul] 0 setdash } bdef
/DD { [.5 dpi2point mul 4 dpi2point mul 6 dpi2point mul 4
  dpi2point mul] 0 setdash } bdef
% macros for lines and objects
/L {lineto stroke} bdef
/MP {3 1 roll moveto 1 sub {rlineto} repeat} bdef
/AP {{rlineto} repeat} bdef
/PDlw -1 def
/W {/PDlw currentlinewidth def setlinewidth} def
/PP {closepath eofill} bdef
/DP {closepath stroke} bdef
/MR {4 -2 roll moveto dup  0 exch rlineto exch 0 rlineto
  neg 0 exch rlineto closepath} bdef
/FR {MR stroke} bdef
/PR {MR fill} bdef
/L1i {{currentfile picstr readhexstring pop} image} bdef
/tMatrix matrix def
/MakeOval {newpath tMatrix currentmatrix pop translate scale
0 0 1 0 360 arc tMatrix setmatrix} bdef
/FO {MakeOval stroke} bdef
/PO {MakeOval fill} bdef
/PD {currentlinewidth 2 div 0 360 arc fill
   PDlw -1 eq not {PDlw w /PDlw -1 def} if} def
/FA {newpath tMatrix currentmatrix pop translate scale
  0 0 1 5 -2 roll arc tMatrix setmatrix stroke} bdef
/PA {newpath tMatrix currentmatrix pop	translate 0 0 moveto scale
  0 0 1 5 -2 roll arc closepath tMatrix setmatrix fill} bdef
/FAn {newpath tMatrix currentmatrix pop translate scale
  0 0 1 5 -2 roll arcn tMatrix setmatrix stroke} bdef
/PAn {newpath tMatrix currentmatrix pop translate 0 0 moveto scale
  0 0 1 5 -2 roll arcn closepath tMatrix setmatrix fill} bdef
/vradius 0 def /hradius 0 def /lry 0 def
/lrx 0 def /uly 0 def /ulx 0 def /rad 0 def
/MRR {/vradius xdef /hradius xdef /lry xdef /lrx xdef /uly xdef
  /ulx xdef newpath tMatrix currentmatrix pop ulx hradius add uly
  vradius add translate hradius vradius scale 0 0 1 180 270 arc 
  tMatrix setmatrix lrx hradius sub uly vradius add translate
  hradius vradius scale 0 0 1 270 360 arc tMatrix setmatrix
  lrx hradius sub lry vradius sub translate hradius vradius scale
  0 0 1 0 90 arc tMatrix setmatrix ulx hradius add lry vradius sub
  translate hradius vradius scale 0 0 1 90 180 arc tMatrix setmatrix
  closepath} bdef
/FRR {MRR stroke } bdef
/PRR {MRR fill } bdef
/MlrRR {/lry xdef /lrx xdef /uly xdef /ulx xdef /rad lry uly sub 2 div def
  newpath tMatrix currentmatrix pop ulx rad add uly rad add translate
  rad rad scale 0 0 1 90 270 arc tMatrix setmatrix lrx rad sub lry rad
  sub translate rad rad scale 0 0 1 270 90 arc tMatrix setmatrix
  closepath} bdef
/FlrRR {MlrRR stroke } bdef
/PlrRR {MlrRR fill } bdef
/MtbRR {/lry xdef /lrx xdef /uly xdef /ulx xdef /rad lrx ulx sub 2 div def
  newpath tMatrix currentmatrix pop ulx rad add uly rad add translate
  rad rad scale 0 0 1 180 360 arc tMatrix setmatrix lrx rad sub lry rad
  sub translate rad rad scale 0 0 1 0 180 arc tMatrix setmatrix
  closepath} bdef
/FtbRR {MtbRR stroke } bdef
/PtbRR {MtbRR fill } bdef
/stri 6 array def /dtri 6 array def
/smat 6 array def /dmat 6 array def
/tmat1 6 array def /tmat2 6 array def /dif 3 array def
/asub {/ind2 exch def /ind1 exch def dup dup
  ind1 get exch ind2 get sub exch } bdef
/tri_to_matrix {
  2 0 asub 3 1 asub 4 0 asub 5 1 asub
  dup 0 get exch 1 get 7 -1 roll astore } bdef
/compute_transform {
  dmat dtri tri_to_matrix tmat1 invertmatrix 
  smat stri tri_to_matrix tmat2 concatmatrix } bdef
/ds {stri astore pop} bdef
/dt {dtri astore pop} bdef
/db {2 copy /cols xdef /rows xdef mul dup 3 mul string
  currentfile 
  3 index 0 eq {/ASCIIHexDecode filter}
  {/ASCII85Decode filter 3 index 2 eq {/RunLengthDecode filter} if }
  ifelse exch readstring pop
  dup 0 3 index getinterval /rbmap xdef
  dup 2 index dup getinterval /gbmap xdef
  1 index dup 2 mul exch getinterval /bbmap xdef pop pop}bdef
/it {gs np dtri aload pop moveto lineto lineto cp c
  cols rows 8 compute_transform 
  rbmap gbmap bbmap true 3 colorimage gr}bdef
/il {newpath moveto lineto stroke}bdef
currentdict end def
%%EndProlog

%%BeginSetup
MathWorks begin

0 cap

end
%%EndSetup

%%Page: 1 1
%%BeginPageSetup
%%PageBoundingBox:   212   320   399   470
MathWorks begin
bpage
%%EndPageSetup

%%BeginObject: obj1
bplot

/dpi2point 12 def
portraitMode 2544 5640 csm

    0     0  2249  1800 rc
85 dict begin %Colortable dictionary
/c0 { 0.000000 0.000000 0.000000 sr} bdef
/c1 { 1.000000 1.000000 1.000000 sr} bdef
/c2 { 0.900000 0.000000 0.000000 sr} bdef
/c3 { 0.000000 0.820000 0.000000 sr} bdef
/c4 { 0.000000 0.000000 0.800000 sr} bdef
/c5 { 0.910000 0.820000 0.320000 sr} bdef
/c6 { 1.000000 0.260000 0.820000 sr} bdef
/c7 { 0.000000 0.820000 0.820000 sr} bdef
c0
1 j
1 sg
   0    0 2250 1801 rf
6 w
0 1467 1743 0 0 -1467 292 1602 4 MP
PP
-1743 0 0 1467 1743 0 0 -1467 292 1602 5 MP stroke
4 w
DO
SO
6 w
0 sg
 292  135 mt 2035  135 L
 292 1602 mt 2035 1602 L
2035 1602 mt 2035  135 L
 292 1602 mt  292  135 L
 292 1602 mt 2035 1602 L
 292 1602 mt  292  135 L
 292 1602 mt  292 1584 L
 292  135 mt  292  152 L
%%IncludeResource: font Helvetica
/Helvetica /WindowsLatin1Encoding 120 FMSR

 259 1747 mt 
(0) s
 679 1602 mt  679 1584 L
 679  135 mt  679  152 L
 646 1747 mt 
(2) s
1066 1602 mt 1066 1584 L
1066  135 mt 1066  152 L
1033 1747 mt 
(4) s
1454 1602 mt 1454 1584 L
1454  135 mt 1454  152 L
1421 1747 mt 
(6) s
1841 1602 mt 1841 1584 L
1841  135 mt 1841  152 L
1808 1747 mt 
(8) s
 292 1479 mt  309 1479 L
2035 1479 mt 2017 1479 L
 121 1523 mt 
(-1) s
 292 1174 mt  309 1174 L
2035 1174 mt 2017 1174 L
  21 1218 mt 
(-0.5) s
 292  868 mt  309  868 L
2035  868 mt 2017  868 L
 191  912 mt 
(0) s
 292  562 mt  309  562 L
2035  562 mt 2017  562 L
  91  606 mt 
(0.5) s
 292  257 mt  309  257 L
2035  257 mt 2017  257 L
 191  301 mt 
(1) s
 292  135 mt 2035  135 L
 292 1602 mt 2035 1602 L
2035 1602 mt 2035  135 L
 292 1602 mt  292  135 L
gs 292 135 1744 1468 rc
/c8 { 0.000000 0.000000 1.000000 sr} bdef
c8
10 31 10 32 10 31 9 32 10 32 10 31 9 31 10 30 
10 29 9 28 10 27 10 25 9 24 10 22 10 19 9 18 
10 15 10 13 9 9 10 7 10 4 10 1 9 -3 10 -6 
10 -9 9 -13 10 -17 10 -19 9 -24 10 -26 10 -30 9 -33 
10 -36 10 -39 9 -41 10 -43 10 -45 9 -47 10 -48 10 -49 
10 -49 9 -49 10 -49 10 -47 9 -46 10 -44 10 -42 9 -38 
10 -35 10 -30 9 -26 10 -22 10 -15 9 -10 10 -4 10 2 
9 8 10 15 10 22 9 28 10 34 10 40 10 46 9 52 
10 55 10 60 9 64 10 65 10 68 9 68 10 67 10 67 
9 64 10 60 10 56 9 50 10 43 10 36 9 27 10 18 
10 9 10 -2 9 -13 10 -23 10 -33 9 -44 10 -53 10 -62 
9 -70 10 -76 10 -81 9 -86 10 -86 10 -87 9 -85 10 -81 
10 -75 9 -67 10 -58 10 -46 10 -33 9 -19 10 -4 10 11 
9 26 10 42 10 57 9 70 10 81 10 92 9 99 10 103 
10 105 9 104 10 98 10 91 9 80 10 66 10 49 9 30 
10 10 10 -11 10 -31 9 -53 10 -72 10 -88 9 -103 10 -113 
10 -119 9 -121 10 -117 10 -110 9 -96 10 -80 10 -58 9 -34 
10 -8 10 19 9 46 10 71 10 93 10 112 9 125 10 132 
10 133 9 126 10 114 10 94 9 69 10 41 10 8 9 -24 
10 -57 10 -85 9 -110 10 -129 10 -138 9 -141 10 -134 10 -118 
10 -94 9 -64 10 -28 10 9 9 46 10 81 10 110 9 130 
10 142 10 142 9 132 10 110 10 81 9 43 10 3 10 -38 
9 -76 10 -106 10 -129 9 -138 292 868 181 MP stroke
/c9 { 0.000000 0.500000 0.000000 sr} bdef
c9
10 39 10 40 10 39 9 39 10 39 10 37 9 36 10 35 
10 32 9 30 10 28 10 25 9 21 10 18 10 15 9 10 
10 6 10 2 9 -3 10 -7 10 -12 10 -16 9 -21 10 -26 
10 -30 9 -34 10 -38 10 -41 9 -45 10 -48 10 -50 9 -52 
10 -53 10 -55 9 -54 10 -55 10 -53 9 -52 10 -49 10 -46 
10 -43 9 -39 10 -33 10 -29 9 -22 10 -16 10 -10 9 -2 
10 4 10 12 9 19 10 27 10 33 9 41 10 46 10 53 
9 57 10 62 10 65 9 68 10 70 10 70 10 70 9 68 
10 66 10 61 9 56 10 50 10 43 9 35 10 26 10 16 
9 6 10 -4 10 -15 9 -26 10 -35 10 -46 9 -55 10 -64 
10 -70 10 -77 9 -81 10 -84 10 -86 9 -85 10 -83 10 -78 
9 -73 10 -65 10 -55 9 -45 10 -33 10 -19 9 -6 10 9 
10 23 9 37 10 51 10 64 10 74 9 84 10 91 10 97 
9 99 10 99 10 97 9 91 10 83 10 73 9 60 10 44 
10 29 9 10 10 -8 10 -26 9 -44 10 -61 10 -76 9 -90 
10 -100 10 -107 10 -111 9 -111 10 -107 10 -100 9 -89 10 -74 
10 -57 9 -37 10 -16 10 6 9 29 10 51 10 71 9 88 
10 103 10 113 9 119 10 120 10 116 10 107 9 94 10 76 
10 55 9 30 10 5 10 -22 9 -47 10 -71 10 -91 9 -108 
10 -119 10 -124 9 -124 10 -118 10 -104 9 -87 10 -63 10 -37 
10 -8 9 21 10 50 10 75 9 96 10 113 10 123 9 125 
10 121 10 108 9 90 10 66 10 38 9 7 10 -24 10 -54 
9 -79 10 -100 10 -113 9 -120 292 868 181 MP stroke
/c10 { 1.000000 0.000000 0.000000 sr} bdef
c10
10 49 10 48 10 49 9 47 10 46 10 43 9 41 10 37 
10 34 9 29 10 25 10 19 9 14 10 8 10 2 9 -5 
10 -10 10 -17 9 -24 10 -29 10 -35 10 -40 9 -46 10 -49 
10 -54 9 -57 10 -59 10 -61 9 -62 10 -62 10 -60 9 -59 
10 -56 10 -52 9 -48 10 -42 10 -36 9 -30 10 -21 10 -15 
10 -5 9 2 10 12 10 20 9 28 10 37 10 44 9 51 
10 58 10 63 9 68 10 71 10 73 9 75 10 74 10 72 
9 70 10 65 10 59 9 53 10 45 10 36 10 27 9 16 
10 5 10 -6 9 -17 10 -28 10 -39 9 -49 10 -58 10 -66 
9 -74 10 -79 10 -83 9 -85 10 -86 10 -85 9 -82 10 -76 
10 -71 10 -61 9 -52 10 -41 10 -29 9 -15 10 -2 10 12 
9 26 10 40 10 52 9 63 10 74 10 82 9 89 10 94 
10 96 9 96 10 93 10 88 10 81 9 71 10 60 10 47 
9 32 10 16 10 0 9 -17 10 -33 10 -48 9 -63 10 -76 
10 -87 9 -95 10 -100 10 -104 9 -104 10 -100 10 -94 9 -85 
10 -73 10 -59 10 -43 9 -25 10 -6 10 12 9 32 10 49 
10 66 9 80 10 93 10 101 9 107 10 109 10 108 9 102 
10 93 10 81 9 66 10 48 10 29 10 8 9 -13 10 -34 
10 -54 9 -71 10 -86 10 -98 9 -107 10 -110 10 -111 9 -106 
10 -97 10 -84 9 -69 10 -49 10 -29 9 -6 10 16 10 38 
10 59 9 76 10 91 10 101 9 107 10 109 10 106 9 97 
10 84 10 69 9 48 10 28 10 4 9 -19 10 -41 10 -61 
9 -77 10 -91 10 -99 9 -102 292 868 181 MP stroke
/c11 { 0.000000 0.750000 0.750000 sr} bdef
c11
10 60 10 59 10 58 9 56 10 53 10 49 9 43 10 37 
10 31 9 23 10 15 10 7 9 -2 10 -11 10 -20 9 -28 
10 -36 10 -43 9 -51 10 -56 10 -62 10 -66 9 -69 10 -70 
10 -71 9 -70 10 -67 10 -64 9 -58 10 -53 10 -45 9 -38 
10 -28 10 -18 9 -8 10 2 10 13 9 24 10 34 10 43 
10 52 9 60 10 67 10 73 9 77 10 79 10 81 9 80 
10 77 10 74 9 68 10 61 10 53 9 43 10 33 10 21 
9 9 10 -3 10 -16 9 -28 10 -39 10 -51 10 -61 9 -69 
10 -77 10 -82 9 -86 10 -89 10 -88 9 -86 10 -83 10 -77 
9 -69 10 -59 10 -50 9 -37 10 -24 10 -10 9 3 10 18 
10 31 10 44 9 57 10 67 10 77 9 84 10 90 10 94 
9 95 10 93 10 91 9 84 10 77 10 67 9 56 10 43 
10 28 9 14 10 -2 10 -17 10 -32 9 -47 10 -59 10 -72 
9 -81 10 -90 10 -95 9 -98 10 -99 10 -96 9 -92 10 -85 
10 -75 9 -64 10 -50 10 -36 9 -20 10 -3 10 13 9 29 
10 45 10 59 10 72 9 82 10 91 10 96 9 100 10 100 
10 97 9 92 10 84 10 73 9 61 10 46 10 30 9 13 
10 -3 10 -21 9 -37 10 -53 10 -66 10 -78 9 -88 10 -94 
10 -98 9 -98 10 -97 10 -91 9 -83 10 -72 10 -60 9 -44 
10 -29 10 -11 9 6 10 23 10 39 9 54 10 68 10 78 
10 86 9 92 10 95 10 93 9 89 10 83 10 73 9 61 
10 47 10 31 9 15 10 -2 10 -19 9 -35 10 -49 10 -62 
9 -72 10 -80 10 -84 9 -87 292 868 181 MP stroke
/c12 { 0.750000 0.000000 0.750000 sr} bdef
c12
10 72 10 72 10 69 9 64 10 59 10 51 9 42 10 32 
10 20 9 10 10 -4 10 -15 9 -27 10 -39 10 -49 9 -58 
10 -67 10 -73 9 -78 10 -81 10 -82 10 -80 9 -77 10 -72 
10 -65 9 -56 10 -46 10 -34 9 -22 10 -9 10 4 9 18 
10 31 10 43 9 55 10 65 10 74 9 80 10 85 10 88 
10 89 9 86 10 84 10 77 9 69 10 60 10 49 9 36 
10 22 10 9 9 -6 10 -20 10 -33 9 -47 10 -59 10 -70 
9 -78 10 -85 10 -90 9 -93 10 -93 10 -91 10 -87 9 -81 
10 -72 10 -62 9 -50 10 -37 10 -23 9 -8 10 7 10 21 
9 36 10 49 10 62 9 72 10 81 10 88 9 93 10 95 
10 95 10 94 9 88 10 82 10 73 9 62 10 50 10 37 
9 23 10 7 10 -7 9 -23 10 -37 10 -50 9 -62 10 -73 
10 -82 9 -88 10 -94 10 -95 10 -95 9 -93 10 -88 10 -81 
9 -72 10 -62 10 -49 9 -36 10 -21 10 -7 9 8 10 23 
10 37 9 50 10 62 10 72 9 81 10 87 10 91 9 93 
10 93 10 90 10 85 9 78 10 70 10 59 9 47 10 33 
10 20 9 6 10 -9 10 -22 9 -36 10 -49 10 -60 9 -69 
10 -77 10 -84 9 -86 10 -89 10 -88 10 -85 9 -80 10 -74 
10 -65 9 -55 10 -43 10 -31 9 -18 10 -4 10 9 9 22 
10 34 10 46 9 56 10 65 10 72 9 77 10 80 10 82 
10 81 9 78 10 73 10 67 9 58 10 49 10 39 9 27 
10 15 10 4 9 -10 10 -20 10 -32 9 -42 10 -51 10 -59 
9 -64 10 -69 10 -72 9 -72 292 868 181 MP stroke
/c13 { 0.750000 0.750000 0.000000 sr} bdef
c13
10 87 10 84 10 80 9 72 10 62 10 49 9 35 10 19 
10 2 9 -15 10 -31 10 -47 9 -61 10 -73 10 -83 9 -89 
10 -93 10 -95 9 -92 10 -86 10 -78 10 -68 9 -54 10 -39 
10 -23 9 -6 10 11 10 29 9 44 10 60 10 72 9 83 
10 91 10 97 9 98 10 98 10 94 9 88 10 78 10 66 
10 53 9 37 10 21 10 3 9 -13 10 -30 10 -46 9 -61 
10 -73 10 -84 9 -92 10 -97 10 -100 9 -100 10 -96 10 -91 
9 -82 10 -72 10 -59 9 -45 10 -29 10 -13 10 3 9 20 
10 36 10 50 9 64 10 75 10 85 9 92 10 96 10 99 
9 98 10 95 10 90 9 81 10 72 10 59 9 47 10 32 
10 17 10 2 9 -14 10 -28 10 -43 9 -56 10 -67 10 -77 
9 -84 10 -91 10 -93 9 -95 10 -94 10 -90 9 -84 10 -77 
10 -67 9 -57 10 -44 10 -31 10 -18 9 -3 10 10 10 24 
9 37 10 50 10 59 9 69 10 77 10 83 9 86 10 88 
10 89 9 86 10 82 10 77 9 69 10 61 10 51 9 39 
10 28 10 16 10 3 9 -9 10 -21 10 -33 9 -43 10 -53 
10 -61 9 -68 10 -74 10 -77 9 -80 10 -81 10 -79 9 -77 
10 -73 10 -67 9 -60 10 -52 10 -43 10 -34 9 -24 10 -13 
10 -2 9 8 10 18 10 28 9 38 10 45 10 53 9 58 
10 64 10 67 9 70 10 71 10 70 9 69 10 66 10 62 
10 56 9 51 10 43 10 36 9 28 10 20 10 11 9 2 
10 -7 10 -15 9 -23 10 -31 10 -37 9 -43 10 -49 10 -53 
9 -56 10 -58 10 -59 9 -60 292 868 181 MP stroke
0.25 sg
10 102 10 99 10 91 9 77 10 61 10 41 9 19 10 -4 
10 -28 9 -48 10 -69 10 -84 9 -97 10 -106 10 -109 9 -107 
10 -101 10 -91 9 -76 10 -59 10 -38 10 -16 9 6 10 29 
10 49 9 69 10 84 10 97 9 106 10 111 10 110 9 107 
10 98 10 86 9 71 10 54 10 34 9 13 10 -8 10 -29 
10 -48 9 -66 10 -81 10 -93 9 -102 10 -108 10 -109 9 -107 
10 -101 10 -93 9 -80 10 -66 10 -49 9 -32 10 -12 10 6 
9 25 10 43 10 59 9 73 10 85 10 94 10 100 9 104 
10 104 10 100 9 95 10 87 10 76 9 63 10 48 10 33 
9 17 10 0 10 -16 9 -32 10 -47 10 -60 9 -71 10 -81 
10 -88 10 -93 9 -96 10 -96 10 -94 9 -89 10 -82 10 -74 
9 -63 10 -52 10 -40 9 -26 10 -12 10 2 9 15 10 29 
10 41 9 52 10 61 10 71 10 76 9 82 10 85 10 86 
9 85 10 83 10 79 9 74 10 66 10 58 9 49 10 39 
10 28 9 17 10 6 10 -5 9 -16 10 -27 10 -36 9 -45 
10 -53 10 -59 10 -65 9 -70 10 -72 10 -74 9 -75 10 -73 
10 -71 9 -68 10 -63 10 -58 9 -51 10 -44 10 -37 9 -28 
10 -20 10 -12 9 -2 10 5 10 15 10 21 9 30 10 36 
10 42 9 48 10 52 10 56 9 59 10 60 10 62 9 62 
10 61 10 59 9 57 10 54 10 49 9 46 10 40 10 35 
10 29 9 24 10 17 10 10 9 5 10 -2 10 -8 9 -14 
10 -19 10 -25 9 -29 10 -34 10 -37 9 -41 10 -43 10 -46 
9 -47 10 -49 10 -48 9 -49 292 868 181 MP stroke
c8
10 120 10 113 10 100 9 79 10 54 10 24 9 -7 10 -38 
10 -66 9 -90 10 -108 10 -121 9 -125 10 -123 10 -113 9 -96 
10 -75 10 -50 9 -21 10 8 10 37 10 63 9 87 10 104 
10 118 9 124 10 124 10 119 9 108 10 91 10 71 9 47 
10 22 10 -5 9 -30 10 -55 10 -76 9 -94 10 -107 10 -116 
10 -120 9 -119 10 -113 10 -103 9 -88 10 -71 10 -51 9 -29 
10 -6 10 16 9 37 10 57 10 74 9 89 10 100 10 107 
9 111 10 111 10 107 9 100 10 90 10 76 10 61 9 44 
10 26 10 8 9 -10 10 -29 10 -44 9 -60 10 -73 10 -83 
9 -91 10 -97 10 -99 9 -99 10 -97 10 -91 9 -84 10 -74 
10 -64 10 -51 9 -37 10 -23 10 -9 9 6 10 19 10 33 
9 45 10 55 10 65 9 73 10 78 10 83 9 85 10 86 
10 84 9 81 10 77 10 70 10 64 9 55 10 46 10 35 
9 26 10 15 10 4 9 -6 10 -16 10 -26 9 -35 10 -43 
10 -50 9 -56 10 -61 10 -66 9 -68 10 -70 10 -70 9 -70 
10 -68 10 -65 10 -62 9 -57 10 -53 10 -46 9 -41 10 -33 
10 -27 9 -19 10 -12 10 -4 9 2 10 10 10 16 9 22 
10 29 10 33 9 39 10 43 10 46 10 49 9 52 10 53 
10 55 9 54 10 55 10 53 9 52 10 50 10 48 9 45 
10 41 10 38 9 34 10 30 10 26 9 21 10 16 10 12 
10 7 9 3 10 -2 10 -6 9 -10 10 -15 10 -18 9 -21 
10 -25 10 -28 9 -30 10 -32 10 -35 9 -36 10 -37 10 -39 
9 -39 10 -39 10 -40 9 -39 292 868 181 MP stroke
c9
10 138 10 129 10 106 9 76 10 38 10 -3 9 -43 10 -81 
10 -110 9 -132 10 -142 10 -142 9 -130 10 -110 10 -81 9 -46 
10 -9 10 28 9 64 10 94 10 118 10 134 9 141 10 138 
10 129 9 110 10 85 10 57 9 24 10 -8 10 -41 9 -69 
10 -94 10 -114 9 -126 10 -133 10 -132 9 -125 10 -112 10 -93 
10 -71 9 -46 10 -19 10 8 9 34 10 58 10 80 9 96 
10 110 10 117 9 121 10 119 10 113 9 103 10 88 10 72 
9 53 10 31 10 11 9 -10 10 -30 10 -49 10 -66 9 -80 
10 -91 10 -98 9 -104 10 -105 10 -103 9 -99 10 -92 10 -81 
9 -70 10 -57 10 -42 9 -26 10 -11 10 4 9 19 10 33 
10 46 10 58 9 67 10 75 10 81 9 85 10 87 10 86 
9 86 10 81 10 76 9 70 10 62 10 53 9 44 10 33 
10 23 9 13 10 2 10 -9 10 -18 9 -27 10 -36 10 -43 
9 -50 10 -56 10 -60 9 -64 10 -67 10 -67 9 -68 10 -68 
10 -65 9 -64 10 -60 10 -55 9 -52 10 -46 10 -40 9 -34 
10 -28 10 -22 10 -15 9 -8 10 -2 10 4 9 10 10 15 
10 22 9 26 10 30 10 35 9 38 10 42 10 44 9 46 
10 47 10 49 9 49 10 49 10 49 10 48 9 47 10 45 
10 43 9 41 10 39 10 36 9 33 10 30 10 26 9 24 
10 19 10 17 9 13 10 9 10 6 9 3 10 -1 10 -4 
10 -7 9 -9 10 -13 10 -15 9 -18 10 -19 10 -22 9 -24 
10 -25 10 -27 9 -28 10 -29 10 -30 9 -31 10 -31 10 -32 
9 -32 10 -31 10 -32 9 -31 292 868 181 MP stroke
gr

c9

end %%Color Dict

eplot
%%EndObject

epage
end

showpage

%%Trailer
%%EOF
