%!PS-Adobe-3.0 EPSF-3.0
%%Creator: MATLAB, The Mathworks, Inc. Version 7.10.0.499 (R2010a). Operating System: Microsoft Windows 7.
%%Title: C:\Users\wwu\Desktop\warping\James_code\comp_neural_mm.eps
%%CreationDate: 04/12/2011  15:01:48
%%DocumentNeededFonts: Helvetica
%%DocumentProcessColors: Cyan Magenta Yellow Black
%%LanguageLevel: 2
%%Pages: 1
%%BoundingBox:   211   320   399   470
%%EndComments

%%BeginProlog
% MathWorks dictionary
/MathWorks 160 dict begin
% definition operators
/bdef {bind def} bind def
/ldef {load def} bind def
/xdef {exch def} bdef
/xstore {exch store} bdef
% operator abbreviations
/c  /clip ldef
/cc /concat ldef
/cp /closepath ldef
/gr /grestore ldef
/gs /gsave ldef
/mt /moveto ldef
/np /newpath ldef
/cm /currentmatrix ldef
/sm /setmatrix ldef
/rm /rmoveto ldef
/rl /rlineto ldef
/s {show newpath} bdef
/sc {setcmykcolor} bdef
/sr /setrgbcolor ldef
/sg /setgray ldef
/w /setlinewidth ldef
/j /setlinejoin ldef
/cap /setlinecap ldef
/rc {rectclip} bdef
/rf {rectfill} bdef
% page state control
/pgsv () def
/bpage {/pgsv save def} bdef
/epage {pgsv restore} bdef
/bplot /gsave ldef
/eplot {stroke grestore} bdef
% orientation switch
/portraitMode 0 def /landscapeMode 1 def /rotateMode 2 def
% coordinate system mappings
/dpi2point 0 def
% font control
/FontSize 0 def
/FMS {/FontSize xstore findfont [FontSize 0 0 FontSize neg 0 0]
  makefont setfont} bdef
/ISOLatin1Encoding where {pop /WindowsLatin1Encoding 256 array bdef
ISOLatin1Encoding WindowsLatin1Encoding copy pop
/.notdef/.notdef/quotesinglbase/florin/quotedblbase/ellipsis/dagger
/daggerdbl/circumflex/perthousand/Scaron/guilsinglleft/OE/.notdef/.notdef
/.notdef/.notdef/quoteleft/quoteright/quotedblleft/quotedblright/bullet
/endash/emdash/tilde/trademark/scaron/guilsinglright/oe/.notdef/.notdef
/Ydieresis WindowsLatin1Encoding 128 32 getinterval astore pop}
{/WindowsLatin1Encoding StandardEncoding bdef} ifelse
/reencode {exch dup where {pop load} {pop StandardEncoding} ifelse
  exch dup 3 1 roll findfont dup length dict begin
  { 1 index /FID ne {def}{pop pop} ifelse } forall
  /Encoding exch def currentdict end definefont pop} bdef
/isroman {findfont /CharStrings get /Agrave known} bdef
/FMSR {3 1 roll 1 index dup isroman {reencode} {pop pop} ifelse
  exch FMS} bdef
/csm {1 dpi2point div -1 dpi2point div scale neg translate
 dup landscapeMode eq {pop -90 rotate}
  {rotateMode eq {90 rotate} if} ifelse} bdef
% line types: solid, dotted, dashed, dotdash
/SO { [] 0 setdash } bdef
/DO { [.5 dpi2point mul 4 dpi2point mul] 0 setdash } bdef
/DA { [6 dpi2point mul] 0 setdash } bdef
/DD { [.5 dpi2point mul 4 dpi2point mul 6 dpi2point mul 4
  dpi2point mul] 0 setdash } bdef
% macros for lines and objects
/L {lineto stroke} bdef
/MP {3 1 roll moveto 1 sub {rlineto} repeat} bdef
/AP {{rlineto} repeat} bdef
/PDlw -1 def
/W {/PDlw currentlinewidth def setlinewidth} def
/PP {closepath eofill} bdef
/DP {closepath stroke} bdef
/MR {4 -2 roll moveto dup  0 exch rlineto exch 0 rlineto
  neg 0 exch rlineto closepath} bdef
/FR {MR stroke} bdef
/PR {MR fill} bdef
/L1i {{currentfile picstr readhexstring pop} image} bdef
/tMatrix matrix def
/MakeOval {newpath tMatrix currentmatrix pop translate scale
0 0 1 0 360 arc tMatrix setmatrix} bdef
/FO {MakeOval stroke} bdef
/PO {MakeOval fill} bdef
/PD {currentlinewidth 2 div 0 360 arc fill
   PDlw -1 eq not {PDlw w /PDlw -1 def} if} def
/FA {newpath tMatrix currentmatrix pop translate scale
  0 0 1 5 -2 roll arc tMatrix setmatrix stroke} bdef
/PA {newpath tMatrix currentmatrix pop	translate 0 0 moveto scale
  0 0 1 5 -2 roll arc closepath tMatrix setmatrix fill} bdef
/FAn {newpath tMatrix currentmatrix pop translate scale
  0 0 1 5 -2 roll arcn tMatrix setmatrix stroke} bdef
/PAn {newpath tMatrix currentmatrix pop translate 0 0 moveto scale
  0 0 1 5 -2 roll arcn closepath tMatrix setmatrix fill} bdef
/vradius 0 def /hradius 0 def /lry 0 def
/lrx 0 def /uly 0 def /ulx 0 def /rad 0 def
/MRR {/vradius xdef /hradius xdef /lry xdef /lrx xdef /uly xdef
  /ulx xdef newpath tMatrix currentmatrix pop ulx hradius add uly
  vradius add translate hradius vradius scale 0 0 1 180 270 arc 
  tMatrix setmatrix lrx hradius sub uly vradius add translate
  hradius vradius scale 0 0 1 270 360 arc tMatrix setmatrix
  lrx hradius sub lry vradius sub translate hradius vradius scale
  0 0 1 0 90 arc tMatrix setmatrix ulx hradius add lry vradius sub
  translate hradius vradius scale 0 0 1 90 180 arc tMatrix setmatrix
  closepath} bdef
/FRR {MRR stroke } bdef
/PRR {MRR fill } bdef
/MlrRR {/lry xdef /lrx xdef /uly xdef /ulx xdef /rad lry uly sub 2 div def
  newpath tMatrix currentmatrix pop ulx rad add uly rad add translate
  rad rad scale 0 0 1 90 270 arc tMatrix setmatrix lrx rad sub lry rad
  sub translate rad rad scale 0 0 1 270 90 arc tMatrix setmatrix
  closepath} bdef
/FlrRR {MlrRR stroke } bdef
/PlrRR {MlrRR fill } bdef
/MtbRR {/lry xdef /lrx xdef /uly xdef /ulx xdef /rad lrx ulx sub 2 div def
  newpath tMatrix currentmatrix pop ulx rad add uly rad add translate
  rad rad scale 0 0 1 180 360 arc tMatrix setmatrix lrx rad sub lry rad
  sub translate rad rad scale 0 0 1 0 180 arc tMatrix setmatrix
  closepath} bdef
/FtbRR {MtbRR stroke } bdef
/PtbRR {MtbRR fill } bdef
/stri 6 array def /dtri 6 array def
/smat 6 array def /dmat 6 array def
/tmat1 6 array def /tmat2 6 array def /dif 3 array def
/asub {/ind2 exch def /ind1 exch def dup dup
  ind1 get exch ind2 get sub exch } bdef
/tri_to_matrix {
  2 0 asub 3 1 asub 4 0 asub 5 1 asub
  dup 0 get exch 1 get 7 -1 roll astore } bdef
/compute_transform {
  dmat dtri tri_to_matrix tmat1 invertmatrix 
  smat stri tri_to_matrix tmat2 concatmatrix } bdef
/ds {stri astore pop} bdef
/dt {dtri astore pop} bdef
/db {2 copy /cols xdef /rows xdef mul dup 3 mul string
  currentfile 
  3 index 0 eq {/ASCIIHexDecode filter}
  {/ASCII85Decode filter 3 index 2 eq {/RunLengthDecode filter} if }
  ifelse exch readstring pop
  dup 0 3 index getinterval /rbmap xdef
  dup 2 index dup getinterval /gbmap xdef
  1 index dup 2 mul exch getinterval /bbmap xdef pop pop}bdef
/it {gs np dtri aload pop moveto lineto lineto cp c
  cols rows 8 compute_transform 
  rbmap gbmap bbmap true 3 colorimage gr}bdef
/il {newpath moveto lineto stroke}bdef
currentdict end def
%%EndProlog

%%BeginSetup
MathWorks begin

0 cap

end
%%EndSetup

%%Page: 1 1
%%BeginPageSetup
%%PageBoundingBox:   211   320   399   470
MathWorks begin
bpage
%%EndPageSetup

%%BeginObject: obj1
bplot

/dpi2point 12 def
portraitMode 2532 5640 csm

    0     0  2259  1800 rc
85 dict begin %Colortable dictionary
/c0 { 0.000000 0.000000 0.000000 sr} bdef
/c1 { 1.000000 1.000000 1.000000 sr} bdef
/c2 { 0.900000 0.000000 0.000000 sr} bdef
/c3 { 0.000000 0.820000 0.000000 sr} bdef
/c4 { 0.000000 0.000000 0.800000 sr} bdef
/c5 { 0.910000 0.820000 0.320000 sr} bdef
/c6 { 1.000000 0.260000 0.820000 sr} bdef
/c7 { 0.000000 0.820000 0.820000 sr} bdef
c0
1 j
1 sg
   0    0 2260 1801 rf
6 w
0 1467 1750 0 0 -1467 294 1602 4 MP
PP
-1750 0 0 1467 1750 0 0 -1467 294 1602 5 MP stroke
4 w
DO
SO
6 w
0 sg
 294  135 mt 2044  135 L
 294 1602 mt 2044 1602 L
2044 1602 mt 2044  135 L
 294 1602 mt  294  135 L
 294 1602 mt 2044 1602 L
 294 1602 mt  294  135 L
 638 1602 mt  638 1584 L
 638  135 mt  638  152 L
%%IncludeResource: font Helvetica
/Helvetica /WindowsLatin1Encoding 120 FMSR

 555 1747 mt 
(0.5) s
 989 1602 mt  989 1584 L
 989  135 mt  989  152 L
 956 1747 mt 
(1) s
1341 1602 mt 1341 1584 L
1341  135 mt 1341  152 L
1258 1747 mt 
(1.5) s
1692 1602 mt 1692 1584 L
1692  135 mt 1692  152 L
1659 1747 mt 
(2) s
2044 1602 mt 2044 1584 L
2044  135 mt 2044  152 L
1961 1747 mt 
(2.5) s
 294 1602 mt  311 1602 L
2044 1602 mt 2026 1602 L
 193 1646 mt 
(0) s
 294 1113 mt  311 1113 L
2044 1113 mt 2026 1113 L
  93 1157 mt 
(0.5) s
 294  624 mt  311  624 L
2044  624 mt 2026  624 L
 193  668 mt 
(1) s
 294  135 mt  311  135 L
2044  135 mt 2026  135 L
  93  179 mt 
(1.5) s
 294  135 mt 2044  135 L
 294 1602 mt 2044 1602 L
2044 1602 mt 2044  135 L
 294 1602 mt  294  135 L
gs 294 135 1751 1468 rc
/c8 { 0.000000 0.000000 1.000000 sr} bdef
c8
2 2 7 6 7 10 7 12 7 16 7 17 7 20 7 22 
7 23 7 25 7 25 7 26 7 25 7 23 7 23 8 20 
7 17 7 14 7 11 7 6 7 2 7 -1 7 -6 7 -9 
7 -12 7 -16 7 -19 7 -20 7 -22 7 -23 7 -23 7 -23 
7 -23 7 -22 7 -20 7 -19 7 -18 7 -15 7 -13 7 -11 
7 -10 7 -7 7 -5 7 -3 7 -1 7 1 7 2 7 5 
7 7 7 8 7 11 8 12 7 14 7 15 7 17 7 18 
7 20 7 21 7 21 7 22 7 23 7 22 7 22 7 21 
7 21 7 19 7 18 7 17 7 15 7 13 7 11 7 10 
7 9 7 6 7 6 7 4 7 4 7 2 7 1 7 1 
7 0 7 -1 7 -2 7 -2 7 -4 7 -5 7 -6 294 1180 88 MP stroke
3 4 7 12 7 16 8 21 7 26 7 31 7 36 7 40 
7 41 7 42 7 41 7 38 7 34 7 29 7 22 7 17 
7 11 7 6 7 1 7 -2 7 -4 7 -6 7 -4 7 -3 
7 -1 7 4 7 8 7 14 7 18 7 21 7 24 7 26 
7 24 7 23 7 17 7 12 7 4 7 -3 7 -13 8 -22 
7 -30 7 -37 7 -42 7 -47 7 -50 7 -51 7 -50 7 -49 
7 -45 7 -42 7 -37 7 -33 7 -27 7 -23 7 -17 7 -13 
7 -9 5 -3 914 1603 59 MP stroke
5 3 7 6 7 7 7 10 7 12 7 15 7 18 7 20 
7 23 7 25 7 27 8 28 7 28 7 28 7 25 7 21 
7 16 7 10 7 3 7 -5 7 -12 7 -19 7 -26 7 -30 
7 -33 7 -34 7 -33 7 -32 7 -27 7 -24 7 -20 7 -14 
7 -11 4 -5 1386 1603 35 MP stroke
8 0 7 0 7 0 7 0 7 0 7 0 7 0 7 0 
7 0 7 0 7 0 7 0 7 0 7 0 7 0 7 0 
7 0 7 0 7 0 7 0 7 0 7 0 7 0 7 0 
7 0 7 0 7 0 7 0 7 0 7 0 7 0 7 0 
7 0 7 0 7 0 8 0 7 0 7 -1 7 0 7 0 
7 0 7 0 7 0 1 -1 1740 1603 45 MP stroke
/c9 { 0.000000 0.500000 0.000000 sr} bdef
c9
7 6 7 9 7 14 7 18 7 23 7 29 7 33 7 37 
7 41 7 44 7 44 7 44 7 41 7 39 7 33 7 28 
7 22 7 15 7 7 7 1 7 -7 7 -14 7 -20 7 -26 
7 -31 7 -35 7 -38 7 -40 7 -40 294 1326 30 MP stroke
1 1 7 0 7 1 7 0 7 0 7 0 7 0 7 0 
7 0 7 0 7 -1 7 0 3 -1 558 1603 14 MP stroke
4 3 7 7 7 11 7 15 7 19 7 24 7 28 7 34 
7 38 7 40 8 43 7 44 7 43 7 41 7 39 7 35 
7 31 7 27 7 24 7 20 7 19 7 17 7 16 7 16 
7 15 7 15 7 12 7 10 7 4 7 -1 7 -10 7 -19 
7 -29 7 -38 7 -46 7 -53 7 -54 7 -51 7 -43 7 -30 
7 -13 7 7 7 29 7 49 7 64 8 77 7 80 7 77 
7 66 7 49 7 27 7 1 7 -22 7 -43 7 -58 7 -67 
7 -67 7 -62 7 -52 7 -41 7 -30 7 -21 7 -19 7 -20 
7 -24 7 -30 7 -35 7 -38 7 -33 7 -25 7 -10 7 10 
7 31 7 50 7 68 7 78 7 79 7 72 7 57 7 34 
7 10 8 -9 7 -24 7 -31 7 -28 7 -15 7 1 7 15 
7 27 7 31 7 24 7 11 7 -10 7 -34 7 -55 7 -71 
7 -79 7 -78 7 -69 7 -52 7 -34 7 -12 7 8 7 24 
7 36 7 41 7 42 7 38 7 31 7 24 7 17 7 10 
7 5 7 1 7 -2 7 -5 8 -10 7 -16 7 -23 7 -29 
7 -35 7 -41 7 -42 7 -42 7 -40 7 -35 7 -29 7 -23 
7 -17 7 -11 5 -6 696 1603 132 MP stroke
8 0 7 -1 7 0 7 0 7 0 7 0 7 0 7 0 
7 0 7 0 7 0 7 0 7 1 7 0 7 0 7 0 
7 0 7 0 7 0 7 0 7 0 7 0 7 0 7 0 
7 0 7 -1 7 0 7 0 7 0 7 0 7 0 7 0 
7 0 7 0 7 0 8 0 7 0 7 1 7 0 7 0 
7 0 7 0 7 0 7 0 7 0 7 0 7 0 7 0 
7 0 7 -1 7 0 7 -1 1678 1603 53 MP stroke
/c10 { 1.000000 0.000000 0.000000 sr} bdef
c10
2 3 7 11 7 17 7 23 7 29 7 35 7 41 7 45 
7 48 7 47 7 45 7 41 7 33 7 25 7 18 7 11 
7 6 7 1 7 1 7 -1 7 0 7 0 7 0 7 0 
7 -1 7 0 7 0 7 0 7 -1 7 0 7 0 7 0 
294 1126 33 MP stroke
2 5 7 19 7 27 7 33 7 40 7 43 7 44 7 42 
7 34 7 25 7 12 7 -3 8 -16 7 -28 7 -36 7 -40 
7 -41 7 -36 7 -29 7 -19 7 -7 7 5 7 17 7 26 
7 34 7 38 7 40 7 37 7 31 7 22 7 12 7 0 
7 -12 7 -22 7 -30 7 -36 7 -38 7 -39 7 -36 7 -33 
7 -27 7 -22 7 -17 7 -13 5 -6 570 1603 46 MP stroke
3 2 7 4 7 7 7 9 7 11 7 15 7 17 7 21 
7 23 7 25 7 27 7 29 7 29 7 29 7 26 7 24 
7 19 7 14 7 8 7 2 7 -4 7 -11 7 -16 7 -21 
7 -25 7 -26 7 -26 7 -24 7 -20 7 -13 7 -6 8 3 
7 13 7 24 7 33 7 42 7 50 7 56 7 58 7 58 
7 54 7 48 7 39 7 27 7 15 7 1 7 -10 7 -21 
7 -26 7 -29 7 -29 7 -24 7 -15 7 -6 7 4 7 14 
7 22 7 27 7 27 7 23 7 15 7 4 7 -9 7 -24 
7 -37 7 -46 8 -52 7 -54 7 -50 7 -42 7 -32 7 -19 
7 -7 7 3 7 10 7 13 7 12 7 7 7 -2 7 -12 
7 -21 7 -31 7 -38 7 -41 7 -41 7 -39 7 -34 7 -26 
7 -18 7 -9 7 1 7 11 7 21 7 29 7 38 7 42 
7 44 7 43 7 36 7 28 7 17 7 5 8 -3 7 -8 
7 -9 7 -6 7 0 7 5 7 8 7 9 7 3 7 -6 
7 -16 7 -29 7 -37 7 -43 7 -45 7 -42 7 -38 7 -30 
7 -23 5 -12 907 1603 123 MP stroke
8 0 7 0 7 0 7 0 7 0 7 0 7 0 7 0 
7 0 7 0 7 0 7 0 7 1 7 0 7 0 7 0 
7 0 7 0 7 0 7 0 7 0 7 0 7 0 7 0 
7 0 7 0 7 -1 7 0 7 0 5 -1 1835 1603 31 MP stroke
/c11 { 0.000000 0.750000 0.750000 sr} bdef
c11
5 2 7 5 7 5 7 8 7 9 7 11 7 12 7 15 
7 17 7 18 7 20 7 21 7 22 7 22 7 23 7 23 
7 23 7 22 7 21 7 22 7 20 7 20 7 19 7 20 
7 19 7 19 7 19 7 19 7 19 7 19 7 19 7 19 
7 19 7 20 294 1012 35 MP stroke
4 3 7 7 7 10 7 13 7 18 7 23 7 27 7 31 
7 34 7 36 7 37 7 34 7 32 7 27 7 22 8 17 
7 13 7 9 7 10 7 11 7 15 7 21 7 27 7 31 
7 34 7 33 7 29 7 20 7 7 7 -6 7 -20 7 -34 
7 -44 7 -49 7 -49 7 -42 7 -33 7 -20 7 -7 7 1 
7 6 7 6 7 -2 7 -12 7 -25 7 -36 7 -44 7 -46 
7 -40 7 -25 8 -3 7 23 7 51 7 76 7 96 7 105 
7 103 7 90 7 69 7 47 7 27 7 17 7 13 7 15 
7 13 7 2 7 -23 7 -60 7 -99 7 -131 7 -140 7 -125 
7 -86 7 -37 7 13 7 50 7 67 7 63 7 47 7 24 
7 3 7 -9 7 -13 7 -4 7 16 7 42 8 58 7 57 
7 38 7 10 7 -8 7 -9 7 7 7 30 7 51 7 63 
7 61 7 41 7 7 7 -34 7 -77 7 -110 7 -130 7 -129 
7 -107 7 -65 7 -11 7 43 7 85 7 105 7 102 7 82 
7 56 7 33 7 20 7 12 7 6 7 -5 7 -22 7 -38 
7 -51 8 -58 7 -55 7 -45 7 -33 7 -22 7 -13 7 -7 
7 -3 7 0 7 2 7 2 7 0 7 -4 7 -10 7 -19 
7 -27 7 -34 7 -39 7 -42 7 -42 7 -39 7 -35 7 -30 
7 -23 7 -19 7 -13 7 -9 7 -6 603 1603 150 MP stroke
8 0 7 0 7 0 7 0 7 0 7 0 7 0 7 0 
7 0 7 0 7 0 7 0 7 0 7 0 7 0 7 0 
7 0 7 0 7 0 7 0 7 0 7 0 7 0 7 0 
7 0 7 0 7 -1 7 0 7 0 7 0 7 0 7 0 
7 0 7 0 7 1 8 0 7 0 7 0 7 0 7 0 
7 0 7 0 7 0 7 0 7 0 7 -1 7 0 7 0 
0 -1 1706 1603 50 MP stroke
/c12 { 0.750000 0.000000 0.750000 sr} bdef
c12
3 5 7 18 7 26 7 33 7 39 8 44 7 45 7 44 
7 39 7 31 7 22 7 13 7 5 7 0 7 -2 7 -2 
7 -1 7 2 7 3 7 1 7 -3 7 -10 7 -18 7 -28 
7 -35 7 -40 7 -44 7 -43 7 -40 7 -35 7 -27 7 -18 
7 -9 7 1 7 11 7 20 7 30 7 37 7 43 7 48 
8 49 7 49 7 46 7 41 7 36 7 30 7 26 7 23 
7 20 7 18 7 17 7 14 7 9 7 3 7 -7 7 -17 
7 -28 7 -40 7 -50 7 -59 7 -64 7 -65 7 -62 7 -55 
7 -45 7 -32 7 -19 7 -3 7 11 7 25 7 37 7 44 
7 49 7 47 7 40 7 28 8 12 7 -5 7 -21 7 -36 
7 -46 7 -50 7 -48 7 -42 7 -31 7 -18 7 -2 7 13 
7 27 7 38 7 47 7 49 7 46 7 36 7 22 7 6 
7 -11 7 -22 7 -27 7 -24 7 -10 7 8 7 31 7 54 
7 69 7 77 7 72 7 56 7 31 7 0 7 -33 8 -59 
7 -79 7 -91 7 -91 7 -84 7 -70 7 -53 7 -33 7 -16 
7 2 7 17 7 32 7 41 7 48 7 51 7 48 7 40 
7 29 7 14 7 -2 7 -19 7 -33 7 -41 7 -46 7 -47 
7 -42 7 -35 7 -26 7 -14 7 -2 7 9 7 19 7 29 
7 36 7 40 7 42 8 41 7 36 7 28 7 20 7 8 
7 -2 7 -11 7 -18 7 -21 7 -21 7 -17 7 -11 7 -1 
7 9 7 19 7 29 7 39 7 45 7 49 7 49 7 47 
7 42 7 34 7 25 7 14 7 4 7 -8 7 -18 7 -27 
7 -34 7 -40 7 -46 7 -49 7 -51 7 -52 7 -53 294 1342 184 MP stroke
3 4 7 14 7 22 7 31 7 40 7 46 7 49 7 48 
7 40 7 27 7 11 7 -6 7 -24 7 -37 7 -45 7 -49 
7 -47 7 -43 7 -35 7 -26 7 -17 3 -3 1591 1603 23 MP stroke
8 0 7 0 7 0 7 0 7 0 7 0 7 0 7 0 
7 0 7 1 7 0 7 0 7 0 7 0 7 0 7 0 
7 0 7 0 7 0 7 -1 7 0 7 0 7 0 7 0 
7 0 7 0 7 0 7 1 7 0 7 0 7 0 7 0 
7 0 7 0 7 0 8 -1 6 -1 1784 1603 38 MP stroke
/c13 { 0.750000 0.750000 0.000000 sr} bdef
c13
1 1 7 9 7 12 7 15 7 19 7 21 7 26 7 29 
7 32 7 36 7 39 7 40 7 42 7 43 7 41 7 41 
7 38 7 34 7 30 7 25 7 19 7 12 7 5 7 -3 
7 -9 7 -18 7 -24 7 -31 7 -36 7 -40 7 -44 7 -46 
7 -46 7 -45 7 -41 7 -36 294 1413 37 MP stroke
5 1 7 0 7 1 7 1 7 0 7 1 7 1 7 1 
7 1 7 0 7 2 7 1 7 1 7 1 7 1 7 2 
7 1 7 2 7 2 7 2 7 2 7 2 7 2 7 2 
7 2 7 3 7 3 7 2 8 3 7 3 7 4 7 3 
7 4 7 3 7 4 7 4 7 5 7 4 7 5 7 5 
7 5 7 5 7 5 7 6 7 5 7 6 7 6 7 6 
7 7 7 6 7 7 7 7 7 7 7 7 7 7 7 7 
7 8 7 7 7 8 7 8 7 8 7 7 7 8 7 8 
8 8 7 8 7 8 7 7 7 8 7 7 7 7 7 8 
7 6 7 7 7 6 7 6 7 5 7 6 7 4 7 5 
7 3 7 4 7 2 7 3 7 2 7 1 7 1 7 1 
7 0 7 0 7 -1 7 -1 7 -1 7 -2 7 -2 7 -2 
7 -3 7 -2 7 -3 8 -2 7 -2 7 -2 7 -2 7 -1 
7 -1 7 -1 7 0 7 1 7 1 7 2 7 2 7 3 
7 3 7 3 7 3 7 3 7 2 7 2 7 1 7 0 
7 -2 7 -3 7 -6 7 -7 7 -10 7 -12 7 -14 7 -16 
7 -19 7 -19 7 -21 7 -21 7 -20 7 -18 7 -15 8 -10 
7 -5 7 3 7 11 7 20 7 30 7 40 7 49 7 57 
7 61 7 61 7 57 7 48 7 34 7 13 7 -10 7 -35 
7 -59 7 -79 7 -92 7 -96 7 -92 7 -77 7 -54 7 -24 
7 12 7 53 7 95 7 131 7 157 7 167 7 158 7 136 
7 102 7 54 8 -8 7 -75 7 -127 7 -151 7 -144 7 -114 
7 -80 7 -48 7 -23 7 1 7 19 7 32 7 35 7 32 
7 22 7 10 7 -4 7 -17 7 -30 7 -39 7 -46 7 -50 
7 -49 7 -48 7 -43 7 -38 7 -32 7 -25 7 -19 7 -14 
6 -9 583 1603 202 MP stroke
0.25 sg
6 12 7 18 7 25 7 28 7 28 7 22 7 14 7 22 
7 59 7 115 8 146 7 133 7 70 7 -10 7 -65 7 -93 
7 -100 7 -94 7 -83 7 -68 7 -52 7 -38 7 -25 7 -14 
7 -6 7 2 7 6 7 9 7 12 7 14 7 14 7 15 
7 15 7 14 7 13 7 13 7 12 7 11 7 11 7 10 
7 10 7 10 7 8 7 9 7 8 7 7 8 7 7 7 
7 7 7 6 7 6 7 5 7 6 7 5 7 5 7 4 
7 5 7 4 7 4 7 4 7 3 7 4 7 3 7 4 
7 3 7 3 7 3 7 3 7 3 7 3 7 2 7 3 
7 3 7 2 7 3 7 2 7 3 7 2 7 2 7 2 
7 2 7 3 294 1200 83 MP stroke
2 1 7 1 7 2 7 2 7 2 7 2 7 3 7 3 
7 4 7 4 7 5 7 6 7 5 7 7 7 7 7 8 
7 9 7 9 7 10 7 11 7 11 7 12 7 13 7 14 
7 14 7 15 7 16 7 16 7 17 7 17 7 18 7 18 
7 18 7 19 8 19 7 18 7 19 7 18 7 18 7 18 
7 17 7 17 7 15 7 15 7 14 7 13 7 12 7 10 
7 9 7 8 7 6 7 4 7 3 7 1 7 0 7 -3 
7 -4 7 -6 7 -8 7 -10 7 -11 7 -13 7 -15 7 -17 
7 -18 7 -19 7 -20 7 -21 7 -22 8 -22 7 -22 7 -21 
7 -22 7 -21 7 -20 7 -18 7 -17 7 -15 7 -12 7 -10 
7 -7 7 -4 7 -1 7 2 7 5 7 7 7 10 7 13 
7 15 7 16 7 18 7 19 7 20 7 19 7 19 7 18 
7 16 7 16 7 13 7 12 7 10 7 8 7 7 7 5 
7 2 8 1 7 -1 7 -4 7 -7 7 -10 7 -14 7 -18 
7 -23 7 -27 7 -32 7 -35 7 -38 7 -39 7 -38 7 -37 
7 -33 7 -29 7 -24 7 -19 7 -14 2 -3 903 1603 127 MP stroke
8 0 7 0 7 0 7 -1 7 0 7 0 7 0 7 0 
7 0 7 0 7 0 7 0 4 -1 1955 1603 14 MP stroke
c8
5 3 7 7 7 10 7 12 7 17 7 20 7 23 7 27 
7 28 7 30 7 30 7 29 7 28 7 25 7 22 7 17 
7 13 7 7 7 3 7 -2 7 -7 7 -11 7 -15 7 -17 
7 -20 7 -21 7 -22 7 -23 7 -22 7 -21 294 1433 31 MP stroke
3 7 7 26 7 39 7 51 7 63 7 76 7 82 7 82 
7 75 7 60 7 38 7 10 7 -17 8 -44 7 -66 7 -78 
7 -82 7 -78 7 -64 7 -45 7 -24 7 -3 7 17 7 32 
7 40 7 42 7 37 7 26 7 11 7 -4 7 -20 7 -31 
7 -40 7 -44 7 -43 7 -39 7 -33 7 -26 7 -18 7 -12 
3 -3 607 1603 42 MP stroke
5 6 7 12 7 19 7 24 7 31 7 37 7 39 7 41 
7 39 7 33 7 25 7 14 7 2 7 -9 7 -19 7 -26 
7 -29 7 -27 7 -23 7 -14 7 -5 7 6 7 15 7 24 
7 28 7 31 8 30 7 26 7 22 7 16 7 12 7 9 
7 7 7 8 7 10 7 12 7 15 7 17 7 18 7 16 
7 14 7 10 7 3 7 -3 7 -12 7 -21 7 -29 7 -37 
7 -43 7 -48 7 -51 7 -51 7 -48 7 -44 7 -35 7 -26 
7 -14 7 0 7 15 7 29 7 44 8 58 7 70 7 79 
7 84 7 84 7 81 7 72 7 59 7 43 7 26 7 7 
7 -12 7 -29 7 -44 7 -56 7 -66 7 -72 7 -75 7 -76 
7 -73 7 -68 7 -62 7 -52 7 -42 7 -30 7 -16 7 -2 
7 13 7 29 7 43 7 57 7 68 7 75 7 78 7 75 
7 66 8 51 7 31 7 8 7 -15 7 -39 7 -57 7 -70 
7 -77 7 -78 7 -74 7 -65 7 -55 7 -43 7 -31 7 -21 
1 -2 939 1603 114 MP stroke
8 0 7 0 7 0 7 0 7 0 7 0 7 0 7 0 
7 0 7 0 7 0 7 0 7 0 7 0 7 0 7 0 
7 0 7 -1 7 0 7 0 7 0 7 0 7 0 7 0 
7 0 7 0 7 1 7 0 7 0 7 0 7 0 7 0 
7 0 7 0 7 0 8 -1 7 0 2 -1 1781 1603 39 MP stroke
c9
7 21 7 35 7 52 7 69 7 84 7 95 7 97 7 90 
7 78 7 63 7 53 7 51 7 51 7 51 7 51 7 51 
7 51 7 51 7 51 7 51 7 51 7 51 7 51 7 52 
7 51 294 151 26 MP stroke
5 7 7 13 7 20 7 28 7 36 7 44 7 53 7 58 
7 63 7 63 7 60 7 55 7 45 7 33 7 20 7 5 
8 -10 7 -24 7 -36 7 -47 7 -54 7 -58 7 -58 7 -57 
7 -51 7 -44 7 -34 7 -25 7 -13 7 -2 7 9 7 18 
7 26 7 32 7 35 7 36 7 34 7 28 7 22 7 12 
7 3 7 -7 7 -18 7 -25 7 -33 7 -36 7 -38 7 -37 
7 -36 7 -31 7 -26 7 -21 8 -16 7 -12 6 -9 526 1603 56 MP stroke
7 26 7 46 7 69 7 91 7 104 7 104 7 87 7 56 
7 13 7 -28 7 -60 7 -75 7 -71 7 -51 7 -28 7 -3 
7 10 7 11 7 0 7 -17 7 -35 7 -48 7 -51 7 -46 
7 -32 7 -13 7 7 7 28 7 43 7 52 7 53 7 45 
7 30 7 11 8 -10 7 -28 7 -42 7 -48 7 -50 7 -46 
7 -38 7 -30 7 -20 7 -13 2 -3 973 1603 46 MP stroke
1 1 7 1 7 0 7 0 5 -2 1329 1603 6 MP stroke
3 4 7 17 7 25 7 33 7 41 7 47 7 48 7 46 
7 38 7 25 7 8 7 -9 7 -27 7 -41 7 -49 7 -51 
7 -48 7 -41 7 -31 7 -22 7 -12 0 -1 1397 1603 23 MP stroke
6 5 7 8 7 12 7 18 7 22 7 27 7 32 7 36 
7 38 7 39 7 36 7 31 7 24 7 14 7 2 7 -8 
7 -20 7 -29 7 -36 7 -41 7 -42 7 -41 7 -37 7 -32 
7 -26 7 -20 7 -12 1559 1603 28 MP stroke
8 0 7 0 7 0 7 0 7 0 7 0 7 0 7 0 
7 0 7 -1 7 0 7 0 7 0 7 0 7 0 7 0 
7 0 7 0 7 0 7 0 7 1 7 0 7 0 7 0 
7 0 7 0 7 0 7 0 7 0 7 0 7 0 7 -1 
7 0 5 -1 1807 1603 35 MP stroke
c10
4 3 8 10 7 17 7 25 7 31 7 36 7 40 7 41 
7 40 7 36 7 28 7 20 7 11 7 3 7 -4 7 -9 
7 -8 7 -5 7 1 7 10 7 19 7 28 7 34 7 37 
7 37 7 33 7 25 7 14 7 3 7 -9 7 -23 7 -35 
7 -43 7 -51 7 -55 7 -55 7 -55 294 1373 38 MP stroke
5 3 7 11 7 19 7 25 7 31 7 37 7 41 7 42 
7 41 7 36 7 29 7 19 7 7 7 -6 7 -18 7 -28 
7 -36 7 -41 7 -43 7 -41 7 -37 7 -32 7 -26 7 -18 
7 -12 5 -3 556 1603 27 MP stroke
1 1 7 11 7 18 7 26 7 34 7 43 7 49 7 54 
7 55 7 53 7 47 7 39 7 29 7 17 8 6 7 -7 
7 -18 7 -28 7 -38 7 -44 7 -46 7 -42 7 -33 7 -19 
7 0 7 20 7 41 7 58 7 67 7 70 7 63 7 49 
7 27 7 3 7 -22 7 -46 7 -64 7 -75 7 -78 7 -74 
7 -62 7 -47 7 -28 7 -8 7 11 7 29 7 42 7 50 
7 56 8 55 7 52 7 46 7 40 7 32 7 28 7 24 
7 24 7 24 7 25 7 28 7 28 7 25 7 20 7 11 
7 -1 7 -13 7 -26 7 -35 7 -40 7 -37 7 -31 7 -18 
7 -4 7 10 7 23 7 30 7 31 7 27 7 18 7 6 
7 -8 7 -19 7 -29 7 -36 7 -38 8 -38 7 -37 7 -35 
7 -32 7 -30 7 -26 7 -23 7 -19 7 -12 7 -6 7 0 
7 4 7 9 7 10 7 8 7 5 7 -1 7 -6 7 -12 
7 -14 7 -15 7 -12 7 -7 7 -1 7 7 7 11 7 15 
7 16 7 12 7 6 7 -3 7 -12 7 -21 7 -30 7 -37 
8 -39 7 -41 7 -39 7 -35 7 -29 7 -24 7 -16 7 -10 
3 -2 740 1603 130 MP stroke
8 0 7 0 7 0 7 0 7 0 7 0 7 0 7 0 
7 0 7 0 7 0 7 0 7 0 7 0 7 0 7 -1 
7 0 7 0 7 0 7 0 7 0 7 0 7 0 7 0 
7 1 7 0 7 0 7 0 7 0 7 0 7 0 7 0 
7 -1 7 0 7 0 8 0 7 0 7 0 7 0 7 0 
7 1 7 0 7 0 7 0 7 0 7 0 7 0 7 0 
7 0 7 -1 5 -1 1687 1603 52 MP stroke
gr

c10

end %%Color Dict

eplot
%%EndObject

epage
end

showpage

%%Trailer
%%EOF
