%!PS-Adobe-3.0 EPSF-3.0
%%Creator: MATLAB, The Mathworks, Inc. Version 7.10.0.499 (R2010a). Operating System: Microsoft Windows 7.
%%Title: C:\Users\wwu\Desktop\warping\James_code\comp_gene.eps
%%CreationDate: 04/12/2011  23:21:48
%%DocumentNeededFonts: Helvetica
%%DocumentProcessColors: Cyan Magenta Yellow Black
%%LanguageLevel: 2
%%Pages: 1
%%BoundingBox:   212   320   399   470
%%EndComments

%%BeginProlog
% MathWorks dictionary
/MathWorks 160 dict begin
% definition operators
/bdef {bind def} bind def
/ldef {load def} bind def
/xdef {exch def} bdef
/xstore {exch store} bdef
% operator abbreviations
/c  /clip ldef
/cc /concat ldef
/cp /closepath ldef
/gr /grestore ldef
/gs /gsave ldef
/mt /moveto ldef
/np /newpath ldef
/cm /currentmatrix ldef
/sm /setmatrix ldef
/rm /rmoveto ldef
/rl /rlineto ldef
/s {show newpath} bdef
/sc {setcmykcolor} bdef
/sr /setrgbcolor ldef
/sg /setgray ldef
/w /setlinewidth ldef
/j /setlinejoin ldef
/cap /setlinecap ldef
/rc {rectclip} bdef
/rf {rectfill} bdef
% page state control
/pgsv () def
/bpage {/pgsv save def} bdef
/epage {pgsv restore} bdef
/bplot /gsave ldef
/eplot {stroke grestore} bdef
% orientation switch
/portraitMode 0 def /landscapeMode 1 def /rotateMode 2 def
% coordinate system mappings
/dpi2point 0 def
% font control
/FontSize 0 def
/FMS {/FontSize xstore findfont [FontSize 0 0 FontSize neg 0 0]
  makefont setfont} bdef
/ISOLatin1Encoding where {pop /WindowsLatin1Encoding 256 array bdef
ISOLatin1Encoding WindowsLatin1Encoding copy pop
/.notdef/.notdef/quotesinglbase/florin/quotedblbase/ellipsis/dagger
/daggerdbl/circumflex/perthousand/Scaron/guilsinglleft/OE/.notdef/.notdef
/.notdef/.notdef/quoteleft/quoteright/quotedblleft/quotedblright/bullet
/endash/emdash/tilde/trademark/scaron/guilsinglright/oe/.notdef/.notdef
/Ydieresis WindowsLatin1Encoding 128 32 getinterval astore pop}
{/WindowsLatin1Encoding StandardEncoding bdef} ifelse
/reencode {exch dup where {pop load} {pop StandardEncoding} ifelse
  exch dup 3 1 roll findfont dup length dict begin
  { 1 index /FID ne {def}{pop pop} ifelse } forall
  /Encoding exch def currentdict end definefont pop} bdef
/isroman {findfont /CharStrings get /Agrave known} bdef
/FMSR {3 1 roll 1 index dup isroman {reencode} {pop pop} ifelse
  exch FMS} bdef
/csm {1 dpi2point div -1 dpi2point div scale neg translate
 dup landscapeMode eq {pop -90 rotate}
  {rotateMode eq {90 rotate} if} ifelse} bdef
% line types: solid, dotted, dashed, dotdash
/SO { [] 0 setdash } bdef
/DO { [.5 dpi2point mul 4 dpi2point mul] 0 setdash } bdef
/DA { [6 dpi2point mul] 0 setdash } bdef
/DD { [.5 dpi2point mul 4 dpi2point mul 6 dpi2point mul 4
  dpi2point mul] 0 setdash } bdef
% macros for lines and objects
/L {lineto stroke} bdef
/MP {3 1 roll moveto 1 sub {rlineto} repeat} bdef
/AP {{rlineto} repeat} bdef
/PDlw -1 def
/W {/PDlw currentlinewidth def setlinewidth} def
/PP {closepath eofill} bdef
/DP {closepath stroke} bdef
/MR {4 -2 roll moveto dup  0 exch rlineto exch 0 rlineto
  neg 0 exch rlineto closepath} bdef
/FR {MR stroke} bdef
/PR {MR fill} bdef
/L1i {{currentfile picstr readhexstring pop} image} bdef
/tMatrix matrix def
/MakeOval {newpath tMatrix currentmatrix pop translate scale
0 0 1 0 360 arc tMatrix setmatrix} bdef
/FO {MakeOval stroke} bdef
/PO {MakeOval fill} bdef
/PD {currentlinewidth 2 div 0 360 arc fill
   PDlw -1 eq not {PDlw w /PDlw -1 def} if} def
/FA {newpath tMatrix currentmatrix pop translate scale
  0 0 1 5 -2 roll arc tMatrix setmatrix stroke} bdef
/PA {newpath tMatrix currentmatrix pop	translate 0 0 moveto scale
  0 0 1 5 -2 roll arc closepath tMatrix setmatrix fill} bdef
/FAn {newpath tMatrix currentmatrix pop translate scale
  0 0 1 5 -2 roll arcn tMatrix setmatrix stroke} bdef
/PAn {newpath tMatrix currentmatrix pop translate 0 0 moveto scale
  0 0 1 5 -2 roll arcn closepath tMatrix setmatrix fill} bdef
/vradius 0 def /hradius 0 def /lry 0 def
/lrx 0 def /uly 0 def /ulx 0 def /rad 0 def
/MRR {/vradius xdef /hradius xdef /lry xdef /lrx xdef /uly xdef
  /ulx xdef newpath tMatrix currentmatrix pop ulx hradius add uly
  vradius add translate hradius vradius scale 0 0 1 180 270 arc 
  tMatrix setmatrix lrx hradius sub uly vradius add translate
  hradius vradius scale 0 0 1 270 360 arc tMatrix setmatrix
  lrx hradius sub lry vradius sub translate hradius vradius scale
  0 0 1 0 90 arc tMatrix setmatrix ulx hradius add lry vradius sub
  translate hradius vradius scale 0 0 1 90 180 arc tMatrix setmatrix
  closepath} bdef
/FRR {MRR stroke } bdef
/PRR {MRR fill } bdef
/MlrRR {/lry xdef /lrx xdef /uly xdef /ulx xdef /rad lry uly sub 2 div def
  newpath tMatrix currentmatrix pop ulx rad add uly rad add translate
  rad rad scale 0 0 1 90 270 arc tMatrix setmatrix lrx rad sub lry rad
  sub translate rad rad scale 0 0 1 270 90 arc tMatrix setmatrix
  closepath} bdef
/FlrRR {MlrRR stroke } bdef
/PlrRR {MlrRR fill } bdef
/MtbRR {/lry xdef /lrx xdef /uly xdef /ulx xdef /rad lrx ulx sub 2 div def
  newpath tMatrix currentmatrix pop ulx rad add uly rad add translate
  rad rad scale 0 0 1 180 360 arc tMatrix setmatrix lrx rad sub lry rad
  sub translate rad rad scale 0 0 1 0 180 arc tMatrix setmatrix
  closepath} bdef
/FtbRR {MtbRR stroke } bdef
/PtbRR {MtbRR fill } bdef
/stri 6 array def /dtri 6 array def
/smat 6 array def /dmat 6 array def
/tmat1 6 array def /tmat2 6 array def /dif 3 array def
/asub {/ind2 exch def /ind1 exch def dup dup
  ind1 get exch ind2 get sub exch } bdef
/tri_to_matrix {
  2 0 asub 3 1 asub 4 0 asub 5 1 asub
  dup 0 get exch 1 get 7 -1 roll astore } bdef
/compute_transform {
  dmat dtri tri_to_matrix tmat1 invertmatrix 
  smat stri tri_to_matrix tmat2 concatmatrix } bdef
/ds {stri astore pop} bdef
/dt {dtri astore pop} bdef
/db {2 copy /cols xdef /rows xdef mul dup 3 mul string
  currentfile 
  3 index 0 eq {/ASCIIHexDecode filter}
  {/ASCII85Decode filter 3 index 2 eq {/RunLengthDecode filter} if }
  ifelse exch readstring pop
  dup 0 3 index getinterval /rbmap xdef
  dup 2 index dup getinterval /gbmap xdef
  1 index dup 2 mul exch getinterval /bbmap xdef pop pop}bdef
/it {gs np dtri aload pop moveto lineto lineto cp c
  cols rows 8 compute_transform 
  rbmap gbmap bbmap true 3 colorimage gr}bdef
/il {newpath moveto lineto stroke}bdef
currentdict end def
%%EndProlog

%%BeginSetup
MathWorks begin

0 cap

end
%%EndSetup

%%Page: 1 1
%%BeginPageSetup
%%PageBoundingBox:   212   320   399   470
MathWorks begin
bpage
%%EndPageSetup

%%BeginObject: obj1
bplot

/dpi2point 12 def
portraitMode 2544 5640 csm

    0     0  2249  1800 rc
85 dict begin %Colortable dictionary
/c0 { 0.000000 0.000000 0.000000 sr} bdef
/c1 { 1.000000 1.000000 1.000000 sr} bdef
/c2 { 0.900000 0.000000 0.000000 sr} bdef
/c3 { 0.000000 0.820000 0.000000 sr} bdef
/c4 { 0.000000 0.000000 0.800000 sr} bdef
/c5 { 0.910000 0.820000 0.320000 sr} bdef
/c6 { 1.000000 0.260000 0.820000 sr} bdef
/c7 { 0.000000 0.820000 0.820000 sr} bdef
c0
1 j
1 sg
   0    0 2250 1801 rf
6 w
0 1467 1743 0 0 -1467 292 1602 4 MP
PP
-1743 0 0 1467 1743 0 0 -1467 292 1602 5 MP stroke
4 w
DO
SO
6 w
0 sg
 292  135 mt 2035  135 L
 292 1602 mt 2035 1602 L
2035 1602 mt 2035  135 L
 292 1602 mt  292  135 L
 292 1602 mt 2035 1602 L
 292 1602 mt  292  135 L
 292 1602 mt  292 1584 L
 292  135 mt  292  152 L
%%IncludeResource: font Helvetica
/Helvetica /WindowsLatin1Encoding 120 FMSR

 259 1747 mt 
(0) s
1024 1602 mt 1024 1584 L
1024  135 mt 1024  152 L
 958 1747 mt 
(50) s
1756 1602 mt 1756 1584 L
1756  135 mt 1756  152 L
1656 1747 mt 
(100) s
 292 1468 mt  309 1468 L
2035 1468 mt 2017 1468 L
 121 1512 mt 
(-2) s
 292 1201 mt  309 1201 L
2035 1201 mt 2017 1201 L
 121 1245 mt 
(-1) s
 292  935 mt  309  935 L
2035  935 mt 2017  935 L
 191  979 mt 
(0) s
 292  668 mt  309  668 L
2035  668 mt 2017  668 L
 191  712 mt 
(1) s
 292  401 mt  309  401 L
2035  401 mt 2017  401 L
 191  445 mt 
(2) s
 292  135 mt  309  135 L
2035  135 mt 2017  135 L
 191  179 mt 
(3) s
 292  135 mt 2035  135 L
 292 1602 mt 2035 1602 L
2035 1602 mt 2035  135 L
 292 1602 mt  292  135 L
gs 292 135 1744 1468 rc
/c8 { 0.000000 0.000000 1.000000 sr} bdef
c8
35 -33 34 -35 34 -36 34 -33 34 -30 35 -22 34 -15 34 -10 
34 -7 34 -8 34 -4 35 6 34 19 34 27 34 29 34 25 
34 17 35 6 34 -5 34 -11 34 -8 34 1 35 11 34 17 
34 22 34 16 34 -3 34 -28 35 -36 34 -24 34 3 34 9 
34 -12 34 -50 35 -62 34 -37 34 12 34 40 34 36 35 6 
34 -4 34 11 34 44 34 51 34 20 35 -36 34 -73 34 -81 
34 -57 34 -5 34 78 292 1031 52 MP stroke
/c9 { 0.000000 0.500000 0.000000 sr} bdef
c9
35 -17 34 -32 34 -39 34 -40 34 -35 35 -21 34 -6 34 -1 
34 -9 34 -28 34 -31 35 -16 34 13 34 29 34 25 34 8 
34 5 35 24 34 56 34 72 34 61 34 34 35 11 34 1 
34 -1 34 -9 34 -30 34 -56 35 -59 34 -32 34 12 34 25 
34 -5 34 -62 35 -85 34 -61 34 -4 34 20 34 -3 35 -55 
34 -58 34 7 34 113 34 161 34 126 35 27 34 -42 34 -60 
34 -26 34 58 34 195 292 657 52 MP stroke
/c10 { 1.000000 0.000000 0.000000 sr} bdef
c10
35 -94 34 -24 34 22 34 44 34 44 35 18 34 -22 34 -53 
34 -66 34 -60 34 -38 35 2 34 48 34 61 34 30 34 -29 
34 -48 35 -11 34 62 34 93 34 61 34 -13 35 -48 34 -25 
34 39 34 61 34 23 34 -55 35 -97 34 -83 34 -29 34 1 
34 -9 34 -47 35 -64 34 -46 34 -6 34 17 34 13 35 -10 
34 -14 34 8 34 48 34 71 34 67 35 43 34 15 34 -10 
34 -32 34 -52 34 -70 292 1057 52 MP stroke
/c11 { 0.000000 0.750000 0.750000 sr} bdef
c11
35 -88 34 -50 34 -25 34 -13 34 -15 35 -28 34 -49 34 -49 
34 -22 34 22 34 50 35 53 34 40 34 38 34 56 34 83 
34 89 35 62 34 15 34 -8 34 4 34 41 35 60 34 48 
34 14 34 -21 34 -49 34 -67 35 -74 34 -67 34 -50 34 -46 
34 -58 34 -80 35 -80 34 -56 34 -13 34 20 34 30 35 26 
34 22 34 24 34 27 34 20 34 -4 35 -38 34 -62 34 -71 
34 -67 34 -48 34 -16 292 1295 52 MP stroke
/c12 { 0.750000 0.000000 0.750000 sr} bdef
c12
35 -212 34 -70 34 24 34 70 34 68 35 19 34 -60 34 -99 
34 -78 34 -14 34 35 35 53 34 48 34 44 34 50 34 60 
34 56 35 30 34 -6 34 -19 34 4 34 47 35 57 34 21 
34 -45 34 -82 34 -73 34 -31 35 -7 34 -15 34 -46 34 -67 
34 -71 34 -60 35 -41 34 -19 34 7 34 31 34 53 35 69 
34 74 34 65 34 44 34 19 34 -10 35 -38 34 -54 34 -55 
34 -41 34 -12 34 32 292 1020 52 MP stroke
/c13 { 0.750000 0.750000 0.000000 sr} bdef
c13
35 99 34 24 34 -24 34 -47 34 -42 35 -10 34 37 34 58 
34 41 34 -4 34 -31 35 -29 34 -7 34 4 34 0 34 -17 
34 -22 35 -11 34 11 34 23 34 19 34 4 35 -3 34 2 
34 13 34 17 34 7 34 -10 35 -10 34 12 34 46 34 49 
34 14 34 -45 35 -65 34 -28 34 45 34 78 34 50 35 -20 
34 -55 34 -37 34 17 34 39 34 11 35 -52 34 -90 34 -90 
34 -54 34 22 34 136 292 953 52 MP stroke
0.25 sg
35 -58 34 -11 34 21 34 38 34 41 35 30 34 7 34 -17 
34 -41 34 -59 34 -62 35 -49 34 -21 34 13 34 48 34 77 
34 80 35 48 34 -7 34 -44 34 -50 34 -33 35 -8 34 17 
34 39 34 41 34 21 34 -16 35 -31 34 -20 34 13 34 24 
34 6 34 -30 35 -45 34 -26 34 13 34 24 34 -5 35 -60 
34 -73 34 -30 34 49 34 84 34 56 35 -19 34 -74 34 -91 
34 -71 34 -14 34 80 292 1084 52 MP stroke
c8
35 261 34 97 34 -24 34 -103 34 -140 35 -133 34 -91 34 -27 
34 51 34 126 34 125 35 32 34 -120 34 -182 34 -117 34 38 
34 135 35 139 34 68 34 -1 34 -54 34 -79 35 -55 34 25 
34 135 34 170 34 103 34 -32 35 -109 34 -96 34 -19 34 20 
34 -7 34 -79 35 -128 34 -137 34 -113 34 -94 34 -89 35 -89 
34 -61 34 1 34 87 34 149 34 172 35 160 34 122 34 57 
34 -33 34 -148 34 -289 292 1255 52 MP stroke
c9
35 -56 34 -40 34 -32 34 -31 34 -37 35 -50 34 -64 34 -57 
34 -20 34 33 34 60 35 48 34 11 34 -3 34 16 34 61 
34 83 35 75 34 42 34 19 34 11 34 16 35 17 34 7 
34 -9 34 -29 34 -50 34 -70 35 -80 34 -74 34 -61 34 -68 
34 -100 34 -144 35 -140 34 -76 34 27 34 79 34 59 35 -12 
34 -40 34 -1 34 80 34 116 34 78 35 -9 34 -77 34 -103 
34 -90 34 -35 34 58 292 1295 52 MP stroke
c10
35 -155 34 -49 34 22 34 60 34 63 35 32 34 -23 34 -54 
34 -51 34 -22 34 -1 35 4 34 -1 34 1 34 16 34 39 
34 48 35 39 34 14 34 -8 34 -22 34 -30 35 -29 34 -19 
34 -2 34 7 34 9 34 2 35 -3 34 -5 34 -4 34 -6 
34 -8 34 -14 35 -20 34 -25 34 -31 34 -34 34 -36 35 -35 
34 -28 34 -12 34 7 34 17 34 13 35 2 34 -4 34 2 
34 19 34 47 34 86 292 951 52 MP stroke
c11
35 48 34 24 34 5 34 -5 34 -9 35 -5 34 3 34 3 
34 -11 34 -31 34 -45 35 -44 34 -34 34 -20 34 -2 34 15 
34 22 35 19 34 6 34 1 34 6 34 19 35 23 34 17 
34 3 34 -5 34 -6 34 1 35 8 34 12 34 14 34 5 
34 -13 34 -37 35 -41 34 -18 34 19 34 35 34 15 35 -26 
34 -47 34 -36 34 -4 34 13 34 1 35 -28 34 -44 34 -40 
34 -13 34 34 34 102 292 988 52 MP stroke
c12
35 -55 34 4 34 35 34 33 34 2 35 -59 34 -134 34 -151 
34 -91 34 20 34 92 35 101 34 60 34 24 34 7 34 5 
34 16 35 37 34 64 34 66 34 38 34 -5 35 -17 34 20 
34 81 34 91 34 28 34 -84 35 -144 34 -130 34 -62 34 -25 
34 -41 34 -91 35 -107 34 -74 34 -3 34 41 34 48 35 22 
34 7 34 8 34 23 34 32 34 28 35 15 34 7 34 4 
34 8 34 17 34 34 292 964 52 MP stroke
c13
35 -122 34 -60 34 -18 34 3 34 5 35 -16 34 -48 34 -59 
34 -40 34 1 34 31 35 43 34 41 34 42 34 50 34 63 
34 66 35 61 34 46 34 35 34 28 34 26 35 26 34 23 
34 19 34 9 34 -10 34 -34 35 -56 34 -70 34 -78 34 -87 
34 -99 34 -106 35 -88 34 -40 34 25 34 58 34 47 35 3 
34 -20 34 -12 34 20 34 30 34 9 35 -35 34 -62 34 -63 
34 -39 34 13 34 90 292 1137 52 MP stroke
0.25 sg
35 -67 34 -9 34 28 34 43 34 36 35 7 34 -35 34 -55 
34 -44 34 -10 34 12 35 12 34 -4 34 -10 34 -5 34 10 
34 15 35 4 34 -14 34 -16 34 6 34 44 35 59 34 41 
34 1 34 -23 34 -23 34 -3 35 11 34 11 34 -1 34 -20 
34 -49 34 -76 35 -79 34 -47 34 6 34 36 34 30 35 0 
34 -9 34 14 34 57 34 70 34 41 35 -17 34 -57 34 -67 
34 -48 34 3 34 82 292 972 52 MP stroke
c8
35 -103 34 -31 34 16 34 40 34 40 35 16 34 -24 34 -50 
34 -54 34 -39 34 -26 35 -17 34 -13 34 -2 34 20 34 46 
34 58 35 53 34 33 34 12 34 -7 34 -23 35 -26 34 -15 
34 5 34 20 34 23 34 16 35 5 34 -11 34 -28 34 -44 
34 -58 34 -67 35 -54 34 -18 34 34 34 59 34 51 35 16 
34 -3 34 0 34 22 34 31 34 22 35 0 34 -20 34 -33 
34 -40 34 -38 34 -32 292 1047 52 MP stroke
c9
35 -41 34 -1 34 23 34 34 34 30 35 13 34 -13 34 -29 
34 -27 34 -13 34 -2 35 2 34 -1 34 0 34 9 34 19 
34 24 35 21 34 10 34 1 34 -3 34 -4 35 -3 34 1 
34 6 34 8 34 8 34 5 35 3 34 -3 34 -9 34 -21 
34 -37 34 -54 35 -54 34 -30 34 6 34 19 34 1 35 -36 
34 -41 34 0 34 70 34 97 34 68 35 -6 34 -56 34 -69 
34 -43 34 22 34 125 292 900 52 MP stroke
c10
35 -69 34 -24 34 3 34 7 34 -8 35 -45 34 -89 34 -94 
34 -46 34 35 34 77 35 59 34 -1 34 -31 34 -16 34 31 
34 66 35 73 34 60 34 40 34 20 34 2 35 -7 34 0 
34 15 34 17 34 3 34 -27 35 -58 34 -89 34 -113 34 -119 
34 -98 34 -61 35 -29 34 -6 34 4 34 9 34 11 35 11 
34 33 34 81 34 139 34 141 34 69 35 -53 34 -138 34 -158 
34 -118 34 -15 34 149 292 1092 52 MP stroke
c11
35 -18 34 1 34 12 34 15 34 9 35 -5 34 -25 34 -35 
34 -31 34 -16 34 -2 35 10 34 18 34 15 34 2 34 -21 
34 -33 35 -32 34 -20 34 -12 34 -13 34 -17 35 -10 34 11 
34 42 34 58 34 55 34 35 35 19 34 10 34 6 34 0 
34 -6 34 -16 35 -20 34 -18 34 -11 34 -14 34 -25 35 -44 
34 -48 34 -34 34 -7 34 7 34 6 35 -9 34 -14 34 -9 
34 8 34 39 34 81 292 953 52 MP stroke
c12
35 -79 34 -21 34 17 34 36 34 35 35 15 34 -20 34 -40 
34 -39 34 -22 34 -3 35 14 34 27 34 31 34 22 34 8 
34 3 35 13 34 33 34 42 34 37 34 22 35 1 34 -20 
34 -39 34 -46 34 -35 34 -15 35 -3 34 -9 34 -22 34 -23 
34 -3 34 28 35 38 34 17 34 -22 34 -39 34 -24 35 13 
34 42 34 49 34 41 34 36 34 35 35 37 34 34 34 25 
34 6 34 -19 34 -51 292 785 52 MP stroke
c13
35 -85 34 1 34 52 34 72 34 59 35 13 34 -52 34 -81 
34 -64 34 -13 34 13 35 0 34 -43 34 -61 34 -46 34 -4 
34 26 35 34 34 25 34 12 34 1 34 -9 35 -5 34 14 
34 43 34 62 34 63 34 48 35 22 34 -14 34 -55 34 -65 
34 -40 34 9 35 31 34 10 34 -37 34 -66 34 -62 35 -33 
34 -15 34 -16 34 -29 34 -31 34 -17 35 8 34 24 34 24 
34 7 34 -25 34 -73 292 1180 52 MP stroke
0.25 sg
35 68 34 21 34 -11 34 -27 34 -28 35 -12 34 12 34 20 
34 3 34 -29 34 -40 35 -22 34 16 34 34 34 22 34 -12 
34 -33 35 -32 34 -14 34 6 34 21 34 32 35 37 34 35 
34 27 34 11 34 -11 34 -36 35 -33 34 2 34 54 34 62 
34 12 34 -76 35 -113 34 -78 34 8 34 54 34 42 35 -13 
34 -37 34 -14 34 44 34 74 34 64 35 22 34 -13 34 -31 
34 -31 34 -15 34 17 292 900 52 MP stroke
c8
35 43 34 29 34 18 34 12 34 9 35 11 34 15 34 12 
34 0 34 -17 34 -27 35 -23 34 -10 34 -1 34 3 34 5 
34 8 35 17 34 25 34 20 34 -5 34 -40 35 -49 34 -23 
34 25 34 50 34 34 34 -6 35 -24 34 -7 34 31 34 46 
34 24 34 -21 35 -42 34 -28 34 12 34 28 34 11 35 -30 
34 -44 34 -22 34 25 34 45 34 23 35 -25 34 -58 34 -58 
34 -30 34 28 34 117 292 905 52 MP stroke
c9
35 206 34 52 34 -52 34 -108 34 -113 35 -70 34 5 34 40 
34 14 34 -52 34 -80 35 -55 34 9 34 42 34 29 34 -16 
34 -29 35 8 34 75 34 101 34 69 34 -2 35 -38 34 -16 
34 43 34 65 34 36 34 -31 35 -63 34 -45 34 9 34 24 
34 -14 34 -87 35 -115 34 -75 34 7 34 54 34 40 35 -15 
34 -43 34 -30 34 14 34 33 34 14 35 -30 34 -57 34 -54 
34 -20 34 43 34 137 292 1004 52 MP stroke
c10
35 -77 34 -6 34 35 34 47 34 31 35 -14 34 -75 34 -96 
34 -66 34 2 34 46 35 53 34 30 34 15 34 19 34 33 
34 29 35 -3 34 -48 34 -57 34 -18 34 52 35 83 34 54 
34 -15 34 -62 34 -69 34 -46 35 -21 34 -5 34 4 34 16 
34 30 34 44 35 37 34 5 34 -41 34 -57 34 -33 35 17 
34 41 34 30 34 -9 34 -25 34 -9 35 32 34 55 34 49 
34 17 34 -43 34 -131 292 988 52 MP stroke
c11
35 -98 34 -9 34 45 34 64 34 47 35 -4 34 -76 34 -106 
34 -82 34 -17 34 27 35 35 34 16 34 6 34 13 34 35 
34 53 35 61 34 63 34 54 34 38 34 15 35 -7 34 -21 
34 -32 34 -33 34 -26 34 -14 35 -20 34 -49 34 -89 34 -94 
34 -51 34 20 35 51 34 22 34 -47 34 -75 34 -43 35 32 
34 81 34 84 34 52 34 25 34 8 35 4 34 1 34 -5 
34 -10 34 -19 34 -27 292 967 52 MP stroke
c12
35 -10 34 -17 34 -23 34 -28 34 -30 35 -33 34 -31 34 -17 
34 11 34 46 34 64 35 55 34 25 34 -10 34 -44 34 -74 
34 -74 35 -39 34 20 34 50 34 42 34 5 35 -14 34 -2 
34 32 34 49 34 42 34 18 35 2 34 1 34 11 34 10 
34 -5 34 -28 35 -39 34 -34 34 -16 34 -4 34 -1 35 -6 
34 4 34 31 34 69 34 92 34 92 35 77 34 65 34 61 
34 66 34 80 34 102 292 300 52 MP stroke
c13
35 34 34 11 34 -2 34 -8 34 -7 35 4 34 19 34 21 
34 11 34 -9 34 -14 35 4 34 33 34 29 34 -19 34 -92 
34 -107 35 -46 34 63 34 117 34 84 34 -8 35 -59 34 -43 
34 21 34 63 34 66 34 36 35 9 34 -5 34 -13 34 -20 
34 -31 34 -43 35 -38 34 -13 34 24 34 35 34 11 35 -35 
34 -47 34 -14 34 50 34 91 34 93 35 66 34 44 34 37 
34 44 34 64 34 100 292 452 52 MP stroke
0.25 sg
35 22 34 12 34 3 34 -4 34 -11 35 -14 34 -18 34 -19 
34 -19 34 -18 34 -12 35 -2 34 10 34 21 34 30 34 34 
34 27 35 6 34 -22 34 -26 34 0 34 43 35 56 34 29 
34 -30 34 -63 34 -62 34 -31 35 -2 34 17 34 27 34 25 
34 9 34 -12 35 -18 34 -2 34 29 34 41 34 24 35 -11 
34 -30 34 -21 34 6 34 22 34 20 35 7 34 3 34 14 
34 41 34 82 34 139 292 617 52 MP stroke
c8
35 31 34 -15 34 -43 34 -53 34 -43 35 -16 34 22 34 38 
34 23 34 -14 34 -22 35 4 34 55 34 76 34 55 34 5 
34 -22 35 -15 34 19 34 35 34 21 34 -11 35 -30 34 -23 
34 -1 34 4 34 -14 34 -45 35 -51 34 -18 34 36 34 55 
34 23 34 -42 35 -73 34 -55 34 -1 34 34 34 31 35 3 
34 -11 34 0 34 25 34 36 34 24 35 -6 34 -31 34 -48 
34 -56 34 -54 34 -42 292 1121 52 MP stroke
c9
35 -20 34 -7 34 3 34 11 34 15 35 17 34 14 34 3 
34 -17 34 -40 34 -46 35 -29 34 4 34 25 34 30 34 21 
34 18 35 25 34 38 34 38 34 17 34 -14 35 -32 34 -28 
34 -11 34 0 34 -5 34 -19 35 -21 34 -6 34 20 34 24 
34 -1 34 -43 35 -57 34 -33 34 16 34 42 34 32 35 -3 
34 -18 34 -3 34 36 34 57 34 54 35 29 34 3 34 -19 
34 -38 34 -53 34 -66 292 980 52 MP stroke
c10
35 56 34 24 34 0 34 -13 34 -19 35 -16 34 -6 34 -2 
34 -8 34 -18 34 -23 35 -20 34 -10 34 6 34 25 34 45 
34 45 35 22 34 -16 34 -31 34 -14 34 24 35 41 34 28 
34 -7 34 -32 34 -35 34 -23 35 -10 34 -5 34 -2 34 3 
34 10 34 19 35 22 34 15 34 2 34 -11 34 -20 35 -24 
34 -11 34 21 34 63 34 74 34 42 35 -18 34 -64 34 -83 
34 -76 34 -43 34 17 292 1031 52 MP stroke
c11
35 -84 34 -24 34 15 34 35 34 35 35 15 34 -18 34 -39 
34 -42 34 -30 34 -12 35 8 34 27 34 35 34 26 34 7 
34 10 35 39 34 81 34 83 34 30 34 -56 35 -93 34 -61 
34 18 34 63 34 47 34 -12 35 -58 34 -77 34 -72 34 -56 
34 -29 34 2 35 25 34 37 34 37 34 37 34 35 35 33 
34 29 34 23 34 16 34 6 34 -8 35 -23 34 -31 34 -32 
34 -24 34 -10 34 13 292 940 52 MP stroke
c12
35 -73 34 -28 34 2 34 17 34 19 35 7 34 -16 34 -29 
34 -30 34 -19 34 -5 35 8 34 20 34 22 34 14 34 -1 
34 -3 35 15 34 42 34 54 34 40 34 9 35 -12 34 -16 
34 -9 34 -8 34 -18 34 -35 35 -46 34 -49 34 -44 34 -28 
34 -3 34 24 35 34 34 17 34 -15 34 -28 34 -13 35 21 
34 37 34 27 34 -3 34 -24 34 -26 35 -17 34 -4 34 5 
34 13 34 19 34 24 292 953 52 MP stroke
c13
35 100 34 20 34 -32 34 -55 34 -48 35 -12 34 39 34 53 
34 17 34 -50 34 -76 35 -42 34 34 34 70 34 48 34 -15 
34 -48 35 -35 34 12 34 41 34 37 34 12 35 -2 34 9 
34 33 34 34 34 5 34 -43 35 -55 34 -17 34 51 34 72 
34 29 34 -57 35 -99 34 -73 34 0 34 42 34 33 35 -14 
34 -38 34 -28 34 8 34 31 34 30 35 12 34 -3 34 -9 
34 -7 34 3 34 23 292 929 52 MP stroke
0.25 sg
35 -71 34 -15 34 22 34 40 34 37 35 14 34 -21 34 -40 
34 -35 34 -11 34 10 35 25 34 32 34 25 34 4 34 -22 
34 -29 35 -5 34 36 34 47 34 19 34 -37 35 -60 34 -37 
34 20 34 53 34 47 34 13 35 -21 34 -48 34 -61 34 -48 
34 -5 34 54 35 72 34 34 34 -42 34 -73 34 -40 35 37 
34 74 34 52 34 -15 34 -53 34 -47 35 -8 34 24 34 35 
34 27 34 0 34 -46 292 948 52 MP stroke
c8
35 -27 34 13 34 38 34 47 34 41 35 19 34 -13 34 -34 
34 -39 34 -29 34 -15 35 -1 34 14 34 21 34 18 34 8 
34 3 35 8 34 18 34 23 34 20 34 10 35 0 34 -10 
34 -15 34 -15 34 -4 34 9 35 4 34 -24 34 -64 34 -69 
34 -24 34 49 35 82 34 55 34 -13 34 -50 34 -41 35 5 
34 31 34 26 34 -4 34 -23 34 -24 35 -10 34 -3 34 -6 
34 -19 34 -42 34 -77 292 1113 52 MP stroke
c9
35 -116 34 -29 34 31 34 62 34 67 35 41 34 -2 34 -33 
34 -42 34 -32 34 -18 35 -1 34 14 34 19 34 10 34 -7 
34 -10 35 6 34 34 34 49 34 43 34 21 35 2 34 -10 
34 -17 34 -23 34 -32 34 -40 35 -41 34 -31 34 -15 34 -4 
34 -5 34 -12 35 -17 34 -19 34 -16 34 -10 34 2 35 15 
34 19 34 11 34 -4 34 -14 34 -14 35 -6 34 0 34 6 
34 10 34 11 34 11 292 1007 52 MP stroke
c10
35 66 34 4 34 -33 34 -45 34 -33 35 4 34 52 34 60 
34 10 34 -72 34 -108 35 -73 34 10 34 65 34 72 34 41 
34 12 35 -5 34 -12 34 -13 34 -10 34 -5 35 -1 34 1 
34 -1 34 -2 34 -3 34 -2 35 -1 34 1 34 2 34 0 
34 -8 34 -18 35 -21 34 -17 34 -4 34 9 34 22 35 32 
34 30 34 15 34 -8 34 -19 34 -13 35 6 34 18 34 16 
34 3 34 -23 34 -62 292 977 52 MP stroke
c11
35 124 34 41 34 -15 34 -46 34 -48 35 -26 34 13 34 25 
34 2 34 -47 34 -67 35 -49 34 -2 34 28 34 27 34 8 
34 0 35 14 34 42 34 51 34 35 34 0 35 -14 34 -2 
34 28 34 38 34 16 34 -26 35 -48 34 -38 34 -5 34 7 
34 -12 34 -50 35 -65 34 -45 34 -2 34 22 34 20 35 -5 
34 -15 34 -4 34 19 34 18 34 -19 35 -77 34 -112 34 -109 
34 -71 34 6 34 118 292 1228 52 MP stroke
c12
35 -10 34 -8 34 -6 34 -5 34 -2 35 -1 34 1 34 -1 
34 -5 34 -12 34 -10 35 0 34 16 34 22 34 16 34 -1 
34 -9 35 -9 34 0 34 8 34 11 34 10 35 4 34 -9 
34 -26 34 -34 34 -28 34 -14 35 -8 34 -13 34 -24 34 -26 
34 -14 34 8 35 13 34 -2 34 -31 34 -41 34 -27 35 4 
34 14 34 -7 34 -48 34 -64 34 -48 35 -6 34 24 34 33 
34 18 34 -17 34 -73 292 1233 52 MP stroke
c13
35 66 34 23 34 -6 34 -23 34 -27 35 -17 34 0 34 8 
34 0 34 -17 34 -25 35 -19 34 -2 34 12 34 22 34 26 
34 33 35 42 34 51 34 39 34 3 34 -45 35 -66 34 -46 
34 2 34 32 34 33 34 10 35 -8 34 -16 34 -14 34 -10 
34 -2 34 5 35 8 34 3 34 -8 34 -18 34 -25 35 -27 
34 -16 34 8 34 41 34 48 34 23 35 -22 34 -50 34 -48 
34 -15 34 45 34 136 292 841 52 MP stroke
0.25 sg
35 -104 34 -31 34 18 34 44 34 47 35 29 34 -8 34 -33 
34 -42 34 -36 34 -24 35 -4 34 17 34 31 34 32 34 25 
34 17 35 11 34 10 34 11 34 17 34 24 35 22 34 4 
34 -20 34 -33 34 -29 34 -13 35 -9 34 -21 34 -43 34 -43 
34 -15 34 30 35 45 34 15 34 -41 34 -66 34 -39 35 20 
34 54 34 46 34 7 34 -23 34 -32 35 -27 34 -18 34 -9 
34 0 34 7 34 15 292 1025 52 MP stroke
c8
35 19 34 6 34 -4 34 -8 34 -8 35 -3 34 5 34 4 
34 -9 34 -26 34 -29 35 -11 34 20 34 36 34 29 34 4 
34 -14 35 -22 34 -19 34 -10 34 0 34 12 35 23 34 26 
34 26 34 19 34 6 34 -9 35 -12 34 2 34 25 34 28 
34 3 34 -40 35 -59 34 -48 34 -10 34 18 34 32 35 31 
34 17 34 -8 34 -38 34 -53 34 -42 35 -16 34 5 34 14 
34 9 34 -8 34 -36 292 1052 52 MP stroke
c9
35 -146 34 -34 34 39 34 73 34 68 35 24 34 -43 34 -80 
34 -69 34 -23 34 6 35 7 34 -13 34 -20 34 -7 34 18 
34 38 35 45 34 42 34 39 34 36 34 35 35 27 34 13 
34 -6 34 -19 34 -23 34 -20 35 -22 34 -30 34 -41 34 -41 
34 -22 34 4 35 11 34 -10 34 -49 34 -66 34 -53 35 -15 
34 10 34 13 34 2 34 -7 34 -8 35 -2 34 3 34 4 
34 4 34 1 34 -5 292 1103 52 MP stroke
c10
35 118 34 45 34 -8 34 -41 34 -53 35 -45 34 -24 34 -15 
34 -25 34 -49 34 -62 35 -62 34 -49 34 -32 34 -15 34 1 
34 13 35 18 34 18 34 22 34 32 34 45 35 55 34 62 
34 63 34 53 34 34 34 7 35 -6 34 -1 34 13 34 15 
34 -7 34 -43 35 -75 34 -95 34 -104 34 -96 34 -70 35 -33 
34 -14 34 -22 34 -45 34 -43 34 -5 35 56 34 91 34 87 
34 46 34 -34 34 -153 292 1212 52 MP stroke
c11
35 37 34 -24 34 -61 34 -77 34 -68 35 -37 34 9 34 29 
34 16 34 -24 34 -50 35 -54 34 -39 34 -13 34 22 34 60 
34 71 35 51 34 8 34 -15 34 -9 34 18 35 41 34 53 
34 53 34 40 34 13 34 -22 35 -47 34 -51 34 -43 34 -41 
34 -52 34 -66 35 -61 34 -27 34 20 34 40 34 20 35 -30 
34 -53 34 -40 34 1 34 32 34 42 35 36 34 26 34 18 
34 8 34 0 34 -8 292 985 52 MP stroke
c12
35 -10 34 -7 34 -7 34 -10 34 -18 35 -28 34 -39 34 -34 
34 -12 34 21 34 39 35 33 34 10 34 -3 34 -2 34 11 
34 16 35 8 34 -6 34 -10 34 3 34 24 35 30 34 18 
34 -10 34 -19 34 -6 34 23 35 29 34 4 34 -42 34 -57 
34 -29 34 25 35 43 34 9 34 -58 34 -82 34 -46 35 31 
34 70 34 48 34 -16 34 -47 34 -28 35 29 34 71 34 90 
34 81 34 48 34 -12 292 724 52 MP stroke
c13
35 -111 34 -28 34 27 34 57 34 60 35 38 34 -4 34 -32 
34 -36 34 -25 34 -12 35 -6 34 -3 34 2 34 9 34 20 
34 38 35 62 34 84 34 70 34 11 34 -73 35 -108 34 -77 
34 3 34 53 34 56 34 18 35 -20 34 -52 34 -71 34 -66 
34 -31 34 23 35 48 34 33 34 -8 34 -30 34 -20 35 13 
34 36 34 39 34 25 34 9 34 -8 35 -21 34 -29 34 -30 
34 -22 34 -7 34 16 292 996 52 MP stroke
0.25 sg
35 82 34 21 34 -20 34 -40 34 -39 35 -17 34 17 34 30 
34 12 34 -26 34 -42 35 -28 34 7 34 28 34 23 34 2 
34 -12 35 -11 34 0 34 6 34 2 34 -7 35 -11 34 -3 
34 10 34 19 34 19 34 12 35 7 34 5 34 5 34 4 
34 1 34 -3 35 -4 34 -3 34 1 34 1 34 -2 35 -10 
34 -11 34 -3 34 7 34 10 34 -4 35 -25 34 -36 34 -30 
34 -8 34 28 34 82 292 905 52 MP stroke
c8
35 -16 34 -5 34 5 34 13 34 20 35 26 34 27 34 17 
34 -10 34 -41 34 -49 35 -22 34 27 34 46 34 26 34 -22 
34 -47 35 -35 34 2 34 22 34 16 34 -9 35 -18 34 -2 
34 27 34 37 34 16 34 -24 35 -42 34 -28 34 9 34 33 
34 33 34 16 35 2 34 -5 34 -4 34 -6 34 -8 35 -13 
34 -8 34 7 34 28 34 39 34 35 35 18 34 1 34 -17 
34 -34 34 -51 34 -67 292 991 52 MP stroke
c9
35 -48 34 -2 34 26 34 35 34 26 35 0 34 -37 34 -53 
34 -41 34 -7 34 16 35 21 34 9 34 -1 34 -8 34 -14 
34 -17 35 -20 34 -20 34 -13 34 4 34 27 35 48 34 66 
34 75 34 62 34 20 34 -36 35 -71 34 -71 34 -45 34 -12 
34 22 34 49 35 43 34 -1 34 -71 34 -102 34 -78 35 -16 
34 20 34 17 34 -15 34 -26 34 -4 35 42 34 74 34 79 
34 59 34 15 34 -56 292 903 52 MP stroke
c10
35 -59 34 -25 34 -2 34 11 34 11 35 2 34 -15 34 -28 
34 -34 34 -33 34 -22 35 -1 34 25 34 38 34 30 34 10 
34 2 35 12 34 35 34 46 34 39 34 21 35 7 34 2 
34 2 34 -5 34 -21 34 -43 35 -51 34 -40 34 -14 34 4 
34 10 34 7 35 0 34 -7 34 -13 34 -20 34 -25 35 -27 
34 -17 34 9 34 43 34 72 34 88 35 91 34 74 34 35 
34 -28 34 -114 34 -221 292 1020 52 MP stroke
c11
35 -46 34 -2 34 27 34 37 34 31 35 7 34 -29 34 -55 
34 -66 34 -62 34 -50 35 -32 34 -9 34 4 34 5 34 -1 
34 4 35 24 34 51 34 54 34 26 34 -23 35 -38 34 -6 
34 57 34 93 34 87 34 48 35 5 34 -29 34 -55 34 -68 
34 -63 34 -49 35 -44 34 -57 34 -77 34 -84 34 -65 35 -33 
34 -11 34 -7 34 -16 34 -16 34 0 35 23 34 31 34 18 
34 -18 34 -76 34 -154 292 1436 52 MP stroke
c12
35 39 34 8 34 -15 34 -28 34 -34 35 -31 34 -22 34 -16 
34 -16 34 -18 34 -13 35 2 34 24 34 35 34 29 34 12 
34 -1 35 -3 34 1 34 4 34 3 34 -1 35 2 34 12 
34 27 34 24 34 0 34 -36 35 -47 34 -26 34 17 34 32 
34 9 34 -41 35 -64 34 -47 34 -1 34 25 34 22 35 -3 
34 -12 34 4 34 37 34 48 34 30 35 -10 34 -32 34 -30 
34 -3 34 52 34 129 292 799 52 MP stroke
c13
35 127 34 29 34 -36 34 -69 34 -69 35 -38 34 15 34 48 
34 49 34 25 34 4 35 -5 34 -7 34 -12 34 -24 34 -36 
34 -33 35 -11 34 25 34 42 34 32 34 4 35 -9 34 0 
34 25 34 42 34 42 34 28 35 9 34 -13 34 -33 34 -35 
34 -17 34 14 35 29 34 18 34 -11 34 -27 34 -21 35 0 
34 9 34 2 34 -16 34 -21 34 -6 35 23 34 45 34 55 
34 54 34 40 34 15 292 727 52 MP stroke
0.25 sg
35 73 34 15 34 -24 34 -46 34 -51 35 -36 34 -12 34 1 
34 -5 34 -25 34 -30 35 -12 34 19 34 33 34 20 34 -10 
34 -22 35 -8 34 23 34 39 34 31 34 8 35 -5 34 3 
34 23 34 31 34 20 34 -2 35 -12 34 -4 34 16 34 17 
34 -7 34 -48 35 -70 34 -63 34 -36 34 -18 34 -18 35 -31 
34 -29 34 -9 34 23 34 35 34 19 35 -17 34 -42 34 -45 
34 -29 34 7 34 65 292 1089 52 MP stroke
c8
35 25 34 15 34 8 34 3 34 2 35 3 34 5 34 2 
34 -10 34 -27 34 -31 35 -22 34 -1 34 13 34 15 34 7 
34 2 35 -1 34 -1 34 -2 34 -3 34 -5 35 -2 34 7 
34 19 34 24 34 19 34 6 35 3 34 9 34 22 34 18 
34 -8 34 -45 35 -58 34 -38 34 4 34 28 34 19 35 -11 
34 -27 34 -21 34 2 34 11 34 3 35 -19 34 -29 34 -21 
34 4 34 48 34 110 292 879 52 MP stroke
c9
35 -83 34 -24 34 19 34 42 34 47 35 36 34 11 34 -7 
34 -12 34 -7 34 3 35 12 34 22 34 20 34 6 34 -16 
34 -25 35 -15 34 10 34 25 34 29 34 20 35 11 34 1 
34 -7 34 -18 34 -31 34 -44 35 -40 34 -17 34 17 34 37 
34 31 34 8 35 -10 34 -19 34 -21 34 -24 34 -30 35 -37 
34 -34 34 -20 34 3 34 22 34 31 35 35 34 31 34 22 
34 8 34 -12 34 -38 292 977 52 MP stroke
c10
35 -75 34 -28 34 7 34 30 34 42 35 42 34 32 34 12 
34 -14 34 -43 34 -43 35 -10 34 42 34 59 34 29 34 -32 
34 -56 35 -24 34 45 34 72 34 35 34 -41 35 -76 34 -48 
34 23 34 60 34 45 34 -10 35 -42 34 -39 34 -8 34 12 
34 10 34 -6 35 -12 34 -4 34 15 34 17 34 -2 35 -36 
34 -49 34 -38 34 -7 34 15 34 19 35 8 34 3 34 2 
34 9 34 24 34 44 292 919 52 MP stroke
c11
35 -39 34 -18 34 -2 34 10 34 16 35 20 34 16 34 6 
34 -14 34 -39 34 -46 35 -30 34 -1 34 12 34 0 34 -29 
34 -32 35 -1 34 55 34 85 34 82 34 51 35 34 34 37 
34 55 34 50 34 18 34 -32 35 -50 34 -27 34 24 34 47 
34 27 34 -22 35 -47 34 -35 34 5 34 25 34 13 35 -19 
34 -37 34 -29 34 -6 34 7 34 1 35 -19 34 -30 34 -28 
34 -12 34 18 34 61 292 881 52 MP stroke
c12
35 92 34 21 34 -25 34 -50 34 -49 35 -27 34 11 34 27 
34 13 34 -21 34 -33 35 -13 34 30 34 48 34 32 34 -8 
34 -27 35 -13 34 22 34 38 34 25 34 -9 35 -23 34 -5 
34 31 34 43 34 19 34 -27 35 -46 34 -23 34 27 34 49 
34 31 34 -16 35 -39 34 -25 34 12 34 31 34 18 35 -15 
34 -29 34 -12 34 24 34 38 34 21 35 -21 34 -47 34 -52 
34 -35 34 6 34 69 292 913 52 MP stroke
c13
35 -58 34 -16 34 10 34 19 34 12 35 -12 34 -45 34 -54 
34 -35 34 7 34 32 35 31 34 11 34 -2 34 -4 34 5 
34 18 35 33 34 47 34 46 34 30 34 2 35 -8 34 6 
34 31 34 32 34 -5 34 -64 35 -96 34 -85 34 -42 34 -10 
34 1 34 -2 35 -6 34 -2 34 4 34 2 34 -12 35 -29 
34 -24 34 13 34 68 34 86 34 57 35 -8 34 -54 34 -66 
34 -46 34 7 34 92 292 943 52 MP stroke
0.25 sg
35 148 34 22 34 -61 34 -103 34 -102 35 -59 34 10 34 44 
34 29 34 -23 34 -48 35 -31 34 17 34 44 34 41 34 15 
34 5 35 17 34 44 34 49 34 24 34 -21 35 -42 34 -30 
34 7 34 23 34 7 34 -30 35 -52 34 -46 34 -21 34 -12 
34 -25 34 -52 35 -60 34 -38 34 3 34 26 34 22 35 0 
34 -11 34 -2 34 17 34 18 34 -9 35 -52 34 -76 34 -69 
34 -33 34 34 34 130 292 1113 52 MP stroke
c8
35 -134 34 -54 34 4 34 38 34 51 35 41 34 14 34 -16 
34 -46 34 -70 34 -81 35 -73 34 -49 34 -18 34 19 34 57 
34 73 35 62 34 33 34 11 34 7 34 16 35 28 34 36 
34 42 34 36 34 15 34 -13 35 -30 34 -26 34 -10 34 -10 
34 -28 34 -61 35 -80 34 -75 34 -55 34 -43 34 -46 35 -57 
34 -44 34 -3 34 56 34 81 34 58 35 -1 34 -45 34 -61 
34 -52 34 -15 34 48 292 1183 52 MP stroke
c9
35 -33 34 -9 34 8 34 16 34 19 35 13 34 1 34 -10 
34 -21 34 -28 34 -26 35 -15 34 4 34 17 34 19 34 12 
34 5 35 -4 34 -9 34 -6 34 7 34 26 35 33 34 24 
34 5 34 -9 34 -12 34 -8 35 -8 34 -13 34 -23 34 -20 
34 0 34 27 35 31 34 3 34 -43 34 -65 34 -46 35 -2 
34 25 34 25 34 3 34 -8 34 -1 35 20 34 30 34 22 
34 -1 34 -43 34 -100 292 1063 52 MP stroke
c10
35 130 34 34 34 -34 34 -68 34 -72 35 -44 34 4 34 30 
34 20 34 -14 34 -31 35 -25 34 0 34 14 34 10 34 -5 
34 -12 35 -7 34 10 34 22 34 24 34 21 35 16 34 11 
34 7 34 6 34 6 34 9 35 13 34 15 34 17 34 12 
34 1 34 -14 35 -21 34 -16 34 -4 34 -6 34 -22 35 -45 
34 -30 34 35 34 125 34 141 34 57 35 -96 34 -199 34 -223 
34 -167 34 -32 34 183 292 1159 52 MP stroke
c11
35 -94 34 -30 34 15 34 37 34 40 35 21 34 -11 34 -33 
34 -36 34 -24 34 -8 35 8 34 22 34 21 34 0 34 -29 
34 -26 35 18 34 84 34 105 34 59 34 -30 35 -74 34 -51 
34 20 34 58 34 42 34 -12 35 -48 34 -55 34 -36 34 -24 
34 -25 34 -34 35 -31 34 -12 34 17 34 30 34 19 35 -6 
34 -17 34 -6 34 19 34 27 34 13 35 -20 34 -40 34 -42 
34 -26 34 8 34 61 292 1004 52 MP stroke
c12
35 9 34 3 34 -2 34 -3 34 -4 35 -3 34 -2 34 -7 
34 -21 34 -38 34 -40 35 -23 34 9 34 26 34 26 34 10 
34 -5 35 -13 34 -14 34 -8 34 6 34 26 35 32 34 22 
34 1 34 -11 34 -8 34 5 35 18 34 27 34 31 34 20 
34 -5 34 -39 35 -52 34 -37 34 -5 34 16 34 15 35 -1 
34 -15 34 -24 34 -26 34 -24 34 -19 35 -10 34 1 34 14 
34 30 34 47 34 67 292 887 52 MP stroke
c13
35 -80 34 -54 34 -31 34 -14 34 -2 35 5 34 8 34 9 
34 7 34 7 34 14 35 30 34 51 34 60 34 54 34 38 
34 35 35 53 34 80 34 82 34 48 34 -8 35 -35 34 -23 
34 18 34 33 34 10 34 -41 35 -77 34 -87 34 -76 34 -63 
34 -56 34 -51 35 -43 34 -31 34 -18 34 0 34 18 35 35 
34 40 34 29 34 6 34 -14 34 -27 35 -36 34 -44 34 -53 
34 -65 34 -76 34 -89 292 1359 52 MP stroke
0.25 sg
35 125 34 31 34 -30 34 -61 34 -59 35 -27 34 25 34 45 
34 23 34 -28 34 -51 35 -33 34 16 34 41 34 34 34 1 
34 -18 35 -15 34 4 34 14 34 9 34 -8 35 -9 34 9 
34 37 34 39 34 4 34 -52 35 -65 34 -22 34 57 34 84 
34 38 34 -57 35 -102 34 -76 34 2 34 45 34 30 35 -26 
34 -56 34 -46 34 -4 34 19 34 15 35 -11 34 -27 34 -26 
34 -9 34 25 34 77 292 1004 52 MP stroke
c8
35 58 34 15 34 -14 34 -26 34 -22 35 -3 34 25 34 29 
34 5 34 -39 34 -57 35 -37 34 7 34 30 34 21 34 -12 
34 -32 35 -30 34 -11 34 6 34 15 34 19 35 17 34 12 
34 6 34 3 34 2 34 6 35 11 34 18 34 23 34 18 
34 1 34 -22 35 -29 34 -13 34 18 34 28 34 10 35 -25 
34 -42 34 -31 34 2 34 30 34 48 35 54 34 50 34 37 
34 13 34 -21 34 -64 292 844 52 MP stroke
c9
35 29 34 9 34 -4 34 -11 34 -11 35 -7 34 2 34 4 
34 -3 34 -18 34 -23 35 -18 34 -5 34 5 34 5 34 1 
34 -3 35 -3 34 0 34 5 34 11 34 18 35 19 34 11 
34 -2 34 -7 34 -4 34 6 35 5 34 -9 34 -30 34 -34 
34 -10 34 26 35 30 34 -8 34 -74 34 -93 34 -49 35 35 
34 73 34 38 34 -43 34 -82 34 -53 35 23 34 75 34 86 
34 53 34 -20 34 -137 292 1065 52 MP stroke
c10
35 -81 34 -8 34 44 34 71 34 75 35 56 34 20 34 -13 
34 -36 34 -48 34 -42 35 -14 34 26 34 39 34 20 34 -21 
34 -28 35 12 34 79 34 98 34 47 34 -48 35 -95 34 -73 
34 1 34 43 34 36 34 -9 35 -36 34 -30 34 0 34 16 
34 8 34 -14 35 -19 34 1 34 36 34 45 34 18 35 -31 
34 -45 34 -9 34 57 34 87 34 61 35 -5 34 -52 34 -63 
34 -40 34 18 34 110 292 796 52 MP stroke
c11
35 39 34 4 34 -19 34 -33 34 -37 35 -31 34 -19 34 -15 
34 -19 34 -33 34 -37 35 -32 34 -17 34 -2 34 14 34 26 
34 26 35 12 34 -9 34 -15 34 0 34 31 35 54 34 64 
34 61 34 49 34 26 34 1 35 -9 34 0 34 22 34 17 
34 -20 34 -78 35 -101 34 -77 34 -18 34 17 34 14 35 -16 
34 -37 34 -40 34 -29 34 -20 34 -18 35 -20 34 -20 34 -13 
34 0 34 18 34 43 292 1103 52 MP stroke
c12
35 -43 34 -7 34 18 34 30 34 32 35 23 34 5 34 -16 
34 -34 34 -50 34 -46 35 -19 34 22 34 44 34 38 34 13 
34 -5 35 -8 34 2 34 13 34 22 34 29 35 29 34 20 
34 4 34 -10 34 -24 34 -33 35 -35 34 -25 34 -8 34 8 
34 19 34 25 35 18 34 -3 34 -33 34 -44 34 -33 35 -4 
34 15 34 16 34 4 34 -2 34 1 35 9 34 15 34 13 
34 6 34 -8 34 -27 292 961 52 MP stroke
c13
35 -84 34 -19 34 23 34 40 34 35 35 5 34 -38 34 -57 
34 -41 34 0 34 27 35 34 34 23 34 14 34 9 34 8 
34 4 35 -4 34 -16 34 -18 34 -6 34 12 35 20 34 16 
34 -1 34 -9 34 -9 34 0 35 3 34 0 34 -11 34 -15 
34 -14 34 -8 35 0 34 8 34 13 34 11 34 -3 35 -21 
34 -20 34 6 34 47 34 64 34 44 35 0 34 -32 34 -40 
34 -27 34 10 34 68 292 849 52 MP stroke
0.25 sg
35 -35 34 -4 34 12 34 12 34 -4 35 -35 34 -72 34 -76 
34 -36 34 33 34 70 35 60 34 15 34 -8 34 1 34 34 
34 43 35 19 34 -27 34 -47 34 -27 34 18 35 44 34 34 
34 0 34 -24 34 -27 34 -17 35 -12 34 -16 34 -27 34 -18 
34 13 34 54 35 62 34 22 34 -47 34 -79 34 -55 35 7 
34 42 34 36 34 -1 34 -20 34 -8 35 26 34 47 34 47 
34 25 34 -17 34 -83 292 927 52 MP stroke
c8
35 103 34 28 34 -24 34 -52 34 -58 35 -39 34 -6 34 17 
34 18 34 5 34 -4 35 -6 34 -2 34 -1 34 -3 34 -6 
34 6 35 40 34 83 34 92 34 57 34 -6 35 -36 34 -19 
34 32 34 53 34 30 34 -26 35 -50 34 -31 34 20 34 55 
34 61 34 44 35 27 34 17 34 12 34 5 34 -4 35 -13 
34 -13 34 0 34 17 34 12 34 -24 35 -81 34 -118 34 -124 
34 -99 34 -44 34 42 292 1116 52 MP stroke
c9
35 -56 34 -40 34 -29 34 -23 34 -22 35 -25 34 -30 34 -26 
34 -8 34 18 34 30 35 27 34 11 34 3 34 7 34 23 
34 40 35 55 34 66 34 62 34 42 34 7 35 -29 34 -63 
34 -93 34 -104 34 -96 34 -71 35 -42 34 -15 34 8 34 13 
34 -3 34 -32 35 -38 34 -12 34 32 34 43 34 7 35 -57 
34 -85 34 -58 34 9 34 60 34 81 35 78 34 83 34 100 
34 130 34 172 34 229 292 369 52 MP stroke
c10
35 74 34 10 34 -31 34 -51 34 -48 35 -24 34 15 34 30 
34 17 34 -19 34 -36 35 -28 34 -1 34 13 34 4 34 -19 
34 -23 35 -3 34 34 34 52 34 42 34 11 35 -9 34 -10 
34 2 34 12 34 12 34 7 35 3 34 1 34 1 34 -4 
34 -13 34 -25 35 -24 34 -7 34 18 34 17 34 -16 35 -71 
34 -92 34 -67 34 -8 34 26 34 22 35 -9 34 -29 34 -26 
34 -1 34 46 34 115 292 983 52 MP stroke
c11
35 1 34 14 34 17 34 14 34 1 35 -18 34 -42 34 -53 
34 -49 34 -32 34 -26 35 -32 34 -47 34 -43 34 -14 34 29 
34 54 35 47 34 21 34 5 34 12 34 32 35 46 34 47 
34 38 34 24 34 7 34 -9 35 -15 34 -10 34 3 34 7 
34 -8 34 -32 35 -51 34 -61 34 -60 34 -55 34 -45 35 -31 
34 -25 34 -29 34 -38 34 -31 34 -3 35 39 34 64 34 62 
34 37 34 -15 34 -91 292 1132 52 MP stroke
c12
35 -17 34 -6 34 2 34 10 34 15 35 20 34 22 34 15 
34 -2 34 -24 34 -33 35 -23 34 0 34 17 34 23 34 18 
34 7 35 -9 34 -25 34 -27 34 -9 34 18 35 27 34 5 
34 -35 34 -61 34 -64 34 -47 35 -27 34 -3 34 19 34 35 
34 42 34 39 35 30 34 14 34 -6 34 -13 34 -3 35 19 
34 26 34 17 34 -2 34 16 34 79 35 168 34 201 34 154 
34 30 34 -171 34 -451 292 921 52 MP stroke
c13
35 -60 34 -19 34 9 34 25 34 29 35 21 34 4 34 -7 
34 -8 34 0 34 6 35 10 34 12 34 11 34 9 34 5 
34 -4 35 -14 34 -25 34 -25 34 -9 34 15 35 21 34 4 
34 -28 34 -42 34 -28 34 3 35 21 34 18 34 -1 34 -11 
34 -6 34 8 35 16 34 10 34 -2 34 -6 34 3 35 20 
34 27 34 17 34 1 34 8 34 47 35 105 34 128 34 100 
34 26 34 -100 34 -272 292 881 52 MP stroke
0.25 sg
35 -37 34 -18 34 -6 34 1 34 2 35 -3 34 -13 34 -22 
34 -26 34 -28 34 -19 35 1 34 28 34 37 34 23 34 -5 
34 -24 35 -24 34 -10 34 9 34 30 34 50 35 56 34 44 
34 18 34 -5 34 -24 34 -36 35 -35 34 -20 34 6 34 23 
34 27 34 17 35 -12 34 -61 34 -115 34 -123 34 -71 35 20 
34 74 34 71 34 24 34 -10 34 -19 35 -7 34 6 34 14 
34 18 34 17 34 11 292 977 52 MP stroke
c8
35 -74 34 -32 34 -3 34 13 34 17 35 10 34 -8 34 -18 
34 -20 34 -12 34 -2 35 12 34 24 34 28 34 20 34 3 
34 -10 35 -20 34 -24 34 -18 34 -3 34 18 35 30 34 26 
34 14 34 3 34 -1 34 2 35 4 34 5 34 3 34 -1 
34 -7 34 -16 35 -21 34 -22 34 -18 34 -15 34 -10 35 -7 
34 -13 34 -28 34 -48 34 -60 34 -57 35 -43 34 -18 34 13 
34 53 34 101 34 158 292 900 52 MP stroke
c9
35 -61 34 -15 34 17 34 37 34 43 35 37 34 21 34 -1 
34 -25 34 -47 34 -51 35 -33 34 1 34 23 34 24 34 16 
34 30 35 74 34 133 34 136 34 65 34 -55 35 -122 34 -114 
34 -48 34 -4 34 -4 34 -35 35 -58 34 -62 34 -52 34 -42 
34 -36 34 -31 35 -4 34 45 34 105 34 114 34 59 35 -38 
34 -83 34 -55 34 24 34 71 34 65 35 18 34 -15 34 -22 
34 -3 34 42 34 113 292 764 52 MP stroke
c10
35 28 34 14 34 3 34 -7 34 -15 35 -23 34 -27 34 -23 
34 -9 34 12 34 19 35 9 34 -10 34 -19 34 -11 34 10 
34 20 35 10 34 -8 34 -13 34 3 34 32 35 46 34 36 
34 10 34 -10 34 -16 34 -10 35 -2 34 4 34 9 34 4 
34 -15 34 -40 35 -48 34 -32 34 -3 34 14 34 10 35 -10 
34 -17 34 -5 34 19 34 31 34 25 35 5 34 -12 34 -20 
34 -21 34 -13 34 2 292 988 52 MP stroke
c11
35 113 34 12 34 -55 34 -86 34 -79 35 -38 34 24 34 49 
34 18 34 -48 34 -75 35 -48 34 18 34 54 34 40 34 -6 
34 -25 35 -1 34 52 34 82 34 74 34 38 35 15 34 14 
34 27 34 23 34 -8 34 -52 35 -62 34 -24 34 43 34 66 
34 27 34 -54 35 -86 34 -50 34 35 34 81 34 68 35 13 
34 -21 34 -16 34 19 34 38 34 34 35 12 34 -3 34 -1 
34 15 34 47 34 93 292 601 52 MP stroke
c12
35 -36 34 -20 34 -6 34 8 34 21 35 33 34 40 34 29 
34 -5 34 -52 34 -63 35 -32 34 30 34 59 34 39 34 -14 
34 -44 35 -38 34 -4 34 19 34 22 34 12 35 4 34 8 
34 18 34 18 34 7 34 -10 35 -9 34 14 34 49 34 51 
34 12 34 -57 35 -85 34 -58 34 5 34 42 34 30 35 -13 
34 -37 34 -27 34 6 34 25 34 22 35 1 34 -13 34 -15 
34 -4 34 19 34 55 292 889 52 MP stroke
c13
35 -107 34 -37 34 10 34 33 34 33 35 9 34 -29 34 -45 
34 -27 34 11 34 35 35 34 34 14 34 1 34 3 34 15 
34 19 35 14 34 2 34 -4 34 2 34 16 35 21 34 14 
34 -2 34 -15 34 -20 34 -21 35 -17 34 -8 34 2 34 4 
34 -6 34 -22 35 -32 34 -28 34 -16 34 -2 34 12 35 22 
34 13 34 -19 34 -61 34 -70 34 -31 35 39 34 87 34 95 
34 65 34 -2 34 -108 292 961 52 MP stroke
0.25 sg
35 106 34 11 34 -53 34 -85 34 -85 35 -54 34 -3 34 21 
34 6 34 -37 34 -57 35 -42 34 -2 34 21 34 18 34 -3 
34 -6 35 20 34 62 34 81 34 65 34 26 35 6 34 16 
34 44 34 46 34 11 34 -47 35 -71 34 -47 34 11 34 43 
34 34 34 -5 35 -28 34 -23 34 0 34 7 34 -7 35 -35 
34 -32 34 14 34 85 34 120 34 104 35 48 34 1 34 -25 
34 -29 34 -13 34 26 292 668 52 MP stroke
c8
35 92 34 13 34 -39 34 -62 34 -58 35 -26 34 22 34 47 
34 35 34 -4 34 -32 35 -39 34 -29 34 -17 34 -5 34 6 
34 10 35 8 34 2 34 1 34 11 34 25 35 37 34 42 
34 38 34 24 34 2 34 -27 35 -33 34 -12 34 25 34 38 
34 14 34 -36 35 -63 34 -58 34 -29 34 -11 34 -11 35 -24 
34 -21 34 8 34 48 34 64 34 42 35 -5 34 -39 34 -49 
34 -36 34 1 34 62 292 961 52 MP stroke
c9
35 -41 34 -12 34 8 34 17 34 15 35 3 34 -16 34 -25 
34 -21 34 -6 34 0 35 -2 34 -11 34 -9 34 10 34 36 
34 45 35 28 34 -6 34 -25 34 -22 34 -2 35 13 34 21 
34 18 34 9 34 -3 34 -19 35 -21 34 -8 34 14 34 20 
34 3 34 -29 35 -45 34 -35 34 -10 34 8 34 7 35 -5 
34 -9 34 -2 34 13 34 18 34 12 35 -5 34 -15 34 -18 
34 -10 34 6 34 31 292 964 52 MP stroke
c10
35 -21 34 -12 34 -7 34 -7 34 -9 35 -16 34 -26 34 -33 
34 -35 34 -32 34 -24 35 -8 34 12 34 27 34 36 34 38 
34 30 35 12 34 -9 34 -10 34 14 34 54 35 71 34 53 
34 13 34 -19 34 -28 34 -23 35 -17 34 -16 34 -18 34 -17 
34 -13 34 -8 35 -13 34 -33 34 -58 34 -65 34 -45 35 -8 
34 14 34 13 34 -6 34 -14 34 -7 35 12 34 25 34 27 
34 19 34 0 34 -29 292 1041 52 MP stroke
c11
35 -82 34 -39 34 -7 34 13 34 25 35 23 34 13 34 -6 
34 -31 34 -57 34 -54 35 -17 34 42 34 70 34 56 34 11 
34 -17 35 -15 34 7 34 21 34 20 34 5 35 1 34 10 
34 25 34 24 34 -4 34 -45 35 -62 34 -42 34 1 34 30 
34 30 34 9 35 -13 34 -33 34 -48 34 -44 34 -20 35 15 
34 30 34 16 34 -17 34 -32 34 -18 35 17 34 39 34 43 
34 26 34 -10 34 -67 292 999 52 MP stroke
c12
35 110 34 36 34 -18 34 -48 34 -57 35 -44 34 -18 34 -9 
34 -26 34 -58 34 -51 35 5 34 89 34 114 34 58 34 -54 
34 -118 35 -111 34 -45 34 13 34 48 34 62 35 64 34 56 
34 41 34 26 34 15 34 7 35 0 34 -4 34 -6 34 -12 
34 -22 34 -35 35 -47 34 -59 34 -69 34 -71 34 -66 35 -53 
34 -42 34 -30 34 -18 34 5 34 42 35 84 34 94 34 65 
34 -3 34 -112 34 -258 292 1345 52 MP stroke
c13
35 -61 34 -19 34 5 34 14 34 5 35 -21 34 -57 34 -78 
34 -79 34 -61 34 -42 35 -25 34 -7 34 10 34 32 34 52 
34 59 35 52 34 33 34 27 34 38 34 62 35 71 34 62 
34 37 34 10 34 -12 34 -31 35 -41 34 -40 34 -31 34 -23 
34 -18 34 -19 35 -36 34 -71 34 -112 34 -113 34 -60 35 28 
34 71 34 53 34 -10 34 -44 34 -29 35 20 34 49 34 43 
34 5 34 -69 34 -176 292 1271 52 MP stroke
0.25 sg
35 -47 34 -13 34 9 34 21 34 20 35 10 34 -10 34 -22 
34 -27 34 -23 34 -16 35 -9 34 0 34 10 34 17 34 23 
34 24 35 19 34 10 34 7 34 10 34 19 35 22 34 18 
34 6 34 -6 34 -16 34 -24 35 -25 34 -18 34 -6 34 0 
34 -2 34 -10 35 -20 34 -29 34 -36 34 -40 34 -41 35 -39 
34 -41 34 -48 34 -59 34 -58 34 -43 35 -18 34 4 34 22 
34 33 34 38 34 38 292 1183 52 MP stroke
c8
35 -10 34 -27 34 -35 34 -34 34 -25 35 -7 34 15 34 22 
34 11 34 -16 34 -29 35 -25 34 -6 34 12 34 26 34 35 
34 29 35 3 34 -31 34 -39 34 -13 34 36 35 62 34 52 
34 15 34 -14 34 -28 34 -27 35 -24 34 -18 34 -13 34 -11 
34 -14 34 -18 35 -14 34 0 34 21 34 18 34 -12 35 -59 
34 -71 34 -35 34 34 34 74 34 73 35 37 34 7 34 -9 
34 -10 34 5 34 34 292 884 52 MP stroke
c9
35 -23 34 -8 34 2 34 3 34 1 35 -10 34 -21 34 -23 
34 -6 34 18 34 30 35 24 34 2 34 -14 34 -18 34 -13 
34 -5 35 2 34 10 34 15 34 15 34 14 35 12 34 14 
34 18 34 19 34 17 34 11 35 -1 34 -18 34 -38 34 -40 
34 -16 34 23 35 43 34 41 34 17 34 -6 34 -24 35 -37 
34 -34 34 -17 34 10 34 24 34 16 35 -4 34 -13 34 -4 
34 22 34 66 34 128 292 724 52 MP stroke
c10
35 -96 34 -32 34 10 34 31 34 31 35 10 34 -24 34 -37 
34 -21 34 14 34 34 35 29 34 6 34 -8 34 -6 34 8 
34 17 35 18 34 13 34 10 34 11 34 15 35 9 34 -5 
34 -26 34 -40 34 -41 34 -32 35 -21 34 -5 34 8 34 12 
34 1 34 -18 35 -24 34 -14 34 9 34 28 34 38 35 38 
34 26 34 0 34 -36 34 -55 34 -56 35 -39 34 -17 34 5 
34 28 34 53 34 77 292 921 52 MP stroke
c11
35 -67 34 -40 34 -21 34 -5 34 4 35 7 34 5 34 1 
34 -6 34 -12 34 -5 35 17 34 46 34 51 34 25 34 -21 
34 -41 35 -20 34 27 34 47 34 27 34 -19 35 -41 34 -23 
34 20 34 34 34 5 34 -52 35 -80 34 -65 34 -21 34 2 
34 -11 34 -48 35 -67 34 -58 34 -29 34 -19 34 -37 35 -74 
34 -84 34 -58 34 -4 34 45 34 81 35 103 34 112 34 108 
34 91 34 61 34 19 292 825 52 MP stroke
c12
35 -40 34 -3 34 22 34 30 34 26 35 8 34 -22 34 -42 
34 -54 34 -52 34 -34 35 -2 34 41 34 64 34 58 34 32 
34 16 35 13 34 25 34 32 34 34 34 32 35 31 34 36 
34 40 34 31 34 6 34 -28 35 -38 34 -14 34 31 34 47 
34 21 34 -36 35 -73 34 -81 34 -64 34 -49 34 -39 35 -35 
34 -31 34 -27 34 -21 34 -17 34 -13 35 -11 34 -14 34 -25 
34 -42 34 -66 34 -95 292 1356 52 MP stroke
c13
35 109 34 44 34 -4 34 -32 34 -42 35 -33 34 -11 34 -5 
34 -18 34 -45 34 -59 35 -51 34 -29 34 -14 34 -10 34 -16 
34 -9 35 14 34 46 34 61 34 50 34 23 35 10 34 21 
34 47 34 58 34 44 34 14 35 -3 34 0 34 14 34 7 
34 -27 34 -77 35 -96 34 -67 34 -8 34 19 34 0 35 -53 
34 -82 34 -73 34 -36 34 -2 34 17 35 25 34 28 34 27 
34 22 34 15 34 3 292 1057 52 MP stroke
0.25 sg
35 32 34 9 34 -9 34 -20 34 -25 35 -24 34 -19 34 -20 
34 -31 34 -44 34 -45 35 -28 34 1 34 17 34 11 34 -7 
34 -17 35 -10 34 8 34 23 34 33 34 36 35 39 34 45 
34 48 34 41 34 20 34 -9 35 -20 34 -8 34 18 34 19 
34 -13 34 -67 35 -91 34 -72 34 -22 34 1 34 -13 35 -55 
34 -73 34 -56 34 -15 34 19 34 36 35 36 34 32 34 25 
34 15 34 3 34 -13 292 1055 52 MP stroke
c8
35 136 34 49 34 -12 34 -44 34 -51 35 -30 34 8 34 22 
34 2 34 -39 34 -56 35 -36 34 10 34 31 34 15 34 -25 
34 -43 35 -25 34 17 34 40 34 31 34 1 35 -9 34 8 
34 44 34 59 34 44 34 5 35 -16 34 -13 34 6 34 7 
34 -19 34 -60 35 -69 34 -33 34 31 34 58 34 33 35 -28 
34 -58 34 -36 34 18 34 40 34 14 35 -47 34 -83 34 -78 
34 -36 34 46 34 168 292 959 52 MP stroke
c9
35 112 34 64 34 27 34 -2 34 -21 35 -30 34 -32 34 -26 
34 -14 34 2 34 15 35 25 34 29 34 20 34 -1 34 -28 
34 -38 35 -24 34 5 34 19 34 8 34 -19 35 -29 34 -11 
34 22 34 38 34 25 34 -6 35 -20 34 -8 34 20 34 29 
34 9 34 -28 35 -42 34 -23 34 21 34 47 34 49 35 29 
34 9 34 -6 34 -15 34 -14 34 -3 35 17 34 27 34 26 
34 11 34 -16 34 -54 292 876 52 MP stroke
c10
35 -9 34 -9 34 -6 34 -3 34 2 35 9 34 15 34 13 
34 1 34 -16 34 -27 35 -26 34 -18 34 -8 34 -1 34 5 
34 5 35 -2 34 -11 34 -12 34 -1 34 20 35 29 34 26 
34 12 34 3 34 1 34 7 35 13 34 17 34 19 34 11 
34 -8 34 -34 35 -43 34 -30 34 -4 34 4 34 -13 35 -48 
34 -53 34 -22 34 37 34 78 34 90 35 78 34 54 34 20 
34 -21 34 -71 34 -129 292 964 52 MP stroke
c11
35 62 34 15 34 -21 34 -47 34 -61 35 -66 34 -60 34 -51 
34 -43 34 -32 34 -14 35 14 34 42 34 50 34 30 34 -8 
34 -26 35 -14 34 21 34 43 34 46 34 33 35 31 34 45 
34 68 34 66 34 34 34 -20 35 -50 34 -47 34 -21 34 -12 
34 -34 34 -73 35 -80 34 -44 34 16 34 32 34 -16 35 -103 
34 -132 34 -80 34 27 34 87 34 75 35 9 34 -40 34 -57 
34 -37 34 15 34 102 292 1095 52 MP stroke
c12
35 -9 34 -2 34 0 34 1 34 -3 35 -11 34 -19 34 -17 
34 -4 34 17 34 25 35 17 34 -4 34 -10 34 3 34 28 
34 34 35 18 34 -16 34 -34 34 -25 34 2 35 23 34 31 
34 27 34 9 34 -22 34 -60 35 -68 34 -38 34 17 34 49 
34 46 34 17 35 -7 34 -15 34 -12 34 -11 34 -17 35 -25 
34 -24 34 -10 34 14 34 36 34 54 35 66 34 61 34 39 
34 -1 34 -58 34 -133 292 953 52 MP stroke
c13
35 2 34 -5 34 -10 34 -10 34 -8 35 -1 34 7 34 9 
34 3 34 -7 34 -8 35 2 34 18 34 21 34 9 34 -16 
34 -21 35 -3 34 31 34 43 34 24 34 -14 35 -27 34 -4 
34 43 34 60 34 30 34 -26 35 -51 34 -27 34 31 34 51 
34 20 34 -48 35 -79 34 -57 34 1 34 29 34 12 35 -38 
34 -64 34 -52 34 -13 34 13 34 13 35 -7 34 -21 34 -25 
34 -18 34 1 34 30 292 1084 52 MP stroke
0.25 sg
35 80 34 32 34 -3 34 -27 34 -40 35 -42 34 -35 34 -31 
34 -35 34 -44 34 -49 35 -49 34 -44 34 -31 34 -10 34 15 
34 33 35 37 34 34 34 32 34 33 34 39 35 48 34 57 
34 65 34 54 34 20 34 -29 35 -47 34 -28 34 16 34 31 
34 1 34 -59 35 -97 34 -100 34 -77 34 -64 34 -70 35 -88 
34 -86 34 -53 34 -1 34 32 34 39 35 23 34 10 34 4 
34 6 34 15 34 32 292 1199 52 MP stroke
c8
35 -8 34 -7 34 -4 34 3 34 12 35 23 34 32 34 24 
34 -6 34 -48 34 -60 35 -33 34 21 34 47 34 31 34 -14 
34 -34 35 -16 34 26 34 46 34 32 34 -7 35 -27 34 -20 
34 8 34 23 34 15 34 -7 35 -15 34 -2 34 23 34 34 
34 20 34 -10 35 -31 34 -36 34 -30 34 -21 34 -16 35 -13 
34 -15 34 -23 34 -33 34 -35 34 -25 35 -5 34 16 34 34 
34 52 34 66 34 80 292 865 52 MP stroke
c9
35 3 34 -16 34 -30 34 -40 34 -45 35 -46 34 -41 34 -35 
34 -25 34 -14 34 -7 35 -6 34 -7 34 0 34 21 34 49 
34 64 35 60 34 42 34 25 34 16 34 10 35 8 34 6 
34 4 34 1 34 -5 34 -14 35 -21 34 -27 34 -33 34 -43 
34 -60 34 -75 35 -73 34 -46 34 -2 34 32 34 47 35 49 
34 52 34 59 34 68 34 65 34 48 35 20 34 -12 34 -40 
34 -67 34 -94 34 -119 292 1079 52 MP stroke
c10
35 -18 34 -5 34 -1 34 -8 34 -26 35 -54 34 -84 34 -83 
34 -41 34 25 34 56 35 36 34 -17 34 -46 34 -33 34 10 
34 39 35 47 34 36 34 27 34 25 34 30 35 39 34 54 
34 67 34 59 34 21 34 -34 35 -63 34 -55 34 -23 34 -12 
34 -35 34 -79 35 -97 34 -77 34 -29 34 1 34 1 35 -18 
34 -30 34 -24 34 -6 34 4 34 2 35 -8 34 -11 34 1 
34 24 34 62 34 111 292 988 52 MP stroke
c11
35 108 34 34 34 -17 34 -42 34 -42 35 -17 34 21 34 30 
34 -1 34 -56 34 -79 35 -54 34 5 34 42 34 44 34 20 
34 6 35 11 34 28 34 31 34 10 34 -22 35 -36 34 -24 
34 6 34 14 34 -7 34 -48 35 -60 34 -33 34 20 34 41 
34 16 34 -40 35 -70 34 -58 34 -18 34 3 34 -9 35 -43 
34 -59 34 -50 34 -21 34 -5 34 -6 35 -21 34 -24 34 -8 
34 26 34 80 34 152 292 1047 52 MP stroke
c12
35 76 34 16 34 -23 34 -42 34 -39 35 -15 34 20 34 32 
34 9 34 -35 34 -56 35 -45 34 -7 34 18 34 21 34 10 
34 4 35 10 34 24 34 34 34 36 34 30 35 22 34 9 
34 -6 34 -16 34 -23 34 -24 35 -14 34 6 34 30 34 33 
34 6 34 -37 35 -53 34 -27 34 22 34 39 34 11 35 -50 
34 -79 34 -58 34 -4 34 31 34 32 35 7 34 -8 34 -7 
34 11 34 45 34 98 292 863 52 MP stroke
c13
35 84 34 9 34 -42 34 -65 34 -62 35 -33 34 12 34 28 
34 5 34 -43 34 -69 35 -58 34 -20 34 10 34 23 34 22 
34 18 35 16 34 14 34 14 34 15 34 16 35 19 34 23 
34 28 34 22 34 9 34 -12 35 -21 34 -18 34 -2 34 3 
34 -3 34 -19 35 -28 34 -28 34 -19 34 -5 34 11 35 27 
34 38 34 41 34 37 34 30 34 19 35 6 34 -8 34 -22 
34 -37 34 -53 34 -68 292 991 52 MP stroke
0.25 sg
35 89 34 24 34 -17 34 -38 34 -34 35 -8 34 29 34 39 
34 9 34 -44 34 -64 35 -36 34 24 34 51 34 32 34 -22 
34 -44 35 -22 34 29 34 52 34 31 34 -21 35 -41 34 -18 
34 35 34 63 34 51 34 10 35 -16 34 -15 34 4 34 14 
34 6 34 -15 35 -32 34 -41 34 -42 34 -35 34 -19 35 1 
34 13 34 12 34 1 34 -8 34 -14 35 -15 34 -13 34 -7 
34 3 34 17 34 34 292 977 52 MP stroke
c8
35 19 34 3 34 -6 34 -6 34 1 35 16 34 33 34 36 
34 16 34 -17 34 -36 35 -32 34 -12 34 2 34 7 34 1 
34 -2 35 -4 34 -2 34 5 34 18 34 33 35 44 34 46 
34 41 34 32 34 20 34 6 35 3 34 12 34 30 34 43 
34 45 34 39 35 24 34 1 34 -27 34 -45 34 -48 35 -43 
34 -43 34 -53 34 -68 34 -66 34 -42 35 -3 34 25 34 37 
34 30 34 6 34 -34 292 991 52 MP stroke
c9
35 48 34 10 34 -15 34 -28 34 -29 35 -18 34 1 34 8 
34 -4 34 -24 34 -27 35 -7 34 28 34 43 34 25 34 -14 
34 -33 35 -20 34 13 34 28 34 15 34 -15 35 -26 34 -4 
34 36 34 56 34 44 34 8 35 -16 34 -22 34 -11 34 -5 
34 -5 34 -11 35 -14 34 -15 34 -11 34 -7 34 -1 35 6 
34 7 34 6 34 0 34 -1 34 4 35 11 34 16 34 18 
34 15 34 7 34 -3 292 873 52 MP stroke
c10
35 -119 34 -58 34 -17 34 2 34 1 35 -22 34 -56 34 -67 
34 -42 34 5 34 38 35 45 34 31 34 16 34 6 34 0 
34 -1 35 6 34 18 34 28 34 37 34 43 35 46 34 47 
34 44 34 26 34 -9 34 -52 35 -70 34 -56 34 -20 34 -8 
34 -28 34 -73 35 -90 34 -67 34 -18 34 5 34 -11 35 -49 
34 -58 34 -21 34 47 34 82 34 69 35 20 34 -20 34 -38 
34 -35 34 -13 34 32 292 1103 52 MP stroke
c11
35 14 34 -27 34 -56 34 -71 34 -72 35 -60 34 -40 34 -36 
34 -54 34 -83 34 -77 35 -27 34 50 34 93 34 84 34 37 
34 6 35 7 34 30 34 46 34 44 34 34 35 32 34 44 
34 62 34 61 34 31 34 -16 35 -50 34 -59 34 -52 34 -57 
34 -78 34 -108 35 -111 34 -77 34 -20 34 1 34 -23 35 -81 
34 -98 34 -61 34 16 34 72 34 90 35 79 34 58 34 37 
34 13 34 -12 34 -39 292 1103 52 MP stroke
c12
35 -6 34 -2 34 0 34 0 34 -2 35 -4 34 -8 34 -15 
34 -25 34 -32 34 -17 35 25 34 80 34 89 34 39 34 -48 
34 -87 35 -57 34 24 34 68 34 58 34 5 35 -22 34 -10 
34 29 34 43 34 19 34 -29 35 -45 34 -17 34 41 34 67 
34 47 34 -9 35 -45 34 -50 34 -33 34 -19 34 -18 35 -23 
34 -22 34 -11 34 7 34 13 34 2 35 -20 34 -31 34 -27 
34 -7 34 26 34 77 292 943 52 MP stroke
c13
35 106 34 -31 34 -118 34 -151 34 -134 35 -64 34 35 34 81 
34 49 34 -32 34 -61 35 -13 34 86 34 133 34 101 34 13 
34 -31 35 -9 34 59 34 92 34 70 34 9 35 -36 34 -53 
34 -46 34 -59 34 -95 34 -143 35 -147 34 -88 34 7 34 49 
34 16 34 -68 35 -96 34 -42 34 66 34 119 34 93 35 10 
34 -27 34 6 34 89 34 141 34 141 35 98 34 63 34 44 
34 42 34 56 34 89 292 385 52 MP stroke
0.25 sg
35 143 34 45 34 -22 34 -58 34 -64 35 -38 34 6 34 26 
34 8 34 -34 34 -52 35 -34 34 9 34 36 34 35 34 11 
34 -8 35 -14 34 -11 34 -3 34 6 34 17 35 22 34 20 
34 10 34 0 34 -10 34 -19 35 -16 34 3 34 27 34 33 
34 12 34 -26 35 -43 34 -27 34 7 34 25 34 13 35 -18 
34 -32 34 -19 34 10 34 26 34 20 35 -4 34 -21 34 -26 
34 -18 34 1 34 33 292 964 52 MP stroke
c8
35 -5 34 -11 34 -11 34 -8 34 -1 35 12 34 23 34 15 
34 -14 34 -59 34 -74 35 -51 34 -3 34 26 34 25 34 1 
34 -5 35 17 34 54 34 66 34 37 34 -15 35 -44 34 -37 
34 -2 34 22 34 31 34 23 35 7 34 -14 34 -35 34 -34 
34 -3 34 43 35 56 34 21 34 -43 34 -76 34 -60 35 -9 
34 22 34 25 34 2 34 -14 34 -18 35 -11 34 -7 34 -8 
34 -16 34 -27 34 -45 292 1097 52 MP stroke
c9
35 2 34 -13 34 -21 34 -20 34 -13 35 4 34 22 34 26 
34 10 34 -17 34 -31 35 -21 34 3 34 19 34 21 34 9 
34 -2 35 -10 34 -15 34 -17 34 -13 34 -8 35 -3 34 3 
34 4 34 -2 34 -18 34 -41 35 -43 34 -23 34 14 34 34 
34 29 34 5 35 -16 34 -26 34 -26 34 -19 34 -6 35 10 
34 14 34 3 34 -17 34 -23 34 -11 35 15 34 31 34 29 
34 12 34 -21 34 -71 292 1068 52 MP stroke
c10
35 -4 34 7 34 13 34 16 34 15 35 9 34 1 34 -8 
34 -17 34 -24 34 -25 35 -18 34 -5 34 -1 34 -10 34 -24 
34 -24 35 -5 34 27 34 37 34 21 34 -13 35 -26 34 -3 
34 40 34 66 34 62 34 33 35 8 34 -7 34 -14 34 -15 
34 -11 34 -4 35 -1 34 -5 34 -15 34 -23 34 -29 35 -32 
34 -28 34 -15 34 4 34 14 34 9 35 -5 34 -14 34 -18 
34 -15 34 -4 34 13 292 1007 52 MP stroke
c11
35 -5 34 -8 34 -11 34 -12 34 -14 35 -14 34 -14 34 -16 
34 -23 34 -29 34 -29 35 -17 34 2 34 22 34 40 34 55 
34 52 35 32 34 -2 34 -23 34 -26 34 -13 35 2 34 19 
34 34 34 37 34 28 34 9 35 -9 34 -21 34 -29 34 -28 
34 -21 34 -9 35 -13 34 -34 34 -65 34 -76 34 -59 35 -21 
34 3 34 5 34 -7 34 -2 34 30 35 77 34 98 34 81 
34 30 34 -59 34 -184 292 1076 52 MP stroke
c12
35 15 34 4 34 -5 34 -9 34 -10 35 -5 34 0 34 2 
34 -2 34 -11 34 -13 35 -8 34 1 34 7 34 8 34 1 
34 -7 35 -18 34 -30 34 -26 34 -6 34 26 35 40 34 30 
34 4 34 -16 34 -22 34 -18 35 -7 34 9 34 25 34 35 
34 36 34 28 35 14 34 -5 34 -26 34 -28 34 -7 35 28 
34 46 34 38 34 10 34 -5 34 3 35 22 34 27 34 7 
34 -36 34 -103 34 -192 292 1084 52 MP stroke
c13
35 29 34 -4 34 -25 34 -34 34 -30 35 -14 34 8 34 7 
34 -20 34 -64 34 -74 35 -35 34 34 34 79 34 81 34 54 
34 31 35 25 34 30 34 29 34 18 34 0 35 -9 34 -4 
34 7 34 1 34 -30 34 -73 35 -82 34 -47 34 16 34 40 
34 5 34 -68 35 -102 34 -78 34 -12 34 23 34 10 35 -34 
34 -51 34 -27 34 28 34 58 34 53 35 19 34 -8 34 -19 
34 -15 34 3 34 39 292 1057 52 MP stroke
0.25 sg
35 11 34 10 34 9 34 7 34 6 35 5 34 3 34 -4 
34 -20 34 -37 34 -37 35 -17 34 18 34 35 34 30 34 7 
34 -5 35 1 34 16 34 22 34 7 34 -17 35 -26 34 -10 
34 20 34 34 34 20 34 -10 35 -24 34 -11 34 17 34 28 
34 8 34 -28 35 -46 34 -35 34 -3 34 15 34 15 35 -3 
34 -14 34 -15 34 -9 34 -5 34 -5 35 -9 34 -9 34 -3 
34 7 34 24 34 46 292 932 52 MP stroke
c8
35 36 34 22 34 11 34 0 34 -10 35 -19 34 -28 34 -41 
34 -56 34 -72 34 -68 35 -42 34 1 34 26 34 27 34 10 
34 3 35 13 34 33 34 38 34 23 34 -4 35 -8 34 20 
34 65 34 80 34 52 34 -5 35 -37 34 -30 34 4 34 15 
34 -8 34 -55 35 -81 34 -75 34 -46 34 -25 34 -17 35 -23 
34 -34 34 -47 34 -53 34 -16 34 77 35 197 34 242 34 188 
34 32 34 -222 34 -578 292 1313 52 MP stroke
c9
35 45 34 15 34 -4 34 -16 34 -19 35 -13 34 -1 34 5 
34 7 34 1 34 -3 35 -4 34 -3 34 -1 34 -1 34 0 
34 1 35 4 34 7 34 5 34 -1 34 -8 35 -9 34 1 
34 16 34 19 34 8 34 -14 35 -21 34 -11 34 13 34 18 
34 1 34 -30 35 -38 34 -9 34 40 34 57 34 26 35 -37 
34 -68 34 -53 34 -4 34 28 34 35 35 19 34 4 34 -2 
34 0 34 8 34 24 292 911 52 MP stroke
c10
35 14 34 -29 34 -49 34 -44 34 -16 35 36 34 97 34 103 
34 37 34 -72 34 -123 35 -90 34 4 34 58 34 50 34 -4 
34 -28 35 -8 34 43 34 60 34 22 34 -44 35 -58 34 4 
34 110 34 145 34 81 34 -54 35 -130 34 -115 34 -35 34 19 
34 21 34 -14 35 -37 34 -34 34 -11 34 17 34 45 35 67 
34 65 34 30 34 -22 34 -47 34 -29 35 15 34 40 34 30 
34 -14 34 -91 34 -202 292 1127 52 MP stroke
c11
35 62 34 27 34 2 34 -14 34 -21 35 -18 34 -11 34 -12 
34 -28 34 -50 34 -49 35 -18 34 31 34 55 34 39 34 -4 
34 -37 35 -47 34 -38 34 -18 34 13 34 47 35 64 34 57 
34 33 34 12 34 1 34 -3 35 -3 34 0 34 5 34 9 
34 13 34 15 35 4 34 -19 34 -50 34 -60 34 -45 35 -9 
34 14 34 19 34 9 34 -2 34 -7 35 -7 34 -5 34 2 
34 11 34 26 34 43 292 897 52 MP stroke
c12
35 -61 34 -5 34 31 34 48 34 44 35 20 34 -16 34 -46 
34 -60 34 -63 34 -57 35 -46 34 -31 34 -17 34 -5 34 4 
34 10 35 15 34 17 34 15 34 8 34 1 35 3 34 18 
34 40 34 48 34 34 34 8 35 -9 34 -7 34 8 34 13 
34 3 34 -18 35 -34 34 -41 34 -41 34 -41 34 -41 35 -41 
34 -36 34 -24 34 -8 34 4 34 12 35 15 34 17 34 21 
34 26 34 32 34 38 292 975 52 MP stroke
c13
35 16 34 -19 34 -40 34 -47 34 -41 35 -21 34 6 34 16 
34 5 34 -23 34 -32 35 -15 34 19 34 32 34 19 34 -15 
34 -26 35 -5 34 37 34 55 34 42 34 3 35 -19 34 -16 
34 4 34 16 34 12 34 -6 35 -17 34 -23 34 -19 34 -15 
34 -8 34 -2 35 1 34 1 34 -6 34 -16 34 -34 35 -53 
34 -50 34 -25 34 17 34 46 34 51 35 40 34 29 34 25 
34 27 34 37 34 53 292 804 52 MP stroke
0.25 sg
35 -7 34 -26 34 -37 34 -36 34 -28 35 -8 34 16 34 23 
34 9 34 -17 34 -25 35 -6 34 32 34 49 34 37 34 4 
34 -16 35 -12 34 6 34 13 34 2 34 -20 35 -26 34 -10 
34 20 34 31 34 16 34 -17 35 -31 34 -19 34 11 34 23 
34 9 34 -24 35 -32 34 -6 34 42 34 60 34 40 35 -9 
34 -33 34 -17 34 24 34 42 34 25 35 -19 34 -49 34 -52 
34 -33 34 11 34 80 292 879 52 MP stroke
c8
35 6 34 -18 34 -28 34 -23 34 -5 35 28 34 64 34 60 
34 7 34 -77 34 -112 35 -75 34 7 34 55 34 44 34 -6 
34 -20 35 18 34 92 34 115 34 68 34 -25 35 -77 34 -63 
34 -3 34 30 34 21 34 -23 35 -48 34 -47 34 -23 34 -8 
34 -9 34 -19 35 -14 34 12 34 50 34 58 34 23 35 -38 
34 -61 34 -32 34 35 34 86 34 106 35 99 34 77 34 42 
34 -3 34 -61 34 -130 292 801 52 MP stroke
c9
35 34 34 -29 34 -69 34 -81 34 -70 35 -33 34 20 34 45 
34 34 34 -3 34 -24 35 -18 34 7 34 20 34 13 34 -10 
34 -28 35 -34 34 -32 34 -22 34 -5 34 16 35 26 34 22 
34 9 34 5 34 13 34 28 35 35 34 27 34 10 34 -2 
34 -2 34 5 35 6 34 -3 34 -19 34 -24 34 -11 35 11 
34 21 34 14 34 -7 34 -19 34 -14 35 -1 34 9 34 8 
34 -2 34 -21 34 -49 292 977 52 MP stroke
c10
35 -7 34 -7 34 -10 34 -14 34 -20 35 -27 34 -34 34 -29 
34 -9 34 18 34 37 35 41 34 32 34 21 34 8 34 -4 
34 -9 35 -6 34 6 34 15 34 22 34 24 35 17 34 -4 
34 -28 34 -38 34 -24 34 4 35 22 34 22 34 7 34 -9 
34 -28 34 -42 35 -42 34 -22 34 10 34 31 34 36 35 26 
34 12 34 -3 34 -19 34 -26 34 -25 35 -16 34 -5 34 5 
34 16 34 27 34 37 292 911 52 MP stroke
c11
35 109 34 27 34 -32 34 -65 34 -74 35 -56 34 -24 34 -11 
34 -29 34 -65 34 -72 35 -39 34 21 34 56 34 54 34 23 
34 -4 35 -19 34 -23 34 -16 34 -1 34 20 35 38 34 48 
34 52 34 50 34 40 34 25 35 3 34 -23 34 -50 34 -55 
34 -31 34 9 35 15 34 -29 34 -101 34 -123 34 -75 35 17 
34 60 34 30 34 -49 34 -76 34 -27 35 74 34 135 34 129 
34 58 34 -80 34 -282 292 1191 52 MP stroke
c12
35 -377 34 -156 34 2 34 99 34 135 35 107 34 36 34 -17 
34 -35 34 -22 34 -5 35 11 34 25 34 28 34 17 34 -3 
34 -11 35 -5 34 12 34 21 34 20 34 11 35 10 34 19 
34 33 34 16 34 -41 34 -116 35 -127 34 -55 34 67 34 96 
34 -1 34 -177 35 -239 34 -136 34 75 34 174 34 106 35 -78 
34 -174 34 -132 34 10 34 95 34 87 35 6 34 -53 34 -70 
34 -44 34 28 34 141 292 1180 52 MP stroke
c13
35 -34 34 -21 34 -12 34 -6 34 -7 35 -11 34 -18 34 -25 
34 -31 34 -34 34 -26 35 -10 34 14 34 29 34 32 34 24 
34 16 35 8 34 3 34 4 34 12 34 25 35 35 34 38 
34 34 34 20 34 -6 34 -35 35 -45 34 -24 34 13 34 24 
34 -5 34 -57 35 -81 34 -64 34 -19 34 9 34 4 35 -22 
34 -37 34 -31 34 -11 34 6 34 13 35 11 34 9 34 12 
34 14 34 21 34 29 292 1009 52 MP stroke
0.25 sg
35 8 34 -12 34 -26 34 -33 34 -36 35 -32 34 -24 34 -18 
34 -17 34 -17 34 -7 35 14 34 43 34 60 34 62 34 51 
34 48 35 53 34 65 34 59 34 31 34 -12 35 -38 34 -38 
34 -22 34 -8 34 -5 34 -11 35 -16 34 -18 34 -19 34 -16 
34 -13 34 -7 35 2 34 15 34 31 34 44 34 51 35 55 
34 60 34 69 34 75 34 63 34 27 35 -26 34 -69 34 -94 
34 -102 34 -93 34 -67 292 951 52 MP stroke
c8
35 28 34 4 34 -13 34 -21 34 -20 35 -12 34 1 34 2 
34 -11 34 -33 34 -34 35 -5 34 41 34 64 34 55 34 19 
34 -4 35 -10 34 0 34 1 34 -9 34 -26 35 -23 34 6 
34 52 34 69 34 47 34 0 35 -22 34 -4 34 39 34 55 
34 26 34 -32 35 -68 34 -68 34 -42 34 -18 34 -4 35 1 
34 3 34 4 34 1 34 -11 34 -33 35 -60 34 -74 34 -69 
34 -43 34 -1 34 63 292 1140 52 MP stroke
c9
35 -50 34 -33 34 -21 34 -13 34 -10 35 -12 34 -18 34 -29 
34 -41 34 -53 34 -52 35 -31 34 2 34 25 34 35 34 32 
34 29 35 27 34 26 34 26 34 25 34 25 35 29 34 39 
34 51 34 43 34 8 34 -41 35 -66 34 -53 34 -19 34 -6 
34 -29 34 -74 35 -102 34 -101 34 -74 34 -41 34 -5 35 29 
34 43 34 32 34 4 34 -10 34 -5 35 16 34 26 34 22 
34 4 34 -31 34 -79 292 1185 52 MP stroke
c10
35 108 34 28 34 -24 34 -51 34 -49 35 -20 34 24 34 41 
34 17 34 -32 34 -56 35 -45 34 -6 34 18 34 15 34 -6 
34 -13 35 3 34 33 34 46 34 35 34 8 35 -7 34 -1 
34 22 34 32 34 26 34 8 35 -8 34 -16 34 -18 34 -24 
34 -35 34 -46 35 -36 34 2 34 55 34 79 34 63 35 19 
34 -3 34 11 34 48 34 58 34 30 35 -29 34 -78 34 -112 
34 -126 34 -124 34 -104 292 1233 52 MP stroke
c11
35 -54 34 -62 34 -60 34 -52 34 -34 35 -10 34 18 34 33 
34 26 34 7 34 -7 35 -13 34 -9 34 -5 34 -2 34 0 
34 -2 35 -9 34 -17 34 -18 34 -7 34 12 35 24 34 28 
34 21 34 11 34 -3 34 -18 35 -20 34 -2 34 25 34 34 
34 16 34 -19 35 -35 34 -26 34 2 34 18 34 14 35 -5 
34 -17 34 -18 34 -9 34 -2 34 1 35 -1 34 0 34 6 
34 15 34 29 34 47 292 881 52 MP stroke
c12
35 -112 34 -47 34 -1 34 26 34 33 35 21 34 -4 34 -20 
34 -21 34 -11 34 1 35 10 34 16 34 17 34 12 34 0 
34 -12 35 -28 34 -40 34 -37 34 -14 34 21 35 39 34 34 
34 10 34 -7 34 -11 34 -7 35 1 34 6 34 10 34 14 
34 16 34 16 35 14 34 10 34 3 34 -6 34 -21 35 -36 
34 -36 34 -19 34 9 34 23 34 16 35 -7 34 -19 34 -17 
34 3 34 37 34 88 292 855 52 MP stroke
c13
35 -86 34 -38 34 -7 34 6 34 1 35 -20 34 -53 34 -63 
34 -47 34 -10 34 21 35 37 34 42 34 47 34 55 34 64 
34 58 35 35 34 2 34 -16 34 -12 34 7 35 18 34 12 
34 -6 34 -30 34 -57 34 -83 35 -85 34 -59 34 -15 34 8 
34 -1 34 -34 35 -50 34 -44 34 -16 34 16 34 51 35 80 
34 84 34 57 34 12 34 0 34 33 35 95 34 119 34 90 
34 9 34 -127 34 -316 292 1017 52 MP stroke
0.25 sg
35 -23 34 -13 34 -6 34 -5 34 -6 35 -13 34 -22 34 -22 
34 -12 34 4 34 15 35 15 34 10 34 6 34 6 34 8 
34 2 35 -16 34 -37 34 -38 34 -7 34 40 35 66 34 56 
34 22 34 -10 34 -28 34 -33 35 -27 34 -9 34 17 34 31 
34 27 34 8 35 -12 34 -31 34 -45 34 -41 34 -18 35 19 
34 37 34 29 34 4 34 -8 34 4 35 32 34 45 34 38 
34 10 34 -38 34 -108 292 956 52 MP stroke
c8
35 -25 34 -43 34 -49 34 -46 34 -30 35 -4 34 26 34 32 
34 8 34 -35 34 -53 35 -34 34 10 34 34 34 22 34 -12 
34 -31 35 -23 34 4 34 23 34 23 34 12 35 8 34 18 
34 33 34 32 34 9 34 -26 35 -37 34 -14 34 32 34 49 
34 26 34 -27 35 -58 34 -51 34 -21 34 -3 34 -6 35 -24 
34 -30 34 -15 34 13 34 28 34 23 35 4 34 -9 34 -11 
34 -3 34 17 34 47 292 943 52 MP stroke
c9
35 77 34 17 34 -22 34 -41 34 -37 35 -13 34 23 34 33 
34 8 34 -39 34 -60 35 -42 34 3 34 28 34 22 34 -7 
34 -18 35 -4 34 28 34 40 34 25 34 -10 35 -26 34 -12 
34 21 34 42 34 38 34 19 35 3 34 -6 34 -5 34 -1 
34 6 34 16 35 16 34 6 34 -14 34 -28 34 -36 35 -34 
34 -23 34 -1 34 24 34 30 34 7 35 -33 34 -60 34 -62 
34 -41 34 3 34 70 292 1015 52 MP stroke
c10
35 140 34 40 34 -28 34 -61 34 -60 35 -26 34 29 34 51 
34 27 34 -28 34 -55 35 -40 34 7 34 31 34 24 34 -9 
34 -24 35 -13 34 17 34 28 34 14 34 -19 35 -36 34 -30 
34 -7 34 14 34 25 34 26 35 19 34 3 34 -18 34 -19 
34 5 34 42 35 55 34 33 34 -13 34 -43 34 -45 35 -26 
34 -6 34 8 34 14 34 5 34 -19 35 -54 34 -71 34 -62 
34 -28 34 30 34 113 292 1004 52 MP stroke
c11
35 149 34 7 34 -87 34 -130 34 -124 35 -69 34 17 34 51 
34 12 34 -74 34 -108 35 -68 34 24 34 73 34 52 34 -16 
34 -43 35 -8 34 70 34 110 34 92 34 34 35 4 34 21 
34 66 34 72 34 19 34 -69 35 -106 34 -70 34 12 34 40 
34 -15 34 -121 35 -167 34 -122 34 -15 34 49 34 38 35 -24 
34 -48 34 -14 34 59 34 95 34 73 35 7 34 -53 34 -95 
34 -121 34 -128 34 -117 292 1463 52 MP stroke
c12
35 170 34 33 34 -62 34 -111 34 -119 35 -82 34 -17 34 11 
34 -15 34 -74 34 -96 35 -62 34 12 34 58 34 61 34 31 
34 14 35 21 34 46 34 58 34 51 34 32 35 28 34 47 
34 77 34 71 34 17 34 -67 35 -105 34 -79 34 -8 34 19 
34 -16 34 -94 35 -132 34 -110 34 -46 34 -15 34 -35 35 -87 
34 -92 34 -32 34 71 34 126 34 110 35 41 34 -9 34 -24 
34 -2 34 57 34 150 292 911 52 MP stroke
gr

c12

end %%Color Dict

eplot
%%EndObject

epage
end

showpage

%%Trailer
%%EOF
