%!PS-Adobe-3.0 EPSF-3.0
%%Creator: MATLAB, The Mathworks, Inc. Version 7.10.0.499 (R2010a). Operating System: Microsoft Windows 7.
%%Title: C:\Users\wwu\Desktop\warping\James_code\comp_toy_mm.eps
%%CreationDate: 04/12/2011  15:03:00
%%DocumentNeededFonts: Helvetica
%%DocumentProcessColors: Cyan Magenta Yellow Black
%%LanguageLevel: 2
%%Pages: 1
%%BoundingBox:   212   320   399   470
%%EndComments

%%BeginProlog
% MathWorks dictionary
/MathWorks 160 dict begin
% definition operators
/bdef {bind def} bind def
/ldef {load def} bind def
/xdef {exch def} bdef
/xstore {exch store} bdef
% operator abbreviations
/c  /clip ldef
/cc /concat ldef
/cp /closepath ldef
/gr /grestore ldef
/gs /gsave ldef
/mt /moveto ldef
/np /newpath ldef
/cm /currentmatrix ldef
/sm /setmatrix ldef
/rm /rmoveto ldef
/rl /rlineto ldef
/s {show newpath} bdef
/sc {setcmykcolor} bdef
/sr /setrgbcolor ldef
/sg /setgray ldef
/w /setlinewidth ldef
/j /setlinejoin ldef
/cap /setlinecap ldef
/rc {rectclip} bdef
/rf {rectfill} bdef
% page state control
/pgsv () def
/bpage {/pgsv save def} bdef
/epage {pgsv restore} bdef
/bplot /gsave ldef
/eplot {stroke grestore} bdef
% orientation switch
/portraitMode 0 def /landscapeMode 1 def /rotateMode 2 def
% coordinate system mappings
/dpi2point 0 def
% font control
/FontSize 0 def
/FMS {/FontSize xstore findfont [FontSize 0 0 FontSize neg 0 0]
  makefont setfont} bdef
/ISOLatin1Encoding where {pop /WindowsLatin1Encoding 256 array bdef
ISOLatin1Encoding WindowsLatin1Encoding copy pop
/.notdef/.notdef/quotesinglbase/florin/quotedblbase/ellipsis/dagger
/daggerdbl/circumflex/perthousand/Scaron/guilsinglleft/OE/.notdef/.notdef
/.notdef/.notdef/quoteleft/quoteright/quotedblleft/quotedblright/bullet
/endash/emdash/tilde/trademark/scaron/guilsinglright/oe/.notdef/.notdef
/Ydieresis WindowsLatin1Encoding 128 32 getinterval astore pop}
{/WindowsLatin1Encoding StandardEncoding bdef} ifelse
/reencode {exch dup where {pop load} {pop StandardEncoding} ifelse
  exch dup 3 1 roll findfont dup length dict begin
  { 1 index /FID ne {def}{pop pop} ifelse } forall
  /Encoding exch def currentdict end definefont pop} bdef
/isroman {findfont /CharStrings get /Agrave known} bdef
/FMSR {3 1 roll 1 index dup isroman {reencode} {pop pop} ifelse
  exch FMS} bdef
/csm {1 dpi2point div -1 dpi2point div scale neg translate
 dup landscapeMode eq {pop -90 rotate}
  {rotateMode eq {90 rotate} if} ifelse} bdef
% line types: solid, dotted, dashed, dotdash
/SO { [] 0 setdash } bdef
/DO { [.5 dpi2point mul 4 dpi2point mul] 0 setdash } bdef
/DA { [6 dpi2point mul] 0 setdash } bdef
/DD { [.5 dpi2point mul 4 dpi2point mul 6 dpi2point mul 4
  dpi2point mul] 0 setdash } bdef
% macros for lines and objects
/L {lineto stroke} bdef
/MP {3 1 roll moveto 1 sub {rlineto} repeat} bdef
/AP {{rlineto} repeat} bdef
/PDlw -1 def
/W {/PDlw currentlinewidth def setlinewidth} def
/PP {closepath eofill} bdef
/DP {closepath stroke} bdef
/MR {4 -2 roll moveto dup  0 exch rlineto exch 0 rlineto
  neg 0 exch rlineto closepath} bdef
/FR {MR stroke} bdef
/PR {MR fill} bdef
/L1i {{currentfile picstr readhexstring pop} image} bdef
/tMatrix matrix def
/MakeOval {newpath tMatrix currentmatrix pop translate scale
0 0 1 0 360 arc tMatrix setmatrix} bdef
/FO {MakeOval stroke} bdef
/PO {MakeOval fill} bdef
/PD {currentlinewidth 2 div 0 360 arc fill
   PDlw -1 eq not {PDlw w /PDlw -1 def} if} def
/FA {newpath tMatrix currentmatrix pop translate scale
  0 0 1 5 -2 roll arc tMatrix setmatrix stroke} bdef
/PA {newpath tMatrix currentmatrix pop	translate 0 0 moveto scale
  0 0 1 5 -2 roll arc closepath tMatrix setmatrix fill} bdef
/FAn {newpath tMatrix currentmatrix pop translate scale
  0 0 1 5 -2 roll arcn tMatrix setmatrix stroke} bdef
/PAn {newpath tMatrix currentmatrix pop translate 0 0 moveto scale
  0 0 1 5 -2 roll arcn closepath tMatrix setmatrix fill} bdef
/vradius 0 def /hradius 0 def /lry 0 def
/lrx 0 def /uly 0 def /ulx 0 def /rad 0 def
/MRR {/vradius xdef /hradius xdef /lry xdef /lrx xdef /uly xdef
  /ulx xdef newpath tMatrix currentmatrix pop ulx hradius add uly
  vradius add translate hradius vradius scale 0 0 1 180 270 arc 
  tMatrix setmatrix lrx hradius sub uly vradius add translate
  hradius vradius scale 0 0 1 270 360 arc tMatrix setmatrix
  lrx hradius sub lry vradius sub translate hradius vradius scale
  0 0 1 0 90 arc tMatrix setmatrix ulx hradius add lry vradius sub
  translate hradius vradius scale 0 0 1 90 180 arc tMatrix setmatrix
  closepath} bdef
/FRR {MRR stroke } bdef
/PRR {MRR fill } bdef
/MlrRR {/lry xdef /lrx xdef /uly xdef /ulx xdef /rad lry uly sub 2 div def
  newpath tMatrix currentmatrix pop ulx rad add uly rad add translate
  rad rad scale 0 0 1 90 270 arc tMatrix setmatrix lrx rad sub lry rad
  sub translate rad rad scale 0 0 1 270 90 arc tMatrix setmatrix
  closepath} bdef
/FlrRR {MlrRR stroke } bdef
/PlrRR {MlrRR fill } bdef
/MtbRR {/lry xdef /lrx xdef /uly xdef /ulx xdef /rad lrx ulx sub 2 div def
  newpath tMatrix currentmatrix pop ulx rad add uly rad add translate
  rad rad scale 0 0 1 180 360 arc tMatrix setmatrix lrx rad sub lry rad
  sub translate rad rad scale 0 0 1 0 180 arc tMatrix setmatrix
  closepath} bdef
/FtbRR {MtbRR stroke } bdef
/PtbRR {MtbRR fill } bdef
/stri 6 array def /dtri 6 array def
/smat 6 array def /dmat 6 array def
/tmat1 6 array def /tmat2 6 array def /dif 3 array def
/asub {/ind2 exch def /ind1 exch def dup dup
  ind1 get exch ind2 get sub exch } bdef
/tri_to_matrix {
  2 0 asub 3 1 asub 4 0 asub 5 1 asub
  dup 0 get exch 1 get 7 -1 roll astore } bdef
/compute_transform {
  dmat dtri tri_to_matrix tmat1 invertmatrix 
  smat stri tri_to_matrix tmat2 concatmatrix } bdef
/ds {stri astore pop} bdef
/dt {dtri astore pop} bdef
/db {2 copy /cols xdef /rows xdef mul dup 3 mul string
  currentfile 
  3 index 0 eq {/ASCIIHexDecode filter}
  {/ASCII85Decode filter 3 index 2 eq {/RunLengthDecode filter} if }
  ifelse exch readstring pop
  dup 0 3 index getinterval /rbmap xdef
  dup 2 index dup getinterval /gbmap xdef
  1 index dup 2 mul exch getinterval /bbmap xdef pop pop}bdef
/it {gs np dtri aload pop moveto lineto lineto cp c
  cols rows 8 compute_transform 
  rbmap gbmap bbmap true 3 colorimage gr}bdef
/il {newpath moveto lineto stroke}bdef
currentdict end def
%%EndProlog

%%BeginSetup
MathWorks begin

0 cap

end
%%EndSetup

%%Page: 1 1
%%BeginPageSetup
%%PageBoundingBox:   212   320   399   470
MathWorks begin
bpage
%%EndPageSetup

%%BeginObject: obj1
bplot

/dpi2point 12 def
portraitMode 2544 5640 csm

    0     0  2249  1800 rc
85 dict begin %Colortable dictionary
/c0 { 0.000000 0.000000 0.000000 sr} bdef
/c1 { 1.000000 1.000000 1.000000 sr} bdef
/c2 { 0.900000 0.000000 0.000000 sr} bdef
/c3 { 0.000000 0.820000 0.000000 sr} bdef
/c4 { 0.000000 0.000000 0.800000 sr} bdef
/c5 { 0.910000 0.820000 0.320000 sr} bdef
/c6 { 1.000000 0.260000 0.820000 sr} bdef
/c7 { 0.000000 0.820000 0.820000 sr} bdef
c0
1 j
1 sg
   0    0 2250 1801 rf
6 w
0 1467 1743 0 0 -1467 292 1602 4 MP
PP
-1743 0 0 1467 1743 0 0 -1467 292 1602 5 MP stroke
4 w
DO
SO
6 w
0 sg
 292  135 mt 2035  135 L
 292 1602 mt 2035 1602 L
2035 1602 mt 2035  135 L
 292 1602 mt  292  135 L
 292 1602 mt 2035 1602 L
 292 1602 mt  292  135 L
 292 1602 mt  292 1584 L
 292  135 mt  292  152 L
%%IncludeResource: font Helvetica
/Helvetica /WindowsLatin1Encoding 120 FMSR

 259 1747 mt 
(0) s
1163 1602 mt 1163 1584 L
1163  135 mt 1163  152 L
1080 1747 mt 
(0.5) s
2035 1602 mt 2035 1584 L
2035  135 mt 2035  152 L
2002 1747 mt 
(1) s
 292 1602 mt  309 1602 L
2035 1602 mt 2017 1602 L
 191 1646 mt 
(0) s
 292 1276 mt  309 1276 L
2035 1276 mt 2017 1276 L
 191 1320 mt 
(2) s
 292  950 mt  309  950 L
2035  950 mt 2017  950 L
 191  994 mt 
(4) s
 292  624 mt  309  624 L
2035  624 mt 2017  624 L
 191  668 mt 
(6) s
 292  298 mt  309  298 L
2035  298 mt 2017  298 L
 191  342 mt 
(8) s
 292  135 mt 2035  135 L
 292 1602 mt 2035 1602 L
2035 1602 mt 2035  135 L
 292 1602 mt  292  135 L
gs 292 135 1744 1468 rc
/c8 { 0.000000 0.000000 1.000000 sr} bdef
c8
18 0 17 0 18 0 17 0 18 0 17 0 18 0 17 0 
17 0 18 0 17 0 18 0 17 0 18 0 17 0 17 0 
18 0 17 0 18 0 17 0 18 0 17 0 17 0 18 0 
17 0 18 0 17 0 18 0 17 0 17 0 18 0 17 0 
18 0 17 0 18 0 17 0 17 0 18 0 17 0 18 0 
17 0 18 0 17 0 17 1 18 -1 17 0 18 1 17 -1 
18 0 17 1 17 -1 18 1 17 -1 18 0 17 1 18 -1 
17 1 17 -1 18 1 17 0 18 -1 17 0 18 1 17 -1 
17 1 18 0 17 72 18 0 17 -72 18 0 17 -1 17 0 
18 0 17 0 11 -1 734 1603 76 MP stroke
/c9 { 0.000000 0.500000 0.000000 sr} bdef
c9
18 0 17 0 18 0 17 0 18 0 17 0 18 0 17 0 
17 0 18 0 17 0 18 0 17 0 18 0 17 0 17 0 
18 0 17 0 18 0 17 0 18 0 17 0 17 0 18 1 
17 0 18 -1 17 1 18 -1 17 0 17 1 18 -1 17 1 
18 0 17 0 18 1 17 4 17 10 18 21 17 39 18 64 
17 92 18 122 17 149 17 167 18 176 17 170 18 151 17 117 
18 76 17 27 17 -25 18 -73 17 -115 18 -149 17 -170 18 -177 
17 -172 17 -156 18 -130 17 -99 18 -67 17 -37 18 -14 17 -3 
10 -1 909 1603 66 MP stroke
/c10 { 1.000000 0.000000 0.000000 sr} bdef
c10
18 0 17 1 18 0 17 -1 18 0 17 0 18 0 17 1 
17 0 18 0 17 -1 18 0 17 1 18 0 17 0 17 0 
18 -1 17 0 18 1 17 0 18 0 17 0 17 0 18 0 
17 0 18 0 17 0 18 0 17 0 17 0 18 0 17 1 
18 2 17 3 18 6 17 11 17 18 18 28 17 43 18 62 
17 84 18 109 17 133 17 153 18 167 17 166 18 153 17 124 
18 80 17 28 17 -27 18 -80 17 -124 18 -152 17 -167 18 -167 
17 -154 17 -133 18 -110 17 -84 18 -61 17 -43 18 -29 17 -17 
17 -11 18 -6 17 -3 18 -2 17 -1 18 0 17 0 17 0 
18 0 17 0 18 0 17 -1 18 0 17 0 17 0 18 0 
17 0 18 0 17 0 18 0 17 0 17 0 18 0 17 0 
18 0 17 0 18 0 17 0 17 0 18 0 17 0 18 0 
17 0 18 0 17 0 17 0 292 1602 101 MP stroke
/c11 { 0.000000 0.750000 0.750000 sr} bdef
c11
18 0 17 -1 18 0 17 1 18 0 17 -1 18 0 17 0 
17 0 18 1 17 0 18 -1 17 0 18 0 17 1 17 0 
18 0 17 0 18 -1 17 0 18 1 17 0 17 0 18 0 
17 0 18 0 17 0 18 0 17 0 17 0 18 0 17 1 
18 2 17 3 18 6 17 11 17 18 18 28 17 43 18 62 
17 84 18 109 17 133 17 153 18 165 17 165 18 150 17 121 
18 79 17 26 17 -27 18 -79 17 -121 18 -150 17 -164 18 -164 
17 -151 17 -133 18 -108 17 -84 18 -63 17 -43 18 -29 17 -19 
17 -11 18 -6 17 -4 18 -2 17 -1 18 0 17 0 17 0 
18 0 17 0 18 0 17 0 18 0 17 -1 17 0 18 0 
17 0 18 0 17 0 18 0 17 0 17 0 18 0 17 0 
18 0 17 0 18 0 17 0 17 0 18 0 17 0 18 0 
17 0 18 0 17 0 17 0 292 1602 101 MP stroke
/c12 { 0.750000 0.000000 0.750000 sr} bdef
c12
18 1 17 0 18 -1 17 1 18 0 17 -1 18 0 17 1 
17 -1 18 0 17 1 18 0 17 -1 18 0 17 1 17 -1 
18 0 17 1 18 0 17 0 18 0 17 0 17 0 18 0 
17 0 18 0 17 0 18 0 17 0 17 0 18 0 17 1 
18 1 17 3 18 6 17 11 17 18 18 29 17 44 18 63 
17 85 18 110 17 133 17 152 18 163 17 161 18 147 17 118 
18 77 17 28 17 -26 18 -76 17 -119 18 -148 17 -163 18 -163 
17 -153 17 -133 18 -109 17 -85 18 -62 17 -43 18 -29 17 -18 
17 -10 18 -7 17 -3 18 -2 17 -1 18 0 17 0 17 0 
18 0 17 0 18 0 17 0 18 0 17 0 17 0 18 0 
17 0 18 0 17 -1 18 0 17 0 17 0 18 0 17 0 
18 0 17 0 18 0 17 0 17 0 18 0 17 0 18 0 
17 0 18 0 17 0 17 0 292 1602 101 MP stroke
/c13 { 0.750000 0.750000 0.000000 sr} bdef
c13
13 1 17 0 18 1 17 0 18 0 17 0 17 1 18 0 
17 0 18 0 17 0 18 0 17 0 17 0 18 0 17 -1 
18 0 17 0 18 0 17 0 17 0 18 0 17 0 18 0 
17 -1 18 1 17 8 17 18 18 32 17 50 18 71 17 91 
18 114 17 133 17 147 18 156 17 154 18 141 17 116 18 78 
17 31 17 -20 18 -72 17 -115 18 -147 17 -164 18 -166 17 -156 
17 -135 18 -111 17 -85 18 -62 17 -42 18 -28 17 -16 17 -10 
18 -6 17 -3 18 -1 17 -1 18 0 17 0 17 0 18 0 
17 0 18 0 17 0 18 0 17 0 17 0 18 0 17 0 
18 0 17 0 18 -1 17 0 17 0 18 0 17 0 18 0 
17 0 18 0 17 0 17 0 18 0 17 0 18 0 17 0 
18 0 17 0 17 0 292 1602 92 MP stroke
0.25 sg
18 0 17 0 18 0 17 0 18 0 17 0 18 0 17 0 
17 0 18 0 17 0 18 0 17 0 18 0 17 0 17 0 
18 0 17 0 18 0 17 0 18 0 17 0 17 0 18 0 
17 0 18 0 17 0 18 0 17 0 17 0 18 0 17 0 
18 1 17 3 18 7 17 11 17 20 18 31 17 46 18 65 
17 85 18 109 17 129 17 147 18 157 17 156 18 144 17 116 
18 76 17 29 17 -25 18 -74 17 -117 18 -146 17 -160 18 -159 
17 -149 17 -130 18 -106 17 -83 18 -62 17 -44 18 -30 17 -19 
17 -12 18 -7 17 -4 18 -3 17 -1 18 -1 17 0 17 0 
18 0 17 0 18 0 17 0 18 0 17 0 17 0 18 0 
17 0 18 -1 17 0 18 1 17 -1 17 1 18 -1 17 0 
18 0 17 0 18 0 17 0 17 0 18 0 17 0 18 0 
17 0 18 0 17 0 17 0 292 1602 101 MP stroke
c8
18 -1 17 0 18 1 17 0 18 -1 17 0 18 1 17 0 
17 0 18 -1 17 0 18 1 17 0 18 0 17 0 17 0 
18 -1 17 0 18 1 17 0 18 0 17 0 17 0 18 0 
17 0 18 0 17 0 18 0 17 0 17 0 18 1 17 1 
18 3 17 5 18 8 17 13 17 21 18 31 17 46 18 64 
17 84 18 106 17 128 17 145 18 154 17 154 18 141 17 114 
18 75 17 28 17 -23 18 -72 17 -112 18 -142 17 -157 18 -159 
17 -149 17 -131 18 -110 17 -85 18 -63 17 -45 18 -30 17 -19 
17 -12 18 -6 17 -4 18 -2 17 -1 18 0 17 0 17 0 
18 0 17 0 18 0 17 0 18 0 17 0 17 0 18 0 
17 0 18 -1 17 0 18 1 17 0 17 0 18 -1 17 0 
18 0 17 0 18 0 17 0 17 0 18 0 17 0 18 0 
17 0 18 0 17 0 17 0 292 1602 101 MP stroke
c9
18 0 17 1 18 -1 17 0 18 1 17 0 18 -1 17 1 
17 -1 18 0 17 1 18 0 17 0 18 -1 17 0 17 1 
18 0 17 0 18 0 17 0 18 0 17 0 17 0 18 0 
17 0 18 0 17 0 18 0 17 0 17 0 18 0 17 2 
18 2 17 4 18 7 17 12 17 20 18 31 17 45 18 63 
17 84 18 107 17 129 17 147 18 156 17 155 18 141 17 112 
18 73 17 26 17 -26 18 -73 17 -113 18 -140 17 -155 18 -156 
17 -147 17 -129 18 -107 17 -84 18 -63 17 -45 18 -31 17 -20 
17 -12 18 -7 17 -4 18 -2 17 -2 18 0 17 0 17 0 
18 0 17 0 18 0 17 0 18 0 17 0 17 0 18 0 
17 0 18 0 17 -1 18 0 17 0 17 1 18 0 17 -1 
18 0 17 0 18 0 17 0 17 0 18 0 17 0 18 0 
17 0 18 0 17 0 17 0 292 1602 101 MP stroke
c10
18 0 17 -1 18 0 17 1 18 -1 17 0 18 1 17 -1 
17 0 18 1 17 0 18 -1 17 1 18 0 17 -1 17 0 
18 0 17 1 18 0 17 0 18 0 17 0 17 0 18 0 
17 0 18 0 17 0 18 0 17 0 17 0 18 1 17 1 
18 2 17 4 18 7 17 13 17 20 18 30 17 46 18 63 
17 84 18 107 17 129 17 146 18 155 17 154 18 139 17 112 
18 72 17 25 17 -26 18 -72 17 -111 18 -140 17 -153 18 -155 
17 -146 17 -128 18 -107 17 -84 18 -63 17 -46 18 -31 17 -20 
17 -12 18 -8 17 -4 18 -2 17 -1 18 -1 17 0 17 0 
18 0 17 0 18 0 17 0 18 0 17 0 17 0 18 0 
17 0 18 0 17 0 18 0 17 -1 17 0 18 0 17 1 
18 0 17 -1 18 0 17 0 17 0 18 0 17 0 18 0 
17 0 18 0 17 0 17 0 292 1602 101 MP stroke
c11
18 0 17 -1 18 0 17 0 18 1 17 0 18 -1 17 0 
17 0 18 0 17 0 18 1 17 0 18 0 17 0 17 0 
18 -1 17 0 18 1 17 0 18 0 17 0 17 0 18 0 
17 0 18 0 17 0 18 0 17 0 17 0 18 1 17 1 
18 2 17 4 18 8 17 12 17 20 18 31 17 46 18 63 
17 84 18 107 17 129 17 144 18 155 17 153 18 138 17 111 
18 72 17 24 17 -25 18 -72 17 -111 18 -138 17 -153 18 -153 
17 -145 17 -128 18 -107 17 -84 18 -64 17 -45 18 -31 17 -20 
17 -13 18 -8 17 -4 18 -2 17 -1 18 -1 17 0 17 0 
18 0 17 0 18 0 17 0 18 0 17 0 17 0 18 0 
17 -1 18 0 17 1 18 0 17 0 17 0 18 -1 17 0 
18 0 17 1 18 0 17 -1 17 0 18 0 17 0 18 0 
17 0 18 0 17 0 17 0 292 1602 101 MP stroke
c12
18 -1 17 0 18 1 17 -1 18 0 17 1 18 0 17 -1 
17 1 18 -1 17 0 18 0 17 1 18 0 17 0 17 0 
18 0 17 0 18 -1 17 1 18 0 17 0 17 0 18 0 
17 0 18 0 17 0 18 0 17 0 17 0 18 1 17 1 
18 2 17 4 18 8 17 12 17 21 18 31 17 45 18 64 
17 84 18 107 17 128 17 144 18 154 17 152 18 138 17 110 
18 71 17 24 17 -24 18 -72 17 -110 18 -137 17 -152 18 -154 
17 -144 17 -127 18 -107 17 -84 18 -64 17 -46 18 -31 17 -20 
17 -13 18 -8 17 -4 18 -2 17 -1 18 -1 17 0 17 0 
18 0 17 0 18 0 17 0 18 0 17 0 17 0 18 0 
17 0 18 0 17 -1 18 0 17 1 17 0 18 0 17 0 
18 -1 17 0 18 0 17 1 17 0 18 -1 17 0 18 0 
17 0 18 0 17 0 17 0 292 1602 101 MP stroke
c13
18 0 17 1 18 -1 17 0 18 1 17 -1 18 0 17 1 
17 0 18 -1 17 1 18 0 17 -1 18 0 17 1 17 0 
18 0 17 0 18 0 17 0 18 0 17 0 17 0 18 0 
17 0 18 0 17 0 18 0 17 0 17 0 18 1 17 1 
18 2 17 5 18 7 17 13 17 21 18 31 17 46 18 64 
17 84 18 107 17 127 17 145 18 153 17 151 18 137 17 109 
18 70 17 25 17 -24 18 -72 17 -109 18 -136 17 -151 18 -153 
17 -144 17 -127 18 -107 17 -84 18 -64 17 -46 18 -32 17 -21 
17 -13 18 -7 17 -5 18 -2 17 -1 18 -1 17 0 17 0 
18 0 17 0 18 0 17 0 18 0 17 0 17 0 18 0 
17 0 18 0 17 0 18 -1 17 0 17 0 18 1 17 0 
18 0 17 -1 18 0 17 0 17 0 18 1 17 0 18 -1 
17 0 18 0 17 1 17 0 292 1601 101 MP stroke
0.25 sg
18 0 17 -1 18 0 17 1 18 -1 17 0 18 1 17 -1 
17 0 18 1 17 0 18 -1 17 1 18 0 17 -1 17 0 
18 1 17 0 18 0 17 0 18 0 17 0 17 0 18 0 
17 0 18 0 17 0 18 0 17 0 17 0 18 1 17 1 
18 2 17 5 18 7 17 13 17 20 18 32 17 45 18 64 
17 84 18 107 17 127 17 144 18 153 17 151 18 137 17 109 
18 71 17 25 17 -25 18 -71 17 -109 18 -137 17 -151 18 -153 
17 -144 17 -127 18 -106 17 -85 18 -63 17 -46 18 -31 17 -21 
17 -13 18 -7 17 -5 18 -2 17 -1 18 -1 17 0 17 0 
18 0 17 0 18 0 17 0 18 0 17 0 17 0 18 0 
17 0 18 0 17 0 18 0 17 -1 17 0 18 1 17 -1 
18 0 17 1 18 -1 17 0 17 1 18 0 17 -1 18 1 
17 0 18 -1 17 1 17 0 292 1601 101 MP stroke
c8
18 -1 17 1 18 0 17 -1 18 1 17 0 18 -1 17 0 
17 1 18 -1 17 0 18 1 17 -1 18 0 17 1 17 0 
18 -1 17 1 18 0 17 0 18 0 17 0 17 0 18 0 
17 0 18 0 17 0 18 0 17 0 17 0 18 1 17 1 
18 2 17 5 18 7 17 13 17 20 18 32 17 46 18 63 
17 85 18 106 17 127 17 144 18 153 17 151 18 137 17 109 
18 71 17 24 17 -25 18 -70 17 -110 18 -136 17 -151 18 -153 
17 -144 17 -127 18 -106 17 -85 18 -63 17 -46 18 -31 17 -21 
17 -13 18 -7 17 -5 18 -2 17 -1 18 -1 17 0 17 0 
18 0 17 0 18 0 17 0 18 0 17 0 17 0 18 0 
17 0 18 0 17 -1 18 0 17 1 17 0 18 -1 17 0 
18 1 17 -1 18 0 17 1 17 -1 18 0 17 1 18 0 
17 -1 18 1 17 0 17 -1 292 1602 101 MP stroke
c9
18 1 17 -1 18 0 17 1 18 0 17 -1 18 0 17 1 
17 -1 18 0 17 1 18 0 17 -1 18 1 17 -1 17 0 
18 1 17 0 18 0 17 0 18 0 17 0 17 0 18 0 
17 0 18 0 17 0 18 0 17 0 17 0 18 1 17 1 
18 2 17 5 18 7 17 13 17 20 18 32 17 46 18 63 
17 84 18 107 17 127 17 144 18 153 17 151 18 136 17 110 
18 71 17 24 17 -24 18 -70 17 -110 18 -136 17 -151 18 -153 
17 -144 17 -127 18 -107 17 -84 18 -64 17 -46 18 -31 17 -21 
17 -13 18 -7 17 -5 18 -2 17 -1 18 -1 17 0 17 0 
18 0 17 0 18 0 17 0 18 0 17 0 17 0 18 0 
17 0 18 0 17 0 18 0 17 -1 17 0 18 1 17 0 
18 -1 17 1 18 0 17 -1 17 0 18 1 17 -1 18 0 
17 1 18 -1 17 0 17 1 292 1601 101 MP stroke
c10
18 0 17 0 18 0 17 0 18 0 17 1 18 0 17 0 
17 -1 18 0 17 1 18 0 17 0 18 0 17 -1 17 0 
18 0 17 1 18 0 17 0 18 0 17 0 17 0 18 0 
17 0 18 0 17 0 18 0 17 0 17 0 18 1 17 1 
18 2 17 5 18 7 17 13 17 20 18 32 17 45 18 64 
17 84 18 107 17 127 17 144 18 153 17 152 18 137 17 109 
18 71 17 25 17 -24 18 -72 17 -109 18 -137 17 -152 18 -153 
17 -144 17 -127 18 -107 17 -84 18 -64 17 -46 18 -31 17 -20 
17 -13 18 -8 17 -4 18 -2 17 -1 18 -1 17 0 17 0 
18 0 17 0 18 0 17 0 18 0 17 0 17 0 18 -1 
17 1 18 0 17 0 18 0 17 0 17 0 18 -1 17 0 
18 0 17 1 18 -1 17 1 17 0 18 -1 17 0 18 1 
17 -1 18 0 17 1 17 -1 292 1602 101 MP stroke
c11
18 0 17 0 18 0 17 0 18 0 17 0 18 0 17 1 
17 0 18 0 17 -1 18 0 17 1 18 0 17 0 17 0 
18 -1 17 0 18 1 17 0 18 0 17 0 17 0 18 0 
17 0 18 0 17 0 18 0 17 0 17 0 18 1 17 1 
18 2 17 4 18 8 17 13 17 20 18 31 17 46 18 63 
17 85 18 106 17 128 17 144 18 154 17 152 18 137 17 110 
18 72 17 25 17 -25 18 -71 17 -110 18 -138 17 -152 18 -154 
17 -144 17 -128 18 -107 17 -84 18 -64 17 -45 18 -31 17 -21 
17 -12 18 -8 17 -4 18 -2 17 -1 18 -1 17 0 17 0 
18 0 17 0 18 0 17 0 18 0 17 0 17 0 18 0 
17 0 18 -1 17 1 18 0 17 0 17 0 18 0 17 0 
18 -1 17 0 18 0 17 1 17 0 18 0 17 0 18 -1 
17 0 18 1 17 -1 17 1 292 1601 101 MP stroke
c12
18 0 17 0 18 0 17 0 18 0 17 0 18 0 17 0 
17 0 18 1 17 0 18 -1 17 0 18 0 17 1 17 0 
18 0 17 0 18 0 17 -1 18 1 17 0 17 0 18 0 
17 0 18 0 17 0 18 0 17 0 17 0 18 1 17 1 
18 2 17 4 18 8 17 12 17 21 18 31 17 45 18 64 
17 84 18 107 17 128 17 144 18 155 17 152 18 139 17 110 
18 72 17 25 17 -25 18 -71 17 -111 18 -138 17 -153 18 -154 
17 -146 17 -128 18 -106 17 -85 18 -63 17 -46 18 -31 17 -20 
17 -12 18 -8 17 -4 18 -2 17 -1 18 -1 17 0 17 0 
18 0 17 0 18 0 17 0 18 0 17 0 17 0 18 0 
17 0 18 0 17 -1 18 0 17 1 17 0 18 -1 17 1 
18 0 17 -1 18 0 17 1 17 -1 18 0 17 1 18 -1 
17 0 18 1 17 0 17 -1 292 1602 101 MP stroke
c13
18 0 17 0 18 0 17 0 18 0 17 0 18 0 17 0 
17 0 18 0 17 0 18 1 17 0 18 -1 17 0 17 0 
18 1 17 0 18 0 17 0 18 0 17 0 17 0 18 0 
17 0 18 0 17 0 18 0 17 0 17 0 18 1 17 1 
18 2 17 4 18 8 17 12 17 20 18 31 17 45 18 64 
17 84 18 107 17 128 17 146 18 155 17 153 18 139 17 112 
18 73 17 25 17 -25 18 -72 17 -112 18 -139 17 -154 18 -155 
17 -146 17 -128 18 -108 17 -84 18 -63 17 -46 18 -31 17 -19 
17 -13 18 -7 17 -4 18 -2 17 -2 18 0 17 0 17 0 
18 0 17 0 18 0 17 0 18 0 17 0 17 0 18 0 
17 0 18 0 17 0 18 -1 17 0 17 0 18 1 17 0 
18 -1 17 1 18 0 17 -1 17 1 18 0 17 -1 18 1 
17 0 18 -1 17 0 17 1 292 1601 101 MP stroke
0.25 sg
18 0 17 0 18 0 17 0 18 0 17 0 18 0 17 0 
17 0 18 0 17 0 18 1 17 -1 18 1 17 0 17 -1 
18 0 17 1 18 0 17 0 18 0 17 0 17 0 18 0 
17 0 18 0 17 0 18 0 17 0 17 0 18 0 17 2 
18 2 17 4 18 7 17 12 17 20 18 31 17 45 18 63 
17 85 18 107 17 129 17 146 18 156 17 155 18 141 17 112 
18 73 17 26 17 -26 18 -73 17 -112 18 -141 17 -155 18 -156 
17 -146 17 -129 18 -107 17 -85 18 -63 17 -45 18 -31 17 -20 
17 -12 18 -7 17 -4 18 -2 17 -2 18 0 17 0 17 0 
18 0 17 0 18 0 17 0 18 0 17 0 17 0 18 -1 
17 1 18 0 17 0 18 0 17 0 17 -1 18 0 17 1 
18 0 17 0 18 -1 17 0 17 1 18 -1 17 1 18 0 
17 -1 18 0 17 1 17 -1 292 1602 101 MP stroke
c8
18 0 17 0 18 0 17 0 18 1 17 0 18 0 17 0 
17 0 18 0 17 0 18 0 17 0 18 0 17 0 17 0 
18 0 17 0 18 0 17 0 18 0 17 0 17 0 18 0 
17 0 18 0 17 0 18 0 17 0 17 1 18 0 17 2 
18 2 17 4 18 7 17 12 17 19 18 30 17 44 18 62 
17 84 18 108 17 131 17 149 18 159 17 157 18 142 17 113 
18 72 17 24 17 -27 18 -75 17 -113 18 -142 17 -155 18 -156 
17 -147 17 -129 18 -108 17 -85 18 -63 17 -45 18 -31 17 -20 
17 -12 18 -7 17 -4 18 -2 17 -1 18 0 17 0 17 0 
18 0 17 0 18 0 17 0 18 0 17 0 17 0 18 -1 
17 0 18 0 17 1 18 0 17 0 17 -1 18 0 17 0 
18 1 17 0 18 0 17 -1 17 0 18 1 17 0 18 0 
17 -1 18 0 17 0 17 0 292 1602 101 MP stroke
c9
18 0 17 0 18 0 17 0 18 0 17 0 18 0 17 0 
17 0 18 0 17 0 18 0 17 0 18 0 17 0 17 0 
18 0 17 0 18 0 17 0 18 0 17 0 17 0 18 0 
17 0 18 0 17 0 18 0 17 -1 17 0 18 1 17 0 
18 1 17 3 18 6 17 12 17 20 18 31 17 46 18 65 
17 85 18 108 17 130 17 147 18 157 17 157 18 143 17 116 
18 77 17 27 17 -25 18 -75 17 -117 18 -145 17 -159 18 -159 
17 -149 17 -129 18 -106 17 -84 18 -62 17 -44 18 -29 17 -20 
17 -12 18 -7 17 -5 18 -2 17 -1 18 -1 17 0 17 0 
18 0 17 0 18 0 17 0 18 0 17 0 17 0 18 0 
17 0 18 0 17 0 18 -1 17 1 17 0 18 0 17 0 
18 -1 17 0 18 1 17 0 17 -1 18 1 17 -1 18 1 
17 -1 18 0 17 0 17 0 292 1602 101 MP stroke
c10
18 0 17 0 18 0 17 -1 18 0 17 0 18 0 17 1 
17 0 18 0 17 0 18 0 17 0 18 -1 17 0 17 1 
18 0 17 0 18 0 17 0 18 0 17 0 17 0 18 0 
17 0 18 0 17 0 18 0 17 0 17 0 18 1 17 2 
18 2 17 4 18 7 17 12 17 18 18 29 17 43 18 61 
17 83 18 108 17 130 17 151 18 163 17 162 18 147 17 117 
18 75 17 24 17 -29 18 -77 17 -118 18 -144 17 -158 18 -159 
17 -148 17 -129 18 -107 17 -85 18 -63 17 -45 18 -30 17 -20 
17 -12 18 -8 17 -3 18 -3 17 -1 18 0 17 0 17 0 
18 0 17 0 18 0 17 0 18 0 17 0 17 0 18 0 
17 0 18 0 17 -1 18 0 17 0 17 1 18 0 17 0 
18 -1 17 0 18 1 17 0 17 0 18 -1 17 0 18 0 
17 0 18 0 17 0 17 0 292 1602 101 MP stroke
c11
18 0 17 0 18 0 17 0 18 0 17 0 18 0 17 0 
17 0 18 1 17 0 18 0 17 0 18 0 17 0 17 0 
18 0 17 0 18 0 17 0 18 0 17 0 17 0 18 0 
17 0 18 0 17 0 18 0 17 0 17 0 18 1 17 2 
18 2 17 5 18 7 17 12 17 19 18 29 17 43 18 61 
17 83 18 106 17 130 17 151 18 162 17 163 18 149 17 120 
18 77 17 27 17 -28 18 -79 17 -119 18 -148 17 -162 18 -161 
17 -149 17 -131 18 -107 17 -84 18 -62 17 -44 18 -30 17 -19 
17 -12 18 -7 17 -3 18 -3 17 -1 18 0 17 0 17 0 
18 0 17 0 18 0 17 0 18 0 17 0 17 0 18 0 
17 0 18 -1 17 1 18 0 17 0 17 -1 18 1 17 0 
18 -1 17 1 18 0 17 -1 17 1 18 0 17 -1 18 0 
17 1 18 -1 17 0 17 1 292 1601 101 MP stroke
c12
18 0 17 0 18 0 17 0 18 0 17 0 18 0 17 0 
17 0 18 0 17 0 18 0 17 0 18 0 17 0 17 0 
18 1 17 0 18 0 17 0 18 0 17 0 17 0 18 0 
17 0 18 0 17 0 18 0 17 0 17 0 18 1 17 2 
18 2 17 4 18 8 17 12 17 19 18 29 17 43 18 60 
17 83 18 106 17 130 17 151 18 163 17 165 18 151 17 123 
18 79 17 28 17 -28 18 -80 17 -122 18 -151 17 -164 18 -164 
17 -150 17 -130 18 -107 17 -83 18 -61 17 -44 18 -29 17 -19 
17 -12 18 -7 17 -4 18 -2 17 -1 18 -1 17 0 17 0 
18 0 17 0 18 0 17 0 18 0 17 0 17 0 18 0 
17 0 18 0 17 0 18 0 17 0 17 -1 18 0 17 1 
18 0 17 -1 18 0 17 1 17 -1 18 0 17 1 18 0 
17 -1 18 1 17 0 17 -1 292 1602 101 MP stroke
c13
18 0 17 1 18 0 17 0 18 0 17 0 18 0 17 0 
17 0 18 0 17 0 18 0 17 0 18 0 17 0 17 0 
18 0 17 0 18 0 17 0 18 0 17 0 17 0 18 0 
17 0 18 0 17 1 18 0 17 1 17 1 18 1 17 3 
18 3 17 6 18 8 17 13 17 19 18 28 17 41 18 58 
17 78 18 101 17 128 17 150 18 165 17 170 18 158 17 127 
18 84 17 27 17 -31 18 -85 17 -126 18 -154 17 -165 18 -162 
17 -148 17 -128 18 -104 17 -82 18 -61 17 -44 18 -30 17 -20 
17 -13 18 -8 17 -5 18 -2 17 -2 18 -1 17 0 17 0 
18 0 17 0 18 0 17 0 18 0 17 0 17 0 18 0 
17 0 18 0 17 0 18 0 17 0 17 -1 18 1 17 0 
18 -1 17 0 18 1 17 -1 17 0 18 1 17 -1 18 0 
17 1 18 -1 17 1 17 0 292 1601 101 MP stroke
0.25 sg
18 0 17 0 18 0 17 0 18 0 17 0 18 0 17 0 
17 0 18 0 17 0 18 0 17 0 18 0 17 0 17 0 
18 0 17 0 18 0 17 0 18 0 17 0 17 1 18 0 
17 0 18 0 17 0 18 0 17 0 17 0 18 1 17 2 
18 2 17 4 18 8 17 12 17 18 18 29 17 42 18 61 
17 81 18 107 17 130 17 153 18 167 17 169 18 156 17 128 
18 83 17 29 17 -28 18 -83 17 -128 18 -157 17 -169 18 -168 
17 -154 17 -132 18 -107 17 -82 18 -60 17 -42 18 -28 17 -18 
17 -12 18 -6 17 -4 18 -2 17 -1 18 -1 17 0 17 0 
18 0 17 0 18 0 17 0 18 0 17 0 17 0 18 0 
17 0 18 0 17 0 18 -1 17 1 17 0 18 0 17 0 
18 0 17 0 18 0 17 0 17 0 18 -1 17 0 18 0 
17 1 18 0 17 -1 17 0 292 1602 101 MP stroke
c8
14 1 18 0 17 0 18 0 17 0 17 1 18 0 17 0 
18 2 17 3 18 5 17 11 17 18 18 29 17 43 18 63 
17 86 18 110 17 135 17 155 18 167 17 169 18 155 17 128 
18 86 17 33 17 -23 18 -79 17 -125 18 -159 17 -175 18 -177 
17 -163 17 -141 18 -114 17 -85 18 -61 17 -40 18 -26 17 -15 
17 -8 18 -4 17 -2 18 -1 17 0 18 0 17 0 17 0 
18 0 17 0 18 0 17 0 18 0 17 0 17 -1 18 0 
17 1 18 0 17 0 18 0 17 0 17 -1 18 0 17 0 
18 0 17 1 18 0 17 -1 17 0 18 0 17 1 18 0 
17 -1 18 1 17 -1 17 0 292 1602 77 MP stroke
gr

c8

end %%Color Dict

eplot
%%EndObject

epage
end

showpage

%%Trailer
%%EOF
