%!PS-Adobe-3.0 EPSF-3.0
%%Creator: MATLAB, The Mathworks, Inc. Version 7.10.0.499 (R2010a). Operating System: Microsoft Windows 7.
%%Title: C:\Users\wwu\Desktop\warping\James_code\comp_extr_mm.eps
%%CreationDate: 04/12/2011  15:06:01
%%DocumentNeededFonts: Helvetica
%%DocumentProcessColors: Cyan Magenta Yellow Black
%%LanguageLevel: 2
%%Pages: 1
%%BoundingBox:   212   320   399   470
%%EndComments

%%BeginProlog
% MathWorks dictionary
/MathWorks 160 dict begin
% definition operators
/bdef {bind def} bind def
/ldef {load def} bind def
/xdef {exch def} bdef
/xstore {exch store} bdef
% operator abbreviations
/c  /clip ldef
/cc /concat ldef
/cp /closepath ldef
/gr /grestore ldef
/gs /gsave ldef
/mt /moveto ldef
/np /newpath ldef
/cm /currentmatrix ldef
/sm /setmatrix ldef
/rm /rmoveto ldef
/rl /rlineto ldef
/s {show newpath} bdef
/sc {setcmykcolor} bdef
/sr /setrgbcolor ldef
/sg /setgray ldef
/w /setlinewidth ldef
/j /setlinejoin ldef
/cap /setlinecap ldef
/rc {rectclip} bdef
/rf {rectfill} bdef
% page state control
/pgsv () def
/bpage {/pgsv save def} bdef
/epage {pgsv restore} bdef
/bplot /gsave ldef
/eplot {stroke grestore} bdef
% orientation switch
/portraitMode 0 def /landscapeMode 1 def /rotateMode 2 def
% coordinate system mappings
/dpi2point 0 def
% font control
/FontSize 0 def
/FMS {/FontSize xstore findfont [FontSize 0 0 FontSize neg 0 0]
  makefont setfont} bdef
/ISOLatin1Encoding where {pop /WindowsLatin1Encoding 256 array bdef
ISOLatin1Encoding WindowsLatin1Encoding copy pop
/.notdef/.notdef/quotesinglbase/florin/quotedblbase/ellipsis/dagger
/daggerdbl/circumflex/perthousand/Scaron/guilsinglleft/OE/.notdef/.notdef
/.notdef/.notdef/quoteleft/quoteright/quotedblleft/quotedblright/bullet
/endash/emdash/tilde/trademark/scaron/guilsinglright/oe/.notdef/.notdef
/Ydieresis WindowsLatin1Encoding 128 32 getinterval astore pop}
{/WindowsLatin1Encoding StandardEncoding bdef} ifelse
/reencode {exch dup where {pop load} {pop StandardEncoding} ifelse
  exch dup 3 1 roll findfont dup length dict begin
  { 1 index /FID ne {def}{pop pop} ifelse } forall
  /Encoding exch def currentdict end definefont pop} bdef
/isroman {findfont /CharStrings get /Agrave known} bdef
/FMSR {3 1 roll 1 index dup isroman {reencode} {pop pop} ifelse
  exch FMS} bdef
/csm {1 dpi2point div -1 dpi2point div scale neg translate
 dup landscapeMode eq {pop -90 rotate}
  {rotateMode eq {90 rotate} if} ifelse} bdef
% line types: solid, dotted, dashed, dotdash
/SO { [] 0 setdash } bdef
/DO { [.5 dpi2point mul 4 dpi2point mul] 0 setdash } bdef
/DA { [6 dpi2point mul] 0 setdash } bdef
/DD { [.5 dpi2point mul 4 dpi2point mul 6 dpi2point mul 4
  dpi2point mul] 0 setdash } bdef
% macros for lines and objects
/L {lineto stroke} bdef
/MP {3 1 roll moveto 1 sub {rlineto} repeat} bdef
/AP {{rlineto} repeat} bdef
/PDlw -1 def
/W {/PDlw currentlinewidth def setlinewidth} def
/PP {closepath eofill} bdef
/DP {closepath stroke} bdef
/MR {4 -2 roll moveto dup  0 exch rlineto exch 0 rlineto
  neg 0 exch rlineto closepath} bdef
/FR {MR stroke} bdef
/PR {MR fill} bdef
/L1i {{currentfile picstr readhexstring pop} image} bdef
/tMatrix matrix def
/MakeOval {newpath tMatrix currentmatrix pop translate scale
0 0 1 0 360 arc tMatrix setmatrix} bdef
/FO {MakeOval stroke} bdef
/PO {MakeOval fill} bdef
/PD {currentlinewidth 2 div 0 360 arc fill
   PDlw -1 eq not {PDlw w /PDlw -1 def} if} def
/FA {newpath tMatrix currentmatrix pop translate scale
  0 0 1 5 -2 roll arc tMatrix setmatrix stroke} bdef
/PA {newpath tMatrix currentmatrix pop	translate 0 0 moveto scale
  0 0 1 5 -2 roll arc closepath tMatrix setmatrix fill} bdef
/FAn {newpath tMatrix currentmatrix pop translate scale
  0 0 1 5 -2 roll arcn tMatrix setmatrix stroke} bdef
/PAn {newpath tMatrix currentmatrix pop translate 0 0 moveto scale
  0 0 1 5 -2 roll arcn closepath tMatrix setmatrix fill} bdef
/vradius 0 def /hradius 0 def /lry 0 def
/lrx 0 def /uly 0 def /ulx 0 def /rad 0 def
/MRR {/vradius xdef /hradius xdef /lry xdef /lrx xdef /uly xdef
  /ulx xdef newpath tMatrix currentmatrix pop ulx hradius add uly
  vradius add translate hradius vradius scale 0 0 1 180 270 arc 
  tMatrix setmatrix lrx hradius sub uly vradius add translate
  hradius vradius scale 0 0 1 270 360 arc tMatrix setmatrix
  lrx hradius sub lry vradius sub translate hradius vradius scale
  0 0 1 0 90 arc tMatrix setmatrix ulx hradius add lry vradius sub
  translate hradius vradius scale 0 0 1 90 180 arc tMatrix setmatrix
  closepath} bdef
/FRR {MRR stroke } bdef
/PRR {MRR fill } bdef
/MlrRR {/lry xdef /lrx xdef /uly xdef /ulx xdef /rad lry uly sub 2 div def
  newpath tMatrix currentmatrix pop ulx rad add uly rad add translate
  rad rad scale 0 0 1 90 270 arc tMatrix setmatrix lrx rad sub lry rad
  sub translate rad rad scale 0 0 1 270 90 arc tMatrix setmatrix
  closepath} bdef
/FlrRR {MlrRR stroke } bdef
/PlrRR {MlrRR fill } bdef
/MtbRR {/lry xdef /lrx xdef /uly xdef /ulx xdef /rad lrx ulx sub 2 div def
  newpath tMatrix currentmatrix pop ulx rad add uly rad add translate
  rad rad scale 0 0 1 180 360 arc tMatrix setmatrix lrx rad sub lry rad
  sub translate rad rad scale 0 0 1 0 180 arc tMatrix setmatrix
  closepath} bdef
/FtbRR {MtbRR stroke } bdef
/PtbRR {MtbRR fill } bdef
/stri 6 array def /dtri 6 array def
/smat 6 array def /dmat 6 array def
/tmat1 6 array def /tmat2 6 array def /dif 3 array def
/asub {/ind2 exch def /ind1 exch def dup dup
  ind1 get exch ind2 get sub exch } bdef
/tri_to_matrix {
  2 0 asub 3 1 asub 4 0 asub 5 1 asub
  dup 0 get exch 1 get 7 -1 roll astore } bdef
/compute_transform {
  dmat dtri tri_to_matrix tmat1 invertmatrix 
  smat stri tri_to_matrix tmat2 concatmatrix } bdef
/ds {stri astore pop} bdef
/dt {dtri astore pop} bdef
/db {2 copy /cols xdef /rows xdef mul dup 3 mul string
  currentfile 
  3 index 0 eq {/ASCIIHexDecode filter}
  {/ASCII85Decode filter 3 index 2 eq {/RunLengthDecode filter} if }
  ifelse exch readstring pop
  dup 0 3 index getinterval /rbmap xdef
  dup 2 index dup getinterval /gbmap xdef
  1 index dup 2 mul exch getinterval /bbmap xdef pop pop}bdef
/it {gs np dtri aload pop moveto lineto lineto cp c
  cols rows 8 compute_transform 
  rbmap gbmap bbmap true 3 colorimage gr}bdef
/il {newpath moveto lineto stroke}bdef
currentdict end def
%%EndProlog

%%BeginSetup
MathWorks begin

0 cap

end
%%EndSetup

%%Page: 1 1
%%BeginPageSetup
%%PageBoundingBox:   212   320   399   470
MathWorks begin
bpage
%%EndPageSetup

%%BeginObject: obj1
bplot

/dpi2point 12 def
portraitMode 2544 5640 csm

    0     0  2249  1800 rc
85 dict begin %Colortable dictionary
/c0 { 0.000000 0.000000 0.000000 sr} bdef
/c1 { 1.000000 1.000000 1.000000 sr} bdef
/c2 { 0.900000 0.000000 0.000000 sr} bdef
/c3 { 0.000000 0.820000 0.000000 sr} bdef
/c4 { 0.000000 0.000000 0.800000 sr} bdef
/c5 { 0.910000 0.820000 0.320000 sr} bdef
/c6 { 1.000000 0.260000 0.820000 sr} bdef
/c7 { 0.000000 0.820000 0.820000 sr} bdef
c0
1 j
1 sg
   0    0 2250 1801 rf
6 w
0 1467 1743 0 0 -1467 292 1602 4 MP
PP
-1743 0 0 1467 1743 0 0 -1467 292 1602 5 MP stroke
4 w
DO
SO
6 w
0 sg
 292  135 mt 2035  135 L
 292 1602 mt 2035 1602 L
2035 1602 mt 2035  135 L
 292 1602 mt  292  135 L
 292 1602 mt 2035 1602 L
 292 1602 mt  292  135 L
 292 1602 mt  292 1584 L
 292  135 mt  292  152 L
%%IncludeResource: font Helvetica
/Helvetica /WindowsLatin1Encoding 120 FMSR

 259 1747 mt 
(0) s
1163 1602 mt 1163 1584 L
1163  135 mt 1163  152 L
1080 1747 mt 
(0.5) s
2035 1602 mt 2035 1584 L
2035  135 mt 2035  152 L
2002 1747 mt 
(1) s
 292 1602 mt  309 1602 L
2035 1602 mt 2017 1602 L
 191 1646 mt 
(0) s
 292 1357 mt  309 1357 L
2035 1357 mt 2017 1357 L
  91 1401 mt 
(0.2) s
 292 1113 mt  309 1113 L
2035 1113 mt 2017 1113 L
  91 1157 mt 
(0.4) s
 292  868 mt  309  868 L
2035  868 mt 2017  868 L
  91  912 mt 
(0.6) s
 292  623 mt  309  623 L
2035  623 mt 2017  623 L
  91  667 mt 
(0.8) s
 292  379 mt  309  379 L
2035  379 mt 2017  379 L
 191  423 mt 
(1) s
 292  135 mt 2035  135 L
 292 1602 mt 2035 1602 L
2035 1602 mt 2035  135 L
 292 1602 mt  292  135 L
gs 292 135 1744 1468 rc
/c8 { 0.000000 0.000000 1.000000 sr} bdef
c8
18 0 17 0 18 0 17 0 18 0 17 0 18 0 17 0 
17 0 18 1 17 0 18 0 17 0 18 0 17 1 17 1 
18 4 17 7 18 21 17 76 18 151 17 138 17 106 18 83 
17 68 18 58 17 50 18 43 17 38 17 35 18 31 17 28 
18 25 17 23 18 21 17 20 17 18 18 17 17 15 18 14 
17 14 18 12 17 12 17 10 18 10 17 9 18 8 17 7 
18 6 17 6 17 6 18 6 17 5 18 6 17 5 18 6 
17 7 17 7 18 8 17 8 18 7 17 7 18 5 17 2 
17 -2 18 -8 17 -16 18 -25 17 -37 18 -50 17 -64 17 -81 
18 -98 17 -116 18 -127 17 -132 18 -131 17 -122 17 -107 18 -98 
10 -59 630 1603 82 MP stroke
/c9 { 0.000000 0.500000 0.000000 sr} bdef
c9
18 0 17 0 18 0 17 0 18 0 17 0 18 0 17 0 
17 0 18 0 17 1 18 0 17 0 18 0 17 1 17 2 
18 6 17 14 18 36 17 81 18 115 17 115 17 100 18 85 
17 74 18 64 17 58 18 51 17 46 17 42 18 37 17 34 
18 31 17 28 18 26 17 23 17 21 18 18 17 17 18 15 
17 14 18 12 17 11 17 9 18 8 17 7 18 6 17 5 
18 4 17 3 17 2 18 0 17 0 18 -1 17 -1 18 -2 
17 -2 17 -2 18 -2 17 -2 18 -2 17 -2 18 -2 17 -3 
17 -6 18 -10 17 -14 18 -21 17 -29 18 -40 17 -51 17 -65 
18 -80 17 -97 18 -115 17 -125 18 -129 17 -126 17 -117 18 -103 
13 -74 627 1603 82 MP stroke
/c10 { 1.000000 0.000000 0.000000 sr} bdef
c10
18 0 17 0 18 0 17 0 18 0 17 0 18 0 17 1 
17 0 18 0 17 1 18 1 17 2 18 3 17 5 17 8 
18 12 17 20 18 32 17 49 18 71 17 91 17 103 18 102 
17 97 18 86 17 75 18 67 17 57 17 50 18 44 17 38 
18 33 17 29 18 25 17 22 17 19 18 16 17 14 18 12 
17 10 18 8 17 7 17 5 18 4 17 2 18 2 17 0 
18 -1 17 -2 17 -3 18 -4 17 -5 18 -6 17 -7 18 -8 
17 -8 17 -9 18 -10 17 -10 18 -10 17 -11 18 -11 17 -11 
17 -12 18 -14 17 -16 18 -20 17 -25 18 -32 17 -39 17 -50 
18 -60 17 -73 18 -87 17 -102 18 -114 17 -119 17 -119 18 -112 
17 -106 2 -8 621 1603 83 MP stroke
/c11 { 0.000000 0.750000 0.750000 sr} bdef
c11
18 0 17 0 18 0 17 0 18 0 17 0 18 0 17 0 
17 0 18 0 17 0 18 0 17 0 18 1 17 0 17 2 
18 6 17 20 18 60 17 102 18 107 17 93 17 78 18 67 
17 59 18 52 17 47 18 43 17 40 17 37 18 34 17 33 
18 31 17 29 18 29 17 26 17 26 18 24 17 23 18 22 
17 21 18 19 17 17 17 16 18 14 17 13 18 10 17 9 
18 6 17 4 17 3 18 0 17 -2 18 -4 17 -6 18 -7 
17 -10 17 -12 18 -14 17 -15 18 -17 17 -19 18 -21 17 -21 
17 -23 18 -24 17 -24 18 -26 17 -26 18 -31 17 -35 17 -43 
18 -52 17 -63 18 -76 17 -91 18 -107 17 -119 17 -122 18 -117 
16 -97 624 1603 82 MP stroke
/c12 { 0.750000 0.000000 0.750000 sr} bdef
c12
1 1 17 0 18 0 17 0 18 0 17 0 17 0 18 0 
17 0 18 0 17 0 18 1 17 0 17 2 18 5 17 13 
18 37 17 80 18 118 17 119 17 102 18 84 17 72 18 61 
17 53 18 47 17 42 17 39 18 35 17 32 18 29 17 28 
18 26 17 24 17 22 18 21 17 19 18 18 17 16 18 15 
17 14 17 12 18 10 17 9 18 7 17 5 18 4 17 2 
17 0 18 -2 17 -4 18 -6 17 -7 18 -10 17 -11 17 -14 
18 -15 17 -17 18 -19 17 -21 18 -23 17 -25 17 -27 18 -28 
17 -30 18 -31 17 -33 18 -34 17 -36 17 -38 18 -43 17 -49 
18 -59 17 -69 18 -82 17 -96 17 -111 18 -118 17 -115 8 -51 
615 1603 81 MP stroke
/c13 { 0.750000 0.750000 0.000000 sr} bdef
c13
17 92 18 146 17 71 18 50 17 42 18 36 17 32 17 30 
18 28 17 26 18 25 17 24 18 24 17 22 17 22 18 21 
17 21 18 21 17 20 18 20 17 19 17 20 18 19 17 19 
18 18 17 19 18 18 17 18 17 18 18 18 17 17 18 18 
17 17 18 16 17 17 17 16 18 16 17 15 18 15 17 14 
18 14 17 13 17 13 18 11 17 11 18 10 17 8 18 8 
17 6 17 5 18 3 17 2 18 0 17 -3 18 -4 17 -7 
17 -10 18 -12 17 -16 18 -19 17 -23 18 -28 17 -32 17 -37 
18 -43 17 -51 18 -58 17 -66 18 -76 17 -89 17 -118 18 -171 
17 -243 8 -118 493 1603 75 MP stroke
18 -6 17 -6 18 -5 17 -6 18 -5 17 -6 18 -6 17 -5 
17 -6 18 -6 17 -5 18 -6 17 -6 18 -5 8 -3 1782 1603 16 MP stroke
0.25 sg
4 1 18 0 17 0 17 1 18 5 17 12 18 28 17 57 
18 91 17 113 17 116 18 109 17 97 18 85 17 75 18 64 
17 56 17 49 18 42 17 37 18 32 17 28 18 25 17 21 
17 18 18 15 17 13 18 10 17 9 18 6 17 5 17 3 
18 1 17 0 18 -2 17 -3 18 -5 17 -6 17 -7 18 -9 
17 -10 18 -11 17 -12 18 -14 17 -15 17 -16 18 -17 17 -19 
18 -20 17 -22 18 -23 17 -24 17 -26 18 -28 17 -29 18 -31 
17 -32 18 -35 17 -37 17 -39 18 -42 17 -44 18 -47 17 -50 
18 -55 17 -63 17 -73 18 -85 17 -102 18 -114 8 -57 597 1603 72 MP stroke
c8
3 1 17 1 18 5 17 27 18 102 17 172 17 153 18 116 
17 91 18 72 17 60 18 50 17 44 17 37 18 34 17 30 
18 26 17 25 18 21 17 20 17 18 18 17 17 15 18 13 
17 12 18 12 17 10 17 8 18 8 17 7 18 6 17 4 
18 4 17 2 17 1 18 0 17 -2 18 -3 17 -4 18 -6 
17 -8 17 -10 18 -12 17 -14 18 -16 17 -19 18 -22 17 -25 
17 -27 18 -31 17 -35 18 -38 17 -42 18 -45 17 -49 17 -54 
18 -57 17 -60 18 -65 17 -68 18 -72 17 -77 17 -86 18 -96 
17 -106 12 -75 611 1603 67 MP stroke
c9
14 344 18 234 17 124 17 82 18 61 17 48 18 39 17 33 
18 28 17 24 17 22 18 20 17 17 18 16 17 14 18 13 
17 12 17 11 18 10 17 9 18 8 17 8 18 7 17 7 
17 5 18 6 17 4 18 5 17 3 18 3 17 3 17 2 
18 1 17 1 18 0 17 -1 18 -1 17 -2 17 -2 18 -4 
17 -5 18 -5 17 -7 18 -9 17 -9 17 -12 18 -13 17 -16 
18 -18 17 -21 18 -25 17 -29 17 -33 18 -38 17 -44 18 -51 
17 -58 18 -67 17 -75 17 -84 18 -93 17 -100 18 -109 17 -119 
18 -129 6 -45 564 1603 67 MP stroke
c10
7 1 17 2 18 3 17 5 17 7 18 9 17 12 18 14 
17 16 18 18 17 21 17 24 18 25 17 28 18 30 17 32 
18 35 17 37 17 38 18 40 17 43 18 43 17 45 18 46 
17 47 17 47 18 48 17 48 18 47 17 47 18 45 17 44 
17 42 18 39 17 37 18 33 17 30 18 26 17 22 17 18 
18 14 17 9 18 6 17 1 18 -2 17 -6 17 -9 18 -13 
17 -15 18 -17 17 -20 18 -22 17 -24 17 -26 18 -28 17 -29 
18 -31 17 -33 18 -34 17 -36 17 -37 18 -39 17 -41 18 -43 
17 -44 18 -46 17 -48 17 -51 18 -53 17 -55 18 -58 17 -61 
18 -65 17 -69 17 -74 18 -77 4 -18 636 1603 78 MP stroke
c11
15 176 18 134 17 99 17 83 18 72 17 65 18 57 17 53 
18 49 17 45 17 41 18 39 17 36 18 33 17 31 18 28 
17 27 17 24 18 22 17 20 18 18 17 16 18 14 17 12 
17 10 18 8 17 6 18 4 17 2 18 0 17 -2 17 -4 
18 -6 17 -8 18 -10 17 -11 18 -14 17 -15 17 -18 18 -19 
17 -21 18 -23 17 -25 18 -27 17 -29 17 -31 18 -33 17 -36 
18 -37 17 -40 18 -43 17 -46 17 -48 18 -53 17 -56 18 -60 
17 -65 18 -71 17 -77 17 -85 18 -93 17 -97 4 -21 619 1603 64 MP stroke
c12
7 2 17 5 18 7 17 12 18 16 17 19 17 23 18 27 
17 30 18 33 17 37 18 41 17 43 17 46 18 49 17 51 
18 53 17 54 18 56 17 56 17 55 18 56 17 54 18 53 
17 51 18 49 17 45 17 41 18 38 17 33 18 28 17 23 
18 17 17 13 17 6 18 2 17 -4 18 -8 17 -12 18 -17 
17 -20 17 -24 18 -26 17 -28 18 -31 17 -32 18 -35 17 -35 
17 -37 18 -37 17 -39 18 -39 17 -41 18 -41 17 -41 17 -42 
18 -43 17 -43 18 -43 17 -44 18 -45 17 -44 17 -45 18 -46 
17 -45 18 -45 17 -46 18 -43 17 -42 17 -38 11 -23 647 1603 72 MP stroke
c13
4 61 18 366 17 258 17 162 18 110 17 77 18 57 17 42 
18 31 17 22 17 16 18 11 17 7 18 4 17 0 18 -2 
17 -4 17 -7 18 -7 17 -9 18 -10 17 -12 18 -12 17 -13 
17 -14 18 -15 17 -15 18 -15 17 -17 18 -16 17 -17 17 -18 
18 -18 17 -18 18 -19 17 -19 18 -19 17 -20 17 -21 18 -20 
17 -21 18 -22 17 -22 18 -23 17 -23 17 -24 18 -25 17 -26 
18 -26 17 -27 18 -29 17 -30 17 -31 18 -32 17 -35 18 -37 
17 -39 18 -43 17 -47 17 -52 18 -59 17 -69 18 -79 9 -46 
596 1603 65 MP stroke
0.25 sg
15 125 17 113 18 86 17 72 17 63 18 56 17 50 18 47 
17 43 18 41 17 38 17 36 18 34 17 33 18 31 17 29 
18 28 17 26 17 26 18 24 17 23 18 21 17 20 18 20 
17 18 17 16 18 16 17 14 18 14 17 12 18 11 17 9 
17 8 18 7 17 6 18 4 17 3 18 1 17 0 17 -3 
18 -4 17 -6 18 -8 17 -10 18 -13 17 -15 17 -18 18 -22 
17 -25 18 -29 17 -34 18 -39 17 -44 17 -52 18 -59 17 -69 
18 -80 17 -94 18 -110 17 -128 17 -150 18 -155 7 -57 633 1603 64 MP stroke
c8
1 10 18 166 17 165 17 141 18 120 17 103 18 88 17 77 
18 67 17 57 17 49 18 42 17 36 18 29 17 23 18 19 
17 14 17 10 18 6 17 2 18 -1 17 -4 18 -7 17 -9 
17 -12 18 -13 17 -15 18 -17 17 -18 18 -20 17 -20 17 -22 
18 -22 17 -22 18 -24 17 -23 18 -24 17 -25 17 -24 18 -25 
17 -24 18 -25 17 -25 18 -26 17 -25 17 -26 18 -26 17 -26 
18 -27 17 -28 18 -27 17 -29 17 -30 18 -30 17 -32 18 -34 
17 -35 18 -38 17 -41 17 -46 18 -53 17 -63 18 -86 12 -75 
593 1603 65 MP stroke
c9
7 10 18 26 17 34 18 40 17 44 17 48 18 49 17 51 
18 53 17 53 18 54 17 53 17 54 18 53 17 52 18 51 
17 49 18 48 17 46 17 44 18 42 17 39 18 37 17 34 
18 31 17 28 17 24 18 22 17 18 18 14 17 11 18 8 
17 4 17 0 18 -4 17 -7 18 -10 17 -14 18 -18 17 -21 
17 -23 18 -27 17 -30 18 -32 17 -35 18 -37 17 -39 17 -40 
18 -43 17 -43 18 -44 17 -45 18 -46 17 -46 17 -46 18 -45 
17 -45 18 -45 17 -44 18 -43 17 -41 17 -40 18 -39 17 -36 
18 -34 17 -33 18 -29 17 -27 17 -24 18 -19 17 -15 18 -11 
7 -4 476 1603 74 MP stroke
c10
2 17 18 113 17 99 18 84 17 73 17 65 18 58 17 54 
18 50 17 47 18 44 17 42 17 40 18 38 17 36 18 35 
17 33 18 32 17 30 17 29 18 27 17 26 18 24 17 23 
18 21 17 19 17 17 18 14 17 13 18 9 17 7 18 4 
17 1 17 -2 18 -6 17 -9 18 -12 17 -16 18 -19 17 -23 
17 -26 18 -29 17 -33 18 -35 17 -38 18 -41 17 -43 17 -45 
18 -46 17 -48 18 -48 17 -50 18 -49 17 -50 17 -49 18 -49 
17 -48 18 -48 17 -46 18 -45 17 -43 17 -41 18 -39 17 -36 
18 -33 17 -29 18 -24 17 -17 15 -9 538 1603 70 MP stroke
c11
2 8 17 85 18 90 17 85 17 80 18 74 17 68 18 65 
17 59 18 57 17 52 17 49 18 46 17 43 18 41 17 37 
18 35 17 33 17 30 18 28 17 25 18 23 17 21 18 19 
17 16 17 14 18 12 17 10 18 8 17 5 18 4 17 2 
17 0 18 -2 17 -4 18 -6 17 -7 18 -9 17 -10 17 -13 
18 -14 17 -16 18 -18 17 -20 18 -22 17 -25 17 -27 18 -31 
17 -35 18 -39 17 -46 18 -54 17 -67 17 -90 18 -139 17 -279 
17 -251 728 1603 58 MP stroke
c12
16 94 17 103 18 96 17 87 17 78 18 72 17 65 18 60 
17 55 18 51 17 47 17 43 18 40 17 37 18 34 17 32 
18 29 17 27 17 24 18 23 17 20 18 19 17 16 18 15 
17 13 17 12 18 9 17 8 18 7 17 4 18 3 17 1 
17 -1 18 -2 17 -5 18 -6 17 -9 18 -11 17 -13 17 -15 
18 -18 17 -21 18 -23 17 -26 18 -30 17 -33 17 -35 18 -40 
17 -43 18 -46 17 -49 18 -52 17 -54 17 -56 18 -57 17 -57 
18 -56 17 -55 18 -52 17 -49 17 -46 18 -42 17 -37 18 -33 
17 -30 18 -25 17 -22 17 -18 18 -15 17 -13 18 -9 17 -8 
18 -5 17 -3 17 -2 14 -2 400 1603 77 MP stroke
c13
5 30 17 103 18 101 17 98 17 92 18 89 17 83 18 78 
17 72 18 67 17 61 17 55 18 50 17 44 18 39 17 34 
18 30 17 25 17 20 18 17 17 13 18 10 17 7 18 5 
17 1 17 -1 18 -3 17 -5 18 -7 17 -8 18 -11 17 -11 
17 -13 18 -15 17 -15 18 -17 17 -17 18 -19 17 -20 17 -21 
18 -21 17 -23 18 -23 17 -24 18 -26 17 -26 17 -27 18 -28 
17 -30 18 -30 17 -32 18 -33 17 -35 17 -36 18 -38 17 -41 
18 -43 17 -47 18 -50 17 -54 17 -57 18 -60 17 -60 18 -55 
17 -48 18 -36 17 -25 17 -15 18 -9 17 -5 18 -2 17 -1 
4 -1 462 1603 74 MP stroke
0.25 sg
5 35 18 104 17 93 18 80 17 71 17 66 18 60 17 57 
18 52 17 48 18 46 17 43 17 40 18 38 17 36 18 33 
17 32 18 29 17 28 17 26 18 25 17 23 18 21 17 20 
18 18 17 17 17 15 18 14 17 12 18 11 17 9 18 8 
17 6 17 4 18 3 17 1 18 -1 17 -3 18 -5 17 -7 
17 -9 18 -12 17 -14 18 -17 17 -19 18 -23 17 -25 17 -28 
18 -32 17 -35 18 -39 17 -42 18 -47 17 -50 17 -56 18 -59 
17 -65 18 -69 17 -74 18 -79 17 -81 17 -80 18 -72 17 -59 
18 -43 17 -29 18 -19 17 -12 17 -7 18 -5 17 -3 18 -1 
17 -1 18 -1 17 0 17 0 14 -1 400 1603 78 MP stroke
c8
5 33 18 106 17 95 18 84 17 70 17 62 18 57 17 54 
18 50 17 46 18 44 17 42 17 39 18 36 17 35 18 33 
17 30 18 30 17 27 17 26 18 24 17 23 18 22 17 20 
18 19 17 17 17 16 18 15 17 13 18 12 17 11 18 9 
17 8 17 6 18 5 17 3 18 2 17 0 18 -2 17 -4 
17 -5 18 -8 17 -10 18 -13 17 -16 18 -18 17 -22 17 -25 
18 -29 17 -34 18 -38 17 -44 18 -49 17 -56 17 -62 18 -69 
17 -76 18 -82 17 -86 18 -88 17 -85 17 -77 18 -67 17 -52 
18 -39 17 -27 18 -18 17 -11 17 -6 18 -3 17 -1 18 -1 
15 -1 468 1603 74 MP stroke
c9
17 129 17 125 18 109 17 90 18 73 17 62 17 58 18 54 
17 51 18 47 17 44 18 40 17 38 17 36 18 32 17 31 
18 28 17 26 18 24 17 22 17 20 18 18 17 15 18 14 
17 12 18 9 17 8 17 5 18 3 17 1 18 -1 17 -4 
18 -6 17 -8 17 -12 18 -13 17 -16 18 -19 17 -21 18 -24 
17 -25 17 -29 18 -30 17 -32 18 -33 17 -35 18 -36 17 -37 
17 -38 18 -37 17 -38 18 -38 17 -37 18 -36 17 -36 17 -34 
18 -34 17 -32 18 -31 17 -30 18 -29 17 -27 17 -26 18 -25 
17 -23 18 -22 17 -21 18 -19 17 -19 17 -18 18 -16 17 -16 
18 -14 17 -14 18 -13 17 -12 17 -11 18 -11 17 -10 18 -9 
17 -9 18 -8 17 -7 17 -7 292 1567 85 MP stroke
c10
17 104 17 104 18 99 17 90 17 80 18 68 17 56 18 49 
17 43 18 40 17 40 17 38 18 37 17 35 18 32 17 31 
18 30 17 27 17 26 18 24 17 23 18 21 17 19 18 18 
17 16 17 14 18 13 17 12 18 10 17 8 18 6 17 5 
17 4 18 2 17 0 18 -2 17 -3 18 -4 17 -7 17 -8 
18 -10 17 -12 18 -14 17 -15 18 -18 17 -21 17 -22 18 -26 
17 -29 18 -33 17 -37 18 -43 17 -50 17 -59 18 -70 17 -84 
18 -100 17 -113 18 -112 17 -92 17 -65 18 -44 17 -30 18 -22 
17 -16 18 -13 17 -9 17 -8 18 -6 17 -5 18 -4 17 -3 
18 -3 17 -2 17 -2 18 -2 17 -1 18 -1 17 -1 18 0 
17 -1 17 0 292 1601 83 MP stroke
c11
8 43 18 88 17 88 17 86 18 83 17 79 18 73 17 66 
18 57 17 48 17 41 18 36 17 32 18 30 17 31 18 30 
17 30 17 30 18 29 17 27 18 27 17 24 18 24 17 22 
17 20 18 19 17 16 18 15 17 12 18 9 17 6 17 3 
18 -1 17 -5 18 -9 17 -15 18 -18 17 -24 17 -29 18 -33 
17 -38 18 -41 17 -44 18 -47 17 -49 17 -50 18 -51 17 -51 
18 -50 17 -50 18 -48 17 -46 17 -45 18 -42 17 -41 18 -38 
17 -36 18 -33 17 -32 17 -29 18 -27 17 -25 18 -23 17 -21 
18 -19 17 -17 17 -14 18 -13 17 -12 18 -10 17 -8 18 -7 
17 -6 17 -5 18 -4 17 -3 18 -3 17 -2 18 -2 17 -1 
17 -1 292 1597 82 MP stroke
c12
6 34 17 103 18 104 17 103 17 101 18 95 17 89 18 80 
17 69 18 56 17 44 17 35 18 28 17 25 18 22 17 23 
18 24 17 24 17 23 18 22 17 20 18 19 17 16 18 15 
17 13 17 11 18 10 17 7 18 5 17 3 18 1 17 -1 
17 -4 18 -5 17 -8 18 -10 17 -12 18 -14 17 -15 17 -17 
18 -19 17 -20 18 -21 17 -22 18 -24 17 -24 17 -26 18 -27 
17 -28 18 -29 17 -30 18 -33 17 -34 17 -37 18 -41 17 -44 
18 -51 17 -57 18 -69 17 -85 17 -110 18 -137 17 -112 18 -44 
17 -11 18 -1 17 -1 17 0 18 0 17 0 18 0 17 0 
18 0 12 -1 436 1603 75 MP stroke
c13
17 100 17 107 18 104 17 102 17 98 18 93 17 87 18 81 
17 72 18 63 17 53 17 42 18 32 17 24 18 17 17 13 
18 9 17 8 17 9 18 10 17 10 18 12 17 11 18 11 
17 10 17 9 18 8 17 8 18 5 17 5 18 4 17 3 
17 3 18 1 17 0 18 -1 17 -3 18 -4 17 -5 17 -7 
18 -8 17 -11 18 -12 17 -15 18 -17 17 -20 17 -22 18 -26 
17 -30 18 -33 17 -39 18 -44 17 -49 17 -57 18 -64 17 -74 
18 -85 17 -97 18 -105 17 -103 17 -86 18 -60 17 -39 18 -24 
17 -17 18 -12 17 -10 17 -7 18 -5 17 -5 18 -4 17 -3 
18 -3 17 -2 17 -2 18 -2 17 -1 18 -2 17 -1 18 -1 
17 -1 17 0 292 1597 83 MP stroke
0.25 sg
17 108 17 113 18 111 17 109 17 105 18 101 17 95 18 89 
17 81 18 73 17 63 17 53 18 41 17 30 18 20 17 13 
18 6 17 1 17 -1 18 -3 17 -3 18 0 17 1 18 3 
17 4 17 3 18 3 17 3 18 2 17 1 18 -1 17 -1 
17 -3 18 -3 17 -5 18 -4 17 -6 18 -7 17 -9 17 -11 
18 -11 17 -14 18 -15 17 -17 18 -20 17 -22 17 -25 18 -29 
17 -33 18 -37 17 -42 18 -49 17 -54 17 -61 18 -67 17 -72 
18 -75 17 -74 18 -69 17 -63 17 -53 18 -45 17 -37 18 -30 
17 -25 18 -20 17 -16 17 -14 18 -11 17 -10 18 -8 17 -7 
18 -6 17 -5 17 -4 18 -4 17 -4 18 -3 17 -3 18 -2 
17 -2 17 -2 292 1588 83 MP stroke
c8
1 2 17 100 18 100 17 100 17 99 18 97 17 96 18 92 
17 88 18 85 17 78 17 73 18 66 17 58 18 50 17 41 
18 31 17 21 17 13 18 5 17 -1 18 -6 17 -9 18 -12 
17 -13 17 -12 18 -11 17 -8 18 -7 17 -5 18 -4 17 -4 
17 -3 18 -4 17 -4 18 -5 17 -7 18 -7 17 -9 17 -11 
18 -10 17 -11 18 -12 17 -13 18 -15 17 -17 17 -19 18 -20 
17 -22 18 -26 17 -29 18 -33 17 -38 17 -44 18 -52 17 -61 
18 -75 17 -92 18 -111 17 -128 17 -126 18 -90 17 -49 18 -24 
17 -13 18 -8 17 -4 17 -3 18 -2 17 -1 18 -1 17 -1 
18 0 17 -1 17 0 18 0 17 0 18 0 17 0 18 0 
17 0 17 0 292 1601 83 MP stroke
gr

c8

end %%Color Dict

eplot
%%EndObject

epage
end

showpage

%%Trailer
%%EOF
