%!PS-Adobe-3.0 EPSF-3.0
%%Creator: MATLAB, The Mathworks, Inc. Version 7.10.0.499 (R2010a). Operating System: Microsoft Windows 7.
%%Title: C:\Users\wwu\Desktop\warping\James_code\comp_neural.eps
%%CreationDate: 04/12/2011  15:01:34
%%DocumentNeededFonts: Helvetica
%%DocumentProcessColors: Cyan Magenta Yellow Black
%%LanguageLevel: 2
%%Pages: 1
%%BoundingBox:   212   320   399   470
%%EndComments

%%BeginProlog
% MathWorks dictionary
/MathWorks 160 dict begin
% definition operators
/bdef {bind def} bind def
/ldef {load def} bind def
/xdef {exch def} bdef
/xstore {exch store} bdef
% operator abbreviations
/c  /clip ldef
/cc /concat ldef
/cp /closepath ldef
/gr /grestore ldef
/gs /gsave ldef
/mt /moveto ldef
/np /newpath ldef
/cm /currentmatrix ldef
/sm /setmatrix ldef
/rm /rmoveto ldef
/rl /rlineto ldef
/s {show newpath} bdef
/sc {setcmykcolor} bdef
/sr /setrgbcolor ldef
/sg /setgray ldef
/w /setlinewidth ldef
/j /setlinejoin ldef
/cap /setlinecap ldef
/rc {rectclip} bdef
/rf {rectfill} bdef
% page state control
/pgsv () def
/bpage {/pgsv save def} bdef
/epage {pgsv restore} bdef
/bplot /gsave ldef
/eplot {stroke grestore} bdef
% orientation switch
/portraitMode 0 def /landscapeMode 1 def /rotateMode 2 def
% coordinate system mappings
/dpi2point 0 def
% font control
/FontSize 0 def
/FMS {/FontSize xstore findfont [FontSize 0 0 FontSize neg 0 0]
  makefont setfont} bdef
/ISOLatin1Encoding where {pop /WindowsLatin1Encoding 256 array bdef
ISOLatin1Encoding WindowsLatin1Encoding copy pop
/.notdef/.notdef/quotesinglbase/florin/quotedblbase/ellipsis/dagger
/daggerdbl/circumflex/perthousand/Scaron/guilsinglleft/OE/.notdef/.notdef
/.notdef/.notdef/quoteleft/quoteright/quotedblleft/quotedblright/bullet
/endash/emdash/tilde/trademark/scaron/guilsinglright/oe/.notdef/.notdef
/Ydieresis WindowsLatin1Encoding 128 32 getinterval astore pop}
{/WindowsLatin1Encoding StandardEncoding bdef} ifelse
/reencode {exch dup where {pop load} {pop StandardEncoding} ifelse
  exch dup 3 1 roll findfont dup length dict begin
  { 1 index /FID ne {def}{pop pop} ifelse } forall
  /Encoding exch def currentdict end definefont pop} bdef
/isroman {findfont /CharStrings get /Agrave known} bdef
/FMSR {3 1 roll 1 index dup isroman {reencode} {pop pop} ifelse
  exch FMS} bdef
/csm {1 dpi2point div -1 dpi2point div scale neg translate
 dup landscapeMode eq {pop -90 rotate}
  {rotateMode eq {90 rotate} if} ifelse} bdef
% line types: solid, dotted, dashed, dotdash
/SO { [] 0 setdash } bdef
/DO { [.5 dpi2point mul 4 dpi2point mul] 0 setdash } bdef
/DA { [6 dpi2point mul] 0 setdash } bdef
/DD { [.5 dpi2point mul 4 dpi2point mul 6 dpi2point mul 4
  dpi2point mul] 0 setdash } bdef
% macros for lines and objects
/L {lineto stroke} bdef
/MP {3 1 roll moveto 1 sub {rlineto} repeat} bdef
/AP {{rlineto} repeat} bdef
/PDlw -1 def
/W {/PDlw currentlinewidth def setlinewidth} def
/PP {closepath eofill} bdef
/DP {closepath stroke} bdef
/MR {4 -2 roll moveto dup  0 exch rlineto exch 0 rlineto
  neg 0 exch rlineto closepath} bdef
/FR {MR stroke} bdef
/PR {MR fill} bdef
/L1i {{currentfile picstr readhexstring pop} image} bdef
/tMatrix matrix def
/MakeOval {newpath tMatrix currentmatrix pop translate scale
0 0 1 0 360 arc tMatrix setmatrix} bdef
/FO {MakeOval stroke} bdef
/PO {MakeOval fill} bdef
/PD {currentlinewidth 2 div 0 360 arc fill
   PDlw -1 eq not {PDlw w /PDlw -1 def} if} def
/FA {newpath tMatrix currentmatrix pop translate scale
  0 0 1 5 -2 roll arc tMatrix setmatrix stroke} bdef
/PA {newpath tMatrix currentmatrix pop	translate 0 0 moveto scale
  0 0 1 5 -2 roll arc closepath tMatrix setmatrix fill} bdef
/FAn {newpath tMatrix currentmatrix pop translate scale
  0 0 1 5 -2 roll arcn tMatrix setmatrix stroke} bdef
/PAn {newpath tMatrix currentmatrix pop translate 0 0 moveto scale
  0 0 1 5 -2 roll arcn closepath tMatrix setmatrix fill} bdef
/vradius 0 def /hradius 0 def /lry 0 def
/lrx 0 def /uly 0 def /ulx 0 def /rad 0 def
/MRR {/vradius xdef /hradius xdef /lry xdef /lrx xdef /uly xdef
  /ulx xdef newpath tMatrix currentmatrix pop ulx hradius add uly
  vradius add translate hradius vradius scale 0 0 1 180 270 arc 
  tMatrix setmatrix lrx hradius sub uly vradius add translate
  hradius vradius scale 0 0 1 270 360 arc tMatrix setmatrix
  lrx hradius sub lry vradius sub translate hradius vradius scale
  0 0 1 0 90 arc tMatrix setmatrix ulx hradius add lry vradius sub
  translate hradius vradius scale 0 0 1 90 180 arc tMatrix setmatrix
  closepath} bdef
/FRR {MRR stroke } bdef
/PRR {MRR fill } bdef
/MlrRR {/lry xdef /lrx xdef /uly xdef /ulx xdef /rad lry uly sub 2 div def
  newpath tMatrix currentmatrix pop ulx rad add uly rad add translate
  rad rad scale 0 0 1 90 270 arc tMatrix setmatrix lrx rad sub lry rad
  sub translate rad rad scale 0 0 1 270 90 arc tMatrix setmatrix
  closepath} bdef
/FlrRR {MlrRR stroke } bdef
/PlrRR {MlrRR fill } bdef
/MtbRR {/lry xdef /lrx xdef /uly xdef /ulx xdef /rad lrx ulx sub 2 div def
  newpath tMatrix currentmatrix pop ulx rad add uly rad add translate
  rad rad scale 0 0 1 180 360 arc tMatrix setmatrix lrx rad sub lry rad
  sub translate rad rad scale 0 0 1 0 180 arc tMatrix setmatrix
  closepath} bdef
/FtbRR {MtbRR stroke } bdef
/PtbRR {MtbRR fill } bdef
/stri 6 array def /dtri 6 array def
/smat 6 array def /dmat 6 array def
/tmat1 6 array def /tmat2 6 array def /dif 3 array def
/asub {/ind2 exch def /ind1 exch def dup dup
  ind1 get exch ind2 get sub exch } bdef
/tri_to_matrix {
  2 0 asub 3 1 asub 4 0 asub 5 1 asub
  dup 0 get exch 1 get 7 -1 roll astore } bdef
/compute_transform {
  dmat dtri tri_to_matrix tmat1 invertmatrix 
  smat stri tri_to_matrix tmat2 concatmatrix } bdef
/ds {stri astore pop} bdef
/dt {dtri astore pop} bdef
/db {2 copy /cols xdef /rows xdef mul dup 3 mul string
  currentfile 
  3 index 0 eq {/ASCIIHexDecode filter}
  {/ASCII85Decode filter 3 index 2 eq {/RunLengthDecode filter} if }
  ifelse exch readstring pop
  dup 0 3 index getinterval /rbmap xdef
  dup 2 index dup getinterval /gbmap xdef
  1 index dup 2 mul exch getinterval /bbmap xdef pop pop}bdef
/it {gs np dtri aload pop moveto lineto lineto cp c
  cols rows 8 compute_transform 
  rbmap gbmap bbmap true 3 colorimage gr}bdef
/il {newpath moveto lineto stroke}bdef
currentdict end def
%%EndProlog

%%BeginSetup
MathWorks begin

0 cap

end
%%EndSetup

%%Page: 1 1
%%BeginPageSetup
%%PageBoundingBox:   212   320   399   470
MathWorks begin
bpage
%%EndPageSetup

%%BeginObject: obj1
bplot

/dpi2point 12 def
portraitMode 2544 5640 csm

    0     0  2249  1800 rc
85 dict begin %Colortable dictionary
/c0 { 0.000000 0.000000 0.000000 sr} bdef
/c1 { 1.000000 1.000000 1.000000 sr} bdef
/c2 { 0.900000 0.000000 0.000000 sr} bdef
/c3 { 0.000000 0.820000 0.000000 sr} bdef
/c4 { 0.000000 0.000000 0.800000 sr} bdef
/c5 { 0.910000 0.820000 0.320000 sr} bdef
/c6 { 1.000000 0.260000 0.820000 sr} bdef
/c7 { 0.000000 0.820000 0.820000 sr} bdef
c0
1 j
1 sg
   0    0 2250 1801 rf
6 w
0 1467 1743 0 0 -1467 292 1602 4 MP
PP
-1743 0 0 1467 1743 0 0 -1467 292 1602 5 MP stroke
4 w
DO
SO
6 w
0 sg
 292  135 mt 2035  135 L
 292 1602 mt 2035 1602 L
2035 1602 mt 2035  135 L
 292 1602 mt  292  135 L
 292 1602 mt 2035 1602 L
 292 1602 mt  292  135 L
 635 1602 mt  635 1584 L
 635  135 mt  635  152 L
%%IncludeResource: font Helvetica
/Helvetica /WindowsLatin1Encoding 120 FMSR

 552 1747 mt 
(0.5) s
 985 1602 mt  985 1584 L
 985  135 mt  985  152 L
 952 1747 mt 
(1) s
1335 1602 mt 1335 1584 L
1335  135 mt 1335  152 L
1252 1747 mt 
(1.5) s
1685 1602 mt 1685 1584 L
1685  135 mt 1685  152 L
1652 1747 mt 
(2) s
2035 1602 mt 2035 1584 L
2035  135 mt 2035  152 L
1952 1747 mt 
(2.5) s
 292 1602 mt  309 1602 L
2035 1602 mt 2017 1602 L
 191 1646 mt 
(0) s
 292 1113 mt  309 1113 L
2035 1113 mt 2017 1113 L
  91 1157 mt 
(0.5) s
 292  624 mt  309  624 L
2035  624 mt 2017  624 L
 191  668 mt 
(1) s
 292  135 mt  309  135 L
2035  135 mt 2017  135 L
  91  179 mt 
(1.5) s
 292  135 mt 2035  135 L
 292 1602 mt 2035 1602 L
2035 1602 mt 2035  135 L
 292 1602 mt  292  135 L
gs 292 135 1744 1468 rc
/c8 { 0.000000 0.000000 1.000000 sr} bdef
c8
7 0 7 0 7 0 7 0 7 0 7 0 7 0 7 0 
7 0 7 0 7 0 7 0 7 0 7 0 7 0 7 0 
7 0 7 0 7 0 7 0 7 0 7 0 7 5 7 4 
7 9 7 14 7 21 7 32 7 42 7 52 7 58 7 58 
7 50 7 34 7 12 7 -12 7 -34 7 -50 7 -58 7 -58 
7 -52 7 -42 7 -32 7 -21 7 -14 7 -9 7 -4 7 -5 
8 0 6 0 7 0 7 0 7 0 7 0 7 0 7 0 
7 0 7 0 7 0 7 5 7 4 7 9 7 14 7 21 
7 32 7 42 7 52 7 62 7 63 7 58 7 48 7 33 
7 20 7 8 7 3 7 0 7 0 7 2 7 -4 7 -11 
7 -16 7 -21 7 -19 7 -6 7 12 7 37 7 58 7 70 
7 70 7 56 7 30 7 -5 7 -42 7 -70 7 -92 7 -101 
7 -100 7 -90 7 -74 7 -56 7 -40 7 -26 7 -18 7 -9 
7 0 7 0 7 9 7 14 7 21 7 32 7 42 7 52 
7 58 7 58 7 50 7 34 7 12 7 -12 7 -34 7 -50 
7 -58 7 -58 7 -52 7 -42 7 -32 7 -21 7 -14 7 -9 
7 0 7 0 7 9 7 14 7 21 7 32 7 42 7 52 
7 58 7 62 7 55 7 42 7 26 7 9 7 -2 7 -7 
7 -6 7 0 7 6 7 7 7 2 7 -9 7 -26 7 -42 
7 -55 7 -62 7 -58 7 -52 7 -42 7 -32 7 -21 7 -14 
7 -9 7 -4 7 -5 7 0 7 0 7 5 7 4 7 9 
7 18 7 26 7 40 7 56 7 74 7 90 7 104 7 106 
7 100 7 84 7 60 7 31 7 5 7 -18 7 -34 7 -39 
7 -46 7 -48 7 -48 7 -46 7 -42 7 -30 7 -19 7 0 
7 15 7 25 7 34 7 32 7 26 7 16 7 4 7 -13 
7 -24 7 -40 7 -54 7 -65 7 -72 7 -72 7 -66 7 -56 
7 -47 7 -32 7 -21 7 -10 7 -4 7 4 7 10 7 21 
7 36 7 47 7 60 7 77 7 84 7 94 7 94 7 94 
7 92 7 88 7 83 7 77 7 68 7 48 7 24 7 -6 
7 -36 7 -62 7 -80 7 -82 7 -81 7 -65 7 -51 7 -36 
7 -25 7 -20 7 -12 7 -10 7 -12 7 -13 7 -23 7 -30 
7 -44 292 1171 250 MP stroke
/c9 { 0.000000 0.500000 0.000000 sr} bdef
c9
7 0 7 0 7 0 7 0 7 0 7 0 7 0 7 0 
7 0 7 0 7 0 7 0 7 0 7 0 7 0 7 0 
7 0 7 0 7 0 7 0 7 0 7 0 7 0 7 0 
7 0 7 0 7 0 7 0 7 0 7 0 7 0 7 0 
7 0 7 0 7 0 7 0 7 0 7 0 7 0 7 0 
7 0 7 0 7 0 7 0 7 0 7 0 7 0 7 0 
8 0 6 0 7 0 7 0 7 0 7 0 7 0 7 0 
7 5 7 4 7 9 7 14 7 21 7 32 7 42 7 56 
7 63 7 66 7 64 7 55 7 44 7 35 7 22 7 17 
7 14 7 13 7 18 7 17 7 16 7 17 7 15 7 16 
7 13 7 8 7 4 7 -8 7 -22 7 -38 7 -54 7 -64 
7 -76 7 -73 7 -66 7 -46 7 -24 7 4 7 34 7 63 
7 84 7 97 7 103 7 98 7 88 7 68 7 42 7 12 
7 -20 7 -48 7 -76 7 -93 7 -99 7 -94 7 -77 7 -52 
7 -26 7 2 7 18 7 23 7 16 7 4 7 -17 7 -38 
7 -50 7 -58 7 -58 7 -47 7 -38 7 -19 7 -4 7 17 
7 37 7 59 7 80 7 100 7 110 7 107 7 92 7 62 
7 22 7 -18 7 -57 7 -79 7 -89 7 -80 7 -55 7 -20 
7 20 7 55 7 80 7 89 7 79 7 57 7 18 7 -22 
7 -62 7 -92 7 -107 7 -110 7 -100 7 -80 7 -59 7 -37 
7 -17 7 4 7 19 7 38 7 47 7 58 7 58 7 54 
7 39 7 20 7 2 7 -12 7 -19 7 -15 7 -6 7 6 
7 15 7 19 7 12 7 -2 7 -20 7 -39 7 -54 7 -58 
7 -58 7 -52 7 -42 7 -32 7 -21 7 -14 7 -9 7 -4 
7 -5 7 0 7 0 7 0 7 0 7 0 7 0 7 0 
7 0 7 0 7 0 7 0 7 0 7 0 7 0 7 0 
7 0 7 0 7 0 7 0 7 0 7 0 7 0 7 0 
7 0 7 0 7 5 7 4 7 9 7 14 7 21 7 32 
7 42 7 56 7 63 7 66 7 64 7 55 7 44 7 30 
7 18 7 9 7 0 7 -9 7 -18 7 -30 7 -44 7 -55 
7 -64 7 -66 7 -63 7 -56 7 -42 7 -32 7 -21 7 -14 
7 -9 292 1593 250 MP stroke
/c10 { 1.000000 0.000000 0.000000 sr} bdef
c10
7 0 7 0 7 0 7 0 7 0 7 0 7 0 7 0 
7 0 7 0 7 0 7 0 7 0 7 0 7 0 7 0 
7 0 7 0 7 0 7 0 7 0 7 0 7 0 7 0 
7 0 7 0 7 0 7 0 7 0 7 0 7 0 7 0 
7 0 7 0 7 0 7 0 7 0 7 0 7 0 7 0 
7 0 7 0 7 0 7 0 7 0 7 0 7 0 7 0 
8 0 6 0 7 0 7 0 7 0 7 0 7 0 7 0 
7 0 7 0 7 0 7 0 7 0 7 0 7 0 7 5 
7 4 7 9 7 14 7 21 7 32 7 42 7 52 7 58 
7 58 7 50 7 34 7 12 7 -12 7 -34 7 -50 7 -58 
7 -54 7 -43 7 -29 7 -10 7 14 7 40 7 65 7 90 
7 106 7 116 7 107 7 84 7 46 7 4 7 -41 7 -71 
7 -89 7 -86 7 -65 7 -30 7 10 7 47 7 74 7 86 
7 78 7 53 7 18 7 -22 7 -62 7 -87 7 -103 7 -102 
7 -86 7 -62 7 -33 7 -3 7 22 7 40 7 45 7 45 
7 30 7 12 7 -12 7 -34 7 -50 7 -58 7 -58 7 -52 
7 -42 7 -32 7 -21 7 -14 7 -9 7 -4 7 0 7 4 
7 9 7 14 7 21 7 32 7 42 7 52 7 58 7 58 
7 50 7 34 7 12 7 -8 7 -29 7 -42 7 -44 7 -36 
7 -20 7 0 7 20 7 36 7 44 7 42 7 29 7 8 
7 -12 7 -34 7 -50 7 -58 7 -58 7 -52 7 -42 7 -32 
7 -21 7 -14 7 -9 7 -4 7 -5 7 0 7 0 7 0 
7 5 7 4 7 9 7 14 7 21 7 32 7 42 7 52 
7 58 7 58 7 50 7 34 7 12 7 -12 7 -34 7 -50 
7 -58 7 -58 7 -52 7 -42 7 -27 7 -18 7 -5 7 5 
7 18 7 27 7 42 7 52 7 58 7 58 7 50 7 34 
7 12 7 -12 7 -34 7 -50 7 -58 7 -58 7 -52 7 -42 
7 -32 7 -21 7 -14 7 -9 7 -4 7 -5 7 0 7 0 
7 0 7 0 7 0 7 0 7 5 7 4 7 9 7 14 
7 21 7 32 7 42 7 52 7 62 7 63 7 58 7 48 
7 33 7 20 7 8 7 3 7 0 7 0 7 -3 7 -8 
7 -20 292 1159 250 MP stroke
/c11 { 0.000000 0.750000 0.750000 sr} bdef
c11
7 0 7 0 7 0 7 0 7 0 7 0 7 0 7 0 
7 0 7 0 7 0 7 0 7 0 7 0 7 0 7 0 
7 0 7 0 7 0 7 0 7 0 7 0 7 0 7 0 
7 5 7 4 7 9 7 14 7 21 7 32 7 42 7 52 
7 58 7 58 7 54 7 39 7 20 7 2 7 -8 7 -14 
7 -7 7 8 7 28 7 47 7 60 7 64 7 56 7 38 
8 11 6 -20 7 -41 7 -66 7 -77 7 -79 7 -67 7 -48 
7 -24 7 1 7 22 7 32 7 36 7 26 7 7 7 -16 
7 -34 7 -50 7 -58 7 -58 7 -47 7 -38 7 -24 7 -3 
7 12 7 32 7 52 7 69 7 90 7 104 7 106 7 100 
7 84 7 60 7 31 7 9 7 -9 7 -21 7 -22 7 -14 
7 -3 7 12 7 26 7 37 7 40 7 31 7 18 7 -11 
7 -47 7 -77 7 -106 7 -121 7 -124 7 -115 7 -94 7 -69 
7 -46 7 -21 7 -1 7 19 7 34 7 47 7 58 7 62 
7 55 7 42 7 26 7 9 7 -2 7 -7 7 -6 7 0 
7 6 7 7 7 7 7 -5 7 -18 7 -28 7 -29 7 -26 
7 -7 7 14 7 37 7 58 7 71 7 71 7 67 7 45 
7 20 7 -2 7 -24 7 -38 7 -40 7 -35 7 -23 7 -8 
7 5 7 20 7 22 7 22 7 29 7 26 7 27 7 28 
7 34 7 35 7 39 7 35 7 28 7 18 7 3 7 -15 
7 -27 7 -40 7 -48 7 -52 7 -55 7 -60 7 -62 7 -68 
7 -73 7 -77 7 -71 7 -62 7 -48 7 -33 7 -6 7 15 
7 36 7 58 7 75 7 85 7 92 7 86 7 75 7 50 
7 29 7 2 7 -16 7 -24 7 -22 7 -9 7 11 7 30 
7 42 7 41 7 30 7 1 7 -28 7 -56 7 -74 7 -81 
7 -68 7 -48 7 -25 7 -7 7 9 7 8 7 2 7 -10 
7 -17 7 -23 7 -15 7 -6 7 6 7 15 7 19 7 12 
7 -2 7 -20 7 -39 7 -54 7 -58 7 -58 7 -52 7 -42 
7 -32 7 -21 7 -14 7 -9 7 -4 7 -5 7 0 7 0 
7 0 7 0 7 0 7 0 7 5 7 4 7 9 7 14 
7 21 7 32 7 42 7 52 7 58 7 58 7 50 7 34 
7 12 292 1211 250 MP stroke
/c12 { 0.750000 0.000000 0.750000 sr} bdef
c12
7 0 7 0 7 0 7 0 7 0 7 0 7 0 7 0 
7 0 7 0 7 0 7 0 7 0 7 0 7 0 7 0 
7 0 7 0 7 0 7 0 7 0 7 0 7 0 7 0 
7 0 7 0 7 0 7 0 7 0 7 0 7 0 7 0 
7 0 7 5 7 4 7 9 7 14 7 21 7 32 7 42 
7 52 7 58 7 58 7 50 7 34 7 12 7 -12 7 -34 
8 -50 6 -58 7 -58 7 -52 7 -42 7 -32 7 -21 7 -14 
7 -9 7 -4 7 -5 7 5 7 4 7 9 7 14 7 21 
7 32 7 42 7 52 7 58 7 58 7 50 7 38 7 17 
7 -4 7 -20 7 -28 7 -26 7 -16 7 0 7 16 7 26 
7 28 7 20 7 4 7 -17 7 -38 7 -50 7 -58 7 -58 
7 -52 7 -42 7 -32 7 -21 7 -14 7 -4 7 0 7 4 
7 14 7 21 7 32 7 42 7 52 7 62 7 63 7 58 
7 48 7 33 7 20 7 13 7 7 7 8 7 14 7 19 
7 23 7 23 7 18 7 11 7 -1 7 -12 7 -29 7 -40 
7 -54 7 -65 7 -72 7 -72 7 -66 7 -56 7 -47 7 -32 
7 -17 7 -9 7 0 7 9 7 17 7 32 7 42 7 52 
7 58 7 58 7 50 7 34 7 12 7 -12 7 -34 7 -50 
7 -58 7 -58 7 -52 7 -42 7 -32 7 -21 7 -10 7 -4 
7 4 7 10 7 21 7 32 7 42 7 52 7 58 7 58 
7 50 7 34 7 12 7 -12 7 -34 7 -46 7 -53 7 -50 
7 -33 7 -16 7 8 7 34 7 60 7 81 7 96 7 97 
7 92 7 70 7 38 7 0 7 -38 7 -70 7 -92 7 -101 
7 -100 7 -90 7 -74 7 -56 7 -40 7 -26 7 -18 7 -4 
7 0 7 4 7 14 7 21 7 32 7 42 7 52 7 58 
7 58 7 50 7 34 7 12 7 -12 7 -34 7 -50 7 -58 
7 -58 7 -52 7 -42 7 -32 7 -21 7 -10 7 -4 7 4 
7 10 7 21 7 32 7 42 7 52 7 58 7 58 7 50 
7 34 7 12 7 -12 7 -30 7 -45 7 -50 7 -44 7 -26 
7 -6 7 19 7 44 7 66 7 81 7 88 7 81 7 70 
7 46 7 16 7 -16 7 -46 7 -70 7 -86 7 -92 7 -89 
7 -80 292 1392 250 MP stroke
/c13 { 0.750000 0.750000 0.000000 sr} bdef
c13
7 0 7 0 7 0 7 0 7 0 7 0 7 0 7 0 
7 0 7 0 7 0 7 0 7 0 7 0 7 0 7 0 
7 0 7 0 7 0 7 0 7 0 7 0 7 0 7 0 
7 0 7 0 7 0 7 0 7 0 7 0 7 0 7 0 
7 0 7 0 7 0 7 0 7 0 7 0 7 0 7 0 
7 0 7 0 7 0 7 0 7 0 7 0 7 0 7 0 
8 0 6 0 7 0 7 0 7 0 7 0 7 0 7 0 
7 0 7 0 7 0 7 0 7 0 7 0 7 0 7 0 
7 0 7 0 7 0 7 5 7 4 7 9 7 14 7 21 
7 32 7 42 7 52 7 58 7 58 7 50 7 38 7 17 
7 -4 7 -20 7 -28 7 -26 7 -16 7 0 7 16 7 26 
7 28 7 20 7 4 7 -17 7 -38 7 -50 7 -54 7 -53 
7 -44 7 -24 7 -5 7 18 7 42 7 66 7 85 7 96 
7 101 7 92 7 70 7 38 7 0 7 -38 7 -70 7 -92 
7 -101 7 -100 7 -90 7 -74 7 -56 7 -40 7 -26 7 -18 
7 -9 7 0 7 0 7 9 7 18 7 26 7 40 7 56 
7 74 7 90 7 104 7 106 7 100 7 89 7 64 7 44 
7 23 7 12 7 12 7 24 7 38 7 53 7 62 7 65 
7 54 7 37 7 11 7 -8 7 -29 7 -46 7 -54 7 -61 
7 -69 7 -71 7 -80 7 -88 7 -86 7 -82 7 -73 7 -52 
7 -32 7 -8 7 7 7 14 7 8 7 2 7 -16 7 -30 
7 -40 7 -36 7 -26 7 -10 7 10 7 30 7 41 7 44 
7 40 7 29 7 15 7 8 7 3 7 0 7 0 7 -3 
7 -8 7 -20 7 -33 7 -48 7 -58 7 -63 7 -62 7 -52 
7 -42 7 -32 7 -21 7 -14 7 -9 7 -4 7 -5 7 0 
7 5 7 4 7 9 7 14 7 21 7 36 7 47 7 60 
7 72 7 80 7 81 7 76 7 64 7 46 7 24 7 0 
7 -24 7 -46 7 -64 7 -76 7 -81 7 -75 7 -68 7 -52 
7 -33 7 -10 7 15 7 36 7 62 7 80 7 94 7 106 
7 111 7 107 7 96 7 82 7 68 7 48 7 30 7 14 
7 0 7 -12 7 -22 7 -29 7 -39 7 -48 7 -62 7 -72 
7 -86 292 913 250 MP stroke
0.25 sg
7 0 7 0 7 0 7 0 7 0 7 0 7 0 7 0 
7 0 7 0 7 0 7 0 7 0 7 0 7 0 7 0 
7 0 7 0 7 0 7 0 7 0 7 0 7 0 7 0 
7 0 7 0 7 0 7 0 7 0 7 0 7 0 7 0 
7 0 7 0 7 0 7 0 7 0 7 0 7 0 7 0 
7 0 7 0 7 0 7 0 7 0 7 0 7 0 7 0 
8 0 6 0 7 0 7 0 7 0 7 0 7 0 7 0 
7 0 7 0 7 0 7 0 7 0 7 0 7 0 7 0 
7 0 7 0 7 0 7 0 7 0 7 0 7 0 7 0 
7 0 7 0 7 0 7 0 7 0 7 0 7 0 7 0 
7 0 7 0 7 0 7 0 7 0 7 5 7 4 7 9 
7 14 7 21 7 32 7 47 7 56 7 66 7 72 7 72 
7 65 7 54 7 40 7 24 7 9 7 -9 7 -24 7 -40 
7 -54 7 -65 7 -68 7 -67 7 -58 7 -42 7 -25 7 0 
7 20 7 38 7 50 7 58 7 50 7 42 7 26 7 9 
7 -2 7 -7 7 -6 7 0 7 6 7 7 7 2 7 -9 
7 -26 7 -42 7 -55 7 -62 7 -58 7 -52 7 -42 7 -32 
7 -21 7 -14 7 -9 7 -4 7 -5 7 0 7 0 7 0 
7 0 7 0 7 0 7 0 7 0 7 0 7 0 7 0 
7 0 7 5 7 4 7 9 7 14 7 21 7 32 7 42 
7 52 7 58 7 58 7 50 7 34 7 12 7 -12 7 -34 
7 -50 7 -58 7 -58 7 -52 7 -42 7 -32 7 -21 7 -14 
7 -9 7 -4 7 -5 7 0 7 0 7 0 7 0 7 5 
7 4 7 9 7 18 7 26 7 40 7 56 7 74 7 90 
7 100 7 101 7 92 7 70 7 38 7 0 7 -38 7 -70 
7 -87 7 -97 7 -88 7 -71 7 -44 7 -6 7 29 7 65 
7 100 7 128 7 143 7 144 7 135 7 112 7 78 7 40 
7 5 7 -34 7 -64 7 -86 7 -100 7 -102 7 -95 7 -80 
7 -60 7 -45 7 -28 7 -27 7 -28 7 -38 7 -52 7 -58 
7 -63 7 -62 7 -52 7 -38 7 -27 7 -13 7 0 7 13 
7 27 7 38 7 52 7 58 7 58 7 50 7 34 7 12 
7 -12 292 1223 250 MP stroke
c8
7 0 7 0 7 0 7 0 7 0 7 0 7 0 7 0 
7 0 7 0 7 0 7 0 7 0 7 0 7 0 7 0 
7 0 7 0 7 0 7 0 7 0 7 0 7 0 7 0 
7 0 7 0 7 0 7 0 7 0 7 0 7 0 7 0 
7 0 7 5 7 4 7 9 7 14 7 21 7 32 7 42 
7 52 7 58 7 58 7 50 7 34 7 12 7 -12 7 -34 
8 -50 6 -54 7 -53 7 -44 7 -28 7 -10 7 10 7 28 
7 44 7 53 7 54 7 54 7 39 7 20 7 2 7 -12 
7 -19 7 -15 7 -2 7 11 7 24 7 32 7 34 7 29 
7 22 7 14 7 4 7 0 7 -9 7 -18 7 -30 7 -44 
7 -55 7 -64 7 -66 7 -63 7 -56 7 -42 7 -27 7 -18 
7 -1 7 10 7 26 7 41 7 64 7 84 7 104 7 115 
7 116 7 105 7 84 7 53 7 21 7 -10 7 -34 7 -50 
7 -60 7 -66 7 -72 7 -76 7 -79 7 -80 7 -76 7 -71 
7 -56 7 -47 7 -32 7 -17 7 -9 7 0 7 13 7 22 
7 40 7 56 7 74 7 90 7 100 7 101 7 92 7 70 
7 38 7 0 7 -38 7 -70 7 -92 7 -101 7 -100 7 -90 
7 -74 7 -56 7 -40 7 -26 7 -18 7 -9 7 -4 7 -5 
7 0 7 0 7 0 7 0 7 0 7 0 7 5 7 4 
7 9 7 18 7 26 7 40 7 56 7 74 7 90 7 100 
7 101 7 92 7 70 7 38 7 0 7 -38 7 -70 7 -92 
7 -101 7 -100 7 -90 7 -74 7 -52 7 -35 7 -18 7 -4 
7 13 7 27 7 38 7 52 7 58 7 58 7 50 7 34 
7 12 7 -12 7 -34 7 -50 7 -58 7 -58 7 -52 7 -42 
7 -32 7 -21 7 -14 7 -9 7 -4 7 -5 7 0 7 0 
7 0 7 0 7 0 7 0 7 0 7 0 7 0 7 0 
7 0 7 0 7 0 7 0 7 5 7 4 7 9 7 14 
7 21 7 32 7 42 7 52 7 58 7 58 7 50 7 34 
7 12 7 -12 7 -34 7 -50 7 -58 7 -58 7 -52 7 -42 
7 -32 7 -21 7 -14 7 -9 7 -4 7 -5 7 0 7 0 
7 0 7 0 7 0 7 0 7 0 7 0 7 0 7 0 
7 0 292 1602 250 MP stroke
c9
7 0 7 0 7 0 7 0 7 0 7 0 7 0 7 0 
7 0 7 0 7 0 7 0 7 0 7 0 7 0 7 0 
7 0 7 0 7 0 7 0 7 0 7 0 7 0 7 0 
7 0 7 0 7 0 7 0 7 0 7 0 7 5 7 4 
7 9 7 14 7 21 7 32 7 42 7 52 7 58 7 58 
7 50 7 34 7 12 7 -12 7 -34 7 -50 7 -58 7 -58 
8 -52 6 -42 7 -32 7 -21 7 -14 7 -9 7 -4 7 -5 
7 5 7 4 7 9 7 14 7 21 7 32 7 42 7 52 
7 58 7 58 7 50 7 34 7 12 7 -12 7 -34 7 -50 
7 -58 7 -58 7 -52 7 -42 7 -32 7 -21 7 -14 7 -9 
7 -4 7 -5 7 0 7 0 7 0 7 0 7 0 7 0 
7 0 7 0 7 0 7 0 7 0 7 0 7 0 7 0 
7 0 7 0 7 0 7 0 7 0 7 0 7 0 7 0 
7 0 7 5 7 4 7 9 7 18 7 26 7 40 7 56 
7 74 7 90 7 100 7 101 7 92 7 70 7 38 7 0 
7 -38 7 -70 7 -87 7 -97 7 -92 7 -76 7 -52 7 -25 
7 3 7 26 7 39 7 50 7 45 7 30 7 12 7 -12 
7 -34 7 -50 7 -58 7 -58 7 -52 7 -42 7 -32 7 -17 
7 -9 7 0 7 9 7 17 7 32 7 42 7 52 7 58 
7 58 7 50 7 34 7 12 7 -12 7 -34 7 -50 7 -58 
7 -58 7 -52 7 -42 7 -32 7 -21 7 -14 7 -9 7 -4 
7 -5 7 0 7 0 7 0 7 0 7 0 7 0 7 0 
7 0 7 5 7 4 7 9 7 14 7 21 7 36 7 47 
7 60 7 72 7 80 7 81 7 76 7 64 7 46 7 24 
7 0 7 -24 7 -46 7 -64 7 -76 7 -81 7 -80 7 -72 
7 -56 7 -42 7 -28 7 -7 7 7 7 24 7 38 7 47 
7 58 7 58 7 50 7 34 7 12 7 -12 7 -34 7 -50 
7 -58 7 -58 7 -52 7 -42 7 -32 7 -21 7 -14 7 -9 
7 -4 7 -5 7 0 7 0 7 0 7 0 7 0 7 0 
7 5 7 4 7 13 7 18 7 30 7 46 7 64 7 84 
7 100 7 110 7 107 7 92 7 62 7 22 7 -22 7 -62 
7 -92 292 1021 250 MP stroke
c10
7 0 7 0 7 0 7 0 7 0 7 0 7 0 7 0 
7 0 7 0 7 0 7 0 7 0 7 0 7 0 7 0 
7 0 7 0 7 0 7 0 7 0 7 0 7 0 7 0 
7 0 7 0 7 0 7 0 7 0 7 0 7 0 7 0 
7 0 7 0 7 0 7 0 7 0 7 0 7 0 7 0 
7 0 7 0 7 0 7 0 7 0 7 0 7 0 7 0 
8 5 6 4 7 9 7 14 7 21 7 32 7 42 7 52 
7 62 7 63 7 58 7 48 7 33 7 20 7 8 7 3 
7 0 7 0 7 -3 7 -8 7 -20 7 -33 7 -48 7 -54 
7 -58 7 -54 7 -38 7 -16 7 5 7 28 7 52 7 72 
7 85 7 87 7 86 7 70 7 46 7 16 7 -16 7 -46 
7 -70 7 -86 7 -92 7 -89 7 -80 7 -61 7 -46 7 -28 
7 -12 7 7 7 24 7 38 7 51 7 63 7 66 7 64 
7 55 7 44 7 30 7 23 7 13 7 12 7 10 7 12 
7 15 7 21 7 28 7 36 7 44 7 45 7 36 7 19 
7 -5 7 -39 7 -63 7 -82 7 -82 7 -69 7 -36 7 0 
7 36 7 65 7 77 7 78 7 54 7 25 7 -12 7 -40 
7 -60 7 -66 7 -58 7 -42 7 -26 7 -14 7 -11 7 -14 
7 -26 7 -38 7 -41 7 -40 7 -26 7 -10 7 10 7 26 
7 36 7 36 7 26 7 7 7 -12 7 -29 7 -42 7 -44 
7 -36 7 -20 7 0 7 20 7 36 7 44 7 42 7 29 
7 8 7 -12 7 -34 7 -50 7 -58 7 -58 7 -52 7 -42 
7 -32 7 -21 7 -14 7 -9 7 -4 7 0 7 4 7 9 
7 14 7 21 7 32 7 42 7 52 7 58 7 58 7 50 
7 34 7 12 7 -12 7 -34 7 -50 7 -58 7 -58 7 -52 
7 -42 7 -32 7 -21 7 -14 7 -9 7 -4 7 0 7 4 
7 9 7 14 7 21 7 32 7 42 7 52 7 58 7 58 
7 50 7 34 7 16 7 -7 7 -26 7 -36 7 -36 7 -26 
7 -6 7 14 7 35 7 50 7 58 7 57 7 50 7 35 
7 24 7 9 7 -9 7 -24 7 -40 7 -54 7 -65 7 -72 
7 -72 7 -66 7 -56 7 -47 7 -32 7 -21 7 -14 7 -9 
7 -4 292 1597 250 MP stroke
gr

c10

end %%Color Dict

eplot
%%EndObject

epage
end

showpage

%%Trailer
%%EOF
