%!PS-Adobe-3.0 EPSF-3.0
%%Creator: MATLAB, The Mathworks, Inc. Version 7.10.0.499 (R2010a). Operating System: Microsoft Windows 7.
%%Title: C:\Users\wwu\Desktop\warping\James_code\comp_toy.eps
%%CreationDate: 04/12/2011  15:02:51
%%DocumentNeededFonts: Helvetica
%%DocumentProcessColors: Cyan Magenta Yellow Black
%%LanguageLevel: 2
%%Pages: 1
%%BoundingBox:   212   320   399   470
%%EndComments

%%BeginProlog
% MathWorks dictionary
/MathWorks 160 dict begin
% definition operators
/bdef {bind def} bind def
/ldef {load def} bind def
/xdef {exch def} bdef
/xstore {exch store} bdef
% operator abbreviations
/c  /clip ldef
/cc /concat ldef
/cp /closepath ldef
/gr /grestore ldef
/gs /gsave ldef
/mt /moveto ldef
/np /newpath ldef
/cm /currentmatrix ldef
/sm /setmatrix ldef
/rm /rmoveto ldef
/rl /rlineto ldef
/s {show newpath} bdef
/sc {setcmykcolor} bdef
/sr /setrgbcolor ldef
/sg /setgray ldef
/w /setlinewidth ldef
/j /setlinejoin ldef
/cap /setlinecap ldef
/rc {rectclip} bdef
/rf {rectfill} bdef
% page state control
/pgsv () def
/bpage {/pgsv save def} bdef
/epage {pgsv restore} bdef
/bplot /gsave ldef
/eplot {stroke grestore} bdef
% orientation switch
/portraitMode 0 def /landscapeMode 1 def /rotateMode 2 def
% coordinate system mappings
/dpi2point 0 def
% font control
/FontSize 0 def
/FMS {/FontSize xstore findfont [FontSize 0 0 FontSize neg 0 0]
  makefont setfont} bdef
/ISOLatin1Encoding where {pop /WindowsLatin1Encoding 256 array bdef
ISOLatin1Encoding WindowsLatin1Encoding copy pop
/.notdef/.notdef/quotesinglbase/florin/quotedblbase/ellipsis/dagger
/daggerdbl/circumflex/perthousand/Scaron/guilsinglleft/OE/.notdef/.notdef
/.notdef/.notdef/quoteleft/quoteright/quotedblleft/quotedblright/bullet
/endash/emdash/tilde/trademark/scaron/guilsinglright/oe/.notdef/.notdef
/Ydieresis WindowsLatin1Encoding 128 32 getinterval astore pop}
{/WindowsLatin1Encoding StandardEncoding bdef} ifelse
/reencode {exch dup where {pop load} {pop StandardEncoding} ifelse
  exch dup 3 1 roll findfont dup length dict begin
  { 1 index /FID ne {def}{pop pop} ifelse } forall
  /Encoding exch def currentdict end definefont pop} bdef
/isroman {findfont /CharStrings get /Agrave known} bdef
/FMSR {3 1 roll 1 index dup isroman {reencode} {pop pop} ifelse
  exch FMS} bdef
/csm {1 dpi2point div -1 dpi2point div scale neg translate
 dup landscapeMode eq {pop -90 rotate}
  {rotateMode eq {90 rotate} if} ifelse} bdef
% line types: solid, dotted, dashed, dotdash
/SO { [] 0 setdash } bdef
/DO { [.5 dpi2point mul 4 dpi2point mul] 0 setdash } bdef
/DA { [6 dpi2point mul] 0 setdash } bdef
/DD { [.5 dpi2point mul 4 dpi2point mul 6 dpi2point mul 4
  dpi2point mul] 0 setdash } bdef
% macros for lines and objects
/L {lineto stroke} bdef
/MP {3 1 roll moveto 1 sub {rlineto} repeat} bdef
/AP {{rlineto} repeat} bdef
/PDlw -1 def
/W {/PDlw currentlinewidth def setlinewidth} def
/PP {closepath eofill} bdef
/DP {closepath stroke} bdef
/MR {4 -2 roll moveto dup  0 exch rlineto exch 0 rlineto
  neg 0 exch rlineto closepath} bdef
/FR {MR stroke} bdef
/PR {MR fill} bdef
/L1i {{currentfile picstr readhexstring pop} image} bdef
/tMatrix matrix def
/MakeOval {newpath tMatrix currentmatrix pop translate scale
0 0 1 0 360 arc tMatrix setmatrix} bdef
/FO {MakeOval stroke} bdef
/PO {MakeOval fill} bdef
/PD {currentlinewidth 2 div 0 360 arc fill
   PDlw -1 eq not {PDlw w /PDlw -1 def} if} def
/FA {newpath tMatrix currentmatrix pop translate scale
  0 0 1 5 -2 roll arc tMatrix setmatrix stroke} bdef
/PA {newpath tMatrix currentmatrix pop	translate 0 0 moveto scale
  0 0 1 5 -2 roll arc closepath tMatrix setmatrix fill} bdef
/FAn {newpath tMatrix currentmatrix pop translate scale
  0 0 1 5 -2 roll arcn tMatrix setmatrix stroke} bdef
/PAn {newpath tMatrix currentmatrix pop translate 0 0 moveto scale
  0 0 1 5 -2 roll arcn closepath tMatrix setmatrix fill} bdef
/vradius 0 def /hradius 0 def /lry 0 def
/lrx 0 def /uly 0 def /ulx 0 def /rad 0 def
/MRR {/vradius xdef /hradius xdef /lry xdef /lrx xdef /uly xdef
  /ulx xdef newpath tMatrix currentmatrix pop ulx hradius add uly
  vradius add translate hradius vradius scale 0 0 1 180 270 arc 
  tMatrix setmatrix lrx hradius sub uly vradius add translate
  hradius vradius scale 0 0 1 270 360 arc tMatrix setmatrix
  lrx hradius sub lry vradius sub translate hradius vradius scale
  0 0 1 0 90 arc tMatrix setmatrix ulx hradius add lry vradius sub
  translate hradius vradius scale 0 0 1 90 180 arc tMatrix setmatrix
  closepath} bdef
/FRR {MRR stroke } bdef
/PRR {MRR fill } bdef
/MlrRR {/lry xdef /lrx xdef /uly xdef /ulx xdef /rad lry uly sub 2 div def
  newpath tMatrix currentmatrix pop ulx rad add uly rad add translate
  rad rad scale 0 0 1 90 270 arc tMatrix setmatrix lrx rad sub lry rad
  sub translate rad rad scale 0 0 1 270 90 arc tMatrix setmatrix
  closepath} bdef
/FlrRR {MlrRR stroke } bdef
/PlrRR {MlrRR fill } bdef
/MtbRR {/lry xdef /lrx xdef /uly xdef /ulx xdef /rad lrx ulx sub 2 div def
  newpath tMatrix currentmatrix pop ulx rad add uly rad add translate
  rad rad scale 0 0 1 180 360 arc tMatrix setmatrix lrx rad sub lry rad
  sub translate rad rad scale 0 0 1 0 180 arc tMatrix setmatrix
  closepath} bdef
/FtbRR {MtbRR stroke } bdef
/PtbRR {MtbRR fill } bdef
/stri 6 array def /dtri 6 array def
/smat 6 array def /dmat 6 array def
/tmat1 6 array def /tmat2 6 array def /dif 3 array def
/asub {/ind2 exch def /ind1 exch def dup dup
  ind1 get exch ind2 get sub exch } bdef
/tri_to_matrix {
  2 0 asub 3 1 asub 4 0 asub 5 1 asub
  dup 0 get exch 1 get 7 -1 roll astore } bdef
/compute_transform {
  dmat dtri tri_to_matrix tmat1 invertmatrix 
  smat stri tri_to_matrix tmat2 concatmatrix } bdef
/ds {stri astore pop} bdef
/dt {dtri astore pop} bdef
/db {2 copy /cols xdef /rows xdef mul dup 3 mul string
  currentfile 
  3 index 0 eq {/ASCIIHexDecode filter}
  {/ASCII85Decode filter 3 index 2 eq {/RunLengthDecode filter} if }
  ifelse exch readstring pop
  dup 0 3 index getinterval /rbmap xdef
  dup 2 index dup getinterval /gbmap xdef
  1 index dup 2 mul exch getinterval /bbmap xdef pop pop}bdef
/it {gs np dtri aload pop moveto lineto lineto cp c
  cols rows 8 compute_transform 
  rbmap gbmap bbmap true 3 colorimage gr}bdef
/il {newpath moveto lineto stroke}bdef
currentdict end def
%%EndProlog

%%BeginSetup
MathWorks begin

0 cap

end
%%EndSetup

%%Page: 1 1
%%BeginPageSetup
%%PageBoundingBox:   212   320   399   470
MathWorks begin
bpage
%%EndPageSetup

%%BeginObject: obj1
bplot

/dpi2point 12 def
portraitMode 2544 5640 csm

    0     0  2249  1800 rc
85 dict begin %Colortable dictionary
/c0 { 0.000000 0.000000 0.000000 sr} bdef
/c1 { 1.000000 1.000000 1.000000 sr} bdef
/c2 { 0.900000 0.000000 0.000000 sr} bdef
/c3 { 0.000000 0.820000 0.000000 sr} bdef
/c4 { 0.000000 0.000000 0.800000 sr} bdef
/c5 { 0.910000 0.820000 0.320000 sr} bdef
/c6 { 1.000000 0.260000 0.820000 sr} bdef
/c7 { 0.000000 0.820000 0.820000 sr} bdef
c0
1 j
1 sg
   0    0 2250 1801 rf
6 w
0 1467 1743 0 0 -1467 292 1602 4 MP
PP
-1743 0 0 1467 1743 0 0 -1467 292 1602 5 MP stroke
4 w
DO
SO
6 w
0 sg
 292  135 mt 2035  135 L
 292 1602 mt 2035 1602 L
2035 1602 mt 2035  135 L
 292 1602 mt  292  135 L
 292 1602 mt 2035 1602 L
 292 1602 mt  292  135 L
 292 1602 mt  292 1584 L
 292  135 mt  292  152 L
%%IncludeResource: font Helvetica
/Helvetica /WindowsLatin1Encoding 120 FMSR

 259 1747 mt 
(0) s
1163 1602 mt 1163 1584 L
1163  135 mt 1163  152 L
1080 1747 mt 
(0.5) s
2035 1602 mt 2035 1584 L
2035  135 mt 2035  152 L
2002 1747 mt 
(1) s
 292 1602 mt  309 1602 L
2035 1602 mt 2017 1602 L
 191 1646 mt 
(0) s
 292 1276 mt  309 1276 L
2035 1276 mt 2017 1276 L
 191 1320 mt 
(2) s
 292  950 mt  309  950 L
2035  950 mt 2017  950 L
 191  994 mt 
(4) s
 292  624 mt  309  624 L
2035  624 mt 2017  624 L
 191  668 mt 
(6) s
 292  298 mt  309  298 L
2035  298 mt 2017  298 L
 191  342 mt 
(8) s
 292  135 mt 2035  135 L
 292 1602 mt 2035 1602 L
2035 1602 mt 2035  135 L
 292 1602 mt  292  135 L
gs 292 135 1744 1468 rc
/c8 { 0.000000 0.000000 1.000000 sr} bdef
c8
18 0 17 0 18 0 17 0 18 0 17 0 18 0 17 0 
17 0 18 0 17 0 18 0 17 0 18 0 17 0 17 0 
18 0 17 0 18 0 17 0 18 0 17 0 17 0 18 0 
17 0 18 0 17 0 18 0 17 0 17 0 18 0 17 0 
18 0 17 0 18 1 17 0 17 0 18 0 17 0 18 0 
17 0 18 0 17 0 17 0 18 0 17 0 18 0 17 0 
18 0 17 0 17 0 18 0 17 0 18 0 17 0 18 0 
17 0 17 0 18 1 17 1 18 2 17 4 18 7 17 12 
17 20 18 31 17 46 18 65 17 88 18 112 17 137 17 156 
18 168 17 168 18 153 17 123 18 80 17 28 17 -28 18 -80 
17 -123 18 -153 17 -168 18 -168 17 -156 17 -137 18 -112 17 -88 
18 -65 17 -46 18 -31 17 -20 17 -12 18 -7 17 -4 18 -2 
17 -1 18 -1 17 0 17 0 292 1601 101 MP stroke
/c9 { 0.000000 0.500000 0.000000 sr} bdef
c9
18 0 17 0 18 0 17 0 18 0 17 0 18 0 17 0 
17 0 18 0 17 0 18 0 17 0 18 0 17 0 17 0 
18 0 17 0 18 0 17 0 18 0 17 0 17 0 18 0 
17 0 18 0 17 0 18 0 17 0 17 0 18 0 17 0 
18 1 17 0 18 0 17 0 17 0 18 0 17 0 18 0 
17 0 18 0 17 0 17 0 18 0 17 0 18 0 17 0 
18 0 17 0 17 0 18 0 17 0 18 0 17 0 18 0 
17 1 17 1 18 2 17 4 18 7 17 12 18 20 17 30 
17 46 18 64 17 87 18 112 17 135 18 154 17 167 17 166 
18 151 17 122 18 79 17 28 18 -28 17 -79 17 -122 18 -151 
17 -166 18 -167 17 -154 18 -135 17 -112 17 -87 18 -64 17 -46 
18 -30 17 -20 18 -12 17 -7 17 -4 18 -2 17 -1 18 -1 
17 0 18 0 17 0 17 0 292 1601 101 MP stroke
/c10 { 1.000000 0.000000 0.000000 sr} bdef
c10
18 0 17 0 18 0 17 0 18 0 17 0 18 0 17 0 
17 0 18 0 17 0 18 0 17 0 18 0 17 0 17 0 
18 0 17 0 18 0 17 0 18 0 17 0 17 0 18 0 
17 0 18 0 17 0 18 0 17 0 17 0 18 1 17 0 
18 0 17 0 18 0 17 0 17 0 18 0 17 0 18 0 
17 0 18 0 17 0 17 0 18 0 17 0 18 0 17 0 
18 0 17 0 17 0 18 0 17 0 18 0 17 1 18 1 
17 2 17 4 18 7 17 12 18 19 17 31 18 45 17 64 
17 86 18 110 17 134 18 153 17 165 18 164 17 150 17 121 
18 79 17 27 18 -27 17 -79 18 -121 17 -150 17 -164 18 -165 
17 -153 18 -134 17 -110 18 -86 17 -64 17 -45 18 -31 17 -19 
18 -12 17 -7 18 -4 17 -2 17 -1 18 -1 17 0 18 0 
17 0 18 0 17 0 17 0 292 1601 101 MP stroke
/c11 { 0.000000 0.750000 0.750000 sr} bdef
c11
18 0 17 0 18 0 17 0 18 0 17 0 18 0 17 0 
17 0 18 0 17 0 18 0 17 0 18 0 17 0 17 0 
18 0 17 0 18 0 17 0 18 0 17 0 17 0 18 0 
17 0 18 0 17 0 18 0 17 1 17 0 18 0 17 0 
18 0 17 0 18 0 17 0 17 0 18 0 17 0 18 0 
17 0 18 0 17 0 17 0 18 0 17 0 18 0 17 0 
18 0 17 0 17 0 18 0 17 0 18 2 17 2 18 4 
17 7 17 12 18 19 17 30 18 45 17 63 18 85 17 110 
17 132 18 152 17 164 18 163 17 148 18 120 17 78 17 27 
18 -27 17 -78 18 -120 17 -148 18 -163 17 -164 17 -152 18 -132 
17 -110 18 -85 17 -63 18 -45 17 -30 17 -19 18 -12 17 -7 
18 -4 17 -2 18 -2 17 0 17 0 18 0 17 0 18 0 
17 0 18 0 17 0 17 0 292 1601 101 MP stroke
/c12 { 0.750000 0.000000 0.750000 sr} bdef
c12
18 0 17 0 18 0 17 0 18 0 17 0 18 0 17 0 
17 0 18 0 17 0 18 0 17 0 18 0 17 0 17 0 
18 0 17 0 18 0 17 0 18 0 17 0 17 0 18 0 
17 0 18 0 17 1 18 0 17 0 17 0 18 0 17 0 
18 0 17 0 18 0 17 0 17 0 18 0 17 0 18 0 
17 0 18 0 17 0 17 0 18 0 17 0 18 0 17 0 
18 0 17 0 17 0 18 2 17 2 18 4 17 7 18 11 
17 20 17 29 18 45 17 63 18 84 17 109 18 131 17 151 
17 162 18 162 17 147 18 119 17 77 18 27 17 -27 17 -77 
18 -119 17 -147 18 -162 17 -162 18 -151 17 -131 17 -109 18 -84 
17 -63 18 -45 17 -29 18 -20 17 -11 17 -7 18 -4 17 -2 
18 -2 17 0 18 0 17 0 17 0 18 0 17 0 18 0 
17 0 18 0 17 0 17 0 292 1601 101 MP stroke
/c13 { 0.750000 0.750000 0.000000 sr} bdef
c13
18 0 17 0 18 0 17 0 18 0 17 0 18 0 17 0 
17 0 18 0 17 0 18 0 17 0 18 0 17 0 17 0 
18 0 17 0 18 0 17 0 18 0 17 0 17 0 18 0 
17 1 18 0 17 0 18 0 17 0 17 0 18 0 17 0 
18 0 17 0 18 0 17 0 17 0 18 0 17 0 18 0 
17 0 18 0 17 0 17 0 18 0 17 0 18 0 17 0 
18 0 17 2 17 2 18 4 17 6 18 12 17 19 18 30 
17 44 17 62 18 84 17 108 18 130 17 150 18 161 17 160 
17 147 18 118 17 77 18 26 17 -26 18 -77 17 -118 17 -147 
18 -160 17 -161 18 -150 17 -130 18 -108 17 -84 17 -62 18 -44 
17 -30 18 -19 17 -12 18 -6 17 -4 17 -2 18 -2 17 0 
18 0 17 0 18 0 17 0 17 0 18 0 17 0 18 0 
17 0 18 0 17 0 17 0 292 1601 101 MP stroke
0.25 sg
18 0 17 0 18 0 17 0 18 0 17 0 18 0 17 0 
17 0 18 0 17 0 18 0 17 0 18 0 17 0 17 0 
18 0 17 0 18 0 17 0 18 0 17 0 17 1 18 0 
17 0 18 0 17 0 18 0 17 0 17 0 18 0 17 0 
18 0 17 0 18 0 17 0 17 0 18 0 17 0 18 0 
17 0 18 0 17 0 17 0 18 0 17 0 18 0 17 2 
18 2 17 3 17 7 18 12 17 19 18 29 17 44 18 62 
17 83 17 107 18 130 17 149 18 160 17 159 18 146 17 117 
17 76 18 26 17 -26 18 -76 17 -117 18 -146 17 -159 17 -160 
18 -149 17 -130 18 -107 17 -83 18 -62 17 -44 17 -29 18 -19 
17 -12 18 -7 17 -3 18 -2 17 -2 17 0 18 0 17 0 
18 0 17 0 18 0 17 0 17 0 18 0 17 0 18 0 
17 0 18 0 17 0 17 0 292 1601 101 MP stroke
c8
18 0 17 0 18 0 17 0 18 0 17 0 18 0 17 0 
17 0 18 0 17 0 18 0 17 0 18 0 17 0 17 0 
18 0 17 0 18 0 17 0 18 1 17 0 17 0 18 0 
17 0 18 0 17 0 18 0 17 0 17 0 18 0 17 0 
18 0 17 0 18 0 17 0 17 0 18 0 17 0 18 0 
17 0 18 0 17 0 17 0 18 0 17 2 18 2 17 3 
18 7 17 12 17 19 18 29 17 43 18 62 17 83 18 106 
17 129 17 148 18 159 17 158 18 145 17 117 18 75 17 27 
17 -27 18 -75 17 -117 18 -145 17 -158 18 -159 17 -148 17 -129 
18 -106 17 -83 18 -62 17 -43 18 -29 17 -19 17 -12 18 -7 
17 -3 18 -2 17 -2 18 0 17 0 17 0 18 0 17 0 
18 0 17 0 18 0 17 0 17 0 18 0 17 0 18 0 
17 0 18 0 17 0 17 0 292 1601 101 MP stroke
c9
18 0 17 0 18 0 17 0 18 0 17 0 18 0 17 0 
17 0 18 0 17 0 18 0 17 0 18 0 17 0 17 0 
18 0 17 0 18 1 17 0 18 0 17 0 17 0 18 0 
17 0 18 0 17 0 18 0 17 0 17 0 18 0 17 0 
18 0 17 0 18 0 17 0 17 0 18 0 17 0 18 0 
17 0 18 0 17 0 17 2 18 2 17 3 18 7 17 12 
18 18 17 30 17 43 18 61 17 83 18 105 17 129 18 147 
17 158 17 157 18 144 17 116 18 76 17 26 18 -26 17 -76 
17 -116 18 -144 17 -157 18 -158 17 -147 18 -129 17 -105 17 -83 
18 -61 17 -43 18 -30 17 -18 18 -12 17 -7 17 -3 18 -2 
17 -2 18 0 17 0 18 0 17 0 17 0 18 0 17 0 
18 0 17 0 18 0 17 0 17 0 18 0 17 0 18 0 
17 0 18 0 17 0 17 0 292 1601 101 MP stroke
c10
18 0 17 0 18 0 17 0 18 0 17 0 18 0 17 0 
17 0 18 0 17 0 18 0 17 0 18 0 17 0 17 0 
18 1 17 0 18 0 17 0 18 0 17 0 17 0 18 0 
17 0 18 0 17 0 18 0 17 0 17 0 18 0 17 0 
18 0 17 0 18 0 17 0 17 0 18 0 17 0 18 0 
17 0 18 2 17 2 17 3 18 7 17 12 18 18 17 29 
18 43 17 61 17 82 18 106 17 127 18 147 17 157 18 157 
17 144 17 115 18 75 17 26 18 -26 17 -75 18 -115 17 -144 
17 -157 18 -157 17 -147 18 -127 17 -106 18 -82 17 -61 17 -43 
18 -29 17 -18 18 -12 17 -7 18 -3 17 -2 17 -2 18 0 
17 0 18 0 17 0 18 0 17 0 17 0 18 0 17 0 
18 0 17 0 18 0 17 0 17 0 18 0 17 0 18 0 
17 0 18 0 17 0 17 0 292 1601 101 MP stroke
c11
18 0 17 0 18 0 17 0 18 0 17 0 18 0 17 0 
17 0 18 0 17 0 18 0 17 0 18 0 17 1 17 0 
18 0 17 0 18 0 17 0 18 0 17 0 17 0 18 0 
17 0 18 0 17 0 18 0 17 0 17 0 18 0 17 0 
18 0 17 0 18 0 17 0 17 0 18 0 17 0 18 2 
17 2 18 3 17 7 17 11 18 19 17 29 18 43 17 61 
18 82 17 104 17 128 18 146 17 156 18 157 17 143 18 115 
17 74 17 26 18 -26 17 -74 18 -115 17 -143 18 -157 17 -156 
17 -146 18 -128 17 -104 18 -82 17 -61 18 -43 17 -29 17 -19 
18 -11 17 -7 18 -3 17 -2 18 -2 17 0 17 0 18 0 
17 0 18 0 17 0 18 0 17 0 17 0 18 0 17 0 
18 0 17 0 18 0 17 0 17 0 18 0 17 0 18 0 
17 0 18 0 17 0 17 0 292 1601 101 MP stroke
c12
18 0 17 0 18 0 17 0 18 0 17 0 18 0 17 0 
17 0 18 0 17 0 18 0 17 0 18 1 17 0 17 0 
18 0 17 0 18 0 17 0 18 0 17 0 17 0 18 0 
17 0 18 0 17 0 18 0 17 0 17 0 18 0 17 0 
18 0 17 0 18 0 17 0 17 0 18 2 17 2 18 3 
17 7 18 11 17 19 17 29 18 43 17 60 18 82 17 104 
18 127 17 146 17 156 18 156 17 143 18 114 17 75 18 26 
17 -26 17 -75 18 -114 17 -143 18 -156 17 -156 18 -146 17 -127 
17 -104 18 -82 17 -60 18 -43 17 -29 18 -19 17 -11 17 -7 
18 -3 17 -2 18 -2 17 0 18 0 17 0 17 0 18 0 
17 0 18 0 17 0 18 0 17 0 17 0 18 0 17 0 
18 0 17 0 18 0 17 0 17 0 18 0 17 0 18 0 
17 0 18 0 17 -1 17 0 292 1602 101 MP stroke
c13
18 0 17 0 18 0 17 0 18 0 17 0 18 0 17 0 
17 0 18 0 17 0 18 1 17 0 18 0 17 0 17 0 
18 0 17 0 18 0 17 0 18 0 17 0 17 0 18 0 
17 0 18 0 17 0 18 0 17 0 17 0 18 0 17 0 
18 0 17 0 18 0 17 1 17 3 18 3 17 7 18 11 
17 19 18 29 17 42 17 61 18 81 17 105 18 126 17 146 
18 156 17 155 17 143 18 114 17 74 18 26 17 -26 18 -74 
17 -114 17 -143 18 -155 17 -156 18 -146 17 -126 18 -105 17 -81 
17 -61 18 -42 17 -29 18 -19 17 -11 18 -7 17 -3 17 -3 
18 -1 17 0 18 0 17 0 18 0 17 0 17 0 18 0 
17 0 18 0 17 0 18 0 17 0 17 0 18 0 17 0 
18 0 17 0 18 0 17 0 17 0 18 0 17 0 18 0 
17 -1 18 0 17 0 17 0 292 1602 101 MP stroke
0.25 sg
18 0 17 0 18 0 17 0 18 0 17 0 18 0 17 0 
17 0 18 1 17 0 18 0 17 0 18 0 17 0 17 0 
18 0 17 0 18 0 17 0 18 0 17 0 17 0 18 0 
17 0 18 0 17 0 18 0 17 0 17 0 18 0 17 0 
18 0 17 1 18 3 17 3 17 7 18 11 17 19 18 29 
17 42 18 61 17 81 17 104 18 127 17 145 18 156 17 155 
18 142 17 115 17 74 18 26 17 -26 18 -74 17 -115 18 -142 
17 -155 17 -156 18 -145 17 -127 18 -104 17 -81 18 -61 17 -42 
17 -29 18 -19 17 -11 18 -7 17 -3 18 -3 17 -1 17 0 
18 0 17 0 18 0 17 0 18 0 17 0 17 0 18 0 
17 0 18 0 17 0 18 0 17 0 17 0 18 0 17 0 
18 0 17 0 18 0 17 0 17 0 18 0 17 -1 18 0 
17 0 18 0 17 0 17 0 292 1602 101 MP stroke
c8
18 0 17 0 18 0 17 0 18 0 17 0 18 0 17 1 
17 0 18 0 17 0 18 0 17 0 18 0 17 0 17 0 
18 0 17 0 18 0 17 0 18 0 17 0 17 0 18 0 
17 0 18 0 17 0 18 0 17 0 17 0 18 0 17 1 
18 3 17 3 18 7 17 11 17 19 18 29 17 42 18 61 
17 81 18 104 17 127 17 145 18 155 17 156 18 142 17 114 
18 74 17 26 17 -26 18 -74 17 -114 18 -142 17 -156 18 -155 
17 -145 17 -127 18 -104 17 -81 18 -61 17 -42 18 -29 17 -19 
17 -11 18 -7 17 -3 18 -3 17 -1 18 0 17 0 17 0 
18 0 17 0 18 0 17 0 18 0 17 0 17 0 18 0 
17 0 18 0 17 0 18 0 17 0 17 0 18 0 17 0 
18 0 17 0 18 0 17 0 17 -1 18 0 17 0 18 0 
17 0 18 0 17 0 17 0 292 1602 101 MP stroke
c9
18 0 17 0 18 0 17 0 18 0 17 1 18 0 17 0 
17 0 18 0 17 0 18 0 17 0 18 0 17 0 17 0 
18 0 17 0 18 0 17 0 18 0 17 0 17 0 18 0 
17 0 18 0 17 0 18 0 17 0 17 1 18 3 17 3 
18 7 17 11 18 19 17 29 17 42 18 61 17 81 18 104 
17 127 18 145 17 156 17 155 18 142 17 115 18 74 17 26 
18 -26 17 -74 17 -115 18 -142 17 -155 18 -156 17 -145 18 -127 
17 -104 17 -81 18 -61 17 -42 18 -29 17 -19 18 -11 17 -7 
17 -3 18 -3 17 -1 18 0 17 0 18 0 17 0 17 0 
18 0 17 0 18 0 17 0 18 0 17 0 17 0 18 0 
17 0 18 0 17 0 18 0 17 0 17 0 18 0 17 0 
18 0 17 0 18 -1 17 0 17 0 18 0 17 0 18 0 
17 0 18 0 17 0 17 0 292 1602 101 MP stroke
c10
18 0 17 0 18 0 17 1 18 0 17 0 18 0 17 0 
17 0 18 0 17 0 18 0 17 0 18 0 17 0 17 0 
18 0 17 0 18 0 17 0 18 0 17 0 17 0 18 0 
17 0 18 0 17 0 18 1 17 3 17 3 18 7 17 11 
18 19 17 29 18 42 17 61 17 81 18 105 17 126 18 146 
17 156 18 155 17 143 17 114 18 74 17 26 18 -26 17 -74 
18 -114 17 -143 17 -155 18 -156 17 -146 18 -126 17 -105 18 -81 
17 -61 17 -42 18 -29 17 -19 18 -11 17 -7 18 -3 17 -3 
17 -1 18 0 17 0 18 0 17 0 18 0 17 0 17 0 
18 0 17 0 18 0 17 0 18 0 17 0 17 0 18 0 
17 0 18 0 17 0 18 0 17 0 17 0 18 0 17 0 
18 -1 17 0 18 0 17 0 17 0 18 0 17 0 18 0 
17 0 18 0 17 0 17 0 292 1602 101 MP stroke
c11
18 0 17 1 18 0 17 0 18 0 17 0 18 0 17 0 
17 0 18 0 17 0 18 0 17 0 18 0 17 0 17 0 
18 0 17 0 18 0 17 0 18 0 17 0 17 0 18 0 
17 0 18 2 17 2 18 3 17 7 17 11 18 19 17 29 
18 43 17 60 18 82 17 104 17 127 18 146 17 156 18 156 
17 143 18 114 17 75 17 26 18 -26 17 -75 18 -114 17 -143 
18 -156 17 -156 17 -146 18 -127 17 -104 18 -82 17 -60 18 -43 
17 -29 17 -19 18 -11 17 -7 18 -3 17 -2 18 -2 17 0 
17 0 18 0 17 0 18 0 17 0 18 0 17 0 17 0 
18 0 17 0 18 0 17 0 18 0 17 0 17 0 18 0 
17 0 18 0 17 0 18 0 17 0 17 0 18 -1 17 0 
18 0 17 0 18 0 17 0 17 0 18 0 17 0 18 0 
17 0 18 0 17 0 17 0 292 1602 101 MP stroke
c12
18 0 17 0 18 0 17 0 18 0 17 0 18 0 17 0 
17 0 18 0 17 0 18 0 17 0 18 0 17 0 17 0 
18 0 17 0 18 0 17 0 18 0 17 0 17 0 18 2 
17 2 18 3 17 7 18 11 17 19 17 29 18 43 17 61 
18 82 17 104 18 128 17 146 17 156 18 157 17 143 18 115 
17 74 18 26 17 -26 17 -74 18 -115 17 -143 18 -157 17 -156 
18 -146 17 -128 17 -104 18 -82 17 -61 18 -43 17 -29 18 -19 
17 -11 17 -7 18 -3 17 -2 18 -2 17 0 18 0 17 0 
17 0 18 0 17 0 18 0 17 0 18 0 17 0 17 0 
18 0 17 0 18 0 17 0 18 0 17 0 17 0 18 0 
17 0 18 0 17 0 18 0 17 0 17 -1 18 0 17 0 
18 0 17 0 18 0 17 0 17 0 18 0 17 0 18 0 
17 0 18 0 17 0 17 0 292 1602 101 MP stroke
c13
18 0 17 0 18 0 17 0 18 0 17 0 18 0 17 0 
17 0 18 0 17 0 18 0 17 0 18 0 17 0 17 0 
18 0 17 0 18 0 17 0 18 0 17 2 17 2 18 3 
17 7 18 12 17 18 18 29 17 43 17 61 18 82 17 106 
18 127 17 147 18 157 17 157 17 144 18 115 17 75 18 26 
17 -26 18 -75 17 -115 17 -144 18 -157 17 -157 18 -147 17 -127 
18 -106 17 -82 17 -61 18 -43 17 -29 18 -18 17 -12 18 -7 
17 -3 17 -2 18 -2 17 0 18 0 17 0 18 0 17 0 
17 0 18 0 17 0 18 0 17 0 18 0 17 0 17 0 
18 0 17 0 18 0 17 0 18 0 17 0 17 0 18 0 
17 0 18 0 17 0 18 -1 17 0 17 0 18 0 17 0 
18 0 17 0 18 0 17 0 17 0 18 0 17 0 18 0 
17 0 18 0 17 0 17 0 292 1602 101 MP stroke
0.25 sg
18 0 17 0 18 0 17 0 18 0 17 0 18 0 17 0 
17 0 18 0 17 0 18 0 17 0 18 0 17 0 17 0 
18 0 17 0 18 0 17 2 18 2 17 3 17 7 18 12 
17 18 18 30 17 43 18 61 17 83 17 105 18 129 17 147 
18 158 17 157 18 144 17 116 17 76 18 26 17 -26 18 -76 
17 -116 18 -144 17 -157 17 -158 18 -147 17 -129 18 -105 17 -83 
18 -61 17 -43 17 -30 18 -18 17 -12 18 -7 17 -3 18 -2 
17 -2 17 0 18 0 17 0 18 0 17 0 18 0 17 0 
17 0 18 0 17 0 18 0 17 0 18 0 17 0 17 0 
18 0 17 0 18 0 17 0 18 0 17 0 17 0 18 0 
17 0 18 -1 17 0 18 0 17 0 17 0 18 0 17 0 
18 0 17 0 18 0 17 0 17 0 18 0 17 0 18 0 
17 0 18 0 17 0 17 0 292 1602 101 MP stroke
c8
18 0 17 0 18 0 17 0 18 0 17 0 18 0 17 0 
17 0 18 0 17 0 18 0 17 0 18 0 17 0 17 0 
18 0 17 2 18 2 17 3 18 7 17 12 17 19 18 29 
17 43 18 62 17 83 18 106 17 129 17 148 18 159 17 158 
18 145 17 117 18 75 17 27 17 -27 18 -75 17 -117 18 -145 
17 -158 18 -159 17 -148 17 -129 18 -106 17 -83 18 -62 17 -43 
18 -29 17 -19 17 -12 18 -7 17 -3 18 -2 17 -2 18 0 
17 0 17 0 18 0 17 0 18 0 17 0 18 0 17 0 
17 0 18 0 17 0 18 0 17 0 18 0 17 0 17 0 
18 0 17 0 18 0 17 0 18 0 17 0 17 0 18 -1 
17 0 18 0 17 0 18 0 17 0 17 0 18 0 17 0 
18 0 17 0 18 0 17 0 17 0 18 0 17 0 18 0 
17 0 18 0 17 0 17 0 292 1602 101 MP stroke
c9
18 0 17 0 18 0 17 0 18 0 17 0 18 0 17 0 
17 0 18 0 17 0 18 0 17 0 18 0 17 0 17 2 
18 2 17 3 18 7 17 12 18 19 17 29 17 44 18 62 
17 83 18 107 17 130 18 149 17 160 17 159 18 146 17 117 
18 76 17 26 18 -26 17 -76 17 -117 18 -146 17 -159 18 -160 
17 -149 18 -130 17 -107 17 -83 18 -62 17 -44 18 -29 17 -19 
18 -12 17 -7 17 -3 18 -2 17 -2 18 0 17 0 18 0 
17 0 17 0 18 0 17 0 18 0 17 0 18 0 17 0 
17 0 18 0 17 0 18 0 17 0 18 0 17 0 17 0 
18 0 17 0 18 0 17 0 18 0 17 -1 17 0 18 0 
17 0 18 0 17 0 18 0 17 0 17 0 18 0 17 0 
18 0 17 0 18 0 17 0 17 0 18 0 17 0 18 0 
17 0 18 0 17 0 17 0 292 1602 101 MP stroke
c10
18 0 17 0 18 0 17 0 18 0 17 0 18 0 17 0 
17 0 18 0 17 0 18 0 17 0 18 2 17 2 17 4 
18 6 17 12 18 19 17 30 18 44 17 62 17 84 18 108 
17 130 18 150 17 161 18 160 17 147 17 118 18 77 17 26 
18 -26 17 -77 18 -118 17 -147 17 -160 18 -161 17 -150 18 -130 
17 -108 18 -84 17 -62 17 -44 18 -30 17 -19 18 -12 17 -6 
18 -4 17 -2 17 -2 18 0 17 0 18 0 17 0 18 0 
17 0 17 0 18 0 17 0 18 0 17 0 18 0 17 0 
17 0 18 0 17 0 18 0 17 0 18 0 17 0 17 0 
18 0 17 0 18 0 17 -1 18 0 17 0 17 0 18 0 
17 0 18 0 17 0 18 0 17 0 17 0 18 0 17 0 
18 0 17 0 18 0 17 0 17 0 18 0 17 0 18 0 
17 0 18 0 17 0 17 0 292 1602 101 MP stroke
c11
18 0 17 0 18 0 17 0 18 0 17 0 18 0 17 0 
17 0 18 0 17 0 18 2 17 2 18 4 17 7 17 11 
18 20 17 29 18 45 17 63 18 84 17 109 17 131 18 151 
17 162 18 162 17 147 18 119 17 77 17 27 18 -27 17 -77 
18 -119 17 -147 18 -162 17 -162 17 -151 18 -131 17 -109 18 -84 
17 -63 18 -45 17 -29 17 -20 18 -11 17 -7 18 -4 17 -2 
18 -2 17 0 17 0 18 0 17 0 18 0 17 0 18 0 
17 0 17 0 18 0 17 0 18 0 17 0 18 0 17 0 
17 0 18 0 17 0 18 0 17 0 18 0 17 0 17 0 
18 0 17 -1 18 0 17 0 18 0 17 0 17 0 18 0 
17 0 18 0 17 0 18 0 17 0 17 0 18 0 17 0 
18 0 17 0 18 0 17 0 17 0 18 0 17 0 18 0 
17 0 18 0 17 0 17 0 292 1602 101 MP stroke
c12
18 0 17 0 18 0 17 0 18 0 17 0 18 0 17 0 
17 0 18 2 17 2 18 4 17 7 18 12 17 19 17 30 
18 45 17 63 18 85 17 110 18 132 17 152 17 164 18 163 
17 148 18 120 17 78 18 27 17 -27 17 -78 18 -120 17 -148 
18 -163 17 -164 18 -152 17 -132 17 -110 18 -85 17 -63 18 -45 
17 -30 18 -19 17 -12 17 -7 18 -4 17 -2 18 -2 17 0 
18 0 17 0 17 0 18 0 17 0 18 0 17 0 18 0 
17 0 17 0 18 0 17 0 18 0 17 0 18 0 17 0 
17 0 18 0 17 0 18 0 17 0 18 0 17 0 17 -1 
18 0 17 0 18 0 17 0 18 0 17 0 17 0 18 0 
17 0 18 0 17 0 18 0 17 0 17 0 18 0 17 0 
18 0 17 0 18 0 17 0 17 0 18 0 17 0 18 0 
17 0 18 0 17 0 17 0 292 1602 101 MP stroke
c13
18 0 17 0 18 0 17 0 18 0 17 0 18 1 17 1 
17 2 18 4 17 7 18 12 17 19 18 31 17 45 17 64 
18 86 17 110 18 134 17 153 18 165 17 164 17 150 18 121 
17 79 18 27 17 -27 18 -79 17 -121 17 -150 18 -164 17 -165 
18 -153 17 -134 18 -110 17 -86 17 -64 18 -45 17 -31 18 -19 
17 -12 18 -7 17 -4 17 -2 18 -1 17 -1 18 0 17 0 
18 0 17 0 17 0 18 0 17 0 18 0 17 0 18 0 
17 0 17 0 18 0 17 0 18 0 17 0 18 0 17 0 
17 0 18 0 17 0 18 0 17 0 18 -1 17 0 17 0 
18 0 17 0 18 0 17 0 18 0 17 0 17 0 18 0 
17 0 18 0 17 0 18 0 17 0 17 0 18 0 17 0 
18 0 17 0 18 0 17 0 17 0 18 0 17 0 18 0 
17 0 18 0 17 0 17 0 292 1602 101 MP stroke
0.25 sg
18 0 17 0 18 0 17 0 18 1 17 1 18 2 17 4 
17 7 18 12 17 20 18 30 17 46 18 64 17 87 17 112 
18 135 17 154 18 167 17 166 18 151 17 122 17 79 18 28 
17 -28 18 -79 17 -122 18 -151 17 -166 17 -167 18 -154 17 -135 
18 -112 17 -87 18 -64 17 -46 17 -30 18 -20 17 -12 18 -7 
17 -4 18 -2 17 -1 17 -1 18 0 17 0 18 0 17 0 
18 0 17 0 17 0 18 0 17 0 18 0 17 0 18 0 
17 0 17 0 18 0 17 0 18 0 17 0 18 0 17 0 
17 0 18 0 17 0 18 -1 17 0 18 0 17 0 17 0 
18 0 17 0 18 0 17 0 18 0 17 0 17 0 18 0 
17 0 18 0 17 0 18 0 17 0 17 0 18 0 17 0 
18 0 17 0 18 0 17 0 17 0 18 0 17 0 18 0 
17 0 18 0 17 0 17 0 292 1602 101 MP stroke
c8
18 0 17 0 18 1 17 1 18 2 17 4 18 7 17 12 
17 20 18 31 17 46 18 65 17 88 18 112 17 137 17 156 
18 168 17 168 18 153 17 123 18 80 17 28 17 -28 18 -80 
17 -123 18 -153 17 -168 18 -168 17 -156 17 -137 18 -112 17 -88 
18 -65 17 -46 18 -31 17 -20 17 -12 18 -7 17 -4 18 -2 
17 -1 18 -1 17 0 17 0 18 0 17 0 18 0 17 0 
18 0 17 0 17 0 18 0 17 0 18 0 17 0 18 0 
17 0 17 0 18 0 17 0 18 0 17 0 18 0 17 0 
17 0 18 -1 17 0 18 0 17 0 18 0 17 0 17 0 
18 0 17 0 18 0 17 0 18 0 17 0 17 0 18 0 
17 0 18 0 17 0 18 0 17 0 17 0 18 0 17 0 
18 0 17 0 18 0 17 0 17 0 18 0 17 0 18 0 
17 0 18 0 17 0 17 0 292 1602 101 MP stroke
gr

c8

end %%Color Dict

eplot
%%EndObject

epage
end

showpage

%%Trailer
%%EOF
