%!PS-Adobe-3.0 EPSF-3.0
%%Creator: MATLAB, The Mathworks, Inc. Version 7.10.0.499 (R2010a). Operating System: Microsoft Windows 7.
%%Title: C:\Users\wwu\Desktop\warping\James_code\comp_signa_mm.eps
%%CreationDate: 04/12/2011  14:33:43
%%DocumentNeededFonts: Helvetica
%%DocumentProcessColors: Cyan Magenta Yellow Black
%%LanguageLevel: 2
%%Pages: 1
%%BoundingBox:   212   320   399   470
%%EndComments

%%BeginProlog
% MathWorks dictionary
/MathWorks 160 dict begin
% definition operators
/bdef {bind def} bind def
/ldef {load def} bind def
/xdef {exch def} bdef
/xstore {exch store} bdef
% operator abbreviations
/c  /clip ldef
/cc /concat ldef
/cp /closepath ldef
/gr /grestore ldef
/gs /gsave ldef
/mt /moveto ldef
/np /newpath ldef
/cm /currentmatrix ldef
/sm /setmatrix ldef
/rm /rmoveto ldef
/rl /rlineto ldef
/s {show newpath} bdef
/sc {setcmykcolor} bdef
/sr /setrgbcolor ldef
/sg /setgray ldef
/w /setlinewidth ldef
/j /setlinejoin ldef
/cap /setlinecap ldef
/rc {rectclip} bdef
/rf {rectfill} bdef
% page state control
/pgsv () def
/bpage {/pgsv save def} bdef
/epage {pgsv restore} bdef
/bplot /gsave ldef
/eplot {stroke grestore} bdef
% orientation switch
/portraitMode 0 def /landscapeMode 1 def /rotateMode 2 def
% coordinate system mappings
/dpi2point 0 def
% font control
/FontSize 0 def
/FMS {/FontSize xstore findfont [FontSize 0 0 FontSize neg 0 0]
  makefont setfont} bdef
/ISOLatin1Encoding where {pop /WindowsLatin1Encoding 256 array bdef
ISOLatin1Encoding WindowsLatin1Encoding copy pop
/.notdef/.notdef/quotesinglbase/florin/quotedblbase/ellipsis/dagger
/daggerdbl/circumflex/perthousand/Scaron/guilsinglleft/OE/.notdef/.notdef
/.notdef/.notdef/quoteleft/quoteright/quotedblleft/quotedblright/bullet
/endash/emdash/tilde/trademark/scaron/guilsinglright/oe/.notdef/.notdef
/Ydieresis WindowsLatin1Encoding 128 32 getinterval astore pop}
{/WindowsLatin1Encoding StandardEncoding bdef} ifelse
/reencode {exch dup where {pop load} {pop StandardEncoding} ifelse
  exch dup 3 1 roll findfont dup length dict begin
  { 1 index /FID ne {def}{pop pop} ifelse } forall
  /Encoding exch def currentdict end definefont pop} bdef
/isroman {findfont /CharStrings get /Agrave known} bdef
/FMSR {3 1 roll 1 index dup isroman {reencode} {pop pop} ifelse
  exch FMS} bdef
/csm {1 dpi2point div -1 dpi2point div scale neg translate
 dup landscapeMode eq {pop -90 rotate}
  {rotateMode eq {90 rotate} if} ifelse} bdef
% line types: solid, dotted, dashed, dotdash
/SO { [] 0 setdash } bdef
/DO { [.5 dpi2point mul 4 dpi2point mul] 0 setdash } bdef
/DA { [6 dpi2point mul] 0 setdash } bdef
/DD { [.5 dpi2point mul 4 dpi2point mul 6 dpi2point mul 4
  dpi2point mul] 0 setdash } bdef
% macros for lines and objects
/L {lineto stroke} bdef
/MP {3 1 roll moveto 1 sub {rlineto} repeat} bdef
/AP {{rlineto} repeat} bdef
/PDlw -1 def
/W {/PDlw currentlinewidth def setlinewidth} def
/PP {closepath eofill} bdef
/DP {closepath stroke} bdef
/MR {4 -2 roll moveto dup  0 exch rlineto exch 0 rlineto
  neg 0 exch rlineto closepath} bdef
/FR {MR stroke} bdef
/PR {MR fill} bdef
/L1i {{currentfile picstr readhexstring pop} image} bdef
/tMatrix matrix def
/MakeOval {newpath tMatrix currentmatrix pop translate scale
0 0 1 0 360 arc tMatrix setmatrix} bdef
/FO {MakeOval stroke} bdef
/PO {MakeOval fill} bdef
/PD {currentlinewidth 2 div 0 360 arc fill
   PDlw -1 eq not {PDlw w /PDlw -1 def} if} def
/FA {newpath tMatrix currentmatrix pop translate scale
  0 0 1 5 -2 roll arc tMatrix setmatrix stroke} bdef
/PA {newpath tMatrix currentmatrix pop	translate 0 0 moveto scale
  0 0 1 5 -2 roll arc closepath tMatrix setmatrix fill} bdef
/FAn {newpath tMatrix currentmatrix pop translate scale
  0 0 1 5 -2 roll arcn tMatrix setmatrix stroke} bdef
/PAn {newpath tMatrix currentmatrix pop translate 0 0 moveto scale
  0 0 1 5 -2 roll arcn closepath tMatrix setmatrix fill} bdef
/vradius 0 def /hradius 0 def /lry 0 def
/lrx 0 def /uly 0 def /ulx 0 def /rad 0 def
/MRR {/vradius xdef /hradius xdef /lry xdef /lrx xdef /uly xdef
  /ulx xdef newpath tMatrix currentmatrix pop ulx hradius add uly
  vradius add translate hradius vradius scale 0 0 1 180 270 arc 
  tMatrix setmatrix lrx hradius sub uly vradius add translate
  hradius vradius scale 0 0 1 270 360 arc tMatrix setmatrix
  lrx hradius sub lry vradius sub translate hradius vradius scale
  0 0 1 0 90 arc tMatrix setmatrix ulx hradius add lry vradius sub
  translate hradius vradius scale 0 0 1 90 180 arc tMatrix setmatrix
  closepath} bdef
/FRR {MRR stroke } bdef
/PRR {MRR fill } bdef
/MlrRR {/lry xdef /lrx xdef /uly xdef /ulx xdef /rad lry uly sub 2 div def
  newpath tMatrix currentmatrix pop ulx rad add uly rad add translate
  rad rad scale 0 0 1 90 270 arc tMatrix setmatrix lrx rad sub lry rad
  sub translate rad rad scale 0 0 1 270 90 arc tMatrix setmatrix
  closepath} bdef
/FlrRR {MlrRR stroke } bdef
/PlrRR {MlrRR fill } bdef
/MtbRR {/lry xdef /lrx xdef /uly xdef /ulx xdef /rad lrx ulx sub 2 div def
  newpath tMatrix currentmatrix pop ulx rad add uly rad add translate
  rad rad scale 0 0 1 180 360 arc tMatrix setmatrix lrx rad sub lry rad
  sub translate rad rad scale 0 0 1 0 180 arc tMatrix setmatrix
  closepath} bdef
/FtbRR {MtbRR stroke } bdef
/PtbRR {MtbRR fill } bdef
/stri 6 array def /dtri 6 array def
/smat 6 array def /dmat 6 array def
/tmat1 6 array def /tmat2 6 array def /dif 3 array def
/asub {/ind2 exch def /ind1 exch def dup dup
  ind1 get exch ind2 get sub exch } bdef
/tri_to_matrix {
  2 0 asub 3 1 asub 4 0 asub 5 1 asub
  dup 0 get exch 1 get 7 -1 roll astore } bdef
/compute_transform {
  dmat dtri tri_to_matrix tmat1 invertmatrix 
  smat stri tri_to_matrix tmat2 concatmatrix } bdef
/ds {stri astore pop} bdef
/dt {dtri astore pop} bdef
/db {2 copy /cols xdef /rows xdef mul dup 3 mul string
  currentfile 
  3 index 0 eq {/ASCIIHexDecode filter}
  {/ASCII85Decode filter 3 index 2 eq {/RunLengthDecode filter} if }
  ifelse exch readstring pop
  dup 0 3 index getinterval /rbmap xdef
  dup 2 index dup getinterval /gbmap xdef
  1 index dup 2 mul exch getinterval /bbmap xdef pop pop}bdef
/it {gs np dtri aload pop moveto lineto lineto cp c
  cols rows 8 compute_transform 
  rbmap gbmap bbmap true 3 colorimage gr}bdef
/il {newpath moveto lineto stroke}bdef
currentdict end def
%%EndProlog

%%BeginSetup
MathWorks begin

0 cap

end
%%EndSetup

%%Page: 1 1
%%BeginPageSetup
%%PageBoundingBox:   212   320   399   470
MathWorks begin
bpage
%%EndPageSetup

%%BeginObject: obj1
bplot

/dpi2point 12 def
portraitMode 2544 5640 csm

    0     0  2249  1800 rc
85 dict begin %Colortable dictionary
/c0 { 0.000000 0.000000 0.000000 sr} bdef
/c1 { 1.000000 1.000000 1.000000 sr} bdef
/c2 { 0.900000 0.000000 0.000000 sr} bdef
/c3 { 0.000000 0.820000 0.000000 sr} bdef
/c4 { 0.000000 0.000000 0.800000 sr} bdef
/c5 { 0.910000 0.820000 0.320000 sr} bdef
/c6 { 1.000000 0.260000 0.820000 sr} bdef
/c7 { 0.000000 0.820000 0.820000 sr} bdef
c0
1 j
1 sg
   0    0 2250 1801 rf
6 w
0 1467 1743 0 0 -1467 292 1602 4 MP
PP
-1743 0 0 1467 1743 0 0 -1467 292 1602 5 MP stroke
4 w
DO
SO
6 w
0 sg
 292  135 mt 2035  135 L
 292 1602 mt 2035 1602 L
2035 1602 mt 2035  135 L
 292 1602 mt  292  135 L
 292 1602 mt 2035 1602 L
 292 1602 mt  292  135 L
 633 1602 mt  633 1584 L
 633  135 mt  633  152 L
%%IncludeResource: font Helvetica
/Helvetica /WindowsLatin1Encoding 120 FMSR

 567 1747 mt 
(20) s
 992 1602 mt  992 1584 L
 992  135 mt  992  152 L
 926 1747 mt 
(40) s
1352 1602 mt 1352 1584 L
1352  135 mt 1352  152 L
1286 1747 mt 
(60) s
1711 1602 mt 1711 1584 L
1711  135 mt 1711  152 L
1645 1747 mt 
(80) s
 292 1602 mt  309 1602 L
2035 1602 mt 2017 1602 L
 191 1646 mt 
(0) s
 292 1113 mt  309 1113 L
2035 1113 mt 2017 1113 L
  91 1157 mt 
(0.5) s
 292  624 mt  309  624 L
2035  624 mt 2017  624 L
 191  668 mt 
(1) s
 292  135 mt  309  135 L
2035  135 mt 2017  135 L
  91  179 mt 
(1.5) s
 292  135 mt 2035  135 L
 292 1602 mt 2035 1602 L
2035 1602 mt 2035  135 L
 292 1602 mt  292  135 L
gs 292 135 1744 1468 rc
/c8 { 0.000000 0.000000 1.000000 sr} bdef
c8
18 171 18 145 18 99 18 50 18 15 18 14 18 29 18 48 
18 46 18 26 18 -9 18 -46 18 -75 18 -75 18 -40 18 23 
18 78 18 87 18 52 18 -5 18 -61 18 -71 18 -45 18 2 
18 31 18 36 18 21 18 1 18 -22 18 -49 18 -72 18 -82 
17 -67 18 -36 18 4 18 40 18 65 18 79 18 78 18 59 
18 24 18 -13 18 -43 18 -47 18 -26 18 1 18 17 18 17 
18 10 18 7 18 6 18 -1 18 -29 18 -58 18 -78 18 -63 
18 -13 18 55 18 111 18 118 18 71 18 1 18 -65 18 -76 
17 -37 18 32 18 70 18 55 18 -4 18 -63 18 -81 18 -56 
18 -23 18 0 18 -5 18 -13 18 -14 18 2 18 23 18 41 
18 46 18 31 18 -2 18 -37 18 -59 18 -47 18 -2 18 60 
18 104 18 112 18 66 18 -10 18 -101 18 -170 18 -205 18 -214 
1 -21 308 1603 98 MP stroke
/c9 { 0.000000 0.500000 0.000000 sr} bdef
c9
18 89 18 89 18 83 18 73 18 60 18 48 18 33 18 24 
18 25 18 26 18 23 18 7 18 -32 18 -73 18 -107 18 -98 
18 -42 18 37 18 83 18 79 18 25 18 -25 18 -52 18 -36 
18 -7 18 11 18 11 18 -2 18 -27 18 -61 18 -81 18 -77 
17 -46 18 -3 18 41 18 73 18 88 18 88 18 74 18 49 
18 15 18 -12 18 -30 18 -28 18 -13 18 5 18 12 18 8 
18 -1 18 -11 18 -16 18 -18 18 -31 18 -47 18 -63 18 -60 
18 -34 18 11 18 60 18 85 18 80 18 34 18 -22 18 -75 
17 -96 18 -77 18 -22 18 41 18 86 18 93 18 56 18 -7 
18 -63 18 -81 18 -62 18 -32 18 -20 18 -15 18 -4 18 18 
18 39 18 44 18 20 18 -33 18 -92 18 -92 18 -13 18 85 
18 139 18 115 18 38 18 -51 18 -110 18 -132 18 -125 18 -118 
5 -38 304 1603 98 MP stroke
/c10 { 1.000000 0.000000 0.000000 sr} bdef
c10
18 107 18 107 18 103 18 93 18 81 18 69 18 55 18 45 
18 39 18 27 18 3 18 -37 18 -89 18 -125 18 -135 18 -104 
18 -32 18 53 18 106 18 113 18 72 18 15 18 -32 18 -48 
18 -28 18 1 18 20 18 19 18 -4 18 -40 18 -76 18 -85 
17 -67 18 -24 18 22 18 65 18 87 18 88 18 63 18 18 
18 -24 18 -56 18 -61 18 -39 18 -12 18 -3 18 -11 18 -29 
18 -34 18 -17 18 9 18 29 18 31 18 11 18 -14 18 -27 
18 -6 18 36 18 88 18 110 18 89 18 25 18 -48 18 -111 
17 -132 18 -107 18 -44 18 23 18 69 18 78 18 43 18 -12 
18 -68 18 -95 18 -87 18 -55 18 -19 18 3 18 11 18 13 
18 12 18 17 18 24 18 30 18 30 18 25 18 19 18 11 
18 4 18 -1 18 -8 18 -20 18 -35 18 -43 18 -39 18 -16 
17 21 292 1338 98 MP stroke
/c11 { 0.000000 0.750000 0.750000 sr} bdef
c11
18 180 18 166 18 134 18 94 18 59 18 37 18 39 18 48 
18 54 18 43 18 11 18 -40 18 -96 18 -133 18 -143 18 -102 
18 -37 18 39 18 95 18 112 18 90 18 40 18 -8 18 -46 
18 -53 18 -42 18 -19 18 -5 18 -13 18 -40 18 -75 18 -98 
17 -95 18 -57 18 -3 18 56 18 97 18 118 18 115 18 88 
18 42 18 -9 18 -39 18 -41 18 -23 18 -5 18 -4 18 -17 
18 -19 18 -9 18 12 18 19 18 1 18 -32 18 -44 18 -7 
18 64 18 114 18 109 18 28 18 -80 18 -162 18 -166 18 -92 
17 12 18 114 18 157 18 134 18 54 18 -35 18 -96 18 -113 
18 -104 18 -81 18 -55 18 -22 18 8 18 29 18 40 18 40 
18 30 18 14 18 -4 18 -26 18 -46 18 -53 18 -23 18 33 
18 94 18 117 18 81 18 -5 18 -89 18 -140 18 -156 18 -156 
7 -69 302 1603 98 MP stroke
/c12 { 0.750000 0.000000 0.750000 sr} bdef
c12
18 119 18 120 18 115 18 108 18 94 18 78 18 59 18 37 
18 27 18 17 18 -2 18 -31 18 -82 18 -126 18 -151 18 -128 
18 -50 18 45 18 114 18 132 18 95 18 23 18 -30 18 -38 
18 -10 18 19 18 20 18 -8 18 -50 18 -82 18 -94 18 -78 
17 -45 18 4 18 53 18 93 18 112 18 110 18 81 18 42 
18 -1 18 -30 18 -35 18 -20 18 5 18 20 18 27 18 14 
18 -1 18 -14 18 -25 18 -32 18 -36 18 -42 18 -36 18 -13 
18 31 18 75 18 96 18 84 18 39 18 -38 18 -110 18 -151 
17 -154 18 -111 18 -43 18 32 18 88 18 108 18 82 18 27 
18 -44 18 -94 18 -102 18 -70 18 -27 18 1 18 9 18 11 
18 10 18 12 18 20 18 32 18 42 18 40 18 19 18 -26 
18 -81 18 -117 18 -103 18 -10 18 120 18 188 18 57 18 -172 
17 -222 292 1456 98 MP stroke
/c13 { 0.750000 0.750000 0.000000 sr} bdef
c13
18 106 18 104 18 98 18 85 18 73 18 59 18 49 18 50 
18 52 18 47 18 22 18 -31 18 -90 18 -145 18 -156 18 -109 
18 -22 18 53 18 93 18 75 18 29 18 -23 18 -44 18 -29 
18 -2 18 17 18 25 18 26 18 22 18 8 18 -13 18 -41 
17 -51 18 -38 18 -3 18 37 18 62 18 64 18 43 18 7 
18 -24 18 -48 18 -50 18 -31 18 -4 18 15 18 23 18 20 
18 16 18 11 18 8 18 -1 18 -18 18 -39 18 -49 18 -38 
18 -5 18 44 18 81 18 91 18 75 18 29 18 -35 18 -87 
17 -111 18 -98 18 -42 18 18 18 68 18 74 18 29 18 -40 
18 -86 18 -94 18 -66 18 -39 18 -24 18 -12 18 7 18 36 
18 54 18 51 18 26 18 -10 18 -52 18 -68 18 -3 18 97 
18 134 18 77 18 -17 18 -83 18 -101 18 -102 18 -103 18 -102 
10 -59 299 1603 98 MP stroke
0.25 sg
18 100 18 99 18 95 18 88 18 80 18 70 18 59 18 50 
18 46 18 37 18 14 18 -25 18 -86 18 -132 18 -148 18 -119 
18 -38 18 52 18 103 18 98 18 45 18 -6 18 -34 18 -24 
18 8 18 26 18 19 18 -9 18 -45 18 -76 18 -87 18 -72 
17 -37 18 1 18 40 18 68 18 83 18 78 18 51 18 15 
18 -23 18 -43 18 -41 18 -24 18 -5 18 7 18 9 18 2 
18 0 18 3 18 7 18 10 18 -2 18 -20 18 -33 18 -30 
18 2 18 41 18 77 18 87 18 62 18 6 18 -55 18 -101 
17 -119 18 -99 18 -48 18 22 18 74 18 96 18 72 18 17 
18 -49 18 -85 18 -82 18 -46 18 -10 18 9 18 15 18 16 
18 17 18 23 18 24 18 9 18 -27 18 -76 18 -101 18 -67 
18 16 18 92 18 115 18 66 18 -24 18 -104 18 -137 18 -140 
5 -43 304 1603 98 MP stroke
c8
18 48 18 48 18 50 18 51 18 49 18 45 18 43 18 42 
18 44 18 48 18 45 18 19 18 -36 18 -113 18 -153 18 -130 
18 -40 18 81 18 134 18 93 18 -7 18 -68 18 -70 18 -26 
18 7 18 23 18 25 18 14 18 -19 18 -51 18 -73 18 -63 
17 -33 18 8 18 43 18 66 18 78 18 75 18 57 18 28 
18 -8 18 -31 18 -41 18 -27 18 -2 18 23 18 33 18 25 
18 8 18 -9 18 -15 18 -14 18 -19 18 -40 18 -69 18 -77 
18 -36 18 44 18 126 18 165 18 119 18 4 18 -129 18 -193 
17 -166 18 -43 18 104 18 187 18 162 18 62 18 -39 18 -65 
18 -48 18 -56 18 -79 18 -69 18 -22 18 22 18 39 18 17 
18 -24 18 -61 18 -76 18 -64 18 -30 18 11 18 51 18 76 
18 77 18 56 18 16 18 -36 18 -84 18 -121 18 -146 18 -157 
1 -15 308 1603 98 MP stroke
c9
18 89 18 90 18 83 18 68 18 49 18 32 18 17 18 14 
18 22 18 24 18 19 18 -3 18 -37 18 -71 18 -86 18 -61 
18 8 18 85 18 129 18 108 18 38 18 -25 18 -46 18 -29 
18 -13 18 -16 18 -34 18 -46 18 -53 18 -60 18 -63 18 -57 
17 -37 18 -6 18 30 18 64 18 91 18 104 18 93 18 61 
18 19 18 -25 18 -48 18 -47 18 -27 18 -4 18 6 18 4 
18 -8 18 -15 18 -15 18 -18 18 -26 18 -41 18 -40 18 -11 
18 49 18 100 18 123 18 94 18 34 18 -41 18 -101 18 -124 
17 -102 18 -33 18 61 18 121 18 125 18 65 18 -25 18 -115 
18 -152 18 -123 18 -48 18 17 18 34 18 19 18 10 18 20 
18 35 18 34 18 2 18 -47 18 -91 18 -96 18 -65 18 -16 
18 38 18 70 18 70 18 37 18 -23 18 -81 18 -128 18 -159 
6 -61 303 1603 98 MP stroke
c10
18 75 18 78 18 79 18 80 18 77 18 73 18 66 18 55 
18 44 18 27 18 3 18 -28 18 -67 18 -101 18 -105 18 -56 
18 28 18 94 18 101 18 40 18 -26 18 -23 18 28 18 44 
18 -23 18 -108 18 -128 18 -63 18 26 18 68 18 65 18 34 
17 -16 18 -61 18 -57 18 -8 18 30 18 25 18 3 18 5 
18 26 18 33 18 14 18 -5 18 5 18 51 18 100 18 107 
18 57 18 -28 18 -107 18 -162 18 -175 18 -149 18 -87 18 -11 
18 53 18 99 18 117 18 105 18 68 18 26 18 -14 18 -21 
17 -4 18 26 18 35 18 13 18 -28 18 -73 18 -92 18 -86 
18 -61 18 -32 18 -4 18 21 18 37 18 41 18 37 18 23 
18 3 18 -21 18 -45 18 -64 18 -74 18 -63 18 -28 18 25 
18 74 18 112 18 108 18 60 18 -29 18 -126 18 -192 18 -214 
4 -55 305 1603 98 MP stroke
c11
18 72 18 72 18 77 18 90 18 95 18 82 18 69 18 88 
18 134 18 158 18 120 18 23 18 -113 18 -225 18 -245 18 -133 
18 28 18 161 18 173 18 72 18 -54 18 -127 18 -107 18 -51 
18 0 18 13 18 5 18 6 18 4 18 -16 18 -48 18 -65 
17 -49 18 -10 18 36 18 71 18 84 18 74 18 41 18 -6 
18 -54 18 -73 18 -57 18 -21 18 23 18 40 18 30 18 4 
18 -6 18 1 18 15 18 16 18 -9 18 -35 18 -30 18 18 
18 98 18 154 18 139 18 66 18 -52 18 -157 18 -185 18 -133 
17 -28 18 66 18 105 18 79 18 3 18 -67 18 -117 18 -121 
18 -89 18 -51 18 -21 18 4 18 27 18 50 18 70 18 77 
18 68 18 38 18 -11 18 -66 18 -103 18 -97 18 -53 18 11 
18 79 18 114 18 102 18 41 18 -56 18 -145 18 -199 18 -205 
8 -95 301 1603 98 MP stroke
c12
18 118 18 118 18 118 18 117 18 104 18 79 18 62 18 66 
18 80 18 73 18 29 18 -48 18 -122 18 -168 18 -155 18 -75 
18 37 18 118 18 149 18 109 18 42 18 -31 18 -69 18 -65 
18 -35 18 -7 18 11 18 17 18 14 18 -2 18 -27 18 -61 
17 -77 18 -62 18 -19 18 36 18 79 18 99 18 92 18 62 
18 21 18 -17 18 -33 18 -25 18 -5 18 12 18 15 18 0 
18 -22 18 -42 18 -45 18 -39 18 -41 18 -52 18 -52 18 -9 
18 70 18 149 18 171 18 117 18 11 18 -104 18 -182 18 -189 
17 -119 18 -6 18 117 18 180 18 152 18 39 18 -92 18 -160 
18 -133 18 -61 18 -5 18 8 18 -8 18 -4 18 22 18 50 
18 52 18 20 18 -38 18 -96 18 -113 18 -68 18 29 18 131 
18 196 18 178 18 66 18 -79 18 -210 18 -257 18 -246 13 -168 
314 1603 97 MP stroke
c13
18 -36 18 -5 18 30 18 55 18 75 18 84 18 78 18 59 
18 34 18 7 18 -25 18 -48 18 -61 18 -62 18 -51 18 -32 
18 -13 18 4 18 15 18 20 18 18 18 10 18 2 18 -8 
18 -20 18 -31 18 -42 18 -53 18 -58 18 -55 18 -45 18 -27 
17 -4 18 18 18 41 18 61 18 79 18 90 18 86 18 70 
18 45 18 15 18 -15 18 -29 18 -31 18 -20 18 0 18 14 
18 20 18 13 18 -7 18 -28 18 -35 18 -25 18 -6 18 -4 
18 -28 18 -52 18 -45 18 18 18 91 18 122 18 54 18 -61 
17 -140 18 -102 18 21 18 107 18 87 18 -24 18 -135 18 -148 
18 -78 18 0 18 27 18 20 18 24 18 44 18 57 18 48 
18 11 18 -39 18 -74 18 -79 18 -41 18 19 18 85 18 119 
18 109 18 50 18 -27 18 -103 18 -145 18 -159 18 -150 18 -145 
2 -24 307 1603 98 MP stroke
0.25 sg
18 113 18 117 18 117 18 111 18 96 18 81 18 68 18 62 
18 76 18 90 18 77 18 16 18 -91 18 -194 18 -229 18 -139 
18 45 18 200 18 236 18 123 18 -59 18 -157 18 -116 18 -21 
18 44 18 39 18 1 18 -51 18 -105 18 -136 18 -123 18 -69 
17 -1 18 51 18 85 18 95 18 91 18 73 18 47 18 17 
18 -11 18 -26 18 -26 18 -9 18 13 18 33 18 30 18 8 
18 -21 18 -32 18 -18 18 15 18 30 18 15 18 -27 18 -79 
18 -90 18 -46 18 41 18 106 18 110 18 53 18 -46 18 -106 
17 -90 18 -14 18 56 18 61 18 1 18 -57 18 -74 18 -55 
18 -16 18 -7 18 -9 18 -11 18 7 18 33 18 56 18 61 
18 44 18 5 18 -40 18 -81 18 -93 18 -68 18 -9 18 55 
18 114 18 132 18 100 18 20 18 -88 18 -185 18 -248 18 -273 
1 -28 308 1603 98 MP stroke
c8
18 128 18 129 18 124 18 106 18 79 18 55 18 37 18 33 
18 46 18 49 18 39 18 6 18 -40 18 -91 18 -110 18 -78 
18 29 18 143 18 203 18 147 18 11 18 -108 18 -142 18 -91 
18 -22 18 25 18 24 18 -11 18 -61 18 -107 18 -119 18 -88 
17 -24 18 39 18 85 18 100 18 86 18 50 18 5 18 -39 
18 -64 18 -59 18 -27 18 19 18 45 18 42 18 19 18 -9 
18 -19 18 -2 18 25 18 45 18 35 18 6 18 -37 18 -60 
18 -56 18 -11 18 46 18 94 18 98 18 44 18 -39 18 -125 
17 -153 18 -120 18 -41 18 28 18 68 18 54 18 12 18 -38 
18 -60 18 -49 18 -20 18 2 18 3 18 -2 18 5 18 27 
18 58 18 74 18 65 18 22 18 -43 18 -84 18 -76 18 0 
18 92 18 156 18 137 18 44 18 -59 18 -122 18 -103 18 -38 
17 31 292 989 98 MP stroke
c9
17 192 18 189 18 169 18 133 18 97 18 66 18 49 18 50 
18 45 18 31 18 -8 18 -58 18 -107 18 -138 18 -132 18 -80 
18 9 18 94 18 155 18 153 18 92 18 -10 18 -89 18 -116 
18 -75 18 -18 18 24 18 21 18 -3 18 -30 18 -52 18 -69 
17 -81 18 -68 18 -27 18 33 18 87 18 120 18 119 18 87 
18 39 18 -10 18 -40 18 -42 18 -15 18 23 18 43 18 39 
18 20 18 1 18 -2 18 -8 18 -36 18 -76 18 -99 18 -71 
18 16 18 119 18 163 18 126 18 12 18 -114 18 -210 18 -227 
17 -160 18 -52 18 58 18 121 18 121 18 66 18 -18 18 -76 
18 -95 18 -65 18 -11 18 22 18 29 18 20 18 21 18 34 
18 51 18 58 18 39 18 0 18 -52 18 -95 18 -102 18 -70 
18 -6 18 72 18 121 18 108 18 24 18 -102 18 -212 18 -262 
6 -92 303 1603 98 MP stroke
c10
14 135 18 174 18 165 18 142 18 109 18 77 18 55 18 68 
18 88 18 102 18 77 18 7 18 -94 18 -191 18 -222 18 -139 
18 31 18 178 18 210 18 137 18 -2 18 -106 18 -120 18 -68 
18 -10 18 11 18 9 18 -8 18 -32 18 -51 18 -61 18 -41 
17 -3 18 41 18 72 18 80 18 62 18 31 18 -8 18 -39 
18 -44 18 -23 18 15 18 48 18 59 18 43 18 19 18 -7 
18 -22 18 -19 18 -17 18 -22 18 -48 18 -72 18 -83 18 -64 
18 -5 18 68 18 113 18 113 18 66 18 -4 18 -66 18 -112 
17 -135 18 -128 18 -87 18 -25 18 48 18 102 18 115 18 84 
18 9 18 -71 18 -120 18 -129 18 -84 18 -15 18 34 18 54 
18 51 18 44 18 49 18 61 18 67 18 52 18 3 18 -56 
18 -103 18 -84 18 14 18 125 18 173 18 93 18 -35 18 -80 
17 -75 292 850 98 MP stroke
c11
18 204 18 185 18 143 18 94 18 46 18 23 18 33 18 54 
18 69 18 60 18 28 18 -20 18 -82 18 -143 18 -163 18 -112 
18 3 18 121 18 178 18 158 18 54 18 -65 18 -124 18 -103 
18 -29 18 25 18 45 18 27 18 4 18 -17 18 -47 18 -83 
17 -95 18 -70 18 -16 18 46 18 98 18 125 18 118 18 85 
18 34 18 -18 18 -47 18 -48 18 -20 18 21 18 36 18 16 
18 -23 18 -47 18 -40 18 -25 18 -22 18 -49 18 -75 18 -73 
18 -15 18 67 18 140 18 158 18 97 18 -15 18 -107 18 -145 
17 -98 18 -21 18 44 18 45 18 -3 18 -66 18 -105 18 -91 
18 -42 18 10 18 39 18 45 18 40 18 42 18 49 18 54 
18 48 18 15 18 -29 18 -75 18 -101 18 -87 18 -38 18 24 
18 90 18 127 18 119 18 61 18 -45 18 -156 18 -244 18 -284 
4 -65 305 1603 98 MP stroke
c12
18 255 18 213 18 123 18 33 18 3 18 24 18 57 18 66 
18 71 18 77 18 60 18 -11 18 -103 18 -160 18 -130 18 -25 
18 85 18 146 18 130 18 61 18 -20 18 -70 18 -74 18 -49 
18 -15 18 0 18 -3 18 -17 18 -34 18 -54 18 -71 18 -74 
17 -61 18 -33 18 6 18 41 18 72 18 91 18 97 18 84 
18 55 18 20 18 -15 18 -33 18 -32 18 -14 18 7 18 23 
18 22 18 11 18 -2 18 6 18 15 18 7 18 -18 18 -51 
18 -39 18 20 18 95 18 107 18 28 18 -105 18 -187 18 -166 
17 -46 18 105 18 189 18 157 18 16 18 -138 18 -206 18 -174 
18 -68 18 3 18 16 18 3 18 11 18 39 18 66 18 73 
18 51 18 7 18 -47 18 -85 18 -90 18 -62 18 -13 18 43 
18 79 18 81 18 51 18 -7 18 -75 18 -132 18 -175 18 -199 
3 -40 306 1603 98 MP stroke
c13
18 13 18 16 18 19 18 20 18 21 18 21 18 21 18 20 
18 19 18 19 18 19 18 18 18 17 18 16 18 15 18 15 
18 14 18 12 18 11 18 11 18 9 18 7 18 7 18 5 
18 5 18 3 18 2 18 2 18 0 18 0 18 -1 18 -2 
17 -3 18 -3 18 -4 18 -4 18 -5 18 -5 18 -6 18 -7 
18 -7 18 -7 18 -8 18 -8 18 -9 18 -9 18 -9 18 -10 
18 -9 18 -10 18 -11 18 -10 18 -11 18 -11 18 -11 18 -11 
18 -11 18 -11 18 -12 18 -11 18 -11 18 -11 18 -12 18 -11 
17 -11 18 -11 18 -11 18 -10 18 -10 18 -11 18 -10 18 -9 
18 -10 18 -9 18 -9 18 -9 18 -9 18 -9 18 -9 18 -9 
18 -9 18 -9 18 -9 18 -9 18 -9 18 -10 18 -10 18 -10 
18 -10 18 -11 18 -11 18 -11 18 -12 18 -12 18 -13 18 -13 
17 -14 292 1464 98 MP stroke
gr

c13

end %%Color Dict

eplot
%%EndObject

epage
end

showpage

%%Trailer
%%EOF
