%!PS-Adobe-3.0 EPSF-3.0
%%Creator: MATLAB, The Mathworks, Inc. Version 7.10.0.499 (R2010a). Operating System: Microsoft Windows 7.
%%Title: C:\Users\wwu\Desktop\warping\James_code\comp_signa.eps
%%CreationDate: 04/12/2011  14:33:50
%%DocumentNeededFonts: Helvetica
%%DocumentProcessColors: Cyan Magenta Yellow Black
%%LanguageLevel: 2
%%Pages: 1
%%BoundingBox:   212   320   399   470
%%EndComments

%%BeginProlog
% MathWorks dictionary
/MathWorks 160 dict begin
% definition operators
/bdef {bind def} bind def
/ldef {load def} bind def
/xdef {exch def} bdef
/xstore {exch store} bdef
% operator abbreviations
/c  /clip ldef
/cc /concat ldef
/cp /closepath ldef
/gr /grestore ldef
/gs /gsave ldef
/mt /moveto ldef
/np /newpath ldef
/cm /currentmatrix ldef
/sm /setmatrix ldef
/rm /rmoveto ldef
/rl /rlineto ldef
/s {show newpath} bdef
/sc {setcmykcolor} bdef
/sr /setrgbcolor ldef
/sg /setgray ldef
/w /setlinewidth ldef
/j /setlinejoin ldef
/cap /setlinecap ldef
/rc {rectclip} bdef
/rf {rectfill} bdef
% page state control
/pgsv () def
/bpage {/pgsv save def} bdef
/epage {pgsv restore} bdef
/bplot /gsave ldef
/eplot {stroke grestore} bdef
% orientation switch
/portraitMode 0 def /landscapeMode 1 def /rotateMode 2 def
% coordinate system mappings
/dpi2point 0 def
% font control
/FontSize 0 def
/FMS {/FontSize xstore findfont [FontSize 0 0 FontSize neg 0 0]
  makefont setfont} bdef
/ISOLatin1Encoding where {pop /WindowsLatin1Encoding 256 array bdef
ISOLatin1Encoding WindowsLatin1Encoding copy pop
/.notdef/.notdef/quotesinglbase/florin/quotedblbase/ellipsis/dagger
/daggerdbl/circumflex/perthousand/Scaron/guilsinglleft/OE/.notdef/.notdef
/.notdef/.notdef/quoteleft/quoteright/quotedblleft/quotedblright/bullet
/endash/emdash/tilde/trademark/scaron/guilsinglright/oe/.notdef/.notdef
/Ydieresis WindowsLatin1Encoding 128 32 getinterval astore pop}
{/WindowsLatin1Encoding StandardEncoding bdef} ifelse
/reencode {exch dup where {pop load} {pop StandardEncoding} ifelse
  exch dup 3 1 roll findfont dup length dict begin
  { 1 index /FID ne {def}{pop pop} ifelse } forall
  /Encoding exch def currentdict end definefont pop} bdef
/isroman {findfont /CharStrings get /Agrave known} bdef
/FMSR {3 1 roll 1 index dup isroman {reencode} {pop pop} ifelse
  exch FMS} bdef
/csm {1 dpi2point div -1 dpi2point div scale neg translate
 dup landscapeMode eq {pop -90 rotate}
  {rotateMode eq {90 rotate} if} ifelse} bdef
% line types: solid, dotted, dashed, dotdash
/SO { [] 0 setdash } bdef
/DO { [.5 dpi2point mul 4 dpi2point mul] 0 setdash } bdef
/DA { [6 dpi2point mul] 0 setdash } bdef
/DD { [.5 dpi2point mul 4 dpi2point mul 6 dpi2point mul 4
  dpi2point mul] 0 setdash } bdef
% macros for lines and objects
/L {lineto stroke} bdef
/MP {3 1 roll moveto 1 sub {rlineto} repeat} bdef
/AP {{rlineto} repeat} bdef
/PDlw -1 def
/W {/PDlw currentlinewidth def setlinewidth} def
/PP {closepath eofill} bdef
/DP {closepath stroke} bdef
/MR {4 -2 roll moveto dup  0 exch rlineto exch 0 rlineto
  neg 0 exch rlineto closepath} bdef
/FR {MR stroke} bdef
/PR {MR fill} bdef
/L1i {{currentfile picstr readhexstring pop} image} bdef
/tMatrix matrix def
/MakeOval {newpath tMatrix currentmatrix pop translate scale
0 0 1 0 360 arc tMatrix setmatrix} bdef
/FO {MakeOval stroke} bdef
/PO {MakeOval fill} bdef
/PD {currentlinewidth 2 div 0 360 arc fill
   PDlw -1 eq not {PDlw w /PDlw -1 def} if} def
/FA {newpath tMatrix currentmatrix pop translate scale
  0 0 1 5 -2 roll arc tMatrix setmatrix stroke} bdef
/PA {newpath tMatrix currentmatrix pop	translate 0 0 moveto scale
  0 0 1 5 -2 roll arc closepath tMatrix setmatrix fill} bdef
/FAn {newpath tMatrix currentmatrix pop translate scale
  0 0 1 5 -2 roll arcn tMatrix setmatrix stroke} bdef
/PAn {newpath tMatrix currentmatrix pop translate 0 0 moveto scale
  0 0 1 5 -2 roll arcn closepath tMatrix setmatrix fill} bdef
/vradius 0 def /hradius 0 def /lry 0 def
/lrx 0 def /uly 0 def /ulx 0 def /rad 0 def
/MRR {/vradius xdef /hradius xdef /lry xdef /lrx xdef /uly xdef
  /ulx xdef newpath tMatrix currentmatrix pop ulx hradius add uly
  vradius add translate hradius vradius scale 0 0 1 180 270 arc 
  tMatrix setmatrix lrx hradius sub uly vradius add translate
  hradius vradius scale 0 0 1 270 360 arc tMatrix setmatrix
  lrx hradius sub lry vradius sub translate hradius vradius scale
  0 0 1 0 90 arc tMatrix setmatrix ulx hradius add lry vradius sub
  translate hradius vradius scale 0 0 1 90 180 arc tMatrix setmatrix
  closepath} bdef
/FRR {MRR stroke } bdef
/PRR {MRR fill } bdef
/MlrRR {/lry xdef /lrx xdef /uly xdef /ulx xdef /rad lry uly sub 2 div def
  newpath tMatrix currentmatrix pop ulx rad add uly rad add translate
  rad rad scale 0 0 1 90 270 arc tMatrix setmatrix lrx rad sub lry rad
  sub translate rad rad scale 0 0 1 270 90 arc tMatrix setmatrix
  closepath} bdef
/FlrRR {MlrRR stroke } bdef
/PlrRR {MlrRR fill } bdef
/MtbRR {/lry xdef /lrx xdef /uly xdef /ulx xdef /rad lrx ulx sub 2 div def
  newpath tMatrix currentmatrix pop ulx rad add uly rad add translate
  rad rad scale 0 0 1 180 360 arc tMatrix setmatrix lrx rad sub lry rad
  sub translate rad rad scale 0 0 1 0 180 arc tMatrix setmatrix
  closepath} bdef
/FtbRR {MtbRR stroke } bdef
/PtbRR {MtbRR fill } bdef
/stri 6 array def /dtri 6 array def
/smat 6 array def /dmat 6 array def
/tmat1 6 array def /tmat2 6 array def /dif 3 array def
/asub {/ind2 exch def /ind1 exch def dup dup
  ind1 get exch ind2 get sub exch } bdef
/tri_to_matrix {
  2 0 asub 3 1 asub 4 0 asub 5 1 asub
  dup 0 get exch 1 get 7 -1 roll astore } bdef
/compute_transform {
  dmat dtri tri_to_matrix tmat1 invertmatrix 
  smat stri tri_to_matrix tmat2 concatmatrix } bdef
/ds {stri astore pop} bdef
/dt {dtri astore pop} bdef
/db {2 copy /cols xdef /rows xdef mul dup 3 mul string
  currentfile 
  3 index 0 eq {/ASCIIHexDecode filter}
  {/ASCII85Decode filter 3 index 2 eq {/RunLengthDecode filter} if }
  ifelse exch readstring pop
  dup 0 3 index getinterval /rbmap xdef
  dup 2 index dup getinterval /gbmap xdef
  1 index dup 2 mul exch getinterval /bbmap xdef pop pop}bdef
/it {gs np dtri aload pop moveto lineto lineto cp c
  cols rows 8 compute_transform 
  rbmap gbmap bbmap true 3 colorimage gr}bdef
/il {newpath moveto lineto stroke}bdef
currentdict end def
%%EndProlog

%%BeginSetup
MathWorks begin

0 cap

end
%%EndSetup

%%Page: 1 1
%%BeginPageSetup
%%PageBoundingBox:   212   320   399   470
MathWorks begin
bpage
%%EndPageSetup

%%BeginObject: obj1
bplot

/dpi2point 12 def
portraitMode 2544 5640 csm

    0     0  2249  1800 rc
85 dict begin %Colortable dictionary
/c0 { 0.000000 0.000000 0.000000 sr} bdef
/c1 { 1.000000 1.000000 1.000000 sr} bdef
/c2 { 0.900000 0.000000 0.000000 sr} bdef
/c3 { 0.000000 0.820000 0.000000 sr} bdef
/c4 { 0.000000 0.000000 0.800000 sr} bdef
/c5 { 0.910000 0.820000 0.320000 sr} bdef
/c6 { 1.000000 0.260000 0.820000 sr} bdef
/c7 { 0.000000 0.820000 0.820000 sr} bdef
c0
1 j
1 sg
   0    0 2250 1801 rf
6 w
0 1467 1743 0 0 -1467 292 1602 4 MP
PP
-1743 0 0 1467 1743 0 0 -1467 292 1602 5 MP stroke
4 w
DO
SO
6 w
0 sg
 292  135 mt 2035  135 L
 292 1602 mt 2035 1602 L
2035 1602 mt 2035  135 L
 292 1602 mt  292  135 L
 292 1602 mt 2035 1602 L
 292 1602 mt  292  135 L
 633 1602 mt  633 1584 L
 633  135 mt  633  152 L
%%IncludeResource: font Helvetica
/Helvetica /WindowsLatin1Encoding 120 FMSR

 567 1747 mt 
(20) s
 992 1602 mt  992 1584 L
 992  135 mt  992  152 L
 926 1747 mt 
(40) s
1352 1602 mt 1352 1584 L
1352  135 mt 1352  152 L
1286 1747 mt 
(60) s
1711 1602 mt 1711 1584 L
1711  135 mt 1711  152 L
1645 1747 mt 
(80) s
 292 1602 mt  309 1602 L
2035 1602 mt 2017 1602 L
 191 1646 mt 
(0) s
 292 1113 mt  309 1113 L
2035 1113 mt 2017 1113 L
  91 1157 mt 
(0.5) s
 292  624 mt  309  624 L
2035  624 mt 2017  624 L
 191  668 mt 
(1) s
 292  135 mt  309  135 L
2035  135 mt 2017  135 L
  91  179 mt 
(1.5) s
 292  135 mt 2035  135 L
 292 1602 mt 2035 1602 L
2035 1602 mt 2035  135 L
 292 1602 mt  292  135 L
gs 292 135 1744 1468 rc
/c8 { 0.000000 0.000000 1.000000 sr} bdef
c8
18 176 18 158 18 106 18 44 18 4 18 4 18 35 18 56 
18 49 18 26 18 -3 18 -39 18 -76 18 -89 18 -55 18 15 
18 82 18 106 18 70 18 -2 18 -68 18 -87 18 -55 18 3 
18 40 18 40 18 17 18 0 18 -11 18 -33 18 -67 18 -88 
17 -79 18 -46 18 -5 18 30 18 55 18 73 18 82 18 71 
18 43 18 4 18 -34 18 -56 18 -46 18 -10 18 22 18 25 
18 10 18 -2 18 4 18 10 18 0 18 -33 18 -71 18 -87 
18 -62 18 5 18 79 18 125 18 122 18 67 18 -20 18 -91 
17 -95 18 -28 18 58 18 93 18 58 18 -18 18 -84 18 -95 
18 -54 18 -3 18 12 18 -6 18 -23 18 -19 18 1 18 25 
18 41 18 48 18 37 18 6 18 -36 18 -65 18 -60 18 -13 
18 54 18 109 18 121 18 85 18 2 18 -95 18 -174 18 -208 
17 -202 292 1549 98 MP stroke
/c9 { 0.000000 0.500000 0.000000 sr} bdef
c9
18 176 18 156 18 106 18 54 18 30 18 31 18 35 18 23 
18 -17 18 -79 18 -126 18 -113 18 -42 18 44 18 94 18 88 
18 38 18 -24 18 -57 18 -48 18 -14 18 8 18 11 18 5 
18 0 18 -15 18 -49 18 -82 18 -85 18 -58 18 -14 18 29 
17 65 18 89 18 94 18 83 18 59 18 24 18 -15 18 -40 
18 -36 18 -6 18 19 18 19 18 -2 18 -19 18 -19 18 -16 
18 -30 18 -61 18 -82 18 -64 18 -3 18 70 18 108 18 91 
18 27 18 -55 18 -106 18 -106 18 -55 18 18 18 80 18 103 
17 81 18 27 18 -38 18 -79 18 -76 18 -46 18 -20 18 -11 
18 -15 18 -16 18 -8 18 6 18 19 18 27 18 30 18 27 
18 18 18 2 18 -24 18 -57 18 -79 18 -71 18 -28 18 30 
18 80 18 108 18 109 18 77 18 10 18 -74 18 -137 18 -154 
17 -132 292 1515 98 MP stroke
/c10 { 1.000000 0.000000 0.000000 sr} bdef
c10
18 197 18 177 18 130 18 81 18 57 18 49 18 28 18 -22 
18 -94 18 -154 18 -162 18 -102 18 -3 18 84 18 125 18 115 
18 59 18 -8 18 -52 18 -51 18 -20 18 6 18 21 18 22 
18 7 18 -29 18 -75 18 -95 18 -78 18 -34 18 16 18 61 
17 88 18 95 18 75 18 31 18 -29 18 -73 18 -74 18 -36 
18 4 18 9 18 -17 18 -47 18 -43 18 -7 18 32 18 47 
18 28 18 -11 18 -41 18 -28 18 33 18 104 18 132 18 99 
18 15 18 -79 18 -143 18 -147 18 -94 18 -9 18 66 18 97 
17 73 18 5 18 -71 18 -114 18 -103 18 -55 18 -9 18 12 
18 12 18 8 18 12 18 22 18 32 18 35 18 31 18 22 
18 9 18 2 18 -1 18 -9 18 -26 18 -49 18 -56 18 -28 
18 25 18 76 18 100 18 91 18 55 18 3 18 -43 18 -61 
17 -45 292 1168 98 MP stroke
/c11 { 0.000000 0.750000 0.750000 sr} bdef
c11
18 215 18 194 18 136 18 70 18 33 18 40 18 66 18 68 
18 34 18 -23 18 -95 18 -161 18 -175 18 -109 18 1 18 91 
18 130 18 116 18 57 18 -14 18 -61 18 -64 18 -37 18 -11 
18 -1 18 -15 18 -53 18 -97 18 -117 18 -88 18 -23 18 40 
17 86 18 114 18 122 18 105 18 64 18 7 18 -38 18 -53 
18 -34 18 -3 18 10 18 -5 18 -29 18 -29 18 -3 18 25 
18 26 18 2 18 -33 18 -54 18 -28 18 41 18 113 18 130 
18 76 18 -23 18 -119 18 -168 18 -153 18 -82 18 13 18 96 
17 142 18 142 18 97 18 17 18 -61 18 -99 18 -96 18 -83 
18 -76 18 -63 18 -36 18 -9 18 11 18 26 18 34 18 35 
18 31 18 19 18 7 18 -5 18 -19 18 -35 18 -48 18 -45 
18 -10 18 49 18 100 18 115 18 83 18 9 18 -76 18 -131 
17 -136 292 1310 98 MP stroke
/c12 { 0.750000 0.000000 0.750000 sr} bdef
c12
18 267 18 241 18 170 18 93 18 43 18 27 18 13 18 -27 
18 -83 18 -136 18 -157 18 -128 18 -54 18 31 18 92 18 119 
18 112 18 72 18 11 18 -39 18 -48 18 -19 18 17 18 32 
18 16 18 -22 18 -62 18 -89 18 -96 18 -77 18 -32 18 26 
17 82 18 123 18 133 18 107 18 47 18 -17 18 -50 18 -38 
18 0 18 33 18 36 18 12 18 -18 18 -31 18 -30 18 -34 
18 -49 18 -47 18 -3 18 67 18 118 18 112 18 46 18 -48 
18 -132 18 -173 18 -163 18 -100 18 -12 18 65 18 106 18 108 
17 70 18 2 18 -76 18 -117 18 -98 18 -47 18 -5 18 8 
18 6 18 6 18 10 18 13 18 15 18 23 18 35 18 41 
18 32 18 9 18 -22 18 -55 18 -82 18 -95 18 -78 18 -34 
18 23 18 72 18 103 18 112 18 96 18 48 18 -29 18 -109 
17 -168 292 1305 98 MP stroke
/c13 { 0.750000 0.750000 0.000000 sr} bdef
c13
18 176 18 162 18 124 18 79 18 57 18 60 18 66 18 43 
18 -17 18 -98 18 -167 18 -176 18 -107 18 -4 18 75 18 101 
18 78 18 20 18 -35 18 -53 18 -30 18 5 18 23 18 22 
18 19 18 24 18 19 18 -8 18 -47 18 -64 18 -43 18 7 
17 56 18 78 18 66 18 28 18 -24 18 -62 18 -63 18 -28 
18 12 18 31 18 24 18 13 18 10 18 12 18 -2 18 -35 
18 -62 18 -56 18 -5 18 67 18 113 18 107 18 52 18 -26 
18 -93 18 -127 18 -111 18 -46 18 34 18 84 18 80 18 27 
17 -44 18 -92 18 -93 18 -61 18 -32 18 -20 18 -20 18 -15 
18 -3 18 13 18 26 18 36 18 38 18 33 18 23 18 9 
18 -3 18 -12 18 -22 18 -38 18 -49 18 -36 18 2 18 48 
18 77 18 82 18 68 18 49 18 22 18 -14 18 -52 18 -68 
17 -58 292 1214 98 MP stroke
0.25 sg
18 219 18 199 18 148 18 96 18 69 18 61 18 37 18 -20 
18 -100 18 -166 18 -170 18 -101 18 -1 18 77 18 108 18 93 
18 44 18 -13 18 -43 18 -31 18 0 18 22 18 25 18 16 
18 -8 18 -42 18 -74 18 -88 18 -76 18 -44 18 -2 18 33 
17 64 18 86 18 91 18 63 18 10 18 -37 18 -55 18 -42 
18 -14 18 9 18 16 18 4 18 -8 18 -3 18 15 18 18 
18 -8 18 -42 18 -48 18 -8 18 56 18 104 18 100 18 46 
18 -34 18 -102 18 -133 18 -119 18 -63 18 16 18 81 18 104 
17 83 18 24 18 -45 18 -89 18 -87 18 -53 18 -15 18 6 
18 11 18 9 18 11 18 13 18 14 18 17 18 19 18 14 
18 0 18 -21 18 -48 18 -73 18 -80 18 -56 18 -10 18 38 
18 68 18 82 18 77 18 50 18 3 18 -52 18 -92 18 -101 
17 -91 292 1479 98 MP stroke
c8
18 109 18 98 18 71 18 51 18 56 18 63 18 32 18 -41 
18 -118 18 -157 18 -135 18 -58 18 39 18 109 18 125 18 83 
18 4 18 -64 18 -78 18 -46 18 -8 18 8 18 10 18 16 
18 25 18 15 18 -19 18 -60 18 -81 18 -66 18 -26 18 20 
17 54 18 78 18 88 18 78 18 47 18 0 18 -40 18 -54 
18 -31 18 12 18 42 18 42 18 13 18 -15 18 -22 18 -11 
18 -9 18 -29 18 -63 18 -84 18 -64 18 9 18 95 18 152 
18 150 18 90 18 -8 18 -105 18 -161 18 -165 18 -115 18 -26 
17 66 18 130 18 152 18 130 18 71 18 -3 18 -57 18 -59 
18 -30 18 -11 18 -28 18 -60 18 -71 18 -54 18 -24 18 6 
18 28 18 34 18 22 18 -5 18 -37 18 -62 18 -72 18 -61 
18 -31 18 16 18 65 18 95 18 90 18 38 18 -61 18 -185 
17 -288 292 1569 98 MP stroke
c9
18 153 18 132 18 79 18 26 18 7 18 24 18 37 18 23 
18 -4 18 -31 18 -62 18 -87 18 -79 18 -23 18 59 18 118 
18 131 18 87 18 13 18 -48 18 -56 18 -21 18 4 18 -7 
18 -35 18 -48 18 -47 18 -52 18 -63 18 -66 18 -50 18 -17 
17 25 18 63 18 94 18 115 18 108 18 66 18 2 18 -51 
18 -63 18 -42 18 -5 18 15 18 8 18 -14 18 -24 18 -15 
18 -10 18 -22 18 -46 18 -51 18 -11 18 60 18 119 18 129 
18 88 18 23 18 -41 18 -87 18 -113 18 -111 18 -69 18 9 
17 82 18 118 18 109 18 67 18 8 18 -54 18 -107 18 -135 
18 -119 18 -62 18 0 18 32 18 30 18 14 18 3 18 3 
18 14 18 27 18 37 18 26 18 -5 18 -50 18 -84 18 -96 
18 -75 18 -27 18 31 18 73 18 84 18 49 18 -35 18 -152 
17 -255 292 1583 98 MP stroke
c10
18 178 18 162 18 119 18 74 18 40 18 3 18 -54 18 -113 
18 -127 18 -77 18 10 18 85 18 111 18 80 18 13 18 -41 
18 -46 18 -3 18 40 18 51 18 22 18 -26 18 -75 18 -105 
18 -96 18 -51 18 4 18 42 18 51 18 41 18 34 18 30 
17 13 18 -26 18 -63 18 -63 18 -22 18 24 18 40 18 23 
18 -4 18 -12 18 5 18 30 18 39 18 25 18 -4 18 -20 
18 3 18 60 18 110 18 110 18 56 18 -23 18 -100 18 -153 
18 -174 18 -162 18 -107 18 -26 18 50 18 99 18 120 18 117 
17 83 18 24 18 -29 18 -38 18 5 18 53 18 47 18 -14 
18 -85 18 -114 18 -96 18 -60 18 -24 18 10 18 36 18 48 
18 44 18 26 18 -1 18 -29 18 -56 18 -78 18 -82 18 -53 
18 6 18 67 18 109 18 118 18 85 18 7 18 -93 18 -169 
17 -192 292 1432 98 MP stroke
c11
18 57 18 64 18 83 18 92 18 76 18 47 18 45 18 90 
18 138 18 143 18 98 18 33 18 -51 18 -152 18 -233 18 -226 
18 -114 18 37 18 150 18 179 18 125 18 12 18 -100 18 -144 
18 -102 18 -25 18 20 18 13 18 -10 18 -7 18 14 18 13 
17 -25 18 -66 18 -74 18 -40 18 11 18 50 18 73 18 84 
18 73 18 37 18 -16 18 -64 18 -84 18 -62 18 -7 18 42 
18 53 18 25 18 -12 18 -21 18 6 18 33 18 23 18 -19 
18 -53 18 -36 18 44 18 142 18 186 18 134 18 5 18 -139 
17 -214 18 -183 18 -68 18 57 18 122 18 105 18 29 18 -64 
18 -127 18 -132 18 -93 18 -50 18 -23 18 -4 18 20 18 46 
18 66 18 77 18 74 18 50 18 5 18 -55 18 -104 18 -114 
18 -73 18 1 18 72 18 114 18 115 18 68 18 -27 18 -145 
17 -240 292 1302 98 MP stroke
c12
18 123 18 105 18 65 18 43 18 61 18 90 18 80 18 23 
18 -53 18 -129 18 -180 18 -167 18 -75 18 50 18 140 18 160 
18 114 18 31 18 -46 18 -83 18 -68 18 -25 18 5 18 12 
18 11 18 13 18 4 18 -31 18 -76 18 -91 18 -58 18 5 
17 63 18 97 18 104 18 88 18 45 18 -9 18 -39 18 -35 
18 -10 18 10 18 21 18 13 18 -17 18 -48 18 -55 18 -35 
18 -24 18 -41 18 -66 18 -47 18 31 18 131 18 185 18 159 
18 64 18 -54 18 -145 18 -188 18 -173 18 -99 18 14 18 122 
17 179 18 162 18 73 18 -55 18 -154 18 -167 18 -97 18 -14 
18 18 18 5 18 -16 18 -15 18 2 18 29 18 49 18 50 
18 28 18 -14 18 -63 18 -98 18 -101 18 -60 18 13 18 96 
18 161 18 182 18 143 18 42 18 -90 18 -207 18 -258 18 -229 
17 -166 292 1568 98 MP stroke
c13
12 -193 18 -249 18 -169 18 -66 18 16 18 45 18 32 18 0 
18 -41 18 -90 18 -127 18 -116 18 -47 18 50 18 128 18 149 
18 106 18 13 18 -77 18 -118 18 -90 18 -26 18 27 18 37 
18 17 18 -8 18 -27 18 -52 18 -82 18 -92 18 -67 18 -21 
17 23 18 60 18 94 18 117 18 114 18 80 18 28 18 -19 
18 -42 18 -35 18 -13 18 9 18 23 18 23 18 7 18 -25 
18 -48 18 -40 18 -6 18 13 18 -1 18 -37 18 -66 18 -53 
18 14 18 100 18 140 18 95 18 -14 18 -123 18 -159 18 -95 
17 18 18 108 18 127 18 65 18 -45 18 -140 18 -160 18 -98 
18 -14 18 32 18 28 18 7 18 1 18 17 18 40 18 56 
18 51 18 27 18 -10 18 -48 18 -74 18 -76 18 -47 18 10 
18 76 18 123 18 126 18 76 18 -19 18 -120 18 -185 18 -189 
17 -149 292 1495 98 MP stroke
0.25 sg
18 225 18 199 18 134 18 75 18 66 18 97 18 109 18 58 
18 -37 18 -140 18 -209 18 -205 18 -117 18 21 18 141 18 204 
18 195 18 113 18 -19 18 -134 18 -162 18 -91 18 5 18 50 
18 38 18 11 18 -8 18 -37 18 -90 18 -138 18 -135 18 -81 
17 -11 18 44 18 77 18 94 18 96 18 82 18 55 18 24 
18 -4 18 -27 18 -34 18 -18 18 14 18 39 18 38 18 14 
18 -22 18 -45 18 -29 18 13 18 41 18 31 18 -10 18 -62 
18 -99 18 -84 18 -15 18 71 18 121 18 113 18 47 18 -45 
17 -112 18 -112 18 -46 18 41 18 87 18 57 18 -18 18 -82 
18 -89 18 -43 18 1 18 4 18 -15 18 -22 18 -2 18 26 
18 51 18 64 18 57 18 24 18 -27 18 -79 18 -107 18 -87 
18 -20 18 66 18 133 18 153 18 102 18 -20 18 -169 18 -275 
17 -302 292 1531 98 MP stroke
c8
18 206 18 175 18 100 18 37 18 29 18 58 18 67 18 37 
18 -7 18 -45 18 -85 18 -113 18 -92 18 1 18 120 18 196 
18 184 18 93 18 -30 18 -123 18 -141 18 -93 18 -25 18 17 
18 25 18 16 18 -5 18 -44 18 -93 18 -120 18 -104 18 -54 
17 8 18 61 18 93 18 97 18 78 18 41 18 -4 18 -48 
18 -75 18 -65 18 -16 18 40 18 64 18 44 18 -1 18 -34 
18 -24 18 24 18 59 18 51 18 7 18 -44 18 -77 18 -66 
18 -1 18 87 18 135 18 96 18 -18 18 -140 18 -191 18 -139 
17 -34 18 55 18 85 18 56 18 -5 18 -59 18 -74 18 -42 
18 -2 18 13 18 3 18 -9 18 -3 18 21 18 50 18 68 
18 69 18 47 18 3 18 -51 18 -90 18 -82 18 -18 18 75 
18 145 18 155 18 100 18 2 18 -97 18 -144 18 -109 18 -9 
17 98 292 943 98 MP stroke
c9
18 263 18 235 18 161 18 84 18 50 18 58 18 65 18 32 
18 -35 18 -103 18 -150 18 -157 18 -104 18 1 18 112 18 178 
18 167 18 89 18 -28 18 -121 18 -136 18 -69 18 14 18 44 
18 17 18 -19 18 -35 18 -40 18 -59 18 -81 18 -79 18 -41 
17 19 18 73 18 109 18 118 18 103 18 65 18 16 18 -24 
18 -45 18 -42 18 -14 18 24 18 50 18 47 18 19 18 -7 
18 -11 18 3 18 -1 18 -37 18 -84 18 -107 18 -75 18 13 
18 117 18 172 18 143 18 49 18 -72 18 -172 18 -223 18 -205 
17 -123 18 -13 18 77 18 121 18 118 18 72 18 -3 18 -75 
18 -104 18 -80 18 -26 18 20 18 34 18 23 18 11 18 14 
18 32 18 52 18 60 18 43 18 7 18 -42 18 -87 18 -106 
18 -90 18 -33 18 44 18 110 18 131 18 86 18 -30 18 -183 
17 -308 292 1432 98 MP stroke
c10
18 248 18 225 18 161 18 85 18 45 18 60 18 99 18 108 
18 74 18 23 18 -39 18 -120 18 -198 18 -210 18 -124 18 15 
18 139 18 196 18 179 18 99 18 -16 18 -111 18 -132 18 -78 
18 -9 18 16 18 7 18 -5 18 -8 18 -27 18 -59 18 -71 
17 -42 18 15 18 64 18 85 18 82 18 57 18 8 18 -44 
18 -63 18 -32 18 27 18 67 18 71 18 39 18 -3 18 -31 
18 -28 18 -12 18 -14 18 -47 18 -91 18 -106 18 -59 18 38 
18 125 18 146 18 89 18 -2 18 -77 18 -117 18 -140 18 -139 
17 -94 18 -7 18 77 18 124 18 122 18 67 18 -30 18 -125 
18 -161 18 -115 18 -25 18 40 18 61 18 50 18 38 18 40 
18 56 18 71 18 63 18 27 18 -29 18 -82 18 -104 18 -72 
18 8 18 101 18 154 18 140 18 66 18 -28 18 -82 18 -60 
17 19 292 773 98 MP stroke
c11
18 244 18 220 18 149 18 64 18 12 18 21 18 61 18 82 
18 64 18 29 18 -6 18 -55 18 -124 18 -173 18 -150 18 -52 
18 74 18 164 18 185 18 132 18 26 18 -84 18 -138 18 -111 
18 -33 18 35 18 53 18 27 18 1 18 -4 18 -6 18 -33 
17 -76 18 -99 18 -79 18 -32 18 16 18 63 18 102 18 121 
18 109 18 74 18 32 18 -9 18 -44 18 -59 18 -37 18 9 
18 45 18 42 18 0 18 -49 18 -63 18 -34 18 -5 18 -12 
18 -50 18 -90 18 -84 18 -14 18 91 18 167 18 171 18 91 
17 -39 18 -153 18 -173 18 -88 18 26 18 80 18 47 18 -36 
18 -109 18 -125 18 -76 18 -2 18 44 18 51 18 38 18 32 
18 45 18 61 18 59 18 29 18 -25 18 -81 18 -113 18 -98 
18 -38 18 41 18 111 18 141 18 120 18 36 18 -93 18 -231 
17 -331 292 1451 98 MP stroke
c12
18 199 18 181 18 129 18 56 18 -5 18 -18 18 18 18 60 
18 64 18 43 18 41 18 67 18 79 18 36 18 -61 18 -156 
18 -176 18 -98 18 30 18 137 18 170 18 119 18 18 18 -74 
18 -100 18 -61 18 -12 18 6 18 -8 18 -22 18 -37 18 -64 
17 -89 18 -88 18 -49 18 4 18 49 18 83 18 109 18 112 
18 84 18 33 18 -13 18 -39 18 -39 18 -17 18 14 18 35 
18 28 18 1 18 -15 18 0 18 30 18 24 18 -27 18 -74 
18 -56 18 27 18 115 18 130 18 47 18 -81 18 -179 18 -192 
17 -116 18 11 18 128 18 183 18 157 18 62 18 -71 18 -183 
18 -209 18 -141 18 -39 18 20 18 20 18 -3 18 -10 18 8 
18 38 18 63 18 71 18 58 18 23 18 -27 18 -76 18 -104 
18 -88 18 -29 18 47 18 101 18 101 18 38 18 -83 18 -220 
17 -325 292 1586 98 MP stroke
c13
18 138 18 141 18 143 18 128 18 81 18 16 18 -18 18 16 
18 87 18 123 18 104 18 59 18 18 18 -32 18 -106 18 -174 
18 -165 18 -54 18 90 18 166 18 139 18 34 18 -85 18 -141 
18 -103 18 -4 18 76 18 88 18 54 18 25 18 11 18 -16 
17 -77 18 -137 18 -146 18 -98 18 -20 18 56 18 110 18 120 
18 84 18 31 18 -13 18 -36 18 -46 18 -36 18 7 18 59 
18 83 18 65 18 24 18 -9 18 -11 18 1 18 0 18 -25 
18 -61 18 -85 18 -59 18 29 18 143 18 204 18 160 18 19 
17 -148 18 -249 18 -223 18 -96 18 61 18 170 18 190 18 119 
18 -10 18 -129 18 -162 18 -105 18 -28 18 0 18 -6 18 -3 
18 17 18 43 18 56 18 43 18 -5 18 -76 18 -134 18 -145 
18 -91 18 4 18 95 18 139 18 120 18 36 18 -99 18 -247 
17 -357 292 1543 98 MP stroke
gr

c13

end %%Color Dict

eplot
%%EndObject

epage
end

showpage

%%Trailer
%%EOF
