%!PS-Adobe-3.0 EPSF-3.0
%%Creator: MATLAB, The Mathworks, Inc. Version 7.10.0.499 (R2010a). Operating System: Microsoft Windows 7.
%%Title: C:\Users\wwu\Desktop\warping\James_code\comp_wave_mm.eps
%%CreationDate: 04/12/2011  15:07:22
%%DocumentNeededFonts: Helvetica
%%DocumentProcessColors: Cyan Magenta Yellow Black
%%LanguageLevel: 2
%%Pages: 1
%%BoundingBox:   212   320   399   470
%%EndComments

%%BeginProlog
% MathWorks dictionary
/MathWorks 160 dict begin
% definition operators
/bdef {bind def} bind def
/ldef {load def} bind def
/xdef {exch def} bdef
/xstore {exch store} bdef
% operator abbreviations
/c  /clip ldef
/cc /concat ldef
/cp /closepath ldef
/gr /grestore ldef
/gs /gsave ldef
/mt /moveto ldef
/np /newpath ldef
/cm /currentmatrix ldef
/sm /setmatrix ldef
/rm /rmoveto ldef
/rl /rlineto ldef
/s {show newpath} bdef
/sc {setcmykcolor} bdef
/sr /setrgbcolor ldef
/sg /setgray ldef
/w /setlinewidth ldef
/j /setlinejoin ldef
/cap /setlinecap ldef
/rc {rectclip} bdef
/rf {rectfill} bdef
% page state control
/pgsv () def
/bpage {/pgsv save def} bdef
/epage {pgsv restore} bdef
/bplot /gsave ldef
/eplot {stroke grestore} bdef
% orientation switch
/portraitMode 0 def /landscapeMode 1 def /rotateMode 2 def
% coordinate system mappings
/dpi2point 0 def
% font control
/FontSize 0 def
/FMS {/FontSize xstore findfont [FontSize 0 0 FontSize neg 0 0]
  makefont setfont} bdef
/ISOLatin1Encoding where {pop /WindowsLatin1Encoding 256 array bdef
ISOLatin1Encoding WindowsLatin1Encoding copy pop
/.notdef/.notdef/quotesinglbase/florin/quotedblbase/ellipsis/dagger
/daggerdbl/circumflex/perthousand/Scaron/guilsinglleft/OE/.notdef/.notdef
/.notdef/.notdef/quoteleft/quoteright/quotedblleft/quotedblright/bullet
/endash/emdash/tilde/trademark/scaron/guilsinglright/oe/.notdef/.notdef
/Ydieresis WindowsLatin1Encoding 128 32 getinterval astore pop}
{/WindowsLatin1Encoding StandardEncoding bdef} ifelse
/reencode {exch dup where {pop load} {pop StandardEncoding} ifelse
  exch dup 3 1 roll findfont dup length dict begin
  { 1 index /FID ne {def}{pop pop} ifelse } forall
  /Encoding exch def currentdict end definefont pop} bdef
/isroman {findfont /CharStrings get /Agrave known} bdef
/FMSR {3 1 roll 1 index dup isroman {reencode} {pop pop} ifelse
  exch FMS} bdef
/csm {1 dpi2point div -1 dpi2point div scale neg translate
 dup landscapeMode eq {pop -90 rotate}
  {rotateMode eq {90 rotate} if} ifelse} bdef
% line types: solid, dotted, dashed, dotdash
/SO { [] 0 setdash } bdef
/DO { [.5 dpi2point mul 4 dpi2point mul] 0 setdash } bdef
/DA { [6 dpi2point mul] 0 setdash } bdef
/DD { [.5 dpi2point mul 4 dpi2point mul 6 dpi2point mul 4
  dpi2point mul] 0 setdash } bdef
% macros for lines and objects
/L {lineto stroke} bdef
/MP {3 1 roll moveto 1 sub {rlineto} repeat} bdef
/AP {{rlineto} repeat} bdef
/PDlw -1 def
/W {/PDlw currentlinewidth def setlinewidth} def
/PP {closepath eofill} bdef
/DP {closepath stroke} bdef
/MR {4 -2 roll moveto dup  0 exch rlineto exch 0 rlineto
  neg 0 exch rlineto closepath} bdef
/FR {MR stroke} bdef
/PR {MR fill} bdef
/L1i {{currentfile picstr readhexstring pop} image} bdef
/tMatrix matrix def
/MakeOval {newpath tMatrix currentmatrix pop translate scale
0 0 1 0 360 arc tMatrix setmatrix} bdef
/FO {MakeOval stroke} bdef
/PO {MakeOval fill} bdef
/PD {currentlinewidth 2 div 0 360 arc fill
   PDlw -1 eq not {PDlw w /PDlw -1 def} if} def
/FA {newpath tMatrix currentmatrix pop translate scale
  0 0 1 5 -2 roll arc tMatrix setmatrix stroke} bdef
/PA {newpath tMatrix currentmatrix pop	translate 0 0 moveto scale
  0 0 1 5 -2 roll arc closepath tMatrix setmatrix fill} bdef
/FAn {newpath tMatrix currentmatrix pop translate scale
  0 0 1 5 -2 roll arcn tMatrix setmatrix stroke} bdef
/PAn {newpath tMatrix currentmatrix pop translate 0 0 moveto scale
  0 0 1 5 -2 roll arcn closepath tMatrix setmatrix fill} bdef
/vradius 0 def /hradius 0 def /lry 0 def
/lrx 0 def /uly 0 def /ulx 0 def /rad 0 def
/MRR {/vradius xdef /hradius xdef /lry xdef /lrx xdef /uly xdef
  /ulx xdef newpath tMatrix currentmatrix pop ulx hradius add uly
  vradius add translate hradius vradius scale 0 0 1 180 270 arc 
  tMatrix setmatrix lrx hradius sub uly vradius add translate
  hradius vradius scale 0 0 1 270 360 arc tMatrix setmatrix
  lrx hradius sub lry vradius sub translate hradius vradius scale
  0 0 1 0 90 arc tMatrix setmatrix ulx hradius add lry vradius sub
  translate hradius vradius scale 0 0 1 90 180 arc tMatrix setmatrix
  closepath} bdef
/FRR {MRR stroke } bdef
/PRR {MRR fill } bdef
/MlrRR {/lry xdef /lrx xdef /uly xdef /ulx xdef /rad lry uly sub 2 div def
  newpath tMatrix currentmatrix pop ulx rad add uly rad add translate
  rad rad scale 0 0 1 90 270 arc tMatrix setmatrix lrx rad sub lry rad
  sub translate rad rad scale 0 0 1 270 90 arc tMatrix setmatrix
  closepath} bdef
/FlrRR {MlrRR stroke } bdef
/PlrRR {MlrRR fill } bdef
/MtbRR {/lry xdef /lrx xdef /uly xdef /ulx xdef /rad lrx ulx sub 2 div def
  newpath tMatrix currentmatrix pop ulx rad add uly rad add translate
  rad rad scale 0 0 1 180 360 arc tMatrix setmatrix lrx rad sub lry rad
  sub translate rad rad scale 0 0 1 0 180 arc tMatrix setmatrix
  closepath} bdef
/FtbRR {MtbRR stroke } bdef
/PtbRR {MtbRR fill } bdef
/stri 6 array def /dtri 6 array def
/smat 6 array def /dmat 6 array def
/tmat1 6 array def /tmat2 6 array def /dif 3 array def
/asub {/ind2 exch def /ind1 exch def dup dup
  ind1 get exch ind2 get sub exch } bdef
/tri_to_matrix {
  2 0 asub 3 1 asub 4 0 asub 5 1 asub
  dup 0 get exch 1 get 7 -1 roll astore } bdef
/compute_transform {
  dmat dtri tri_to_matrix tmat1 invertmatrix 
  smat stri tri_to_matrix tmat2 concatmatrix } bdef
/ds {stri astore pop} bdef
/dt {dtri astore pop} bdef
/db {2 copy /cols xdef /rows xdef mul dup 3 mul string
  currentfile 
  3 index 0 eq {/ASCIIHexDecode filter}
  {/ASCII85Decode filter 3 index 2 eq {/RunLengthDecode filter} if }
  ifelse exch readstring pop
  dup 0 3 index getinterval /rbmap xdef
  dup 2 index dup getinterval /gbmap xdef
  1 index dup 2 mul exch getinterval /bbmap xdef pop pop}bdef
/it {gs np dtri aload pop moveto lineto lineto cp c
  cols rows 8 compute_transform 
  rbmap gbmap bbmap true 3 colorimage gr}bdef
/il {newpath moveto lineto stroke}bdef
currentdict end def
%%EndProlog

%%BeginSetup
MathWorks begin

0 cap

end
%%EndSetup

%%Page: 1 1
%%BeginPageSetup
%%PageBoundingBox:   212   320   399   470
MathWorks begin
bpage
%%EndPageSetup

%%BeginObject: obj1
bplot

/dpi2point 12 def
portraitMode 2544 5640 csm

    0     0  2249  1800 rc
85 dict begin %Colortable dictionary
/c0 { 0.000000 0.000000 0.000000 sr} bdef
/c1 { 1.000000 1.000000 1.000000 sr} bdef
/c2 { 0.900000 0.000000 0.000000 sr} bdef
/c3 { 0.000000 0.820000 0.000000 sr} bdef
/c4 { 0.000000 0.000000 0.800000 sr} bdef
/c5 { 0.910000 0.820000 0.320000 sr} bdef
/c6 { 1.000000 0.260000 0.820000 sr} bdef
/c7 { 0.000000 0.820000 0.820000 sr} bdef
c0
1 j
1 sg
   0    0 2250 1801 rf
6 w
0 1467 1743 0 0 -1467 292 1602 4 MP
PP
-1743 0 0 1467 1743 0 0 -1467 292 1602 5 MP stroke
4 w
DO
SO
6 w
0 sg
 292  135 mt 2035  135 L
 292 1602 mt 2035 1602 L
2035 1602 mt 2035  135 L
 292 1602 mt  292  135 L
 292 1602 mt 2035 1602 L
 292 1602 mt  292  135 L
 292 1602 mt  292 1584 L
 292  135 mt  292  152 L
%%IncludeResource: font Helvetica
/Helvetica /WindowsLatin1Encoding 120 FMSR

 259 1747 mt 
(0) s
 679 1602 mt  679 1584 L
 679  135 mt  679  152 L
 646 1747 mt 
(2) s
1066 1602 mt 1066 1584 L
1066  135 mt 1066  152 L
1033 1747 mt 
(4) s
1454 1602 mt 1454 1584 L
1454  135 mt 1454  152 L
1421 1747 mt 
(6) s
1841 1602 mt 1841 1584 L
1841  135 mt 1841  152 L
1808 1747 mt 
(8) s
 292 1479 mt  309 1479 L
2035 1479 mt 2017 1479 L
 121 1523 mt 
(-1) s
 292 1174 mt  309 1174 L
2035 1174 mt 2017 1174 L
  21 1218 mt 
(-0.5) s
 292  868 mt  309  868 L
2035  868 mt 2017  868 L
 191  912 mt 
(0) s
 292  562 mt  309  562 L
2035  562 mt 2017  562 L
  91  606 mt 
(0.5) s
 292  257 mt  309  257 L
2035  257 mt 2017  257 L
 191  301 mt 
(1) s
 292  135 mt 2035  135 L
 292 1602 mt 2035 1602 L
2035 1602 mt 2035  135 L
 292 1602 mt  292  135 L
gs 292 135 1744 1468 rc
/c8 { 0.000000 0.000000 1.000000 sr} bdef
c8
10 31 10 31 10 31 9 31 10 30 10 31 9 31 10 31 
10 31 9 31 10 30 10 31 9 31 10 31 10 31 9 31 
10 30 10 31 9 31 10 31 10 31 10 31 9 30 10 31 
10 31 9 31 10 31 10 32 9 31 10 32 10 31 9 30 
10 30 10 29 9 27 10 26 10 23 9 22 10 19 10 16 
10 13 9 9 10 6 10 2 9 -3 10 -6 10 -12 9 -16 
10 -21 10 -26 9 -30 10 -35 10 -40 9 -44 10 -48 10 -51 
9 -54 10 -57 10 -58 9 -60 10 -59 10 -59 10 -58 9 -55 
10 -52 10 -47 9 -42 10 -36 10 -28 9 -21 10 -12 10 -4 
9 6 10 16 10 26 9 35 10 44 10 54 9 61 10 68 
10 73 10 78 9 81 10 82 10 82 9 79 10 75 10 68 
9 61 10 50 10 40 9 28 10 14 10 0 9 -15 10 -29 
10 -43 9 -56 10 -68 10 -79 10 -87 9 -93 10 -98 10 -98 
9 -97 10 -93 10 -85 9 -76 10 -63 10 -49 9 -33 10 -15 
10 2 9 21 10 39 10 56 9 72 10 85 10 96 9 104 
10 108 10 110 10 107 9 100 10 91 10 78 9 63 10 44 
10 24 9 4 10 -18 10 -38 9 -58 10 -76 10 -91 9 -103 
10 -111 10 -115 9 -116 10 -110 10 -103 10 -89 9 -74 10 -55 
10 -33 9 -11 10 13 10 36 9 57 10 77 10 94 9 106 
10 116 10 119 9 118 10 112 10 102 9 85 10 67 10 44 
10 19 9 -7 10 -32 10 -56 9 -79 10 -97 10 -112 9 -120 
10 -123 10 -119 9 -110 10 -95 10 -75 9 -49 10 -21 10 7 
9 38 10 65 10 90 9 108 292 1086 181 MP stroke
/c9 { 0.000000 0.500000 0.000000 sr} bdef
c9
10 21 10 21 10 21 9 21 10 21 10 21 9 22 10 21 
10 21 9 21 10 21 10 21 9 21 10 21 10 21 9 21 
10 21 10 21 9 21 10 21 10 21 10 21 9 22 10 21 
10 21 9 21 10 21 10 21 9 21 10 21 10 22 9 22 
10 22 10 24 9 23 10 24 10 25 9 25 10 25 10 25 
10 24 9 25 10 24 10 23 9 22 10 21 10 19 9 17 
10 14 10 12 9 7 10 4 10 -2 9 -6 10 -13 10 -19 
9 -26 10 -33 10 -41 9 -49 10 -57 10 -64 10 -71 9 -76 
10 -80 10 -82 9 -83 10 -79 10 -74 9 -64 10 -53 10 -37 
9 -20 10 -1 10 21 9 42 10 63 10 81 9 98 10 109 
10 116 10 119 9 115 10 105 10 92 9 73 10 52 10 26 
9 2 10 -25 10 -48 9 -71 10 -88 10 -103 9 -113 10 -118 
10 -118 9 -113 10 -103 10 -91 10 -75 9 -57 10 -36 10 -15 
9 5 10 25 10 44 9 61 10 76 10 87 9 95 10 101 
10 104 9 102 10 99 10 93 9 83 10 73 10 61 9 46 
10 32 10 17 10 1 9 -13 10 -28 10 -41 9 -53 10 -63 
10 -73 9 -79 10 -85 10 -87 9 -89 10 -89 10 -85 9 -82 
10 -75 10 -68 9 -59 10 -49 10 -39 10 -28 9 -16 10 -4 
10 7 9 19 10 30 10 40 9 49 10 57 10 65 9 70 
10 75 10 78 9 80 10 80 10 79 9 75 10 72 10 66 
10 60 9 52 10 44 10 34 9 25 10 14 10 3 9 -7 
10 -17 10 -28 9 -37 10 -46 10 -55 9 -61 10 -67 10 -72 
9 -76 10 -77 10 -77 9 -77 292 990 181 MP stroke
/c10 { 1.000000 0.000000 0.000000 sr} bdef
c10
10 78 10 79 10 78 9 78 10 79 10 78 9 79 10 78 
10 76 9 73 10 65 10 57 9 46 10 32 10 18 9 1 
10 -15 10 -30 9 -46 10 -60 10 -72 10 -82 9 -89 10 -93 
10 -94 9 -91 10 -86 10 -78 9 -68 10 -54 10 -40 9 -24 
10 -8 10 9 9 26 10 41 10 55 9 68 10 78 10 87 
10 91 9 95 10 95 10 92 9 87 10 79 10 69 9 58 
10 45 10 30 9 15 10 -1 10 -16 9 -31 10 -46 10 -58 
9 -70 10 -80 10 -87 9 -93 10 -95 10 -96 10 -93 9 -89 
10 -81 10 -73 9 -62 10 -49 10 -35 9 -20 10 -4 10 11 
9 27 10 41 10 55 9 67 10 78 10 87 9 93 10 96 
10 98 10 97 9 93 10 87 10 79 9 67 10 55 10 42 
9 26 10 10 10 -6 9 -21 10 -38 10 -51 9 -65 10 -76 
10 -86 9 -92 10 -97 10 -99 10 -98 9 -95 10 -89 10 -81 
9 -70 10 -58 10 -44 9 -28 10 -13 10 3 9 20 10 35 
10 49 9 63 10 74 10 83 9 91 10 95 10 97 9 96 
10 93 10 88 10 79 9 68 10 57 10 43 9 28 10 13 
10 -3 9 -19 10 -34 10 -48 9 -61 10 -72 10 -80 9 -88 
10 -92 10 -93 9 -93 10 -89 10 -82 10 -75 9 -64 10 -52 
10 -38 9 -23 10 -8 10 7 9 23 10 38 10 51 9 63 
10 74 10 81 9 86 10 90 10 89 9 87 10 81 10 73 
10 63 9 51 10 37 10 22 9 6 10 -10 10 -25 9 -40 
10 -53 10 -64 9 -72 10 -77 10 -81 9 -81 10 -82 10 -82 
9 -81 10 -82 10 -81 9 -82 292 1377 181 MP stroke
/c11 { 0.000000 0.750000 0.750000 sr} bdef
c11
10 73 10 73 10 73 9 73 10 73 10 73 9 73 10 73 
10 70 9 67 10 61 10 53 9 44 10 32 10 19 9 5 
10 -9 10 -24 9 -38 10 -51 10 -64 10 -74 9 -82 10 -88 
10 -91 9 -91 10 -89 10 -83 9 -74 10 -63 10 -51 9 -35 
10 -20 10 -2 9 14 10 32 10 47 9 62 10 74 10 85 
10 92 9 96 10 99 10 97 9 93 10 85 10 76 9 64 
10 49 10 34 9 17 10 1 10 -17 9 -33 10 -48 10 -63 
9 -74 10 -85 10 -92 9 -97 10 -99 10 -99 10 -95 9 -88 
10 -81 10 -69 9 -57 10 -42 10 -28 9 -11 10 5 10 21 
9 37 10 50 10 64 9 75 10 85 10 91 9 96 10 98 
10 97 10 94 9 89 10 81 10 71 9 59 10 46 10 32 
9 16 10 1 10 -14 9 -30 10 -44 10 -57 9 -69 10 -78 
10 -87 9 -92 10 -95 10 -97 10 -94 9 -91 10 -85 10 -76 
9 -66 10 -54 10 -41 9 -26 10 -11 10 4 9 19 10 34 
10 47 9 60 10 72 10 80 9 88 10 92 10 95 9 95 
10 92 10 88 10 80 9 71 10 60 10 47 9 32 10 18 
10 3 9 -13 10 -29 10 -42 9 -56 10 -68 10 -78 9 -86 
10 -90 10 -94 9 -94 10 -91 10 -87 10 -78 9 -69 10 -57 
10 -43 9 -29 10 -12 10 3 9 20 10 35 10 50 9 62 
10 74 10 82 9 88 10 91 10 92 9 89 10 84 10 75 
10 65 9 52 10 37 10 22 9 4 10 -12 10 -28 9 -43 
10 -57 10 -67 9 -76 10 -81 10 -83 9 -84 10 -84 10 -84 
9 -84 10 -84 10 -84 9 -84 292 1417 181 MP stroke
/c12 { 0.750000 0.000000 0.750000 sr} bdef
c12
10 80 10 80 10 80 9 80 10 81 10 80 9 80 10 79 
10 76 9 71 10 63 10 53 9 41 10 27 10 12 9 -4 
10 -18 10 -34 9 -48 10 -60 10 -71 10 -80 9 -86 10 -89 
10 -90 9 -89 10 -83 10 -77 9 -66 10 -55 10 -41 9 -27 
10 -11 10 6 9 21 10 37 10 51 9 64 10 75 10 84 
10 91 9 94 10 96 10 93 9 90 10 82 10 73 9 61 
10 48 10 33 9 18 10 1 10 -15 9 -31 10 -45 10 -60 
9 -71 10 -82 10 -89 9 -95 10 -98 10 -97 10 -95 9 -89 
10 -82 10 -72 9 -60 10 -47 10 -32 9 -16 10 0 10 16 
9 31 10 46 10 60 9 71 10 82 10 89 9 94 10 98 
10 98 10 95 9 91 10 84 10 75 9 63 10 51 10 36 
9 22 10 5 10 -10 9 -25 10 -40 10 -54 9 -66 10 -77 
10 -85 9 -92 10 -96 10 -97 10 -96 9 -93 10 -87 10 -79 
9 -68 10 -57 10 -43 9 -29 10 -14 10 2 9 17 10 33 
10 47 9 60 10 71 10 81 9 88 10 94 10 96 9 96 
10 93 10 89 10 81 9 72 10 60 10 47 9 32 10 17 
10 1 9 -15 10 -31 10 -45 9 -59 10 -71 10 -81 9 -88 
10 -93 10 -96 9 -95 10 -91 10 -86 10 -77 9 -67 10 -53 
10 -39 9 -24 10 -7 10 10 9 25 10 41 10 55 9 67 
10 77 10 85 9 90 10 91 10 91 9 87 10 80 10 71 
10 60 9 47 10 33 10 17 9 1 10 -15 10 -29 9 -43 
10 -54 10 -65 9 -71 10 -77 10 -79 9 -79 10 -80 10 -79 
9 -80 10 -79 10 -80 9 -80 292 1371 181 MP stroke
/c13 { 0.750000 0.750000 0.000000 sr} bdef
c13
10 81 10 81 10 81 9 81 10 81 10 81 9 81 10 81 
10 79 9 74 10 68 10 58 9 46 10 32 10 17 9 1 
10 -15 10 -32 9 -46 10 -60 10 -72 10 -81 9 -88 10 -91 
10 -93 9 -90 10 -85 10 -77 9 -67 10 -55 10 -40 9 -25 
10 -8 10 9 9 25 10 40 10 55 9 68 10 78 10 87 
10 93 9 95 10 96 10 93 9 87 10 80 10 69 9 57 
10 44 10 28 9 13 10 -3 10 -20 9 -34 10 -49 10 -62 
9 -74 10 -82 10 -90 9 -94 10 -96 10 -95 10 -93 9 -87 
10 -79 10 -69 9 -58 10 -45 10 -30 9 -16 10 0 10 15 
9 31 10 44 10 57 9 69 10 79 10 86 9 92 10 96 
10 96 10 95 9 90 10 85 10 76 9 65 10 54 10 40 
9 26 10 11 10 -4 9 -20 10 -34 10 -49 9 -61 10 -72 
10 -82 9 -89 10 -94 10 -96 10 -97 9 -94 10 -90 10 -83 
9 -73 10 -62 10 -50 9 -35 10 -20 10 -4 9 12 10 27 
10 43 9 56 10 69 10 79 9 87 10 94 10 98 9 98 
10 96 10 92 10 85 9 75 10 63 10 50 9 34 10 19 
10 1 9 -15 10 -31 10 -47 9 -62 10 -74 10 -84 9 -92 
10 -96 10 -99 9 -97 10 -93 10 -86 10 -76 9 -64 10 -50 
10 -34 9 -16 10 0 10 18 9 34 10 50 10 63 9 75 
10 83 10 90 9 92 10 92 10 90 9 83 10 74 10 64 
10 52 9 37 10 23 10 8 9 -7 10 -21 10 -34 9 -45 
10 -55 10 -63 9 -68 10 -72 10 -73 9 -73 10 -73 10 -74 
9 -73 10 -74 10 -73 9 -74 292 1331 181 MP stroke
0.25 sg
10 77 10 78 10 77 9 78 10 77 10 78 9 77 10 77 
10 74 9 70 10 64 10 54 9 43 10 30 10 15 9 1 
10 -16 10 -30 9 -45 10 -58 10 -69 10 -78 9 -85 10 -89 
10 -91 9 -89 10 -85 10 -78 9 -68 10 -56 10 -43 9 -28 
10 -13 10 5 9 20 10 36 10 51 9 64 10 76 10 84 
10 91 9 95 10 96 10 94 9 89 10 82 10 73 9 61 
10 47 10 32 9 16 10 1 10 -17 9 -32 10 -47 10 -61 
9 -72 10 -83 10 -90 9 -95 10 -97 10 -97 10 -94 9 -89 
10 -80 10 -71 9 -59 10 -45 10 -30 9 -15 10 2 10 17 
9 32 10 47 10 60 9 71 10 81 10 89 9 94 10 97 
10 97 10 95 9 91 10 83 10 74 9 63 10 50 10 37 
9 21 10 6 10 -9 9 -25 10 -39 10 -53 9 -65 10 -76 
10 -85 9 -91 10 -95 10 -97 10 -96 9 -93 10 -87 10 -79 
9 -70 10 -58 10 -44 9 -30 10 -16 10 1 9 16 10 31 
10 45 9 59 10 70 10 80 9 88 10 93 10 96 9 97 
10 94 10 89 10 83 9 73 10 61 10 48 9 34 10 18 
10 2 9 -14 10 -30 10 -44 9 -59 10 -71 10 -81 9 -88 
10 -94 10 -97 9 -96 10 -93 10 -86 10 -78 9 -67 10 -54 
10 -39 9 -23 10 -6 10 12 9 28 10 43 10 58 9 71 
10 81 10 87 9 93 10 93 10 92 9 87 10 79 10 69 
10 57 9 42 10 27 10 12 9 -4 10 -19 10 -34 9 -46 
10 -56 10 -65 9 -71 10 -75 10 -76 9 -77 10 -77 10 -76 
9 -77 10 -77 10 -76 9 -77 292 1362 181 MP stroke
c8
10 -28 10 -31 10 -33 9 -35 10 -37 10 -39 9 -41 10 -42 
10 -43 9 -44 10 -46 10 -46 9 -46 10 -46 10 -46 9 -46 
10 -45 10 -43 9 -42 10 -40 10 -38 10 -35 9 -32 10 -28 
10 -25 9 -20 10 -15 10 -10 9 -5 10 2 10 7 9 14 
10 20 10 27 9 33 10 41 10 47 9 53 10 59 10 65 
10 70 9 73 10 77 10 78 9 79 10 78 10 75 9 71 
10 65 10 57 9 47 10 36 10 23 9 8 10 -7 10 -23 
9 -39 10 -56 10 -70 9 -84 10 -95 10 -103 10 -109 9 -111 
10 -109 10 -102 9 -92 10 -78 10 -61 9 -41 10 -19 10 4 
9 27 10 48 10 69 9 86 10 100 10 110 9 115 10 115 
10 111 10 103 9 91 10 75 10 58 9 38 10 18 10 -2 
9 -22 10 -40 10 -57 9 -70 10 -81 10 -90 9 -94 10 -97 
10 -95 9 -91 10 -86 10 -77 10 -67 9 -55 10 -43 10 -29 
9 -16 10 -2 10 10 9 22 10 33 10 43 9 51 10 58 
10 62 9 67 10 68 10 68 9 68 10 66 10 62 9 59 
10 54 10 49 10 43 9 38 10 31 10 26 9 21 10 15 
10 10 9 5 10 2 10 -3 9 -7 10 -10 10 -12 9 -15 
10 -17 10 -19 9 -20 10 -21 10 -22 10 -23 9 -23 10 -24 
10 -23 9 -24 10 -23 10 -24 9 -22 10 -23 10 -22 9 -22 
10 -21 10 -20 9 -21 10 -20 10 -20 9 -21 10 -20 10 -20 
10 -20 9 -20 10 -21 10 -20 9 -20 10 -20 10 -20 9 -21 
10 -20 10 -20 9 -20 10 -21 10 -20 9 -20 10 -20 10 -20 
9 -21 10 -20 10 -20 9 -20 292 1343 181 MP stroke
c9
10 -48 10 -13 10 20 9 54 10 82 10 104 9 121 10 129 
10 130 9 123 10 110 10 92 9 69 10 44 10 16 9 -9 
10 -35 10 -58 9 -78 10 -93 10 -104 10 -111 9 -114 10 -111 
10 -105 9 -95 10 -83 10 -68 9 -52 10 -33 10 -16 9 2 
10 20 10 36 9 51 10 64 10 74 9 83 10 90 10 93 
10 94 9 94 10 90 10 85 9 78 10 70 10 59 9 49 
10 36 10 24 9 11 10 -2 10 -15 9 -28 10 -39 10 -50 
9 -60 10 -68 10 -76 9 -81 10 -85 10 -87 10 -88 9 -86 
10 -83 10 -79 9 -71 10 -63 10 -54 9 -42 10 -31 10 -17 
9 -3 10 11 10 25 9 39 10 53 10 65 9 76 10 85 
10 92 10 98 9 100 10 100 10 96 9 90 10 80 10 67 
9 53 10 34 10 15 9 -6 10 -27 10 -48 9 -68 10 -85 
10 -100 9 -110 10 -116 10 -116 10 -112 9 -101 10 -87 10 -68 
9 -47 10 -25 10 -2 9 20 10 39 10 55 9 67 10 77 
10 83 9 84 10 84 10 81 9 76 10 70 10 62 9 55 
10 46 10 39 10 31 9 25 10 17 10 12 9 6 10 2 
10 -3 9 -6 10 -10 10 -12 9 -15 10 -17 10 -18 9 -19 
10 -20 10 -21 9 -22 10 -22 10 -22 10 -22 9 -22 10 -22 
10 -22 9 -22 10 -21 10 -20 9 -21 10 -19 10 -20 9 -19 
10 -18 10 -19 9 -18 10 -18 10 -18 9 -18 10 -18 10 -18 
10 -18 9 -18 10 -18 10 -18 9 -18 10 -19 10 -18 9 -18 
10 -18 10 -18 9 -18 10 -18 10 -18 9 -18 10 -18 10 -18 
9 -18 10 -18 10 -19 9 -18 292 1321 181 MP stroke
gr

c9

end %%Color Dict

eplot
%%EndObject

epage
end

showpage

%%Trailer
%%EOF
