%!PS-Adobe-3.0 EPSF-3.0
%%Creator: MATLAB, The Mathworks, Inc. Version 7.10.0.499 (R2010a). Operating System: Microsoft Windows 7.
%%Title: C:\Users\wwu\Desktop\warping\James_code\comp_gene_mm.eps
%%CreationDate: 04/15/2011  15:40:24
%%DocumentNeededFonts: Helvetica
%%DocumentProcessColors: Cyan Magenta Yellow Black
%%LanguageLevel: 2
%%Pages: 1
%%BoundingBox:   212   320   399   470
%%EndComments

%%BeginProlog
% MathWorks dictionary
/MathWorks 160 dict begin
% definition operators
/bdef {bind def} bind def
/ldef {load def} bind def
/xdef {exch def} bdef
/xstore {exch store} bdef
% operator abbreviations
/c  /clip ldef
/cc /concat ldef
/cp /closepath ldef
/gr /grestore ldef
/gs /gsave ldef
/mt /moveto ldef
/np /newpath ldef
/cm /currentmatrix ldef
/sm /setmatrix ldef
/rm /rmoveto ldef
/rl /rlineto ldef
/s {show newpath} bdef
/sc {setcmykcolor} bdef
/sr /setrgbcolor ldef
/sg /setgray ldef
/w /setlinewidth ldef
/j /setlinejoin ldef
/cap /setlinecap ldef
/rc {rectclip} bdef
/rf {rectfill} bdef
% page state control
/pgsv () def
/bpage {/pgsv save def} bdef
/epage {pgsv restore} bdef
/bplot /gsave ldef
/eplot {stroke grestore} bdef
% orientation switch
/portraitMode 0 def /landscapeMode 1 def /rotateMode 2 def
% coordinate system mappings
/dpi2point 0 def
% font control
/FontSize 0 def
/FMS {/FontSize xstore findfont [FontSize 0 0 FontSize neg 0 0]
  makefont setfont} bdef
/ISOLatin1Encoding where {pop /WindowsLatin1Encoding 256 array bdef
ISOLatin1Encoding WindowsLatin1Encoding copy pop
/.notdef/.notdef/quotesinglbase/florin/quotedblbase/ellipsis/dagger
/daggerdbl/circumflex/perthousand/Scaron/guilsinglleft/OE/.notdef/.notdef
/.notdef/.notdef/quoteleft/quoteright/quotedblleft/quotedblright/bullet
/endash/emdash/tilde/trademark/scaron/guilsinglright/oe/.notdef/.notdef
/Ydieresis WindowsLatin1Encoding 128 32 getinterval astore pop}
{/WindowsLatin1Encoding StandardEncoding bdef} ifelse
/reencode {exch dup where {pop load} {pop StandardEncoding} ifelse
  exch dup 3 1 roll findfont dup length dict begin
  { 1 index /FID ne {def}{pop pop} ifelse } forall
  /Encoding exch def currentdict end definefont pop} bdef
/isroman {findfont /CharStrings get /Agrave known} bdef
/FMSR {3 1 roll 1 index dup isroman {reencode} {pop pop} ifelse
  exch FMS} bdef
/csm {1 dpi2point div -1 dpi2point div scale neg translate
 dup landscapeMode eq {pop -90 rotate}
  {rotateMode eq {90 rotate} if} ifelse} bdef
% line types: solid, dotted, dashed, dotdash
/SO { [] 0 setdash } bdef
/DO { [.5 dpi2point mul 4 dpi2point mul] 0 setdash } bdef
/DA { [6 dpi2point mul] 0 setdash } bdef
/DD { [.5 dpi2point mul 4 dpi2point mul 6 dpi2point mul 4
  dpi2point mul] 0 setdash } bdef
% macros for lines and objects
/L {lineto stroke} bdef
/MP {3 1 roll moveto 1 sub {rlineto} repeat} bdef
/AP {{rlineto} repeat} bdef
/PDlw -1 def
/W {/PDlw currentlinewidth def setlinewidth} def
/PP {closepath eofill} bdef
/DP {closepath stroke} bdef
/MR {4 -2 roll moveto dup  0 exch rlineto exch 0 rlineto
  neg 0 exch rlineto closepath} bdef
/FR {MR stroke} bdef
/PR {MR fill} bdef
/L1i {{currentfile picstr readhexstring pop} image} bdef
/tMatrix matrix def
/MakeOval {newpath tMatrix currentmatrix pop translate scale
0 0 1 0 360 arc tMatrix setmatrix} bdef
/FO {MakeOval stroke} bdef
/PO {MakeOval fill} bdef
/PD {currentlinewidth 2 div 0 360 arc fill
   PDlw -1 eq not {PDlw w /PDlw -1 def} if} def
/FA {newpath tMatrix currentmatrix pop translate scale
  0 0 1 5 -2 roll arc tMatrix setmatrix stroke} bdef
/PA {newpath tMatrix currentmatrix pop	translate 0 0 moveto scale
  0 0 1 5 -2 roll arc closepath tMatrix setmatrix fill} bdef
/FAn {newpath tMatrix currentmatrix pop translate scale
  0 0 1 5 -2 roll arcn tMatrix setmatrix stroke} bdef
/PAn {newpath tMatrix currentmatrix pop translate 0 0 moveto scale
  0 0 1 5 -2 roll arcn closepath tMatrix setmatrix fill} bdef
/vradius 0 def /hradius 0 def /lry 0 def
/lrx 0 def /uly 0 def /ulx 0 def /rad 0 def
/MRR {/vradius xdef /hradius xdef /lry xdef /lrx xdef /uly xdef
  /ulx xdef newpath tMatrix currentmatrix pop ulx hradius add uly
  vradius add translate hradius vradius scale 0 0 1 180 270 arc 
  tMatrix setmatrix lrx hradius sub uly vradius add translate
  hradius vradius scale 0 0 1 270 360 arc tMatrix setmatrix
  lrx hradius sub lry vradius sub translate hradius vradius scale
  0 0 1 0 90 arc tMatrix setmatrix ulx hradius add lry vradius sub
  translate hradius vradius scale 0 0 1 90 180 arc tMatrix setmatrix
  closepath} bdef
/FRR {MRR stroke } bdef
/PRR {MRR fill } bdef
/MlrRR {/lry xdef /lrx xdef /uly xdef /ulx xdef /rad lry uly sub 2 div def
  newpath tMatrix currentmatrix pop ulx rad add uly rad add translate
  rad rad scale 0 0 1 90 270 arc tMatrix setmatrix lrx rad sub lry rad
  sub translate rad rad scale 0 0 1 270 90 arc tMatrix setmatrix
  closepath} bdef
/FlrRR {MlrRR stroke } bdef
/PlrRR {MlrRR fill } bdef
/MtbRR {/lry xdef /lrx xdef /uly xdef /ulx xdef /rad lrx ulx sub 2 div def
  newpath tMatrix currentmatrix pop ulx rad add uly rad add translate
  rad rad scale 0 0 1 180 360 arc tMatrix setmatrix lrx rad sub lry rad
  sub translate rad rad scale 0 0 1 0 180 arc tMatrix setmatrix
  closepath} bdef
/FtbRR {MtbRR stroke } bdef
/PtbRR {MtbRR fill } bdef
/stri 6 array def /dtri 6 array def
/smat 6 array def /dmat 6 array def
/tmat1 6 array def /tmat2 6 array def /dif 3 array def
/asub {/ind2 exch def /ind1 exch def dup dup
  ind1 get exch ind2 get sub exch } bdef
/tri_to_matrix {
  2 0 asub 3 1 asub 4 0 asub 5 1 asub
  dup 0 get exch 1 get 7 -1 roll astore } bdef
/compute_transform {
  dmat dtri tri_to_matrix tmat1 invertmatrix 
  smat stri tri_to_matrix tmat2 concatmatrix } bdef
/ds {stri astore pop} bdef
/dt {dtri astore pop} bdef
/db {2 copy /cols xdef /rows xdef mul dup 3 mul string
  currentfile 
  3 index 0 eq {/ASCIIHexDecode filter}
  {/ASCII85Decode filter 3 index 2 eq {/RunLengthDecode filter} if }
  ifelse exch readstring pop
  dup 0 3 index getinterval /rbmap xdef
  dup 2 index dup getinterval /gbmap xdef
  1 index dup 2 mul exch getinterval /bbmap xdef pop pop}bdef
/it {gs np dtri aload pop moveto lineto lineto cp c
  cols rows 8 compute_transform 
  rbmap gbmap bbmap true 3 colorimage gr}bdef
/il {newpath moveto lineto stroke}bdef
currentdict end def
%%EndProlog

%%BeginSetup
MathWorks begin

0 cap

end
%%EndSetup

%%Page: 1 1
%%BeginPageSetup
%%PageBoundingBox:   212   320   399   470
MathWorks begin
bpage
%%EndPageSetup

%%BeginObject: obj1
bplot

/dpi2point 12 def
portraitMode 2544 5640 csm

    0     0  2249  1800 rc
85 dict begin %Colortable dictionary
/c0 { 0.000000 0.000000 0.000000 sr} bdef
/c1 { 1.000000 1.000000 1.000000 sr} bdef
/c2 { 0.900000 0.000000 0.000000 sr} bdef
/c3 { 0.000000 0.820000 0.000000 sr} bdef
/c4 { 0.000000 0.000000 0.800000 sr} bdef
/c5 { 0.910000 0.820000 0.320000 sr} bdef
/c6 { 1.000000 0.260000 0.820000 sr} bdef
/c7 { 0.000000 0.820000 0.820000 sr} bdef
c0
1 j
1 sg
   0    0 2250 1801 rf
6 w
0 1467 1743 0 0 -1467 292 1602 4 MP
PP
-1743 0 0 1467 1743 0 0 -1467 292 1602 5 MP stroke
4 w
DO
SO
6 w
0 sg
 292  135 mt 2035  135 L
 292 1602 mt 2035 1602 L
2035 1602 mt 2035  135 L
 292 1602 mt  292  135 L
 292 1602 mt 2035 1602 L
 292 1602 mt  292  135 L
 292 1602 mt  292 1584 L
 292  135 mt  292  152 L
%%IncludeResource: font Helvetica
/Helvetica /WindowsLatin1Encoding 120 FMSR

 259 1747 mt 
(0) s
1024 1602 mt 1024 1584 L
1024  135 mt 1024  152 L
 958 1747 mt 
(50) s
1756 1602 mt 1756 1584 L
1756  135 mt 1756  152 L
1656 1747 mt 
(100) s
 292 1468 mt  309 1468 L
2035 1468 mt 2017 1468 L
 121 1512 mt 
(-2) s
 292 1201 mt  309 1201 L
2035 1201 mt 2017 1201 L
 121 1245 mt 
(-1) s
 292  935 mt  309  935 L
2035  935 mt 2017  935 L
 191  979 mt 
(0) s
 292  668 mt  309  668 L
2035  668 mt 2017  668 L
 191  712 mt 
(1) s
 292  401 mt  309  401 L
2035  401 mt 2017  401 L
 191  445 mt 
(2) s
 292  135 mt  309  135 L
2035  135 mt 2017  135 L
 191  179 mt 
(3) s
 292  135 mt 2035  135 L
 292 1602 mt 2035 1602 L
2035 1602 mt 2035  135 L
 292 1602 mt  292  135 L
gs 292 135 1744 1468 rc
/c8 { 0.000000 0.000000 1.000000 sr} bdef
c8
35 -39 34 -39 34 -39 34 -38 34 -36 35 -31 34 -26 34 -18 
34 -13 34 -9 34 -4 35 5 34 15 34 24 34 28 34 26 
34 17 35 6 34 -3 34 -7 34 -2 34 6 35 15 34 17 
34 10 34 -4 34 -17 34 -21 35 -17 34 -13 34 -19 34 -31 
34 -39 34 -31 35 -8 34 13 34 23 34 22 34 23 35 30 
34 31 34 15 34 -16 34 -50 34 -61 35 -46 34 -17 34 4 
34 7 34 6 34 7 292 1055 52 MP stroke
/c9 { 0.000000 0.500000 0.000000 sr} bdef
c9
35 -35 34 -31 34 -22 34 -15 34 -12 35 -14 34 -18 34 -17 
34 -10 34 3 34 12 35 16 34 18 34 23 34 34 34 47 
34 55 35 52 34 40 34 23 34 6 34 -8 35 -22 34 -35 
34 -42 34 -35 34 -22 34 -9 35 -9 34 -23 34 -41 34 -48 
34 -42 34 -28 35 -22 34 -24 34 -20 34 4 34 46 35 87 
34 100 34 75 34 29 34 -7 34 -11 35 17 34 55 34 74 
34 77 34 76 34 76 292 478 52 MP stroke
/c10 { 1.000000 0.000000 0.000000 sr} bdef
c10
35 -34 34 -34 34 -26 34 -6 34 18 35 29 34 21 34 -3 
34 -31 34 -52 34 -54 35 -37 34 -10 34 18 34 28 34 22 
34 4 35 -4 34 6 34 28 34 44 34 39 35 19 34 3 
34 1 34 11 34 14 34 0 35 -30 34 -53 34 -58 34 -48 
34 -34 34 -31 35 -35 34 -37 34 -31 34 -17 34 -6 35 0 
34 2 34 9 34 24 34 44 34 56 35 55 34 39 34 14 
34 -13 34 -36 34 -52 292 1002 52 MP stroke
/c11 { 0.000000 0.750000 0.750000 sr} bdef
c11
35 -51 34 -47 34 -37 34 -28 34 -24 35 -27 34 -33 34 -33 
34 -23 34 -5 34 16 35 33 34 43 34 50 34 55 34 63 
34 66 35 62 34 48 34 31 34 19 34 19 35 28 34 36 
34 35 34 20 34 -4 34 -30 35 -49 34 -61 34 -63 34 -61 
34 -58 34 -60 35 -64 34 -65 34 -57 34 -40 34 -16 35 5 
34 21 34 28 34 30 34 28 34 23 35 11 34 -6 34 -26 
34 -45 34 -57 34 -58 292 1190 52 MP stroke
/c12 { 0.750000 0.000000 0.750000 sr} bdef
c12
35 -89 34 -90 34 -89 34 -84 34 -58 35 -11 34 26 34 33 
34 8 34 -28 34 -55 35 -53 34 -28 34 5 34 34 34 51 
34 56 35 57 34 52 34 41 34 25 34 12 35 9 34 16 
34 25 34 22 34 4 34 -25 35 -45 34 -52 34 -43 34 -34 
34 -33 34 -41 35 -55 34 -61 34 -57 34 -44 34 -21 35 5 
34 30 34 51 34 66 34 69 34 62 35 44 34 18 34 -9 
34 -32 34 -45 34 -45 292 984 52 MP stroke
/c13 { 0.750000 0.750000 0.000000 sr} bdef
c13
35 38 34 39 34 28 34 2 34 -23 35 -25 34 -3 34 24 
34 34 34 20 34 -2 35 -16 34 -17 34 -12 34 -12 34 -12 
34 -8 35 2 34 11 34 14 34 11 34 8 35 7 34 7 
34 5 34 3 34 9 34 21 35 28 34 15 34 -10 34 -25 
34 -14 34 17 35 34 34 25 34 -1 34 -14 34 -8 35 -1 
34 -15 34 -47 34 -70 34 -59 34 -17 35 27 34 43 34 43 
34 42 34 43 34 43 292 818 52 MP stroke
0.25 sg
35 -19 34 -18 34 -18 34 -12 34 3 35 23 34 33 34 31 
34 14 34 -9 34 -35 35 -53 34 -57 34 -47 34 -21 34 13 
34 45 35 64 34 60 34 36 34 2 34 -26 35 -36 34 -27 
34 -5 34 17 34 27 34 23 35 10 34 -5 34 -10 34 -5 
34 0 34 -3 35 -11 34 -17 34 -17 34 -10 34 -8 35 -18 
34 -32 34 -32 34 -11 34 19 34 38 35 27 34 -8 34 -44 
34 -59 34 -48 34 -23 292 1128 52 MP stroke
c8
35 130 34 130 34 105 34 34 34 -53 35 -115 34 -127 34 -90 
34 -19 34 48 34 80 35 54 34 -16 34 -80 34 -89 34 -37 
34 40 35 88 34 80 34 31 34 -23 34 -44 35 -18 34 40 
34 93 34 99 34 59 34 -6 35 -49 34 -54 34 -40 34 -37 
34 -60 34 -94 35 -121 34 -129 34 -123 34 -108 34 -80 35 -33 
34 31 34 100 34 154 34 172 34 147 35 81 34 -15 34 -108 
34 -169 34 -185 34 -185 292 1492 52 MP stroke
c9
35 -36 34 -36 34 -38 34 -45 34 -48 35 -45 34 -31 34 -9 
34 15 34 29 34 31 35 26 34 23 34 29 34 41 34 54 
34 58 35 51 34 40 34 27 34 18 34 13 35 8 34 -1 
34 -13 34 -30 34 -44 34 -57 35 -64 34 -68 34 -73 34 -84 
34 -97 34 -108 35 -101 34 -73 34 -33 34 6 34 25 35 26 
34 17 34 17 34 31 34 52 34 59 35 43 34 7 34 -34 
34 -60 34 -64 34 -50 292 1298 52 MP stroke
c10
35 -71 34 -72 34 -71 34 -71 34 -72 35 -71 34 -71 34 -66 
34 -34 34 13 34 41 35 35 34 5 34 -27 34 -39 34 -33 
34 -17 35 -3 34 8 34 21 34 34 34 40 35 35 34 17 
34 -6 34 -23 34 -28 34 -24 35 -12 34 -1 34 5 34 4 
34 0 34 -3 35 -6 34 -9 34 -14 34 -20 34 -28 35 -35 
34 -39 34 -39 34 -32 34 -19 34 -4 35 6 34 9 34 5 
34 6 34 17 34 36 292 1052 52 MP stroke
c11
35 29 34 29 34 23 34 13 34 3 35 -2 34 -3 34 -4 
34 -10 34 -22 34 -35 35 -41 34 -39 34 -25 34 -8 34 7 
34 15 35 16 34 13 34 11 34 13 34 16 35 15 34 9 
34 4 34 -1 34 2 34 6 35 10 34 7 34 -4 34 -18 
34 -25 34 -20 35 -5 34 7 34 7 34 -6 34 -21 35 -24 
34 -17 34 -11 34 -15 34 -25 34 -30 35 -19 34 8 34 34 
34 47 34 47 34 47 292 913 52 MP stroke
c12
35 3 34 7 34 12 34 8 34 -11 35 -38 34 -67 34 -85 
34 -83 34 -58 34 -19 35 21 34 48 34 59 34 53 34 37 
34 23 35 15 34 15 34 23 34 31 34 37 35 37 34 30 
34 21 34 17 34 21 34 31 35 40 34 36 34 16 34 -16 
34 -52 34 -75 35 -82 34 -75 34 -65 34 -58 34 -59 35 -61 
34 -58 34 -46 34 -25 34 -2 34 16 35 24 34 24 34 21 
34 17 34 17 34 18 292 1094 52 MP stroke
c13
35 -62 34 -53 34 -36 34 -20 34 -12 35 -13 34 -23 34 -32 
34 -34 34 -25 34 -7 35 11 34 27 34 38 34 44 34 49 
34 52 35 55 34 55 34 50 34 43 34 36 35 30 34 26 
34 24 34 22 34 17 34 10 35 -2 34 -16 34 -34 34 -49 
34 -64 34 -77 35 -86 34 -91 34 -86 34 -70 34 -43 35 -12 
34 14 34 27 34 26 34 16 34 7 35 5 34 7 34 5 
34 -4 34 -20 34 -35 292 1120 52 MP stroke
0.25 sg
35 11 34 24 34 21 34 3 34 -17 35 -32 34 -32 34 -20 
34 -7 34 1 34 2 35 2 34 1 34 3 34 2 34 -2 
34 -2 35 4 34 17 34 31 34 36 34 26 35 9 34 -5 
34 -8 34 -4 34 2 34 0 35 -12 34 -32 34 -53 34 -61 
34 -53 34 -31 35 -6 34 11 34 16 34 18 34 22 35 35 
34 42 34 34 34 11 34 -20 34 -40 35 -39 34 -20 34 1 
34 12 34 13 34 13 292 984 52 MP stroke
c8
35 -41 34 -41 34 -40 34 -29 34 -5 35 16 34 25 34 14 
34 -8 34 -29 34 -42 35 -44 34 -37 34 -26 34 -12 34 3 
34 21 35 38 34 48 34 47 34 35 34 18 35 -2 34 -15 
34 -18 34 -12 34 -1 34 12 35 18 34 15 34 7 34 -10 
34 -28 34 -46 35 -56 34 -56 34 -39 34 -13 34 16 35 34 
34 37 34 28 34 18 34 14 34 16 35 17 34 13 34 1 
34 -15 34 -27 34 -35 292 971 52 MP stroke
c9
35 22 34 12 34 -3 34 -16 34 -21 35 -17 34 -10 34 -3 
34 1 34 8 34 13 35 18 34 19 34 16 34 9 34 2 
34 -2 35 -2 34 -1 34 3 34 6 34 8 35 7 34 5 
34 -2 34 -12 34 -25 34 -37 35 -44 34 -39 34 -27 34 -12 
34 -8 34 -11 35 -13 34 -1 34 27 34 52 34 54 35 29 
34 -9 34 -34 34 -31 34 -4 34 24 35 36 34 36 34 37 
34 36 34 36 34 37 292 753 52 MP stroke
c10
35 -19 34 -39 34 -56 34 -60 34 -42 35 -10 34 22 34 33 
34 27 34 11 34 4 35 13 34 33 34 50 34 58 34 51 
34 36 35 19 34 8 34 4 34 6 34 9 35 4 34 -9 
34 -34 34 -61 34 -88 34 -102 35 -103 34 -88 34 -63 34 -37 
34 -16 34 -3 35 5 34 14 34 30 34 56 34 87 35 104 
34 92 34 45 34 -23 34 -82 34 -107 35 -87 34 -45 34 -6 
34 5 34 6 34 5 292 1166 52 MP stroke
c11
35 7 34 2 34 -7 34 -17 34 -23 35 -23 34 -19 34 -8 
34 1 34 9 34 10 35 7 34 -3 34 -13 34 -20 34 -24 
34 -24 35 -21 34 -17 34 -13 34 -6 34 5 35 19 34 33 
34 41 34 43 34 36 34 27 35 17 34 8 34 1 34 -4 
34 -9 34 -12 35 -14 34 -15 34 -16 34 -20 34 -25 35 -31 
34 -33 34 -28 34 -20 34 -11 34 -5 35 -4 34 -4 34 -5 
34 1 34 13 34 26 292 1034 52 MP stroke
c12
35 -29 34 -27 34 -16 34 3 34 19 35 21 34 9 34 -10 
34 -25 34 -29 34 -22 35 -5 34 10 34 20 34 23 34 20 
34 16 35 15 34 21 34 30 34 33 34 30 35 15 34 -3 
34 -21 34 -33 34 -35 34 -31 35 -21 34 -17 34 -14 34 -10 
34 -3 34 9 35 15 34 12 34 0 34 -13 34 -15 35 -3 
34 15 34 33 34 42 34 45 34 42 35 40 34 33 34 24 
34 8 34 -8 34 -20 292 755 52 MP stroke
c13
35 -10 34 -10 34 -8 34 3 34 24 35 40 34 39 34 18 
34 -13 34 -38 34 -45 35 -38 34 -25 34 -19 34 -23 34 -31 
34 -33 35 -22 34 -4 34 13 34 21 34 20 35 11 34 3 
34 0 34 6 34 21 34 37 35 51 34 52 34 41 34 17 
34 -10 34 -31 35 -39 34 -31 34 -13 34 -3 34 -3 35 -18 
34 -34 34 -43 34 -43 34 -35 34 -29 35 -24 34 -20 34 -13 
34 -3 34 9 34 12 292 1108 52 MP stroke
0.25 sg
35 -12 34 -13 34 -10 34 -2 34 0 35 -3 34 -10 34 -16 
34 -14 34 -4 34 5 35 10 34 6 34 -4 34 -15 34 -19 
34 -14 35 -4 34 9 34 22 34 30 34 32 35 28 34 17 
34 3 34 -9 34 -14 34 -9 35 6 34 18 34 21 34 5 
34 -22 34 -46 35 -53 34 -41 34 -16 34 5 34 11 35 8 
34 2 34 7 34 19 34 35 34 42 35 34 34 19 34 -1 
34 -14 34 -19 34 -16 292 899 52 MP stroke
c8
35 33 34 32 34 28 34 20 34 16 35 14 34 11 34 7 
34 -1 34 -13 34 -19 35 -20 34 -14 34 -5 34 4 34 11 
34 17 35 19 34 10 34 -6 34 -22 34 -25 35 -14 34 8 
34 20 34 20 34 9 34 6 35 11 34 19 34 15 34 1 
34 -13 34 -14 35 -6 34 0 34 -5 34 -14 34 -14 35 -2 
34 11 34 11 34 -6 34 -29 34 -38 35 -22 34 11 34 37 
34 43 34 44 34 43 292 831 52 MP stroke
c9
35 79 34 79 34 79 34 79 34 79 35 79 34 71 34 30 
34 -34 34 -76 34 -77 35 -48 34 -17 34 -9 34 -23 34 -38 
34 -34 35 -15 34 3 34 7 34 7 34 17 35 39 34 59 
34 57 34 35 34 12 34 9 35 18 34 24 34 14 34 -9 
34 -23 34 -23 35 -19 34 -28 34 -52 34 -69 34 -61 35 -29 
34 3 34 13 34 5 34 -7 34 -7 35 0 34 1 34 -14 
34 -32 34 -36 34 -14 292 1145 52 MP stroke
c10
35 -15 34 -14 34 -14 34 -7 34 8 35 21 34 17 34 -6 
34 -36 34 -57 34 -55 35 -31 34 0 34 27 34 37 34 37 
34 32 35 25 34 14 34 -3 34 -19 34 -25 35 -12 34 14 
34 36 34 37 34 17 34 -16 35 -41 34 -50 34 -41 34 -25 
34 -4 34 13 35 27 34 33 34 27 34 11 34 -11 35 -25 
34 -26 34 -12 34 5 34 12 34 10 35 4 34 5 34 16 
34 29 34 33 34 17 292 849 52 MP stroke
c11
35 -18 34 -17 34 -8 34 10 34 28 35 29 34 11 34 -18 
34 -47 34 -62 34 -55 35 -34 34 -9 34 10 34 18 34 19 
34 22 35 26 34 36 34 46 34 53 34 54 35 47 34 34 
34 18 34 2 34 -12 34 -22 35 -24 34 -24 34 -24 34 -29 
34 -40 34 -52 35 -60 34 -54 34 -36 34 -12 34 3 35 1 
34 -13 34 -25 34 -24 34 -4 34 22 35 47 34 56 34 51 
34 37 34 21 34 9 292 901 52 MP stroke
c12
35 -20 34 -23 34 -30 34 -35 34 -34 35 -25 34 -3 34 25 
34 47 34 52 34 37 35 3 34 -34 34 -58 34 -58 34 -33 
34 1 35 22 34 26 34 17 34 13 34 19 35 29 34 34 
34 29 34 19 34 11 34 5 35 -2 34 -14 34 -24 34 -31 
34 -28 34 -21 35 -12 34 -1 34 13 34 37 34 62 35 83 
34 89 34 86 34 78 34 76 34 81 35 86 34 90 34 89 
15 39 379 135 50 MP stroke
c13
35 9 34 9 34 6 34 4 34 6 35 10 34 8 34 -5 
34 -26 34 -46 34 -51 35 -32 34 3 34 36 34 49 34 37 
34 13 35 -6 34 -8 34 7 34 27 34 38 35 38 34 26 
34 11 34 -5 34 -18 34 -27 35 -32 34 -29 34 -19 34 -7 
34 4 34 7 35 0 34 -10 34 -15 34 -4 34 18 35 44 
34 62 34 68 34 62 34 53 34 47 35 50 34 56 34 61 
34 64 34 63 34 64 292 297 52 MP stroke
0.25 sg
35 2 34 -5 34 -11 34 -16 34 -20 35 -20 34 -19 34 -14 
34 -6 34 5 34 17 35 25 34 28 34 22 34 9 34 -3 
34 -4 35 5 34 20 34 27 34 16 34 -8 35 -33 34 -44 
34 -36 34 -17 34 5 34 17 35 17 34 10 34 1 34 0 
34 6 34 15 35 20 34 12 34 1 34 -9 34 -10 35 -2 
34 6 34 10 34 10 34 16 34 31 35 56 34 78 34 91 
34 92 34 93 34 92 292 359 52 MP stroke
c8
35 -10 34 -14 34 -26 34 -36 34 -36 35 -21 34 -2 34 13 
34 12 34 7 34 7 35 18 34 38 34 46 34 38 34 20 
34 6 35 4 34 9 34 11 34 5 34 -5 35 -12 34 -14 
34 -16 34 -22 34 -27 34 -25 35 -10 34 11 34 17 34 5 
34 -21 34 -37 35 -32 34 -14 34 6 34 14 34 13 35 11 
34 16 34 21 34 18 34 5 34 -16 35 -36 34 -50 34 -56 
34 -56 34 -56 34 -57 292 1226 52 MP stroke
c9
35 0 34 8 34 14 34 16 34 10 35 -1 34 -17 34 -29 
34 -31 34 -24 34 -7 35 10 34 21 34 27 34 29 34 31 
34 31 35 25 34 11 34 -6 34 -16 34 -21 35 -17 34 -14 
34 -12 34 -10 34 -5 34 2 35 5 34 0 34 -14 34 -27 
34 -28 34 -15 35 4 34 14 34 14 34 9 34 8 35 18 
34 32 34 42 34 39 34 24 34 0 35 -23 34 -42 34 -54 
34 -58 34 -58 34 -58 292 1107 52 MP stroke
c10
35 13 34 -1 34 -11 34 -14 34 -13 35 -11 34 -13 34 -17 
34 -19 34 -15 34 -3 35 15 34 30 34 33 34 25 34 7 
34 -5 35 -4 34 7 34 18 34 16 34 1 35 -16 34 -25 
34 -25 34 -17 34 -9 34 1 35 9 34 15 34 18 34 15 
34 6 34 -7 35 -17 34 -15 34 1 34 25 34 46 35 48 
34 26 34 -14 34 -49 34 -66 34 -61 35 -47 34 -39 34 -38 
34 -38 34 -38 34 -39 292 1228 52 MP stroke
c11
35 -11 34 5 34 16 34 18 34 12 35 -1 34 -16 34 -26 
34 -28 34 -23 34 -12 35 1 34 12 34 17 34 20 34 20 
34 23 35 30 34 40 34 46 34 43 34 24 35 -1 34 -26 
34 -35 34 -28 34 -9 34 11 35 18 34 9 34 -12 34 -35 
34 -52 34 -57 35 -51 34 -35 34 -17 34 3 34 18 35 28 
34 33 34 34 34 34 34 31 34 27 35 25 34 18 34 13 
34 3 34 -5 34 -14 292 849 52 MP stroke
c12
35 -31 34 -29 34 -18 34 -5 34 6 35 8 34 2 34 -8 
34 -17 34 -21 34 -18 35 -10 34 0 34 9 34 13 34 13 
34 9 35 9 34 12 34 22 34 30 34 34 35 29 34 17 
34 6 34 -5 34 -10 34 -15 35 -19 34 -27 34 -35 34 -41 
34 -40 34 -32 35 -18 34 -3 34 11 34 14 34 9 35 1 
34 -5 34 -3 34 5 34 14 34 16 35 9 34 -1 34 -12 
34 -17 34 -14 34 -7 292 1009 52 MP stroke
c13
35 28 34 27 34 28 34 23 34 10 35 -11 34 -25 34 -24 
34 -11 34 5 34 13 35 7 34 -9 34 -24 34 -25 34 -11 
34 9 35 22 34 20 34 6 34 -7 34 -12 35 -6 34 7 
34 17 34 20 34 20 34 17 35 18 34 15 34 8 34 -3 
34 -14 34 -17 35 -6 34 10 34 22 34 16 34 -5 35 -30 
34 -43 34 -40 34 -21 34 -2 34 5 35 2 34 -5 34 -10 
34 -4 34 4 34 13 292 976 52 MP stroke
0.25 sg
35 -10 34 6 34 19 34 22 34 14 35 -2 34 -16 34 -23 
34 -19 34 -7 34 7 35 18 34 20 34 14 34 3 34 -4 
34 -6 35 1 34 12 34 15 34 9 34 -7 35 -20 34 -21 
34 -9 34 11 34 24 34 24 35 10 34 -14 34 -32 34 -39 
34 -30 34 -7 35 15 34 28 34 22 34 2 34 -15 35 -20 
34 -7 34 13 34 26 34 20 34 3 35 -15 34 -21 34 -14 
34 1 34 12 34 16 292 931 52 MP stroke
c8
35 8 34 9 34 15 34 26 34 36 35 33 34 18 34 -4 
34 -22 34 -31 34 -29 35 -17 34 -2 34 9 34 15 34 15 
34 13 35 11 34 14 34 17 34 18 34 14 35 5 34 -3 
34 -8 34 -8 34 -6 34 -5 35 -12 34 -28 34 -40 34 -37 
34 -13 34 19 35 38 34 32 34 9 34 -12 34 -16 35 -7 
34 6 34 7 34 1 34 -9 34 -12 35 -12 34 -13 34 -19 
34 -33 34 -44 34 -49 292 1116 52 MP stroke
c9
35 -38 34 -39 34 -38 34 -38 34 -38 35 -38 34 -37 34 -23 
34 3 34 29 34 43 35 39 34 23 34 -1 34 -20 34 -29 
34 -26 35 -17 34 -5 34 4 34 8 34 7 35 3 34 3 
34 9 34 19 34 29 34 33 35 30 34 19 34 7 34 -6 
34 -17 34 -25 35 -31 34 -33 34 -33 34 -28 34 -21 35 -14 
34 -9 34 -9 34 -12 34 -14 34 -14 35 -12 34 -5 34 2 
34 9 34 10 34 8 292 1018 52 MP stroke
c10
35 12 34 12 34 11 34 12 34 12 35 11 34 12 34 10 
34 -1 34 -16 34 -22 35 -10 34 10 34 23 34 14 34 -17 
34 -48 35 -57 34 -36 34 3 34 37 34 48 35 38 34 18 
34 0 34 -10 34 -13 34 -9 35 -6 34 -2 34 -1 34 -1 
34 -1 34 -1 35 0 34 0 34 0 34 -3 34 -9 35 -15 
34 -17 34 -13 34 -4 34 9 34 20 35 25 34 21 34 11 
34 0 34 -6 34 -3 292 919 52 MP stroke
c11
35 58 34 59 34 56 34 39 34 5 35 -24 34 -30 34 -18 
34 -6 34 -9 34 -26 35 -40 34 -37 34 -17 34 5 34 15 
34 20 35 23 34 31 34 36 34 29 34 17 35 10 34 11 
34 17 34 12 34 -3 34 -21 35 -26 34 -24 34 -20 34 -29 
34 -40 34 -42 35 -30 34 -9 34 5 34 8 34 7 35 8 
34 5 34 -13 34 -46 34 -83 34 -95 35 -73 34 -26 34 12 
34 24 34 23 34 24 292 1226 52 MP stroke
c12
35 -5 34 -5 34 -2 34 4 34 9 35 11 34 10 34 5 
34 0 34 -3 34 -2 35 1 34 5 34 7 34 6 34 2 
34 -6 35 -14 34 -20 34 -22 34 -21 34 -18 35 -16 34 -15 
34 -15 34 -14 34 -10 34 -5 35 -2 34 -4 34 -8 34 -16 
34 -18 34 -16 35 -11 34 -9 34 -12 34 -21 34 -31 35 -35 
34 -28 34 -14 34 2 34 10 34 10 35 0 34 -12 34 -19 
34 -22 34 -21 34 -21 292 1267 52 MP stroke
c13
35 30 34 24 34 8 34 -8 34 -17 35 -15 34 -10 34 -5 
34 -7 34 -12 34 -16 35 -13 34 -3 34 9 34 22 34 34 
34 43 35 44 34 35 34 12 34 -17 34 -36 35 -37 34 -19 
34 2 34 16 34 16 34 5 35 -6 34 -12 34 -9 34 -4 
34 1 34 3 35 -1 34 -10 34 -19 34 -22 34 -16 35 -1 
34 18 34 27 34 21 34 -1 34 -23 35 -29 34 -11 34 22 
34 50 34 61 34 60 292 793 52 MP stroke
0.25 sg
35 -41 34 -42 34 -41 34 -41 34 -35 35 -16 34 10 34 29 
34 30 34 17 34 -6 35 -24 34 -34 34 -31 34 -19 34 -1 
34 14 35 24 34 28 34 24 34 19 34 14 35 14 34 15 
34 17 34 17 34 11 34 -1 35 -12 34 -21 34 -23 34 -23 
34 -24 34 -27 35 -27 34 -20 34 -4 34 9 34 11 35 -2 
34 -19 34 -27 34 -18 34 4 34 21 35 25 34 14 34 -5 
34 -19 34 -25 34 -21 292 1030 52 MP stroke
c8
35 -1 34 -4 34 -8 34 -13 34 -14 35 -11 34 -2 34 8 
34 16 34 17 34 12 35 3 34 -7 34 -13 34 -14 34 -11 
34 -3 35 5 34 13 34 19 34 20 34 19 35 13 34 8 
34 2 34 0 34 3 34 8 35 10 34 6 34 -5 34 -18 
34 -29 34 -32 35 -24 34 -10 34 6 34 17 34 21 35 15 
34 2 34 -14 34 -26 34 -31 34 -29 35 -20 34 -9 34 -1 
34 3 34 0 34 -5 292 1028 52 MP stroke
c9
35 -42 34 -42 34 -43 34 -42 34 -42 35 -41 34 -29 34 -5 
34 21 34 37 34 33 35 14 34 -11 34 -33 34 -43 34 -38 
34 -28 35 -15 34 -9 34 -5 34 -4 34 -1 35 7 34 17 
34 27 34 34 34 38 34 37 35 35 34 31 34 25 34 17 
34 8 34 -2 35 -9 34 -16 34 -20 34 -23 34 -27 35 -28 
34 -28 34 -24 34 -17 34 -9 34 -8 35 -11 34 -22 34 -32 
34 -38 34 -34 34 -24 292 1095 52 MP stroke
c10
35 54 34 41 34 11 34 -19 34 -38 35 -40 34 -36 34 -32 
34 -35 34 -45 34 -54 35 -55 34 -47 34 -34 34 -17 34 -1 
34 9 35 17 34 22 34 29 34 38 34 48 35 57 34 60 
34 56 34 43 34 28 34 14 35 7 34 6 34 5 34 -7 
34 -27 34 -55 35 -80 34 -94 34 -93 34 -79 34 -58 35 -42 
34 -35 34 -31 34 -21 34 2 34 35 35 61 34 63 34 35 
34 -7 34 -41 34 -52 292 1182 52 MP stroke
c11
35 -15 34 -18 34 -29 34 -44 34 -51 35 -46 34 -32 34 -13 
34 0 34 4 34 -6 35 -20 34 -34 34 -36 34 -28 34 -10 
34 14 35 33 34 44 34 42 34 29 34 15 35 4 34 6 
34 15 34 28 34 39 34 42 35 35 34 21 34 2 34 -18 
34 -32 34 -42 35 -46 34 -49 34 -51 34 -49 34 -42 35 -27 
34 -8 34 5 34 9 34 1 34 -13 35 -22 34 -21 34 -10 
34 6 34 22 34 30 292 1061 52 MP stroke
c12
35 -17 34 -25 34 -31 34 -29 34 -16 35 3 34 19 34 25 
34 21 34 13 34 7 35 5 34 6 34 3 34 1 34 3 
34 9 35 15 34 15 34 9 34 2 34 1 35 5 34 7 
34 -1 34 -16 34 -24 34 -19 35 -5 34 2 34 -8 34 -28 
34 -37 34 -23 35 4 34 23 34 19 34 2 34 -8 35 3 
34 31 34 59 34 71 34 64 34 50 35 43 34 43 34 43 
34 44 34 43 34 43 292 458 52 MP stroke
c13
35 -36 34 -34 34 -26 34 -5 34 17 35 34 34 37 34 27 
34 9 34 -8 34 -20 35 -24 34 -22 34 -16 34 -9 34 -4 
34 2 35 10 34 22 34 36 34 50 34 56 35 49 34 29 
34 -4 34 -35 34 -53 34 -48 35 -27 34 0 34 21 34 24 
34 11 34 -10 35 -33 34 -46 34 -46 34 -32 34 -11 35 8 
34 17 34 14 34 5 34 -3 34 -4 35 2 34 13 34 22 
34 24 34 20 34 9 292 904 52 MP stroke
0.25 sg
35 35 34 35 34 36 34 35 34 35 35 35 34 36 34 35 
34 27 34 2 34 -24 35 -27 34 -10 34 6 34 2 34 -15 
34 -21 35 -12 34 7 34 14 34 8 34 -2 35 -4 34 -4 
34 -3 34 -5 34 -1 34 6 35 15 34 18 34 15 34 11 
34 6 34 2 35 0 34 -2 34 -3 34 -2 34 -3 35 -6 
34 -5 34 -2 34 1 34 -5 34 -20 35 -29 34 -21 34 7 
34 34 34 44 34 44 292 865 52 MP stroke
c8
35 -7 34 -6 34 0 34 10 34 20 35 24 34 22 34 9 
34 -10 34 -25 34 -25 35 -10 34 9 34 16 34 6 34 -12 
34 -21 35 -16 34 -5 34 2 34 3 34 3 35 7 34 14 
34 14 34 4 34 -12 34 -19 35 -11 34 5 34 19 34 23 
34 15 34 5 35 -3 34 -9 34 -12 34 -9 34 -2 35 12 
34 24 34 33 34 30 34 17 34 -3 35 -24 34 -43 34 -54 
34 -58 34 -58 34 -59 292 1126 52 MP stroke
c9
35 3 34 -12 34 -24 34 -29 34 -24 35 -13 34 -1 34 8 
34 10 34 6 34 0 35 -7 34 -13 34 -17 34 -19 34 -16 
34 -10 35 1 34 17 34 33 34 49 34 56 35 55 34 40 
34 16 34 -13 34 -37 34 -49 35 -46 34 -29 34 -5 34 14 
34 23 34 18 35 -4 34 -29 34 -50 34 -55 34 -46 35 -29 
34 -12 34 -4 34 -3 34 0 34 7 35 23 34 39 34 51 
34 50 34 38 34 22 292 875 52 MP stroke
c10
35 2 34 -8 34 -22 34 -30 34 -30 35 -19 34 -2 34 15 
34 24 34 25 34 20 35 18 34 23 34 31 34 36 34 32 
34 22 35 12 34 2 34 -10 34 -22 34 -35 35 -41 34 -35 
34 -22 34 -7 34 4 34 6 35 1 34 -7 34 -17 34 -24 
34 -26 34 -20 35 0 34 28 34 59 34 84 34 92 35 77 
34 33 34 -29 34 -91 34 -131 34 -139 35 -138 34 -139 34 -139 
27 -112 367 1603 50 MP stroke
c11
35 22 34 17 34 2 34 -20 34 -38 35 -52 34 -55 34 -49 
34 -38 34 -23 34 -12 35 -2 34 4 34 10 34 18 34 27 
34 31 35 28 34 15 34 2 34 -4 34 5 35 26 34 50 
34 62 34 58 34 38 34 8 35 -20 34 -41 34 -54 34 -56 
34 -55 34 -55 35 -57 34 -61 34 -64 34 -59 34 -48 35 -35 
34 -22 34 -13 34 -8 34 -1 34 8 35 16 34 16 34 7 
34 -17 34 -46 34 -69 292 1336 52 MP stroke
c12
35 14 34 13 34 5 34 -9 34 -24 35 -32 34 -31 34 -27 
34 -23 34 -17 34 -9 35 5 34 18 34 26 34 24 34 16 
34 6 35 1 34 -1 34 0 34 3 34 9 35 15 34 16 
34 7 34 -8 34 -22 34 -22 35 -9 34 1 34 -3 34 -21 
34 -36 34 -33 35 -16 34 1 34 8 34 9 34 14 35 23 
34 28 34 20 34 1 34 -14 34 -9 35 17 34 49 34 66 
34 69 34 68 34 68 292 621 52 MP stroke
c13
35 47 34 47 34 47 34 48 34 47 35 47 34 44 34 20 
34 -21 34 -50 34 -47 35 -18 34 17 34 36 34 34 34 20 
34 2 35 -13 34 -24 34 -31 34 -27 34 -11 35 9 34 23 
34 23 34 15 34 10 34 17 35 28 34 36 34 31 34 13 
34 -9 34 -22 35 -23 34 -9 34 6 34 10 34 3 35 -7 
34 -13 34 -9 34 -7 34 -8 34 -10 35 -4 34 11 34 33 
34 47 34 53 34 47 292 756 52 MP stroke
0.25 sg
35 25 34 24 34 22 34 6 34 -17 35 -35 34 -38 34 -31 
34 -21 34 -15 34 -15 35 -14 34 -8 34 4 34 12 34 12 
34 3 35 -1 34 3 34 12 34 21 34 22 35 16 34 12 
34 13 34 16 34 16 34 12 35 6 34 4 34 5 34 2 
34 -11 34 -31 35 -48 34 -54 34 -49 34 -38 34 -30 35 -23 
34 -14 34 0 34 13 34 14 34 3 35 -15 34 -29 34 -27 
34 -11 34 7 34 15 292 1114 52 MP stroke
c8
35 8 34 6 34 4 34 1 34 -3 35 -13 34 -19 34 -23 
34 -16 34 -7 34 4 35 10 34 8 34 6 34 1 34 -3 
34 -3 35 -4 34 -1 34 5 34 11 34 16 35 17 34 15 
34 14 34 14 34 12 34 5 35 -10 34 -27 34 -35 34 -29 
34 -12 34 1 35 5 34 0 34 -8 34 -9 34 -7 35 -5 
34 -10 34 -16 34 -15 34 -2 34 24 35 47 34 59 34 59 
34 60 34 59 34 60 292 657 52 MP stroke
c9
35 -33 34 -32 34 -24 34 -4 34 20 35 35 34 34 34 22 
34 7 34 -3 34 -5 35 1 34 9 34 14 34 12 34 3 
34 -7 35 -12 34 -7 34 5 34 16 34 23 35 21 34 13 
34 2 34 -12 34 -25 34 -33 35 -35 34 -24 34 -6 34 12 
34 22 34 20 35 8 34 -5 34 -18 34 -27 34 -32 35 -34 
34 -32 34 -22 34 -6 34 10 34 25 35 33 34 32 34 23 
34 10 34 -5 34 -15 292 957 52 MP stroke
c10
35 -35 34 -35 34 -35 34 -35 34 -35 35 -32 34 -17 34 4 
34 25 34 37 34 35 35 23 34 4 34 -15 34 -23 34 -17 
34 1 35 17 34 21 34 10 34 -5 34 -11 35 0 34 16 
34 22 34 9 34 -13 34 -27 35 -19 34 0 34 17 34 19 
34 5 34 -11 35 -19 34 -16 34 -8 34 -2 34 1 35 2 
34 3 34 5 34 2 34 -9 34 -21 35 -30 34 -28 34 -17 
34 -3 34 7 34 9 292 1014 52 MP stroke
c11
35 -12 34 -4 34 5 34 11 34 15 35 13 34 8 34 -3 
34 -13 34 -23 34 -25 35 -23 34 -17 34 -11 34 -9 34 -10 
34 -11 35 -8 34 4 34 22 34 41 34 53 35 57 34 55 
34 49 34 44 34 38 34 32 35 19 34 6 34 -9 34 -17 
34 -13 34 -2 35 7 34 12 34 6 34 -4 34 -13 35 -16 
34 -11 34 -3 34 0 34 -2 34 -8 35 -14 34 -15 34 -13 
34 -9 34 -7 34 -10 292 887 52 MP stroke
c12
35 34 34 35 34 34 34 34 34 32 35 19 34 -10 34 -32 
34 -34 34 -19 34 -3 35 3 34 -3 34 -8 34 -1 34 14 
34 22 35 18 34 5 34 -1 34 4 34 14 35 14 34 8 
34 3 34 7 34 15 34 15 35 4 34 -12 34 -14 34 1 
34 16 34 17 35 3 34 -9 34 -10 34 -1 34 6 35 3 
34 -4 34 -2 34 8 34 15 34 8 35 -13 34 -32 34 -35 
34 -20 34 3 34 15 292 942 52 MP stroke
c13
35 -3 34 4 34 0 34 -11 34 -26 35 -32 34 -26 34 -11 
34 6 34 16 34 16 35 11 34 5 34 6 34 13 34 23 
34 32 35 36 34 31 34 23 34 15 34 12 35 15 34 13 
34 1 34 -20 34 -47 34 -64 35 -64 34 -51 34 -29 34 -13 
34 -2 34 2 35 2 34 -2 34 -6 34 -13 34 -14 35 -6 
34 13 34 37 34 50 34 44 34 20 35 -11 34 -33 34 -35 
34 -18 34 3 34 15 292 985 52 MP stroke
0.25 sg
35 44 34 44 34 44 34 43 34 44 35 42 34 18 34 -33 
34 -73 34 -77 34 -46 35 -9 34 8 34 0 34 -13 34 -13 
34 3 35 22 34 29 34 29 34 30 34 33 35 32 34 17 
34 -4 34 -17 34 -15 34 -6 35 -4 34 -13 34 -29 34 -37 
34 -37 34 -36 35 -40 34 -45 34 -39 34 -22 34 -1 35 10 
34 12 34 9 34 8 34 6 34 -9 35 -34 34 -56 34 -57 
34 -29 34 15 34 46 292 1172 52 MP stroke
c8
35 -65 34 -65 34 -64 34 -53 34 -25 35 9 34 32 34 38 
34 26 34 0 34 -29 35 -54 34 -71 34 -71 34 -58 34 -32 
34 1 35 31 34 51 34 56 34 47 34 33 35 21 34 17 
34 20 34 29 34 34 34 31 35 22 34 8 34 -8 34 -16 
34 -18 34 -22 35 -28 34 -40 34 -55 34 -64 34 -66 35 -63 
34 -57 34 -51 34 -38 34 -16 34 15 35 39 34 47 34 33 
34 4 34 -25 34 -37 292 1151 52 MP stroke
c9
35 -2 34 8 34 14 34 13 34 6 35 -6 34 -17 34 -23 
34 -22 34 -15 34 -2 35 9 34 13 34 12 34 6 34 -1 
34 -3 35 2 34 10 34 19 34 23 34 18 35 8 34 -1 
34 -9 34 -13 34 -16 34 -17 35 -12 34 -2 34 8 34 12 
34 1 34 -18 35 -34 34 -36 34 -23 34 -4 34 9 35 11 
34 9 34 12 34 16 34 18 34 10 35 -9 34 -33 34 -49 
34 -53 34 -52 34 -53 292 1182 52 MP stroke
c10
35 -36 34 -55 34 -44 34 -16 34 4 35 3 34 -8 34 -14 
34 -9 34 -2 34 1 35 -1 34 -1 34 5 34 15 34 22 
34 23 35 19 34 12 34 9 34 8 34 11 35 14 34 17 
34 14 34 6 34 -5 34 -12 35 -16 34 -21 34 -26 34 -28 
34 -7 34 39 35 86 34 85 34 16 34 -93 34 -170 35 -168 
34 -97 34 -26 34 -5 34 -5 34 -5 35 -5 34 -5 34 -5 
34 -5 34 -5 34 -5 292 1319 52 MP stroke
c11
35 -36 34 -35 34 -32 34 -16 34 3 35 20 34 24 34 14 
34 0 34 -16 34 -24 35 -21 34 -13 34 -2 34 6 34 8 
34 2 35 -5 34 -3 34 11 34 32 34 51 35 52 34 33 
34 4 34 -18 34 -21 34 -7 35 10 34 17 34 8 34 -10 
34 -27 34 -37 35 -38 34 -35 34 -31 34 -25 34 -18 35 -6 
34 5 34 11 34 12 34 6 34 2 35 3 34 6 34 9 
34 6 34 -4 34 -16 292 985 52 MP stroke
c12
35 -2 34 -5 34 -9 34 -18 34 -24 35 -28 34 -24 34 -11 
34 3 34 13 34 15 35 10 34 1 34 -7 34 -8 34 -4 
34 6 35 15 34 19 34 17 34 9 34 2 35 -1 34 2 
34 11 34 19 34 22 34 17 35 4 34 -13 34 -27 34 -31 
34 -24 34 -11 35 0 34 4 34 1 34 -9 34 -17 35 -22 
34 -24 34 -20 34 -13 34 -2 34 10 35 25 34 37 34 46 
34 49 34 49 34 49 292 780 52 MP stroke
c13
35 -48 34 -35 34 -19 34 -6 34 3 35 6 34 7 34 9 
34 12 34 19 34 30 35 40 34 47 34 49 34 49 34 51 
34 58 35 63 34 57 34 41 34 17 34 0 35 -6 34 1 
34 4 34 -3 34 -24 34 -48 35 -67 34 -76 34 -73 34 -65 
34 -55 34 -46 35 -35 34 -21 34 -6 34 11 34 24 35 31 
34 28 34 19 34 2 34 -13 34 -28 35 -39 34 -49 34 -60 
34 -68 34 -74 34 -77 292 1372 52 MP stroke
0.25 sg
35 46 34 46 34 46 34 45 34 33 35 4 34 -28 34 -38 
34 -26 34 -3 34 11 35 7 34 -9 34 -18 34 -13 34 3 
34 16 35 16 34 8 34 -1 34 -3 34 -2 35 1 34 2 
34 6 34 12 34 19 34 13 35 -2 34 -20 34 -23 34 -4 
34 21 34 29 35 8 34 -27 34 -48 34 -42 34 -18 35 0 
34 -1 34 -16 34 -25 34 -21 34 -10 35 -3 34 -5 34 -12 
34 -13 34 -2 34 15 292 1070 52 MP stroke
c8
35 21 34 14 34 1 34 -11 34 -10 35 0 34 9 34 4 
34 -11 34 -27 34 -29 35 -16 34 1 34 6 34 -2 34 -14 
34 -19 35 -13 34 -1 34 12 34 17 34 16 35 12 34 7 
34 5 34 7 34 12 34 17 35 17 34 10 34 -1 34 -11 
34 -12 34 -3 35 6 34 4 34 -8 34 -22 34 -22 35 -7 
34 18 34 42 34 53 34 50 34 31 35 5 34 -18 34 -30 
34 -30 34 -30 34 -30 292 916 52 MP stroke
c9
35 -11 34 -7 34 -3 34 1 34 1 35 0 34 0 34 0 
34 3 34 7 34 11 35 12 34 12 34 9 34 5 34 1 
34 -1 35 -1 34 -3 34 -8 34 -13 34 -14 35 -11 34 -3 
34 2 34 -1 34 -16 34 -33 35 -41 34 -35 34 -14 34 6 
34 15 34 5 35 -13 34 -26 34 -21 34 1 34 28 35 44 
34 39 34 15 34 -12 34 -30 34 -32 35 -33 34 -32 34 -32 
34 -33 34 -32 34 -33 292 1231 52 MP stroke
c10
35 -19 34 -19 34 -19 34 -19 34 -18 35 -7 34 21 34 51 
34 65 34 54 34 27 35 -7 34 -31 34 -38 34 -28 34 -6 
34 9 35 13 34 6 34 8 34 23 34 46 35 51 34 28 
34 -14 34 -43 34 -43 34 -19 35 4 34 9 34 -1 34 -11 
34 -13 34 -7 35 -3 34 -2 34 0 34 9 34 18 35 17 
34 5 34 -7 34 -5 34 16 34 41 35 47 34 25 34 -10 
34 -32 34 -29 34 -2 292 877 52 MP stroke
c11
35 1 34 -11 34 -20 34 -27 34 -27 35 -25 34 -22 34 -22 
34 -24 34 -28 34 -27 35 -23 34 -14 34 -2 34 9 34 16 
34 15 35 10 34 3 34 0 34 2 34 14 35 29 34 44 
34 51 34 51 34 41 34 28 35 16 34 9 34 6 34 5 
34 -1 34 -16 35 -36 34 -55 34 -61 34 -52 34 -33 35 -14 
34 -4 34 -7 34 -15 34 -24 34 -27 35 -27 34 -25 34 -21 
34 -18 34 -14 34 -7 292 1158 52 MP stroke
c12
35 -10 34 -11 34 -11 34 -7 34 1 35 13 34 21 34 23 
34 18 34 5 34 -11 35 -25 34 -33 34 -33 34 -23 34 -5 
34 11 35 23 34 24 34 17 34 8 34 2 35 2 34 7 
34 14 34 20 34 23 34 22 35 15 34 4 34 -7 34 -18 
34 -26 34 -27 35 -24 34 -15 34 -3 34 8 34 15 35 15 
34 8 34 -4 34 -16 34 -25 34 -24 35 -16 34 -6 34 3 
34 7 34 7 34 6 292 969 52 MP stroke
c13
35 -32 34 -31 34 -31 34 -32 34 -31 35 -31 34 -27 34 -6 
34 18 34 22 34 2 35 -25 34 -37 34 -25 34 2 34 22 
34 29 35 24 34 14 34 5 34 -4 34 -11 35 -11 34 -3 
34 7 34 12 34 8 34 2 35 -4 34 -3 34 -4 34 -7 
34 -12 34 -12 35 -9 34 0 34 6 34 6 34 -1 35 -8 
34 -4 34 16 34 37 34 43 34 24 35 -6 34 -23 34 -17 
34 4 34 17 34 20 292 857 52 MP stroke
0.25 sg
35 -6 34 -6 34 -3 34 1 34 -1 35 -13 34 -31 34 -47 
34 -49 34 -30 34 0 35 27 34 39 34 35 34 25 34 18 
34 19 35 17 34 10 34 -4 34 -15 34 -15 35 -3 34 12 
34 19 34 14 34 1 34 -12 35 -20 34 -23 34 -22 34 -19 
34 -9 34 8 35 24 34 32 34 22 34 -3 34 -28 35 -38 
34 -27 34 -6 34 9 34 14 34 9 35 6 34 12 34 23 
34 31 34 26 34 9 292 856 52 MP stroke
c8
35 39 34 19 34 -12 34 -38 34 -43 35 -30 34 -10 34 6 
34 10 34 6 34 -1 35 -5 34 -7 34 -5 34 7 34 27 
34 53 35 67 34 60 34 34 34 10 34 0 35 8 34 17 
34 11 34 -6 34 -18 34 -10 35 13 34 38 34 49 34 46 
34 34 34 18 35 7 34 -3 34 -6 34 -3 34 4 35 4 
34 -11 34 -44 34 -82 34 -105 34 -103 35 -77 34 -49 34 -35 
34 -35 34 -36 34 -35 292 1286 52 MP stroke
c9
35 -28 34 -27 34 -24 34 -16 34 -2 35 11 34 19 34 19 
34 15 34 12 34 19 35 32 34 48 34 60 34 61 34 49 
34 21 35 -15 34 -52 34 -83 34 -98 34 -96 35 -77 34 -50 
34 -22 34 -6 34 -2 34 -7 35 -14 34 -11 34 1 34 10 
34 3 34 -19 35 -42 34 -47 34 -25 34 13 34 48 35 75 
34 92 34 111 34 136 34 164 34 183 35 189 24 132 438 135 48 MP stroke
c10
35 21 34 22 34 18 34 4 34 -22 35 -36 34 -31 34 -11 
34 6 34 6 34 -6 35 -16 34 -17 34 -11 34 -7 34 -8 
34 -6 35 5 34 24 34 35 34 31 34 17 35 4 34 0 
34 3 34 7 34 9 34 7 35 2 34 -5 34 -12 34 -16 
34 -14 34 -6 35 0 34 -9 34 -35 34 -58 34 -63 35 -42 
34 -14 34 0 34 -3 34 -11 34 -4 35 20 34 48 34 62 
34 63 34 62 34 63 292 808 52 MP stroke
c11
35 13 34 12 34 7 34 -5 34 -18 35 -32 34 -41 34 -42 
34 -41 34 -38 34 -38 35 -35 34 -27 34 -11 34 10 34 27 
34 34 35 30 34 25 34 21 34 25 34 32 35 38 34 38 
34 29 34 18 34 5 34 -3 35 -7 34 -4 34 -3 34 -6 
34 -16 34 -30 35 -44 34 -53 34 -55 34 -52 34 -45 35 -38 
34 -34 34 -32 34 -28 34 -18 34 2 35 25 34 42 34 44 
34 30 34 6 34 -16 292 1077 52 MP stroke
c12
35 2 34 10 34 15 34 11 34 3 35 -7 34 -13 34 -12 
34 -4 34 3 34 7 35 -1 34 -16 34 -34 34 -46 34 -48 
34 -40 35 -23 34 -3 34 15 34 29 34 35 35 34 34 27 
34 17 34 6 34 0 34 -1 35 2 34 4 34 7 34 11 
34 26 34 56 35 99 34 134 34 140 34 99 34 15 35 -88 
34 -168 34 -197 34 -199 34 -199 34 -199 26 -152 471 1603 47 MP stroke
c13
35 6 34 -2 34 -2 34 2 34 9 35 12 34 12 34 8 
34 0 34 -10 34 -17 35 -17 34 -10 34 1 34 4 34 -4 
34 -16 35 -23 34 -18 34 -4 34 6 34 7 35 4 34 1 
34 2 34 6 34 6 34 4 35 5 34 7 34 12 34 12 
34 14 34 27 35 55 34 90 34 105 34 76 34 4 35 -79 
34 -129 34 -137 34 -136 34 -137 34 -137 35 -136 32 -130 430 1603 48 MP stroke
0.25 sg
35 -9 34 -14 34 -19 34 -20 34 -18 35 -10 34 0 34 10 
34 17 34 17 34 11 35 2 34 -8 34 -12 34 -11 34 -3 
34 10 35 23 34 33 34 39 34 37 34 28 35 14 34 -1 
34 -13 34 -23 34 -25 34 -20 35 -9 34 3 34 12 34 17 
34 10 34 -5 35 -29 34 -54 34 -70 34 -73 34 -58 35 -28 
34 3 34 27 34 37 34 31 34 19 35 6 34 -3 34 -5 
34 0 34 4 34 10 292 1016 52 MP stroke
c8
35 -2 34 9 34 7 34 -4 34 -14 35 -15 34 -7 34 6 
34 19 34 24 34 18 35 5 34 -11 34 -19 34 -19 34 -8 
34 9 35 21 34 23 34 18 34 9 34 5 35 3 34 3 
34 2 34 -2 34 -8 34 -16 35 -21 34 -21 34 -18 34 -13 
34 -13 34 -19 35 -34 34 -50 34 -61 34 -58 34 -37 35 1 
34 48 34 94 34 119 34 126 34 125 35 126 34 125 34 126 
34 125 17 63 343 135 51 MP stroke
c9
35 20 34 30 34 31 34 25 34 12 35 -4 34 -18 34 -30 
34 -33 34 -29 34 -20 35 -7 34 5 34 15 34 27 34 43 
34 63 35 79 34 85 34 70 34 36 34 -7 35 -45 34 -65 
34 -65 34 -51 34 -34 34 -26 35 -25 34 -32 34 -41 34 -46 
34 -47 34 -43 35 -34 34 -18 34 3 34 29 34 52 35 64 
34 57 34 35 34 5 34 -18 34 -25 35 -14 34 6 34 24 
34 30 34 23 34 12 292 906 52 MP stroke
c10
35 17 34 17 34 13 34 4 34 -5 35 -14 34 -21 34 -22 
34 -17 34 -8 34 1 35 6 34 5 34 -1 34 -5 34 -4 
34 1 35 4 34 4 34 1 34 2 34 10 35 20 34 28 
34 27 34 18 34 4 34 -4 35 -8 34 -5 34 0 34 2 
34 -3 34 -13 35 -25 34 -31 34 -28 34 -18 34 -6 35 -1 
34 -1 34 -2 34 1 34 9 34 15 35 18 34 12 34 1 
34 -9 34 -14 34 -15 292 974 52 MP stroke
c11
35 25 34 24 34 25 34 20 34 -1 35 -32 34 -53 34 -51 
34 -29 34 -4 34 5 35 -5 34 -23 34 -31 34 -22 34 -1 
34 15 35 16 34 11 34 11 34 22 34 40 35 55 34 57 
34 47 34 34 34 24 34 12 35 -4 34 -19 34 -30 34 -23 
34 -3 34 14 35 15 34 -3 34 -26 34 -32 34 -14 35 17 
34 37 34 38 34 23 34 10 34 6 35 13 34 18 34 18 
34 12 34 10 34 16 292 740 52 MP stroke
c12
35 -22 34 -22 34 -23 34 -21 34 -14 35 -4 34 11 34 23 
34 29 34 26 34 12 35 -9 34 -27 34 -30 34 -18 34 3 
34 19 35 20 34 6 34 -10 34 -18 34 -15 35 -4 34 7 
34 12 34 15 34 13 34 12 35 9 34 7 34 4 34 4 
34 11 34 22 35 26 34 17 34 -5 34 -29 34 -42 35 -36 
34 -17 34 2 34 7 34 3 34 -7 35 -11 34 -5 34 4 
34 8 34 6 34 0 292 946 52 MP stroke
c13
35 -53 34 -53 34 -48 34 -25 34 5 35 17 34 7 34 -14 
34 -22 34 -13 34 9 35 23 34 23 34 17 34 13 34 12 
34 12 35 8 34 6 34 9 34 13 34 13 35 7 34 -6 
34 -16 34 -21 34 -16 34 -9 35 -4 34 -7 34 -18 34 -26 
34 -25 34 -15 35 2 34 10 34 3 34 -21 34 -44 35 -42 
34 -7 34 42 34 73 34 62 34 22 35 -11 34 -19 34 -19 
34 -18 34 -19 34 -19 292 996 52 MP stroke
0.25 sg
35 25 34 24 34 24 34 16 34 -10 35 -43 34 -62 34 -59 
34 -38 34 -17 34 -9 35 -17 34 -27 34 -29 34 -21 34 -6 
34 3 35 8 34 14 34 27 34 44 34 56 35 55 34 45 
34 34 34 30 34 28 34 17 35 -2 34 -25 34 -36 34 -27 
34 -7 34 11 35 15 34 6 34 -5 34 -12 34 -13 35 -16 
34 -18 34 -14 34 7 34 41 34 74 35 88 34 75 34 43 
34 10 34 -12 34 -16 292 666 52 MP stroke
c8
35 24 34 24 34 24 34 13 34 -12 35 -35 34 -41 34 -25 
34 0 34 19 34 20 35 5 34 -14 34 -28 34 -28 34 -20 
34 -8 35 2 34 5 34 6 34 7 34 10 35 19 34 30 
34 36 34 37 34 26 34 8 35 -6 34 -14 34 -8 34 6 
34 11 34 3 35 -17 34 -37 34 -45 34 -41 34 -32 35 -22 
34 -14 34 0 34 20 34 36 34 39 35 22 34 -3 34 -24 
34 -29 34 -18 34 0 292 998 52 MP stroke
c9
35 -14 34 -15 34 -12 34 -4 34 3 35 8 34 6 34 -1 
34 -8 34 -14 34 -15 35 -12 34 -9 34 -7 34 -4 34 1 
34 10 35 20 34 25 34 23 34 12 34 -1 35 -9 34 -9 
34 -3 34 6 34 12 34 12 35 7 34 0 34 -8 34 -9 
34 -5 34 0 35 3 34 0 34 -10 34 -20 34 -25 35 -23 
34 -14 34 -6 34 -2 34 1 34 1 35 3 34 7 34 8 
34 6 34 1 34 -5 292 970 52 MP stroke
c10
35 -10 34 -8 34 -8 34 -8 34 -12 35 -16 34 -22 34 -26 
34 -28 34 -28 34 -23 35 -14 34 -3 34 10 34 19 34 27 
34 28 35 23 34 16 34 9 34 4 34 7 35 18 34 29 
34 40 34 39 34 31 34 15 35 -1 34 -13 34 -20 34 -20 
34 -19 34 -17 35 -13 34 -11 34 -10 34 -12 34 -18 35 -25 
34 -35 34 -41 34 -40 34 -31 34 -20 35 -8 34 -1 34 2 
34 0 34 0 34 2 292 1083 52 MP stroke
c11
35 -47 34 -47 34 -46 34 -47 34 -42 35 -27 34 -6 34 13 
34 20 34 15 34 -2 35 -22 34 -37 34 -37 34 -18 34 11 
34 35 35 41 34 30 34 12 34 1 34 1 35 5 34 10 
34 12 34 14 34 16 34 14 35 5 34 -10 34 -29 34 -37 
34 -28 34 -9 35 9 34 16 34 6 34 -11 34 -28 35 -36 
34 -30 34 -14 34 2 34 8 34 2 35 -6 34 -9 34 1 
34 16 34 26 34 23 292 956 52 MP stroke
c12
35 47 34 34 34 6 34 -25 34 -42 35 -44 34 -38 34 -37 
34 -37 34 -29 34 -4 35 34 34 59 34 50 34 5 34 -49 
34 -79 35 -67 34 -28 34 18 34 51 34 65 35 62 34 49 
34 33 34 19 34 9 34 1 35 -4 34 -10 34 -17 34 -28 
34 -41 34 -55 35 -65 34 -71 34 -70 34 -64 34 -54 35 -38 
34 -15 34 15 34 49 34 74 34 73 35 35 34 -31 34 -100 
34 -136 34 -141 34 -141 292 1560 52 MP stroke
c13
35 -15 34 -5 34 0 34 -5 34 -19 35 -40 34 -56 34 -66 
34 -64 34 -53 34 -37 35 -19 34 1 34 19 34 34 34 44 
34 46 35 44 34 40 34 39 34 45 34 51 35 56 34 52 
34 40 34 20 34 0 34 -18 35 -31 34 -34 34 -32 34 -27 
34 -21 34 -24 35 -34 34 -52 34 -72 34 -82 34 -71 35 -42 
34 -6 34 20 34 26 34 14 34 1 35 -3 34 6 34 18 
34 19 34 3 34 -30 292 1088 52 MP stroke
0.25 sg
35 12 34 5 34 -6 34 -16 34 -22 35 -22 34 -18 34 -9 
34 1 34 8 34 16 35 20 34 21 34 17 34 14 34 13 
34 13 35 16 34 17 34 14 34 7 34 -3 35 -12 34 -19 
34 -20 34 -17 34 -11 34 -6 35 -5 34 -8 34 -16 34 -23 
34 -31 34 -35 35 -39 34 -41 34 -44 34 -49 34 -52 35 -52 
34 -44 34 -30 34 -10 34 8 34 23 35 33 34 38 34 39 
34 39 34 39 34 39 292 1054 52 MP stroke
c8
35 -25 34 -28 34 -28 34 -26 34 -17 35 -5 34 5 34 8 
34 2 34 -7 34 -15 35 -16 34 -6 34 7 34 19 34 23 
34 17 35 4 34 -11 34 -15 34 -4 34 14 35 31 34 37 
34 27 34 8 34 -10 34 -21 35 -26 34 -23 34 -19 34 -16 
34 -14 34 -13 35 -7 34 -1 34 4 34 3 34 -10 35 -26 
34 -38 34 -33 34 -9 34 22 34 44 35 49 34 38 34 19 
34 6 34 1 34 3 292 904 52 MP stroke
c9
35 -12 34 -12 34 -8 34 3 34 12 35 16 34 13 34 4 
34 -6 34 -11 34 -11 35 -6 34 0 34 7 34 11 34 14 
34 14 35 15 34 15 34 17 34 18 34 15 35 9 34 -1 
34 -14 34 -24 34 -25 34 -16 35 1 34 19 34 28 34 25 
34 11 34 -6 35 -21 34 -26 34 -23 34 -11 34 0 35 7 
34 6 34 1 34 1 34 9 34 29 35 52 34 68 34 73 
34 72 34 73 34 73 292 488 52 MP stroke
c10
35 -43 34 -29 34 -5 34 13 34 15 35 1 34 -13 34 -14 
34 -3 34 12 34 18 35 14 34 7 34 3 34 6 34 12 
34 15 35 17 34 16 34 14 34 6 34 -7 35 -23 34 -35 
34 -38 34 -32 34 -18 34 -5 35 2 34 0 34 -9 34 -13 
34 -9 34 7 35 24 34 35 34 33 34 14 34 -12 35 -39 
34 -52 34 -47 34 -29 34 -2 34 28 35 50 34 61 34 63 
34 63 34 63 34 62 292 685 52 MP stroke
c11
35 -4 34 -1 34 6 34 18 34 28 35 27 34 17 34 2 
34 -8 34 -7 34 2 35 12 34 14 34 5 34 -4 34 -8 
34 -3 35 1 34 -1 34 -14 34 -33 34 -44 35 -44 34 -35 
34 -26 34 -26 34 -31 34 -40 35 -42 34 -41 34 -40 34 -45 
34 -54 34 -60 35 -53 34 -31 34 3 34 41 34 73 35 94 
34 102 34 96 34 82 34 66 34 55 35 52 34 52 34 53 
34 52 34 52 34 52 292 498 52 MP stroke
c12
35 7 34 18 34 19 34 10 34 -6 35 -26 34 -41 34 -46 
34 -37 34 -17 34 8 35 32 34 45 34 45 34 37 34 27 
34 22 35 22 34 25 34 30 34 33 34 36 35 36 34 31 
34 19 34 4 34 -8 34 -13 35 -5 34 9 34 16 34 9 
34 -12 34 -38 35 -57 34 -65 34 -61 34 -51 34 -41 35 -33 
34 -28 34 -22 34 -18 34 -14 34 -12 35 -13 34 -19 34 -31 
34 -46 34 -59 34 -67 292 1336 52 MP stroke
c13
35 52 34 50 34 39 34 17 34 -7 35 -24 34 -28 34 -24 
34 -22 34 -23 34 -31 35 -38 34 -43 34 -39 34 -31 34 -22 
34 -15 35 -5 34 7 34 22 34 35 34 41 35 39 34 33 
34 28 34 30 34 36 34 38 35 35 34 26 34 17 34 9 
34 2 34 -10 35 -28 34 -48 34 -59 34 -55 34 -38 35 -21 
34 -17 34 -28 34 -43 34 -54 34 -49 35 -33 34 -10 34 10 
34 23 34 27 34 25 292 1102 52 MP stroke
0.25 sg
35 -10 34 -17 34 -21 34 -22 34 -24 35 -28 34 -31 34 -33 
34 -28 34 -20 34 -8 35 0 34 3 34 0 34 -4 34 -4 
34 0 35 9 34 18 34 28 34 34 34 40 35 42 34 39 
34 31 34 21 34 9 34 0 35 -1 34 1 34 -1 34 -8 
34 -25 34 -42 35 -53 34 -51 34 -41 34 -30 34 -28 35 -33 
34 -41 34 -42 34 -34 34 -16 34 5 35 21 34 31 34 31 
34 26 34 18 34 9 292 1048 52 MP stroke
c8
35 68 34 69 34 67 34 47 34 9 35 -24 34 -33 34 -22 
34 -9 34 -10 34 -22 35 -29 34 -22 34 -6 34 1 34 -5 
34 -15 35 -14 34 0 34 15 34 18 34 16 35 18 34 28 
34 38 34 38 34 25 34 8 35 -3 34 -10 34 -22 34 -38 
34 -44 34 -28 35 0 34 19 34 12 34 -7 34 -18 35 -11 
34 1 34 -7 34 -34 34 -57 34 -51 35 -8 34 43 34 69 
34 71 34 72 34 71 292 790 52 MP stroke
c9
25 59 34 80 34 81 34 80 34 81 35 80 34 80 34 79 
34 66 34 37 34 4 35 -21 34 -33 34 -32 34 -21 34 -4 
34 13 35 24 34 23 34 11 34 -6 34 -21 35 -21 34 -13 
34 -3 34 -2 34 -7 34 -8 35 1 34 13 34 17 34 12 
34 4 34 2 35 6 34 7 34 -3 34 -16 34 -18 35 -3 
34 21 34 37 34 36 34 20 34 3 35 -9 34 -8 34 4 
34 15 34 20 34 12 292 824 52 MP stroke
c10
35 -19 34 -17 34 -11 34 -5 34 0 35 0 34 -1 34 -4 
34 -4 34 -2 34 5 35 13 34 17 34 18 34 15 34 10 
34 7 35 7 34 10 34 12 34 14 34 9 35 1 34 -11 
34 -20 34 -24 34 -22 34 -18 35 -17 34 -20 34 -27 34 -29 
34 -19 34 3 35 31 34 58 34 71 34 70 34 52 35 23 
34 -11 34 -44 34 -66 34 -75 34 -75 35 -75 34 -75 34 -75 
34 -76 34 -75 34 -75 292 1482 52 MP stroke
c11
35 22 34 16 34 -2 34 -24 34 -45 35 -59 34 -63 34 -59 
34 -51 34 -37 34 -19 35 1 34 20 34 31 34 28 34 17 
34 2 35 -4 34 1 34 14 34 27 34 36 35 42 34 47 
34 53 34 52 34 42 34 22 35 -4 34 -23 34 -33 34 -36 
34 -38 34 -44 35 -49 34 -46 34 -31 34 -17 34 -17 35 -35 
34 -60 34 -71 34 -52 34 -14 34 24 35 38 34 25 34 -2 
34 -20 34 -20 34 -2 292 1168 52 MP stroke
c12
35 10 34 10 34 8 34 5 34 6 35 11 34 14 34 14 
34 8 34 -2 34 -10 35 -13 34 -8 34 3 34 13 34 20 
34 16 35 3 34 -14 34 -30 34 -38 34 -34 35 -19 34 3 
34 19 34 26 34 23 34 13 35 1 34 -8 34 -13 34 -18 
34 -19 34 -20 35 -16 34 -8 34 4 34 21 34 37 35 49 
34 53 34 46 34 27 34 0 34 -29 35 -52 34 -61 34 -62 
34 -63 34 -62 34 -62 292 1176 52 MP stroke
c13
35 0 34 1 34 2 34 6 34 7 35 6 34 3 34 -1 
34 -2 34 -2 34 3 35 10 34 13 34 14 34 11 34 4 
34 2 35 3 34 8 34 16 34 19 34 17 35 9 34 -1 
34 -8 34 -8 34 -3 34 5 35 8 34 3 34 -6 34 -20 
34 -27 34 -29 35 -22 34 -13 34 -7 34 -6 34 -12 35 -20 
34 -27 34 -26 34 -21 34 -13 34 -6 35 -2 34 -2 34 -6 
34 -10 34 -11 34 -9 292 1098 52 MP stroke
0.25 sg
35 25 34 7 34 -11 34 -25 34 -33 35 -36 34 -35 34 -36 
34 -37 34 -40 34 -43 35 -43 34 -37 34 -27 34 -12 34 3 
34 17 35 26 34 31 34 32 34 33 34 36 35 40 34 47 
34 51 34 49 34 39 34 21 35 1 34 -13 34 -16 34 -9 
34 -2 34 -3 35 -16 34 -39 34 -60 34 -74 34 -79 35 -78 
34 -76 34 -74 34 -68 34 -54 34 -34 35 -10 34 11 34 22 
34 24 34 19 34 13 292 1255 52 MP stroke
c8
35 -2 34 7 34 17 34 23 34 20 35 3 34 -18 34 -33 
34 -29 34 -10 34 10 35 15 34 7 34 -2 34 -1 34 11 
34 19 35 17 34 5 34 -5 34 -5 34 -1 35 5 34 4 
34 2 34 5 34 11 34 18 35 14 34 1 34 -17 34 -28 
34 -30 34 -26 35 -21 34 -19 34 -21 34 -27 34 -32 35 -28 
34 -17 34 2 34 23 34 46 34 62 35 71 34 74 34 74 
34 74 34 74 34 74 292 531 52 MP stroke
c9
35 -34 34 -42 34 -45 34 -43 34 -37 35 -29 34 -20 34 -15 
34 -9 34 -2 34 8 35 25 34 41 34 53 34 54 34 46 
34 32 35 21 34 13 34 7 34 5 34 3 35 -1 34 -7 
34 -13 34 -21 34 -31 34 -42 35 -55 34 -66 34 -66 34 -54 
34 -28 34 2 35 28 34 47 34 58 34 64 34 67 35 64 
34 52 34 31 34 2 34 -30 34 -61 35 -84 34 -99 34 -102 
34 -102 34 -102 34 -102 292 1439 52 MP stroke
c10
35 -4 34 -8 34 -15 34 -29 34 -45 35 -56 34 -56 34 -41 
34 -17 34 6 34 17 35 13 34 0 34 -12 34 -12 34 -3 
34 12 35 26 34 32 34 32 34 30 34 30 35 35 34 42 
34 48 34 49 34 39 34 20 35 -4 34 -25 34 -36 34 -37 
34 -36 34 -38 35 -48 34 -58 34 -63 34 -57 34 -42 35 -26 
34 -14 34 -11 34 -12 34 -14 34 -12 35 -10 34 -6 34 -6 
34 -5 34 -3 34 7 292 1180 52 MP stroke
c11
35 47 34 47 34 36 34 9 34 -16 35 -24 34 -15 34 -1 
34 -4 34 -23 34 -43 35 -45 34 -25 34 5 34 25 34 31 
34 28 35 24 34 21 34 13 34 0 34 -12 35 -17 34 -13 
34 -11 34 -16 34 -28 34 -33 35 -20 34 -2 34 6 34 -6 
34 -28 34 -42 35 -40 34 -29 34 -26 34 -32 34 -40 35 -41 
34 -34 34 -24 34 -21 34 -18 34 -7 35 20 34 56 34 87 
34 99 34 99 34 99 292 838 52 MP stroke
c12
35 25 34 24 34 19 34 2 34 -17 35 -25 34 -17 34 -2 
34 6 34 -1 34 -17 35 -31 34 -31 34 -19 34 -1 34 9 
34 14 35 15 34 19 34 25 34 32 34 32 35 29 34 17 
34 4 34 -10 34 -19 34 -20 35 -12 34 2 34 13 34 14 
34 2 34 -14 35 -21 34 -15 34 -2 34 3 34 -10 35 -31 
34 -44 34 -36 34 -14 34 5 34 13 35 9 34 7 34 14 
34 31 34 47 34 55 292 867 52 MP stroke
c13
35 20 34 20 34 20 34 20 34 11 35 -14 34 -41 34 -47 
34 -32 34 -11 34 -3 35 -16 34 -37 34 -48 34 -37 34 -14 
34 9 35 21 34 23 34 21 34 17 34 17 35 17 34 22 
34 25 34 25 34 19 34 8 35 -5 34 -12 34 -12 34 -9 
34 -9 34 -14 35 -23 34 -25 34 -20 34 -6 34 12 35 29 
34 40 34 43 34 38 34 27 34 12 35 -5 34 -25 34 -42 
34 -55 34 -61 34 -61 292 1054 52 MP stroke
0.25 sg
35 32 34 32 34 32 34 32 34 24 35 7 34 -10 34 -17 
34 -11 34 1 34 8 35 5 34 -10 34 -23 34 -25 34 -12 
34 5 35 13 34 8 34 -2 34 -7 34 -2 35 10 34 16 
34 10 34 0 34 -6 34 0 35 16 34 30 34 32 34 23 
34 10 34 1 35 -2 34 0 34 -1 34 -10 34 -21 35 -31 
34 -36 34 -34 34 -24 34 -12 34 0 35 6 34 5 34 1 
34 -7 34 -12 34 -13 292 1013 52 MP stroke
c8
35 10 34 -2 34 -12 34 -18 34 -18 35 -14 34 -7 34 -2 
34 0 34 1 34 -1 35 -1 34 1 34 5 34 12 34 21 
34 28 35 34 34 36 34 34 34 28 34 21 35 14 34 10 
34 9 34 14 34 20 34 28 35 33 34 34 34 28 34 19 
34 4 34 -10 35 -23 34 -32 34 -38 34 -42 34 -45 35 -48 
34 -50 34 -49 34 -40 34 -27 34 -10 35 7 34 17 34 19 
34 15 34 9 34 3 292 970 52 MP stroke
c9
35 14 34 15 34 14 34 12 34 4 35 -8 34 -15 34 -19 
34 -15 34 -10 34 -6 35 -8 34 -11 34 -10 34 -3 34 7 
34 15 35 17 34 9 34 -1 34 -7 34 -7 35 -1 34 4 
34 3 34 -1 34 -2 34 4 35 15 34 26 34 31 34 24 
34 12 34 -2 35 -10 34 -12 34 -12 34 -10 34 -10 35 -11 
34 -11 34 -11 34 -7 34 -4 34 1 35 3 34 4 34 3 
34 3 34 3 34 6 292 933 52 MP stroke
c10
35 -63 34 -59 34 -45 34 -27 34 -16 35 -16 34 -28 34 -38 
34 -40 34 -28 34 -5 35 15 34 29 34 31 34 23 34 13 
34 6 35 2 34 4 34 11 34 21 34 30 35 39 34 44 
34 47 34 42 34 28 34 7 35 -16 34 -36 34 -45 34 -43 
34 -36 34 -34 35 -42 34 -52 34 -56 34 -52 34 -38 35 -28 
34 -26 34 -28 34 -25 34 -10 34 16 35 38 34 47 34 37 
34 15 34 -8 34 -20 292 1083 52 MP stroke
c11
35 -22 34 -30 34 -41 34 -53 34 -58 35 -57 34 -53 34 -53 
34 -57 34 -60 34 -53 35 -31 34 3 34 36 34 55 34 57 
34 45 35 30 34 23 34 23 34 28 34 34 35 38 34 42 
34 46 34 50 34 44 34 31 35 9 34 -17 34 -37 34 -52 
34 -62 34 -74 35 -82 34 -86 34 -78 34 -61 34 -43 35 -35 
34 -41 34 -53 34 -56 34 -42 34 -9 35 28 34 59 34 73 
34 68 34 51 34 29 292 1068 52 MP stroke
c12
35 0 34 -1 34 -3 34 -7 34 -13 35 -18 34 -19 34 -15 
34 -3 34 17 34 35 35 44 34 37 34 16 34 -10 34 -28 
34 -28 35 -14 34 8 34 22 34 26 34 20 35 12 34 9 
34 9 34 11 34 8 34 1 35 -8 34 -9 34 -1 34 13 
34 25 34 28 35 18 34 0 34 -17 34 -28 34 -33 35 -29 
34 -25 34 -21 34 -16 34 -10 34 -6 35 -1 34 1 34 -2 
34 -9 34 -15 34 -17 292 1014 52 MP stroke
c13
35 -15 34 -33 34 -69 34 -102 34 -104 35 -72 34 -22 34 14 
34 23 34 10 34 1 35 14 34 46 34 69 34 70 34 47 
34 27 35 22 34 37 34 50 34 48 34 25 35 -5 34 -35 
34 -60 34 -85 34 -105 34 -117 35 -104 34 -71 34 -32 34 -11 
34 -15 34 -31 35 -30 34 -5 34 33 34 57 34 55 35 37 
34 30 34 46 34 78 34 106 34 113 35 98 34 76 34 60 
34 55 34 56 34 60 292 384 52 MP stroke
0.25 sg
35 62 34 61 34 62 34 61 34 61 35 62 34 61 34 62 
34 60 34 46 34 12 35 -24 34 -42 34 -35 34 -18 34 -6 
34 -8 35 -19 34 -25 34 -15 34 2 34 17 35 20 34 10 
34 -1 34 -8 34 -6 34 1 35 11 34 18 34 18 34 12 
34 1 34 -7 35 -11 34 -5 34 5 34 14 34 13 35 1 
34 -13 34 -19 34 -13 34 -3 34 1 35 -2 34 -10 34 -10 
34 -3 34 7 34 9 292 948 52 MP stroke
c8
35 -8 34 -7 34 -2 34 4 34 10 35 10 34 2 34 -12 
34 -30 34 -41 34 -41 35 -31 34 -14 34 1 34 10 34 13 
34 16 35 25 34 32 34 36 34 29 34 12 35 -5 34 -17 
34 -17 34 -6 34 7 34 15 35 15 34 8 34 -5 34 -14 
34 -15 34 -7 35 8 34 19 34 19 34 4 34 -17 35 -34 
34 -37 34 -27 34 -10 34 2 34 7 35 4 34 -2 34 -7 
34 -10 34 -11 34 -12 292 1008 52 MP stroke
c9
35 -13 34 -14 34 -15 34 -12 34 -3 35 7 34 13 34 10 
34 0 34 -10 34 -14 35 -9 34 1 34 9 34 12 34 7 
34 -1 35 -9 34 -14 34 -14 34 -11 34 -6 35 -1 34 1 
34 -5 34 -14 34 -25 34 -29 35 -22 34 -8 34 9 34 18 
34 14 34 2 35 -12 34 -20 34 -19 34 -12 34 -4 35 2 
34 1 34 -4 34 -9 34 -6 34 4 35 14 34 18 34 11 
34 -5 34 -20 34 -28 292 1051 52 MP stroke
c10
35 11 34 11 34 10 34 7 34 1 35 -5 34 -11 34 -15 
34 -17 34 -16 34 -14 35 -11 34 -10 34 -10 34 -11 34 -12 
34 -7 35 0 34 7 34 13 34 12 34 7 35 1 34 0 
34 6 34 17 34 30 34 39 35 39 34 31 34 20 34 6 
34 -3 34 -10 35 -10 34 -10 34 -7 34 -5 34 -6 35 -8 
34 -13 34 -18 34 -22 34 -24 34 -22 35 -16 34 -9 34 -2 
34 3 34 4 34 1 292 974 52 MP stroke
c11
35 -14 34 -16 34 -19 34 -23 34 -26 35 -24 34 -15 34 -1 
34 17 34 34 34 43 35 43 34 31 34 13 34 -5 34 -15 
34 -15 35 -5 34 9 34 23 34 29 34 27 35 18 34 4 
34 -10 34 -20 34 -23 34 -21 35 -19 34 -22 34 -30 34 -43 
34 -54 34 -54 35 -45 34 -29 34 -14 34 -4 34 8 35 24 
34 48 34 67 34 71 34 48 34 6 35 -42 34 -71 34 -76 
34 -76 34 -76 34 -76 292 1305 52 MP stroke
c12
35 -4 34 -1 34 3 34 3 34 1 35 -5 34 -12 34 -17 
34 -18 34 -12 34 0 35 13 34 21 34 20 34 12 34 0 
34 -10 35 -14 34 -12 34 -3 34 8 34 19 35 27 34 29 
34 25 34 14 34 3 34 -9 35 -13 34 -10 34 2 34 14 
34 23 34 25 35 20 34 15 34 14 34 15 34 15 35 4 
34 -18 34 -50 34 -80 34 -101 34 -105 35 -106 34 -105 34 -105 
34 -106 21 -66 339 1603 51 MP stroke
c13
35 -5 34 -13 34 -17 34 -18 34 -15 35 -10 34 -8 34 -15 
34 -25 34 -36 34 -38 35 -26 34 -4 34 23 34 45 34 54 
34 52 35 45 34 35 34 28 34 21 34 17 35 11 34 6 
34 3 34 1 34 -3 34 -10 35 -22 34 -34 34 -44 34 -43 
34 -30 34 -16 35 -4 34 -8 34 -21 34 -39 34 -49 35 -47 
34 -34 34 -19 34 -12 34 -12 34 -15 35 -15 34 -5 34 9 
34 24 34 30 34 26 292 1091 52 MP stroke
0.25 sg
35 10 34 10 34 10 34 10 34 8 35 8 34 6 34 1 
34 -8 34 -17 34 -25 35 -25 34 -16 34 0 34 13 34 20 
34 18 35 12 34 9 34 9 34 7 34 4 35 -4 34 -8 
34 -5 34 4 34 11 34 12 35 7 34 0 34 -3 34 2 
34 6 34 2 35 -8 34 -20 34 -24 34 -19 34 -7 35 1 
34 3 34 -1 34 -6 34 -9 34 -11 35 -9 34 -9 34 -7 
34 -4 34 4 34 13 292 989 52 MP stroke
c8
35 -58 34 -62 34 -55 34 -36 34 -11 35 8 34 17 34 19 
34 19 34 21 34 23 35 21 34 15 34 13 34 20 34 36 
34 49 35 47 34 29 34 6 34 -9 34 -12 35 -11 34 -18 
34 -34 34 -52 34 -61 34 -56 35 -44 34 -34 34 -33 34 -41 
34 -45 34 -32 35 14 34 85 34 157 34 184 34 130 35 2 
34 -151 34 -258 34 -282 32 -262 533 1603 45 MP stroke
c9
35 -13 34 -11 34 -6 34 -1 34 3 35 2 34 0 34 -1 
34 -3 34 -3 34 -1 35 1 34 2 34 3 34 4 34 2 
34 -1 35 -3 34 -1 34 3 34 7 34 8 35 3 34 -3 
34 -6 34 -4 34 -1 34 -1 35 -6 34 -13 34 -10 34 2 
34 17 34 21 35 9 34 -14 34 -31 34 -33 34 -17 35 2 
34 17 34 19 34 15 34 8 34 5 35 7 34 9 34 9 
34 10 34 10 34 10 292 881 52 MP stroke
c10
35 -26 34 -28 34 -30 34 -33 34 -23 35 4 34 38 34 60 
34 53 34 14 34 -33 35 -61 34 -54 34 -24 34 7 34 19 
34 17 35 12 34 14 34 19 34 14 34 1 35 -7 34 7 
34 41 34 69 34 66 34 28 35 -29 34 -68 34 -70 34 -46 
34 -20 34 -9 35 -12 34 -18 34 -14 34 4 34 27 35 46 
34 49 34 36 34 11 34 -9 34 -14 35 -2 34 12 34 9 
34 -16 34 -58 34 -94 292 1012 52 MP stroke
c11
35 30 34 30 34 30 34 27 34 18 35 6 34 -5 34 -13 
34 -16 34 -18 34 -24 35 -29 34 -33 34 -28 34 -15 34 4 
34 21 35 26 34 15 34 -3 34 -22 34 -31 35 -29 34 -14 
34 8 34 29 34 44 34 47 35 39 34 27 34 13 34 4 
34 -2 34 -3 35 1 34 6 34 9 34 11 34 8 35 -3 
34 -17 34 -31 34 -39 34 -37 34 -25 35 -10 34 3 34 9 
34 7 34 3 34 -3 292 968 52 MP stroke
c12
35 -13 34 -12 34 -13 34 -12 34 -6 35 11 34 29 34 35 
34 22 34 -2 34 -30 35 -52 34 -61 34 -61 34 -50 34 -35 
34 -21 35 -7 34 4 34 12 34 15 34 14 35 11 34 8 
34 9 34 16 34 27 34 33 35 32 34 23 34 11 34 4 
34 2 34 3 35 -2 34 -12 34 -25 34 -36 34 -43 35 -45 
34 -45 34 -41 34 -34 34 -23 34 -11 35 1 34 10 34 16 
34 21 34 25 34 29 292 1035 52 MP stroke
c13
35 -18 34 -26 34 -36 34 -37 34 -28 35 -13 34 -2 34 -3 
34 -10 34 -12 34 -4 35 6 34 10 34 4 34 -1 34 4 
34 19 35 31 34 30 34 17 34 3 34 -4 35 0 34 3 
34 1 34 -8 34 -16 34 -20 35 -17 34 -11 34 -4 34 0 
34 -3 34 -13 35 -29 34 -41 34 -44 34 -28 34 -2 35 26 
34 42 34 45 34 40 34 36 34 36 35 40 34 42 34 42 
34 43 34 42 34 42 292 628 52 MP stroke
0.25 sg
35 -27 34 -28 34 -27 34 -29 34 -32 35 -33 34 -26 34 -11 
34 3 34 7 34 1 35 -5 34 -1 34 14 34 27 34 29 
34 17 35 5 34 -2 34 -3 34 -4 34 -8 35 -11 34 -5 
34 6 34 12 34 6 34 -6 35 -10 34 -7 34 -1 34 -1 
34 -7 34 -7 35 8 34 26 34 32 34 21 34 4 35 -1 
34 8 34 15 34 7 34 -14 34 -34 35 -32 34 -12 34 13 
34 22 34 23 34 23 292 858 52 MP stroke
c8
35 -19 34 -18 34 -8 34 10 34 31 35 37 34 20 34 -15 
34 -50 34 -61 34 -45 35 -13 34 11 34 19 34 21 34 33 
34 52 35 66 34 57 34 23 34 -14 34 -33 35 -28 34 -12 
34 -3 34 -9 34 -22 34 -31 35 -32 34 -26 34 -19 34 -11 
34 3 34 18 35 30 34 27 34 8 34 -15 34 -24 35 -9 
34 28 34 69 34 93 34 95 34 72 35 30 34 -17 34 -55 
34 -74 34 -75 34 -76 292 923 52 MP stroke
c9
35 -22 34 -22 34 -22 34 -23 34 -22 35 -22 34 -23 34 -22 
34 -27 34 -42 34 -57 35 -59 34 -44 34 -16 34 8 34 20 
34 16 35 5 34 -3 34 -2 34 2 34 4 35 -2 34 -14 
34 -24 34 -29 34 -24 34 -13 35 1 34 13 34 17 34 17 
34 16 34 17 35 20 34 25 34 23 34 18 34 11 35 5 
34 1 34 -1 34 -6 34 -10 34 -12 35 -8 34 -1 34 6 
34 7 34 2 34 -4 292 900 52 MP stroke
c10
35 -7 34 -7 34 -9 34 -14 34 -18 35 -25 34 -28 34 -25 
34 -15 34 1 34 18 35 30 34 34 34 28 34 19 34 7 
34 -2 35 -4 34 0 34 7 34 15 34 19 35 16 34 6 
34 -8 34 -19 34 -21 34 -14 35 -1 34 9 34 12 34 5 
34 -10 34 -25 35 -32 34 -30 34 -17 34 3 34 19 35 27 
34 25 34 14 34 0 34 -12 34 -21 35 -22 34 -18 34 -8 
34 2 34 14 34 22 292 954 52 MP stroke
c11
35 42 34 40 34 20 34 -18 34 -49 35 -60 34 -53 34 -43 
34 -44 34 -51 34 -48 35 -27 34 6 34 33 34 38 34 23 
34 0 35 -16 34 -17 34 -6 34 15 34 35 35 51 34 56 
34 52 34 37 34 13 34 -13 35 -34 34 -37 34 -29 34 -19 
34 -28 34 -53 35 -76 34 -72 34 -41 34 -8 34 0 35 -14 
34 -17 34 13 34 64 34 95 34 69 35 -6 34 -85 34 -117 
34 -119 34 -118 34 -119 292 1491 52 MP stroke
c12
33 -202 34 -210 34 -209 35 -190 34 -110 34 4 34 86 34 104 
34 71 35 21 34 -13 34 -21 34 -7 34 9 34 20 35 18 
34 9 34 1 34 1 34 7 35 14 34 19 34 24 34 25 
34 18 34 -8 35 -46 34 -74 34 -68 34 -29 34 2 34 -17 
35 -79 34 -123 34 -100 34 -20 34 42 35 35 34 -26 34 -73 
34 -60 34 -7 34 32 35 25 34 -8 34 -29 34 -17 34 18 
34 43 292 1233 50 MP stroke
c13
35 -20 34 -17 34 -13 34 -9 34 -9 35 -11 34 -17 34 -22 
34 -26 34 -28 34 -23 35 -13 34 -1 34 13 34 21 34 24 
34 22 35 16 34 9 34 7 34 7 34 12 35 20 34 28 
34 32 34 29 34 20 34 5 35 -10 34 -20 34 -21 34 -13 
34 -6 34 -5 35 -16 34 -33 34 -44 34 -46 34 -36 35 -22 
34 -12 34 -12 34 -16 34 -19 34 -18 35 -12 34 -2 34 5 
34 9 34 12 34 13 292 1077 52 MP stroke
0.25 sg
35 -27 34 -32 34 -33 34 -30 34 -25 35 -21 34 -14 34 -2 
34 16 34 34 34 50 35 57 34 60 34 61 34 61 34 56 
34 43 35 21 34 -5 34 -23 34 -28 34 -25 35 -16 34 -13 
34 -12 34 -15 34 -18 34 -18 35 -16 34 -10 34 -2 34 11 
34 23 34 36 35 48 34 58 34 67 34 73 34 71 35 56 
34 26 34 -14 34 -53 34 -81 34 -95 35 -97 34 -95 34 -94 
34 -94 34 -94 34 -94 292 1333 52 MP stroke
c8
35 -13 34 -11 34 -9 34 -10 34 -14 35 -18 34 -15 34 -4 
34 14 34 32 34 39 35 36 34 23 34 11 34 -1 34 -6 
34 -11 35 -14 34 -13 34 -6 34 8 34 26 35 35 34 35 
34 26 34 14 34 10 34 15 35 21 34 19 34 6 34 -18 
34 -38 34 -47 35 -44 34 -31 34 -17 34 -4 34 4 35 6 
34 2 34 -8 34 -22 34 -39 34 -52 35 -58 34 -50 34 -32 
34 -11 34 4 34 9 292 1170 52 MP stroke
c9
35 -25 34 -19 34 -13 34 -11 34 -13 35 -18 34 -26 34 -34 
34 -40 34 -40 34 -32 35 -19 34 -1 34 13 34 24 34 29 
34 29 35 27 34 25 34 23 34 22 34 24 35 27 34 33 
34 36 34 35 34 27 34 10 35 -9 34 -27 34 -35 34 -35 
34 -30 34 -30 35 -39 34 -54 34 -69 34 -78 34 -72 35 -56 
34 -32 34 -6 34 14 34 24 34 23 35 17 34 9 34 5 
34 8 34 11 34 13 292 1098 52 MP stroke
c10
35 -29 34 -29 34 -9 34 8 34 8 35 -10 34 -27 34 -31 
34 -21 34 -5 34 1 35 4 34 9 34 18 34 29 34 29 
34 21 35 13 34 10 34 17 34 22 34 19 35 9 34 -5 
34 -19 34 -31 34 -40 34 -38 35 -21 34 8 34 39 34 55 
34 50 34 36 35 31 34 35 34 37 34 21 34 -17 35 -65 
34 -106 34 -128 34 -135 34 -137 34 -136 35 -136 14 -56 448 1603 48 MP stroke
c11
14 -27 34 -70 34 -69 34 -70 34 -69 35 -69 34 -70 34 -69 
34 -69 34 -70 34 -68 35 -62 34 -47 34 -24 34 1 34 19 
34 23 35 14 34 2 34 -7 34 -9 34 -7 35 -4 34 -5 
34 -10 34 -14 34 -12 34 -1 35 12 34 23 34 23 34 15 
34 1 34 -8 35 -7 34 4 34 14 34 13 34 1 35 -13 
34 -17 34 -9 34 2 34 4 34 -3 35 -9 34 -13 34 -10 
34 -5 34 -2 34 3 292 979 52 MP stroke
c12
35 -63 34 -62 34 -63 34 -63 34 -62 35 -62 34 -46 34 -17 
34 11 34 21 34 14 35 -1 34 -13 34 -14 34 -5 34 7 
34 15 35 16 34 8 34 -6 34 -23 34 -33 35 -30 34 -14 
34 9 34 24 34 25 34 14 35 1 34 -6 34 -5 34 2 
34 9 34 15 35 17 34 18 34 15 34 7 34 -5 35 -18 
34 -29 34 -28 34 -16 34 -1 34 7 35 4 34 -5 34 -7 
34 6 34 27 34 45 292 893 52 MP stroke
c13
35 -15 34 -10 34 -19 34 -36 34 -46 35 -43 34 -23 34 3 
34 27 34 45 34 57 35 61 34 59 34 48 34 28 34 9 
34 -1 35 -1 34 6 34 6 34 -3 34 -25 35 -49 34 -68 
34 -71 34 -58 34 -36 34 -19 35 -18 34 -27 34 -35 34 -30 
34 -8 34 25 35 52 34 67 34 61 34 45 34 38 35 50 
34 75 34 88 34 63 34 -4 34 -91 35 -150 34 -163 34 -164 
34 -164 34 -164 14 -65 312 1603 52 MP stroke
0.25 sg
35 -10 34 -13 34 -15 34 -15 34 -11 35 -3 34 4 34 10 
34 12 34 12 34 9 35 6 34 0 34 -10 34 -19 34 -22 
34 -16 35 2 34 22 34 38 34 40 34 29 35 9 34 -10 
34 -22 34 -24 34 -14 34 -1 35 12 34 19 34 16 34 5 
34 -11 34 -26 35 -31 34 -28 34 -15 34 1 34 14 35 18 
34 15 34 12 34 13 34 20 34 27 35 27 34 14 34 -7 
34 -30 34 -44 34 -46 292 963 52 MP stroke
c8
35 -42 34 -42 34 -43 34 -42 34 -42 35 -44 34 -43 34 -39 
34 -25 34 -7 34 8 35 10 34 1 34 -15 34 -24 34 -20 
34 -7 35 6 34 7 34 -2 34 -9 34 -11 35 -2 34 8 
34 15 34 18 34 21 34 23 35 22 34 13 34 2 34 -10 
34 -10 34 1 35 15 34 18 34 5 34 -15 34 -32 35 -35 
34 -29 34 -22 34 -18 34 -16 34 -13 35 -2 34 8 34 14 
34 12 34 4 34 0 292 996 52 MP stroke
c9
35 27 34 27 34 27 34 22 34 5 35 -17 34 -24 34 -14 
34 1 34 6 34 -5 35 -24 34 -33 34 -25 34 -6 34 5 
34 7 35 4 34 7 34 16 34 20 34 13 35 1 34 -3 
34 5 34 19 34 29 34 26 35 15 34 4 34 -2 34 1 
34 8 34 11 35 8 34 -4 34 -19 34 -30 34 -32 35 -21 
34 -3 34 11 34 11 34 -7 34 -31 35 -48 34 -42 34 -19 
34 4 34 13 34 13 292 1031 52 MP stroke
c10
35 61 34 62 34 62 34 61 34 60 35 38 34 -6 34 -37 
34 -35 34 -8 34 14 35 12 34 -10 34 -25 34 -19 34 -2 
34 8 35 4 34 -1 34 1 34 8 34 7 35 -7 34 -21 
34 -21 34 -7 34 11 34 22 35 18 34 6 34 -4 34 2 
34 19 34 34 35 28 34 4 34 -24 34 -34 34 -25 35 -7 
34 4 34 -3 34 -27 34 -53 34 -61 35 -39 34 3 34 39 
34 49 34 48 34 49 292 918 52 MP stroke
c11
35 27 34 23 34 -5 34 -57 34 -92 35 -89 34 -54 34 -17 
34 -9 34 -28 34 -50 35 -46 34 -17 34 12 34 22 34 13 
34 8 35 23 34 52 34 71 34 69 34 56 35 47 34 45 
34 36 34 10 34 -25 34 -50 35 -47 34 -31 34 -28 34 -54 
34 -92 34 -105 35 -80 34 -37 34 -5 34 3 34 0 35 11 
34 35 34 58 34 52 34 17 34 -36 35 -86 34 -119 34 -135 
34 -139 27 -109 333 1603 51 MP stroke
c12
35 52 34 51 34 38 34 -3 34 -52 35 -82 34 -82 34 -62 
34 -40 34 -34 34 -44 35 -53 34 -48 34 -22 34 10 34 33 
34 41 35 39 34 35 34 36 34 41 34 43 35 45 34 48 
34 53 34 57 34 44 34 16 35 -22 34 -51 34 -56 34 -44 
34 -33 34 -38 35 -59 34 -81 34 -87 34 -77 34 -64 35 -59 
34 -59 34 -49 34 -17 34 29 34 68 35 78 34 59 34 29 
34 12 34 17 34 40 292 1041 52 MP stroke
gr

c12

end %%Color Dict

eplot
%%EndObject

epage
end

showpage

%%Trailer
%%EOF
