-1.56087980102813 -1.58599152089239 -1.62773465385104 -1.66223090835313 -1.69258274252550 -2.57592321191835 -1.68003541067167 -1.64935432864958 -1.68984041581189 -1.27342437031884 -1.52956835817345 -0.604483009718922 -1.18356709844346 -2.08761043970358 -1.59416718111613 -0.0745119402350405 -0.113244258255127 -2.19923186203357 -0.00866143916467087 -0.00955499055744843 -0.00258185181772198 -0.00545073306925664 0.0280798666666057 0.000376693491070500 0.00332995564794268 -0.00171450321479232 0.00329827018101572 0.0108253129544511 9.352379590812e-06
-1.48049648862335 -1.50371256272050 -1.54177508485342 -1.57523649896479 -1.60139035580175 -2.35330502110767 -1.58417016968137 -1.55938325330058 -1.58198374638646 -1.20909599025642 -1.44824377158246 -0.574870277467324 -1.11580873216081 -1.98103025373441 -1.50215275765845 -0.0675462136099239 -0.105312549864444 -2.11159651139548 -0.00739905611261811 -0.00866251512334818 -0.00229744404071336 -0.00499443064038757 0.0336477269005720 0.000638338404235339 0.00431000039385813 -0.00160630742797401 0.00394185268281738 0.0124119966446872 2.12212048854549e-05
-1.40011317621857 -1.42143360454861 -1.45581551585579 -1.48824208957645 -1.51019796907800 -2.13068683029699 -1.48830492869106 -1.46941217795158 -1.47412707696103 -1.14476761019400 -1.36691918499147 -0.545257545215725 -1.04805036587816 -1.87445006776524 -1.41013833420077 -0.0605804869848073 -0.0973808414737613 -2.02396116075739 -0.00613667306056536 -0.00777003968924794 -0.00201303626370474 -0.00453812821151851 0.0397084295515309 0.00100292078933319 0.00552573535860891 -0.00149811164115570 0.00467469927216875 0.0141885163820880 4.18252989831878e-05
-1.31972986381379 -1.33915464637672 -1.36985594685817 -1.40124768018811 -1.41900558235424 -1.90806863948630 -1.39243968770076 -1.37944110260258 -1.36627040753559 -1.08043923013157 -1.28559459840047 -0.515644812964127 -0.980291999595504 -1.76786988179607 -1.31812391074310 -0.0536147603596908 -0.0894491330830784 -1.93632581011929 -0.00487429000851261 -0.00687756425514769 -0.00172862848669612 -0.00408182578264945 0.0462716982109668 0.00149079078905583 0.00702657905434459 -0.00138991585433738 0.00551065280987582 0.0161806594979910 7.46277000587028e-05
-1.23934655140901 -1.25687568820483 -1.28389637786054 -1.31425327079977 -1.32781319563049 -1.68545044867562 -1.29657444671045 -1.28947002725359 -1.25841373811016 -1.01611085006915 -1.20427001180948 -0.486032080712529 -0.91253363331285 -1.6612896958269 -1.22610948728542 -0.0466490337345742 -0.0815174246923955 -1.8486904594812 -0.00361190695645986 -0.00598508882104744 -0.00144422070968749 -0.00362552335378039 0.0533488995630616 0.00212209060503323 0.0088667832847529 -0.00128172006751907 0.00646426524701439 0.0184216289281211 0.000124088033841084
-1.15896323900423 -1.17459673003294 -1.19793680886291 -1.22725886141143 -1.23662080890674 -1.46283225786494 -1.20070920572015 -1.19949895190459 -1.15055706868472 -0.951782470006734 -1.12294542521849 -0.45641934846093 -0.844775267030198 -1.55470950985773 -1.13409506382774 -0.0396833071094577 -0.0735857163017126 -1.76105510884310 -0.0023495239044071 -0.00509261338694719 -0.00115981293267887 -0.00316922092491132 0.060954739525376 0.00292083074436917 0.0111144333494718 -0.00117352428070076 0.00755111886321924 0.0209469436632731 0.000196351667514298
-1.07857992659945 -1.09231777186105 -1.11197723986529 -1.14026445202309 -1.14542842218299 -1.24021406705425 -1.10484396472984 -1.10952787655559 -1.04270039925929 -0.887454089944313 -1.04162083862749 -0.426806616209332 -0.777016900747545 -1.44812932388856 -1.04208064037007 -0.0327175804843411 -0.0656540079110298 -1.67341975820501 -0.00108714085235435 -0.00420013795284694 -0.000875405155670253 -0.00271291849604226 0.0691074487735376 0.00391817368448392 0.0138523725192099 -0.00106532849388245 0.00879321304314384 0.0238010824822952 0.000300661319071995
-0.998196614194668 -1.01003881368916 -1.02601767086766 -1.05327004263475 -1.05423603545924 -1.01759587624357 -1.00897872373954 -1.01955680120659 -0.934843729833852 -0.823125709881892 -0.960296252036502 -0.397193883957733 -0.709258534464892 -1.34154913791939 -0.950066216912389 -0.0257518538592246 -0.0577222995203469 -1.58578440756692 0.000187107072009401 -0.00330766251874670 -0.000590997378661631 -0.00225661606717320 0.0778266912880606 0.00514604421943333 0.0171688154293245 -0.000957132707064138 0.0102195255123672 0.0270420473245681 0.000447613145987715
-0.917813301789887 -0.927759855517269 -0.940058101870037 -0.966275633246406 -0.963043648735488 -0.794977685432887 -0.913113482749235 -0.929585725857591 -0.826987060408417 -0.758797329819472 -0.878971665445509 -0.367581151706135 -0.641500168182239 -1.23496895195022 -0.858051793454712 -0.0187861272341080 -0.049790591129664 -1.49814905692882 0.00185327141626837 -0.00241518708464645 -0.000306589601653011 -0.00180031363830414 0.087135724276846 0.0066434573447636 0.0211666454022867 -0.000848936920245826 0.0118657013829288 0.0307356358418828 0.000650880335856864
-0.837429989385107 -0.845480897345379 -0.85409853287241 -0.879281223858066 -0.871851262011736 -0.572359494622204 -0.81724824175893 -0.839614650508593 -0.719130390982982 -0.694468949757051 -0.797647078854516 -0.337968419454537 -0.573741801899586 -1.12838876598106 -0.766037369997036 -0.0118204006089915 -0.0418588827389811 -1.41051370629073 0.00458390002871780 -0.0015227116505462 -1.03716850190558e-05 -0.00134401120943507 0.097061124161762 0.00847250187148298 0.0259625162012206 -0.000740741133427515 0.0137697193278748 0.0349687162938601 0.000935197750723511
-0.757046676980327 -0.763201939173489 -0.768138963874785 -0.792286814469725 -0.780658875287985 -0.349741303811521 -0.721383000768626 -0.749643575159594 -0.611273721557547 -0.630140569694631 -0.716322492263522 -0.308355687202938 -0.505983435616933 -1.02180858001189 -0.674022946539359 -0.00485467398387491 -0.0339271743482982 -1.32287835565263 0.00880276646463935 -0.000630236216445951 0.000409388698955155 -0.00088770878056601 0.107630741380509 0.0107001263837381 0.0316780959487187 -0.000632545346609203 0.0159939996727921 0.0398482463616666 0.00132919229477909
-0.676663364575546 -0.6809229810016 -0.68217939487716 -0.705292405081385 -0.689466488564234 -0.127123113000838 -0.625517759778321 -0.659672499810595 -0.503417052132113 -0.56581218963221 -0.634997905672529 -0.27874295495134 -0.43822506933428 -0.915228394042717 -0.582008523081682 0.00215571768054847 -0.0259954659576153 -1.23524300501454 0.0148440739081396 0.000323819468451690 0.00112203992432797 -0.000431406351696947 0.118875921226994 0.0134050609459143 0.0384428025639185 -0.000524349559790892 0.0186186657349385 0.0455088548952008 0.00187599904957438
-0.596280052170766 -0.59864402282971 -0.596219825879534 -0.618297995693044 -0.598274101840482 0.0952999842054173 -0.529652518788017 -0.569701424461597 -0.395560382706678 -0.50148380956979 -0.553673319081536 -0.249130222699742 -0.370466703051627 -0.808648208073548 -0.489994099624005 0.0107960610342666 -0.0180637575669324 -1.14760765437645 0.0228269083365609 0.00205986651488344 0.00244650505826956 3.67685586485897e-05 0.130830855669762 0.0167009591374438 0.0463873244626848 -0.00041615377297258 0.0217384207412428 0.0521272639863002 0.00264777468243028
-0.515896739765986 -0.51636506465782 -0.510260256881908 -0.531303586304703 -0.507081715116731 0.294345114337253 -0.433787277797713 -0.479730349112598 -0.287703713281243 -0.437155429507369 -0.472348732490543 -0.219517490448143 -0.302708336768974 -0.702068022104379 -0.397979676166329 0.0229736298142852 -0.0101320491762495 -1.05997230373835 0.0329185829782573 0.00589288747007305 0.00475919290302594 0.000975009341492743 0.143531063083115 0.0207503049899523 0.0556356373731186 -0.000307957986154268 0.0255037502428779 0.0599257359030189 0.00374376126638299
-0.435513427361205 -0.43408610648593 -0.424300687884282 -0.444309176916363 -0.41588932839298 0.434239992735797 -0.337922036807408 -0.3897592737636 -0.179847043855808 -0.372827049444948 -0.39102414589955 -0.189904758196545 -0.234949970486321 -0.59548783613521 -0.305965252708652 0.0390559972986635 -0.00220034078556662 -0.972336953100257 0.0453269392385907 0.0133254128929317 0.00855336975872012 0.00344652590582014 0.157015899924654 0.0257410390764211 0.0663026366929303 -0.000199762199335957 0.030131293301593 0.069195571599419 0.00533944614853257
-0.355130114956425 -0.35180714831404 -0.338341118886657 -0.357314767528023 -0.324696941669228 0.53039104997973 -0.242056795817104 -0.299788198414601 -0.0719903744303739 -0.308498669382528 -0.309699559308557 -0.160292025944946 -0.167191604203668 -0.488907650166040 -0.213950829250975 0.0583999695220094 0.00653143002878177 -0.884701602462163 0.0602876239639535 0.0261446716547517 0.0146799019653142 0.00855075159019335 0.171326074906507 0.031961956532712 0.0784832640368143 -9.15664125176453e-05 0.0359226851174208 0.0803138792577428 0.0077217996573404
-0.274746802551645 -0.269528190142150 -0.252381549889031 -0.270320358139682 -0.233504554945477 0.602953318023466 -0.146191554826799 -0.209817123065603 0.0359228278422517 -0.244170289320107 -0.228374972717564 -0.130679293693348 -0.099433237921015 -0.382327464196871 -0.121936405793299 0.080348981844283 0.0200587744523443 -0.797066251824069 0.0780367467407012 0.0464137481861086 0.0243715362969813 0.0175334318123930 0.186503117587825 0.0398208478760061 0.0922533408242771 4.7854211550399e-05 0.0433841749851217 0.0937565776837718 0.0114169682153155
-0.194363490146864 -0.187249231970260 -0.166421980891405 -0.183325948751341 -0.142312168221726 0.66526575374337 -0.0503263138364948 -0.119846047716604 0.141321621934584 -0.179841909257687 -0.147050386126570 -0.101066561441750 -0.0316748716383620 -0.275747278227702 -0.0299219823356219 0.104581245979677 0.0395750974152951 -0.709430901185975 0.0987905962628978 0.0758618953810685 0.0396405136887469 0.0320614772327899 0.202589281938452 0.0499181408418519 0.107665438895076 0.00158541529613289 0.0533200006410286 0.110127365251651 0.0174538240579350
-0.113980177742084 -0.104970273798371 -0.0804624118937795 -0.096331539363001 -0.0511197814979746 0.719739862596393 0.0455176381517452 -0.0298749723676058 0.238518176448853 -0.115513529195266 -0.0657257995355773 -0.0714538291901512 0.0360532885905279 -0.169167092258533 0.0602568988811455 0.130883369300693 0.0633948488812663 -0.621795550547880 0.122741853042254 0.114535393959559 0.0632756682363606 0.0541846338511226 0.219626481877914 0.0631636661759543 0.124750773598875 0.0105159084184694 0.0671382178168339 0.130172770874967 0.0280044346559995
-0.0335968653373035 -0.0226913156264809 0.00549715710384631 -0.00933712997466036 0.0400858346400523 0.767138827386651 0.138658754307578 0.0601223329264437 0.327270575673951 -0.0511851491328456 0.0155931753616861 -0.0418410969385528 0.101096150795568 -0.0625869062893636 0.130465441563303 0.159067604098582 0.0903934456248827 -0.534160199909786 0.150027390258078 0.160159738073975 0.0983395212073078 0.0860094712691777 0.237655019903573 0.081043332971773 0.143525532351743 0.0463448553257139 0.0874376469988475 0.154792855930223 0.0480149823852917
0.046786447067477 0.059587642545409 0.0916360552667203 0.0781925607133651 0.134847236392013 0.808222708698414 0.221750872420811 0.146921387934213 0.409675423844024 0.0131418446574441 0.095692962746561 -0.0122283646869544 0.157442245623457 0.0454752794522079 0.182248394692867 0.188947228538795 0.120012367125206 -0.446524849271692 0.180716921577164 0.209095430220591 0.146430590612488 0.129030982098015 0.256713449734205 0.105960349074284 0.163997455649740 0.138172012270793 0.118900591069636 0.184992336802514 0.0881188149481697
0.127169759472257 0.143653421269206 0.183703396646231 0.173558762869456 0.231045563057392 0.843733107912177 0.291941890687421 0.225294817591639 0.485485932146964 0.0765608092459106 0.171452173710579 0.0174711801944121 0.205781683267618 0.172215696076883 0.225229717001411 0.220344369080905 0.151836996462357 -0.358889498633598 0.214781651099247 0.25804639393488 0.205706136060651 0.183276015795185 0.276832046974673 0.14196619939515 0.186179465935443 0.250065376924874 0.168003098347400 0.221739059753677 0.161917096637824
0.214933520794781 0.239038187495011 0.280916704745528 0.273531931659218 0.321566951329217 0.8743259607277 0.35143198615253 0.29557307334251 0.554216140967329 0.136761789493729 0.24087866954732 0.0487934773680848 0.248352263190763 0.294622911375248 0.262713404141834 0.25309117847131 0.18552980977054 -0.271254147995504 0.252071512638643 0.304972030242597 0.271230327199392 0.246849948334894 0.298032102001775 0.195145944582395 0.210097435998500 0.339728931471911 0.238074768870926 0.265677490926498 0.264496541976231
0.314752019351608 0.342417274651806 0.378434073400749 0.370891290035071 0.40041588542625 0.900560652556846 0.402645252843451 0.358984283464758 0.615703601499707 0.193338737119672 0.304111919655985 0.0827000183706812 0.28664322137734 0.399980330025106 0.296512941156408 0.287023348407202 0.220808653816731 -0.183618797357410 0.292306471203478 0.348987909410605 0.337782977013262 0.316340668689993 0.320324872760061 0.270364115860451 0.235792520148743 0.409240930995378 0.322520385302049 0.316716424788117 0.369489241375103
0.421306823953321 0.448122408956622 0.471413596448034 0.458500979538392 0.46734247913673 0.922945487918588 0.447928647594802 0.417676894824356 0.670117568696893 0.246388628755219 0.361991429080758 0.118565120234361 0.321630979220881 0.489742480499161 0.327545930955279 0.321976175376963 0.257437440181366 -0.0959834467193156 0.335063528582629 0.389930190340853 0.402023279638386 0.387922705148633 0.343708212281791 0.361871139812896 0.263303394533617 0.465482383317458 0.408612671110684 0.373653773787336 0.460409225336144
0.529274184610178 0.550485316626491 0.555026023121978 0.532786045566308 0.523936903064239 0.94183796734878 0.489085539885382 0.473393388483884 0.71786386607467 0.296513861009658 0.415290688192210 0.155506441392283 0.353920157449313 0.566280433191635 0.356527388454915 0.357784879414078 0.295204963286768 -0.0083250097285093 0.379798616157187 0.427981959764597 0.462602782297519 0.458339330034698 0.368169621864233 0.454090975772799 0.292654548547474 0.512840728564056 0.487719339903856 0.434164592509137 0.535181264101186
0.633330351332438 0.643837723878446 0.626286632819853 0.594953382170241 0.571790160369277 0.957553104568508 0.527466552753712 0.526152632283765 0.759492243107905 0.344078583532975 0.464613682870223 0.192663547986832 0.384031653495163 0.631803626125638 0.383899151521053 0.394280865857591 0.333913221213161 0.204454834991951 0.425863867265537 0.463464147157705 0.519234630201612 0.525272773508974 0.393682218110282 0.535854106271213 0.323850765677948 0.553966087276916 0.557303224044944 0.495306295385623 0.596374349494518
0.728151574130359 0.723395930922462 0.685975265413157 0.646545663457769 0.612493254212343 0.970399993248915 0.563508748635663 0.575851970739586 0.79563353946386 0.389337030432374 0.510412902388545 0.229812076585538 0.412340046184323 0.688143198362663 0.409969695192484 0.431292559014081 0.373372843367161 0.432265230358427 0.47255102777678 0.496725413833293 0.57193026785155 0.587343758720966 0.420205097159554 0.604635994021055 0.35687298048726 0.590516800841867 0.617840148942163 0.554314036917683 0.646957743718518
0.808906839519547 0.789035520852937 0.735330848337824 0.68910556353647 0.647639548663113 0.980632185444251 0.597411597591234 0.622450123583096 0.826912400692885 0.432493138590239 0.553092895071117 0.266823848967636 0.43909890677858 0.736779764269163 0.434997658638643 0.468645890843459 0.413395001088235 0.545638224821002 0.519136022490859 0.528095698448562 0.620772711308977 0.643918914290528 0.447677648944632 0.661975170358495 0.391666901326896 0.623590442224134 0.670615743526562 0.609212900933933 0.689361270861472
0.874905407291106 0.842160651274402 0.775592309029792 0.724175756513923 0.678867467948515 0.988476935039153 0.629373526208233 0.665918351564854 0.853937730051128 0.473720582770381 0.592960029345314 0.303637768008997 0.464520934679386 0.778889259838068 0.459167776292507 0.506159412167162 0.453786357504724 0.619431785292146 0.564929338378973 0.557845398273021 0.665879528422785 0.694874926588971 0.476024050581815 0.710137689316324 0.428140935938283 0.653959022577743 0.716834820753564 0.65900055190035 0.725371694512606
0.927527045153241 0.884176376982403 0.807998574924994 0.753298916691367 0.707853161744179 0.994146773250644 0.659544933952999 0.70623129634112 0.877272823283347 0.513170865621732 0.630269145275722 0.340210038208106 0.488805907219364 0.815417527449374 0.482619652095757 0.543648073697608 0.494343861100313 0.674570713360181 0.609315313016113 0.586180153237524 0.707395567488648 0.740384135471499 0.505145474961345 0.75107715225177 0.466154238181456 0.682159190210211 0.757433208891173 0.703443896794641 0.756413860321882
0.96816688530645 0.916487752772487 0.833788573459367 0.778020932461486 0.735757903075496 0.997827390489716 0.68800911942405 0.743419344950967 0.897392387997148 0.55095933340079 0.665240033191848 0.376496674893173 0.51208590832074 0.847127584710045 0.505482657475173 0.580925028017787 0.534857135644767 0.718982086099778 0.651789241446007 0.613261975426741 0.74547603791069 0.78077930600047 0.534924634360952 0.786292823778479 0.505512302139188 0.70861078915779 0.793138142774447 0.742766329808323 0.783309008373294
0.998220059951234 0.940499833440199 0.854201232068846 0.799899069994366 0.762620274396345 0.999690237082256 0.714844389308172 0.777538956788391 0.91473392776753 0.587183282851198 0.698038579534989 0.412461973759788 0.534467823108016 0.87463545021995 0.527852352682822 0.617793885001736 0.575099185564734 0.756313115476156 0.691973336815471 0.63921431656375 0.780279268261522 0.816457870448847 0.565223398861868 0.816906491462527 0.545962130449477 0.73361797694121 0.824547557410016 0.777403136675163 0.80694755444395
1.01908170128809 0.957617673781085 0.870475478189367 0.820472541596564 0.788331386336566 0.999895116103232 0.74013157669338 0.808650543521908 0.929671264709208 0.621932426959655 0.728813256827944 0.448076389637029 0.556054301754749 0.898453444721604 0.549803607614153 0.654054475509073 0.614829975154765 0.788519420417254 0.729612745904663 0.664135723365452 0.811960486262361 0.847829316366734 0.595879882940956 0.843739752415355 0.587182936534317 0.757425206816232 0.852157693465767 0.807861965380503 0.828012725619382
1.03214694151752 0.96924632859069 0.883806903045853 0.840547449728045 0.812782355108007 0.998582877182967 0.763968060488136 0.836845454179811 0.942506288404795 0.65526977836248 0.757680375185612 0.483313229960665 0.576930099554486 0.918996641703089 0.571404331220482 0.68950739093603 0.653801611078009 0.81679695275744 0.76455454921927 0.688107410340932 0.840668587022321 0.875289956131137 0.626715268659089 0.867417686526666 0.628792507656005 0.780185108751932 0.876393668068303 0.834640440638968 0.846577509679681
1.03881091284003 0.976790852664564 0.89505470985361 0.860014372511484 0.835877680161812 0.99588447258383 0.786446626791624 0.862235841589358 0.95351426608607 0.687241249448724 0.784733291668786 0.518147044563057 0.597162665107945 0.936618911478447 0.592715646908819 0.723950149716742 0.691748428240453 0.841896453513325 0.796737359719058 0.71118993677923 0.866549177065906 0.899204697819581 0.657534335147017 0.88840899333361 0.670353568450145 0.802006063592658 0.897621134579662 0.858203859728795 0.862934527862845
1.04046874745610 0.981605284855649 0.904920790255911 0.878706269264296 0.857563947100114 0.991923737987332 0.807627406182253 0.884948845494371 0.962929260145128 0.717887246286839 0.81005275859655 0.552549937633806 0.616806090362083 0.951607725352722 0.613780270561972 0.757178963214229 0.728400076771903 0.864355474360069 0.826163197455845 0.733434366711728 0.889740227563182 0.919900451132971 0.688129143847045 0.907057493350208 0.711378829441791 0.822940911226608 0.91614859339234 0.878934612647461 0.878056866846475
1.03851557756625 0.984601851432501 0.914105412834036 0.896456099303895 0.877795993188827 0.98680883906375 0.827564636058094 0.905123924257117 0.970930598889347 0.747228780663551 0.833698149942318 0.586488986858433 0.635913654017164 0.964214350154112 0.634637414199032 0.788992691906094 0.763491096609929 0.884532054741189 0.852879972713188 0.754874873281597 0.910371549773832 0.937671717287166 0.718280275808455 0.923617371534387 0.751348754621228 0.84301230681981 0.932262088065152 0.897164877615674 0.892032620389042
1.03432590969448 0.986466227705734 0.923102405767709 0.91310550996364 0.896528929532167 0.980643851971564 0.846311099717572 0.922907419940079 0.977689690926495 0.775272466067096 0.855718434851624 0.6199229502573 0.654530952840364 0.974644123968122 0.655319388152216 0.819194640700594 0.796773341090644 0.902698089398432 0.87697144168718 0.775539083002271 0.928567757754374 0.95277911888142 0.747762708334233 0.938279194391872 0.789732039401523 0.862211271985382 0.9461926323013 0.913265642470824 0.904503891791249
1.02883866176044 0.987882244403222 0.931916527098741 0.928536667556504 0.913724177360985 0.97352320347751 0.863906358646675 0.938449806052683 0.983348609292543 0.802015973011946 0.876150877959559 0.652806508018002 0.672692666908055 0.98307962518312 0.675848134497685 0.847595453738953 0.828018969576188 0.919042685142107 0.89853955152044 0.79544548710358 0.944444757247266 0.965448364043355 0.776353996491232 0.951177499216742 0.826008324654128 0.880504373312236 0.958112782100932 0.927464837561442 0.915179537797262
1.02257768774002 0.989415515303698 0.940481709895511 0.942643541376922 0.929355028006908 0.965531719488923 0.880380902527826 0.951897935410682 0.988021003819084 0.827438502219331 0.895018459881358 0.68508251230654 0.690427935049307 0.98967315844789 0.696237642198981 0.874013858556242 0.857022130552732 0.933714471799408 0.917697427347822 0.814603967537428 0.958113234371183 0.975881158568892 0.803840157281793 0.962425815403028 0.859680124868564 0.897841444843683 0.968246834597786 0.939848011625725 0.924557285255773
1.01605032386272 0.991111892593218 0.9487318872264 0.955320253346593 0.943428319346237 0.95675075362113 0.895759164135481 0.96339732225650 0.991801741898776 0.851507078344038 0.912340005532454 0.716682764983968 0.707763857856445 0.994558135797413 0.716498864682297 0.898283791717503 0.883608262479944 0.94681169169587 0.934561693795023 0.833018027656966 0.969677669446278 0.984252129970291 0.830016205060311 0.972102051849994 0.890289874481596 0.914146443469564 0.976789315870872 0.950591039792845 0.933548699148917
1.00976132269376 0.992874424878472 0.956600992159784 0.966478941983996 0.955963224565684 0.947254319212516 0.910064469645578 0.9730875335787 0.994783677651203 0.874175743720778 0.928124084427 0.747526386160657 0.724726733667988 0.9978492961391 0.736626916400262 0.920250523487412 0.907632078028874 0.958412341779492 0.949248558741904 0.850682203330354 0.979235821365805 0.9907139051247 0.854697183967594 0.980272194736505 0.917445635340812 0.929333987704169 0.983809401663694 0.960150117049602 0.94229052834041
1.00400530655151 0.994606156698793 0.964022957764044 0.976068710284208 0.966971336450702 0.937108759221566 0.923317835899712 0.981097405332053 0.997039799345405 0.895375466001978 0.942371216944507 0.777509125105367 0.741334104519909 0.999646087118256 0.756609800715093 0.939774701103625 0.928977841003005 0.968564001857437 0.961868488750823 0.867586642668064 0.986880527904318 0.99540238245365 0.877716949681217 0.986985659901386 0.940853292363827 0.943311187256722 0.989352259283064 0.968645400381328 0.950522041895834
0.99871479609382 0.996210132593512 0.970931033932831 0.984072593285114 0.976416532937334 0.926377983183878 0.9355290345735 0.987551408780404 0.99862434247248 0.915025525026595 0.955077591510564 0.806512926280342 0.757598086029788 1.00003610317936 0.77642781104092 0.956729518342692 0.94756159534947 0.977297093438985 0.972526785138397 0.88371188647828 0.992698720859045 0.998431503909992 0.898936334338282 0.992278501213336 0.960330472669567 0.955976059517355 0.993593007981977 0.97593047282057 0.95797939093863
0.99378648287358 0.997589397101961 0.9772555275995 0.990495759507765 0.98427140663466 0.915119284187325 0.946704419551198 0.99255850756899 0.99959063842537 0.93302345163149 0.96623514961441 0.834393565303336 0.773530521883666 0.999093069160375 0.796042791495684 0.971006887475482 0.963329525288025 0.984626917083897 0.981320049821552 0.899031868031056 0.996774000162995 0.99990553017463 0.918240824200621 0.996182156639183 0.975815235967446 0.96721362826048 0.996818762221377 0.981858425534757 0.964398728839187
0.989117058443668 0.99864626118211 0.98292595340955 0.995338747355757 0.990541415298442 0.9033841947064 0.956849332297685 0.996221358702522 0.999985305605086 0.949247740005718 0.975830892985153 0.860985326207019 0.789140318588522 0.996884535753943 0.815400390587435 0.98251491950928 0.976257709854817 0.990552144875063 0.988336014810169 0.913515450390507 0.99918332944664 0.999909633131042 0.9355464056357 0.998717879986108 0.987357303161657 0.976942970001507 0.999031246395778 0.986544942654374 0.969614588555506
0.98460321435697 0.99927295380315 0.987871825997388 0.99854168791136 0.995234077049986 0.891222617017739 0.965963814995018 0.998633356078134 0.999844991891571 0.963556531054288 0.98384981318161 0.886086146748582 0.804432154838947 0.993465774256723 0.834435169002555 0.991178770933044 0.98634971283309 0.995063625633336 0.993654144069416 0.927122205768217 1.00000002555057 0.998520249421267 0.950795696456597 0.999903914298253 0.995090881358735 0.985074498650248 1.00013366188725 0.990506750021626 0.973822046528807
0.980141642166368 0.999354376298295 0.992022659997417 1.00004105047594 0.998358196145987 0.878680518281819 0.974041331070619 0.999873741933475 0.999196011596386 0.975785122050506 0.990278001582994 0.909468006506384 0.819404666884006 0.988886892855545 0.85305648048275 0.996941547462504 0.993635048835088 0.998138871599238 0.997342434883999 0.93980630453253 0.999290668130703 0.995803187851793 0.963963181008409 0.999753337359956 0.999230993688126 0.991487159961381 1.00003737359667 0.994009408620553 0.977298751549934
0.975628990373754 0.998775264933588 0.995317226580377 0.9998319090912 0.999923284547229 0.865797709641837 0.981070072111521 1.00001288531575 0.998059973081448 0.985751871317398 0.995100682655274 0.93086640906953 0.834055323177317 0.983190401336203 0.871165270095171 0.999762482179784 0.998164660742808 0.99975003294002 0.99946278873562 0.951510920233278 0.997114443107259 0.991811479529118 0.975043210261057 0.998275903821334 1.00002410381325 0.996158607547827 0.998868192738422 0.996924600599044 0.98032235240973
0.970956800164246 0.997420355975071 0.99774782186961 0.997915697327512 0.99994686282573 0.852609620564954 0.987037297205235 0.99911648149868 0.996458247840348 0.993256465380132 0.998307134274579 0.949988259557815 0.848378023954615 0.976411715529845 0.88865602519543 0.99961905065369 1.00001188420074 0.999861323019893 1.00006550723850 0.962171476413648 0.993526547041396 0.98659313838251 0.984053703119029 0.995480655239833 0.99775210582613 0.99908399881455 0.996971348317314 0.99909534886128 0.983170497899038
0.966006747869242 0.99517867857659 0.999323939107907 0.994300058905144 0.99846034519356 0.839150254802599 0.991923469757506 0.997232587974676 0.994405688130968 0.99808945275284 0.999889648920253 0.966508623460528 0.862357950724288 0.968583226815547 0.905409555509809 0.996504799089004 0.999265128027144 0.998431791716238 0.999193181833192 0.971715881196567 0.988571981801489 0.980187077917232 0.991022465288537 0.991373986768045 0.992711548696596 1.00018980182594 0.994476977662391 1.00036467631144 0.986120836808702
0.960659383955175 0.992021195666223 1.00003223377417 0.988996298694458 0.995495695635101 0.825446238877662 0.995701278415805 0.994404022254992 0.991908889555722 1.00004117244752 0.999844579808707 0.980088198371626 0.875978844938227 0.95972976260848 0.921301740144527 0.990429286595621 0.996028409975993 0.995418311020585 0.99687923645578 0.98005830956122 0.982291941142604 0.97262218576475 0.99598857469523 0.985956927327666 0.985150396599285 0.99938512441124 0.991291185168945 1.00059724491329 0.989459622467294
0.954795258888475 0.98799169647463 0.99984478121074 0.982037129620372 0.991085691236442 0.811520882317445 0.998338147979408 0.990666090451078 0.988968996582894 0.998916527340396 0.998170193660197 0.99038855597552 0.88921946877109 0.949871552944189 0.936197063357681 0.98141831572752 0.990417112331837 0.99077578046009 0.993147480942356 0.987106237111848 0.974720501493162 0.963925062859303 0.998995437426718 0.979234798251033 0.975313946483412 0.996820873758795 0.987310512103346 0.999861236635885 0.993558515088467
0.948294923135571 0.983102756650088 0.998733421275328 0.97347717812269 0.985270641685122 0.797394811621289 0.999798835802303 0.986040551221208 0.985584544796052 0.99455014183105 0.99486715461159 0.997093284556253 0.90204941085911 0.939026758902563 0.949950274644734 0.969510394310547 0.982555319720936 0.984459562417618 0.988015537021935 0.992754257236904 0.965883428233235 0.95411525099134 1.00008945147815 0.971214645871852 0.963548400020398 0.992690385162682 0.982431499731962 0.998336427152093 0.998838044688187
0.941049024973008 0.977319704679269 0.996663340229758 0.963372837937798 0.978092015490457 0.783083011889439 1.00003506552284 0.980538040593864 0.98175389223037 0.986820448225777 0.98993704085217 0.99991873081726 0.914429239769695 0.927206628954774 0.962407265273808 0.954760129264373 0.972573365927137 0.97643011289585 0.981489410648876 0.996884598717061 0.955803298672947 0.943202904032933 0.999316958230022 0.961898934694726 0.950011116492797 0.98681801285318 0.976580234780708 0.99620373797243 1.00571931660241
0.933053080855721 0.970604355475945 0.993553872942264 0.95178889361845 0.96958960914255 0.768596979315467 0.998993536402018 0.974165308467805 0.97746844744189 0.97565354123787 0.98338169544388 0.998631456640075 0.926317073584361 0.914419634415584 0.973402705262382 0.937233395832038 0.960606064014404 0.966651867614496 0.973568782740074 0.999367544379464 0.944494132235446 0.931194567041825 0.996721426564723 0.951280987266366 0.934735011026914 0.979009980162452 0.969828028528963 0.993644090607415 1.01451611547917
0.924363870762306 0.962916057240055 0.989308538736358 0.93880319811946 0.959801527394704 0.753947333601542 0.99661225450236 0.966912886295309 0.97271001932291 0.961036588219202 0.975202625149203 0.993058388059833 0.937658443794333 0.900670613492969 0.98276270928399 0.917008705934584 0.946790063559484 0.955096986775522 0.96424608472725 1.00005926909583 0.931962935673203 0.918093695432301 0.992343875542434 0.939353542367543 0.917910300630578 0.969526992192404 0.962290738162235 0.990838406567566 1.02463295846741
0.914995957748506 0.95418065725488 0.98384004004992 0.92449312267541 0.94876403637474 0.739140597239343 0.992814642189449 0.958756714684328 0.967459712617568 0.943015813771352 0.965400111177504 0.983097494197786 0.948385176023035 0.885959676765102 0.990301231976182 0.894176397530386 0.931263471669196 0.941742177818107 0.953503347137298 0.998804748751677 0.918213893795344 0.903895872488282 0.986221629852374 0.926127203812574 0.899946851761735 0.958859774605767 0.95408423261539 0.988005841276554 1.03501650300667
0.904902496859267 0.94430287586236 0.97706250705684 0.908934087667468 0.936507729083936 0.724177539172278 0.98751531018669 0.949667001514457 0.961696538503593 0.921700316073099 0.953970968161209 0.968724435980917 0.95842383863999 0.870284926237467 0.995821478775104 0.8688360750791 0.914158638475387 0.926565263362602 0.94131779822297 0.995431705051453 0.903243333998988 0.888589241183015 0.97838414166929 0.911625854980989 0.880900131212464 0.946922261150674 0.945324380823289 0.985633533526925 1.04460991986071
0.894031934078653 0.933199050103282 0.968870261959319 0.89219849437016 0.923052393616264 0.709057093252249 0.980613950439228 0.939599734853903 0.955392826488185 0.897258937163898 0.940909988299565 0.949999432030063 0.96769096837962 0.85363989457417 0.999115150678151 0.841099993280611 0.895591055755896 0.909544748712279 0.927656070868174 0.989758153645531 0.88703758816301 0.872159427929336 0.968856371793015 0.895830567999739 0.860686545776325 0.93350184801076 0.936129179281597 0.984323252699125 1.05235637979331
0.882332006453925 0.920788542270355 0.95911182657215 0.874352657114937 0.90841205512242 0.69377770019896 0.97198902960511 0.92849224724551 0.94850981931958 0.869917776248225 0.926206935380748 0.927063336258313 0.976080422063705 0.836012643031535 0.99996111872704 0.811090016854845 0.87566426668439 0.890658803084191 0.91247581178143 0.98158566922582 0.869580493010784 0.854588305518801 0.957657325461387 0.878708912287824 0.839234951518382 0.918412942685465 0.92677654047528 0.98467135384213 1.05719905356824
0.869723966928036 0.906977737520414 0.947627966007195 0.855447927841647 0.892586517157508 0.67833301535039 0.961505981980772 0.916274631160194 0.940999418527447 0.839948646233664 0.909846487436042 0.900133230947293 0.983477947567428 0.817389001700092 0.99812525286921 0.778937905410282 0.854458025986182 0.869883623588612 0.895727365234382 0.97070503526383 0.850848655301421 0.835845617042052 0.944795976889477 0.86023442378157 0.816638981644428 0.901771387254333 0.917812827095188 0.986634496187645 1.05808111194925
0.856095119933632 0.891639245731294 0.93424303361893 0.835524717888545 0.87555658858364 0.66271211267914 0.948998383131776 0.902853810249566 0.932812514216795 0.807660361446714 0.89180387833918 0.869495058969622 0.989744886369443 0.797750602281693 0.993357067879418 0.74478631922222 0.832036101286447 0.84719198391418 0.877347910093835 0.956895017768628 0.830808120375526 0.815898635063352 0.930275502971764 0.840423032387627 0.793107705377692 0.88388168986252 0.909810079345665 0.988961870651082 1.05394572570013
0.841329118850747 0.874639859331466 0.918733732060118 0.814598734290235 0.857287959948873 0.646902844313869 0.93427651323708 0.888109175325881 0.923887042827764 0.773386428607836 0.872048312619402 0.835492676258844 0.994712195073384 0.777075927376907 0.98539015833224 0.70879079847675 0.808436340583296 0.822546507896772 0.857267035990374 0.93992724994468 0.809417333929892 0.794709466875514 0.914093741643171 0.819290487734277 0.768852570921875 0.865051252160433 0.903024346364343 0.990268689631922 1.04373606558463
0.82530882043655 0.85584041093698 0.900842680543919 0.792666976226829 0.837711727739072 0.630887851376418 0.9171119023495 0.871904171532044 0.914141487743472 0.737476307814936 0.850536279304309 0.79851459183195 0.998186775516138 0.755337560537686 0.97393599788659 0.671115536181044 0.783681529018367 0.795905906044662 0.835398403754607 0.919567357979067 0.78663133837209 0.772227697078368 0.896230389659664 0.7968067224543 0.744091975469752 0.845600876222629 0.896417009770068 0.989170165529649 1.02639530236652
0.807906067152886 0.83507206372761 0.880271369752207 0.76969910625357 0.816733933697108 0.614644728172545 0.897234052093341 0.854055038914917 0.903473306141459 0.700281185566685 0.82721159730741 0.758978771984018 0.999921961098313 0.732494004963032 0.95868183555598 0.631931693327797 0.757769821820912 0.767218681659329 0.811640269486701 0.895579653512654 0.762386249761856 0.748394767566339 0.876660941034872 0.772934703742562 0.719132980596582 0.826054761051045 0.888617922950586 0.984281510743744 1.00096576098720
0.788923684340156 0.812145677832601 0.856653009707892 0.745620418107376 0.794207707079584 0.598148780861377 0.8743192513729 0.83433681933518 0.891774237427888 0.662145534138456 0.801998132127244 0.717324372928638 0.999628360272842 0.708495616639627 0.939287610993569 0.591425126277418 0.730679350973345 0.736419317398552 0.785880335922157 0.867732639005725 0.736610323924478 0.723148480248492 0.855360615945624 0.74763581689767 0.694337535730116 0.807092189246947 0.878256939127909 0.97421793767369 0.967486646499354
0.768136671676354 0.786848777056071 0.829565437096369 0.720315689004062 0.769938879908522 0.581370095533498 0.847982173479161 0.812465946030757 0.878891658765868 0.623401129477042 0.774805905170917 0.673992031822765 0.99693175982845 0.683280234242267 0.915373462185894 0.549793066993773 0.702367374432118 0.703430986433978 0.75798094035408 0.835807578705538 0.709224375006897 0.696421427713346 0.832284287395847 0.720852810804072 0.669462844291788 0.788637671352609 0.863963911524048 0.95759465871897 0.926573319146522
0.74529182889749 0.758931858349975 0.798498444143804 0.693609943284823 0.743680094191448 0.564266930354027 0.817749218991514 0.788075171389174 0.864631958440565 0.584362611328774 0.745513002884947 0.629420714761453 0.991373289264862 0.656758545875365 0.886514577854665 0.507245103068449 0.67276032748262 0.668152638107386 0.727787410673307 0.799607660042608 0.680130131445078 0.66809795235961 0.807353406183917 0.692516292581981 0.643164888224156 0.768855465723179 0.844368693361015 0.933026886279065 0.87884813565306
0.720045641376655 0.728108193942392 0.762847676301637 0.665288472781813 0.715109388018173 0.546794910570747 0.783059474079857 0.760684443854835 0.848768004740729 0.545317115119126 0.713964783072169 0.584042956259688 0.98235253361597 0.628823155607497 0.852227448178783 0.46399638262969 0.641764428929396 0.630470089992214 0.695119135781462 0.758959135675723 0.649205092920936 0.638050742789411 0.780486217118024 0.66255666160827 0.613983080755526 0.745660916458103 0.818101137860821 0.899210549176838 0.82493345274333
0.691975896227487 0.694036042715237 0.72190653750535 0.635067938712659 0.683813552623659 0.528901042815986 0.74323360981888 0.7296562372049 0.830972342889448 0.506525816271991 0.67996362152713 0.538280446810338 0.969083610582564 0.599329046823447 0.811952449436733 0.420280347604439 0.609240654509021 0.59024213213757 0.659757830350136 0.713730887020728 0.616319749061561 0.606183572313366 0.751599408572965 0.63098937684344 0.580456835114203 0.716969367656823 0.78379148313887 0.856031342288367 0.765451627141695
0.660529686235164 0.656295448825546 0.674861384624693 0.602598418011006 0.649244370629965 0.510512294403676 0.697447214068541 0.69411031004521 0.81082695871384 0.468225130828093 0.643257152176537 0.492552230083224 0.950516809527058 0.568099662835238 0.765026636819514 0.376347575465549 0.57501901072775 0.547297730617285 0.621462429682142 0.663841167286904 0.581308402696697 0.572403988196343 0.720581145570195 0.598381583958795 0.541125564528492 0.680696163418786 0.740565669129114 0.804281729726486 0.701025015572514
0.624974143970435 0.61435760462117 0.620804077761774 0.567412950094239 0.610668952184272 0.491543724556347 0.644740585824903 0.652817426795237 0.78774857318242 0.430628314371701 0.603506389589444 0.447267496800204 0.925184938924757 0.534888167950765 0.710640416728454 0.332463279065469 0.538873943915285 0.501426494714007 0.579931565393998 0.609264763234426 0.543961194464985 0.536549160913239 0.68727637911036 0.565260969443103 0.494605314460876 0.634775559424523 0.689017813311373 0.744776980389822 0.632275974760151
0.584306432106334 0.567509613615654 0.558836857682323 0.528895378702733 0.567083741926001 0.471889789300576 0.5840301938931 0.603975186474229 0.760885778678505 0.393930874650817 0.56026157824267 0.402816214283066 0.890985295347306 0.499391352297613 0.647770922955802 0.288911148129823 0.500498739036688 0.452385102515926 0.534827829588967 0.550039541892579 0.504064254892303 0.498288919416515 0.6515233642931 0.530158825723961 0.44088233229288 0.5784734560332 0.630012566712709 0.678332363177002 0.559826861428966
0.537097301966614 0.514707403231589 0.488368463227191 0.486210430656818 0.517098942223364 0.451404365872056 0.514238901584835 0.544845265931544 0.728984677363898 0.358308371944393 0.512903288476362 0.359558852873455 0.8447433049106 0.461170215079627 0.575109313283696 0.246012142068885 0.459514573915823 0.399883313347559 0.485740380542363 0.486274299830857 0.461388743917551 0.457269243472461 0.613104768730342 0.490679566210747 0.381125129077604 0.513241799017448 0.56441458036018 0.605763146986653 0.484300032303321
0.481204002045406 0.454403823747065 0.409793188350393 0.43820172384008 0.458753492607254 0.429913529434043 0.434613430377701 0.471111748933583 0.690017258577295 0.323919155316466 0.460509780000127 0.317832079847935 0.781366308264265 0.419645457073595 0.490904428100539 0.204114675033920 0.415368238275051 0.343589910011756 0.432180019498894 0.418160289643417 0.415533458088162 0.413381549201659 0.571754000607025 0.444422505041249 0.316541003820539 0.440735599763851 0.49308850528085 0.5278846007174 0.406317844107579
0.41315520117442 0.38450405364199 0.325662416817192 0.383243701580872 0.389384967392276 0.407157461690659 0.345577669920525 0.375912116061696 0.640427574420278 0.290902696885611 0.401624435695411 0.277941033949778 0.691957442431238 0.373937927717567 0.392818836124467 0.163611384100580 0.367365259879242 0.283131273583415 0.373589786916086 0.345953837036087 0.365987357319201 0.366995541381346 0.527252930609594 0.389013158225493 0.248337255527178 0.362609869658993 0.416898992501777 0.445511993267872 0.3265026535661
0.326922496675639 0.302697139816519 0.241936001958289 0.319108240607321 0.306019119009432 0.382786136852781 0.250380641872276 0.250560226395607 0.573235634877105 0.259380293698723 0.333738968315772 0.240146977959855 0.55919063916216 0.322747418755425 0.277718812424177 0.124942785313195 0.314426264944137 0.218142958182694 0.309255488334536 0.269986058567492 0.312455100146169 0.316446735444780 0.479956974287193 0.323612802752795 0.177721183203012 0.280519620089456 0.336710693050024 0.359460593536694 0.245476817403248
0.21429746685999 0.208889838256626 0.167375850803224 0.243252601918113 0.208811988539365 0.356274672370282 0.158091180123693 0.110106431331283 0.471695156230302 0.229457113809781 0.252125042279469 0.204676451962458 0.347892250432594 0.263922970976014 0.142432284712280 0.0886544877783393 0.255073500128878 0.14833307143637 0.238344465605769 0.190466295978479 0.254301173871092 0.258581637351897 0.428901620447215 0.249742475097821 0.105900085853533 0.196119862441823 0.253388257952651 0.270545670422493 0.163862692343382
0.0906987795843683 0.114640426847516 0.109296779926761 0.155846441396254 0.112603160309599 0.326773295544065 0.0838385185455833 0.0268978820937591 0.280195105485804 0.20122100908445 0.143061986487794 0.171722111355979 0.0488238362575713 0.193461922666446 0.00687201896346108 0.0558181200950659 0.186416956281423 0.0752252544726703 0.160137065684493 0.107946545243779 0.188516541711415 0.190482256944856 0.369337934387399 0.169123805020573 0.0340791034183394 0.111065608102678 0.167796338236719 0.179582492823897 0.0821870432045671
0.0286155091453685 0.0489015244208672 0.0691203844050974 0.0721468743293097 0.0469343675672894 0.292766836092326 0.0373285590520360 0.0040944831920588 -0.0659604778355614 0.174742980627016 -0.0277401192003713 0.141434201907070 -0.162507700952809 0.101220822155946 -0.113995416481282 0.0284409428540324 0.104734142709472 0.00535401071050974 0.0759065909545191 0.0235939272629114 0.112299566505260 0.112246531979840 0.296018749658987 0.0834784222810508 -0.0374076877313671 0.0268568300753022 0.0807997920898039 0.087407776233554 0.000516217248125866
0.0111053554918195 0.0192315628894521 0.0431911097221563 0.0232998622953139 0.0170437896677067 0.251166345519793 0.0141063021822243 0.000109938744175956 -0.348629717684168 0.150081526564058 -0.215219457758563 0.113929637652473 -0.369974475771903 -0.0171203432817086 -0.234843454821855 0.00712081919749481 0.0124792697856285 -0.0626697131610658 -0.0111315589549077 -0.0610593774117719 0.0274221017646470 0.0258839584207667 0.206499524106174 -0.00536548472671975 -0.108894478881072 -0.0570175078364181 -0.0065960918124632 -0.00498742399996124 -0.0811546087083169
0.00501893304028987 0.00780941666052526 0.026866114296784 0.00669051904061932 0.00583421177805811 0.193326810808175 0.00426111082215823 -0.000692109968858295 -0.631298957532778 0.127279572332374 -0.402698796316758 0.0892908888689773 -0.577441250590998 -0.138018818053705 -0.355691493162428 -0.0115362864102598 -0.0813119770557688 -0.130686164373272 -0.0985007427091343 -0.145703017620576 -0.0616281646680151 -0.064935082391442 0.104293785677991 -0.0947791934542585 -0.180381270030777 -0.140891845748140 -0.0939919757147303 -0.0973826242334764 -0.162825434664758
0.00241242967436859 0.00325504833713274 0.0166135495614643 0.00188899676383573 0.00178772185143453 0.0738994152151099 0.000799368942079354 -0.00145470994754394 -0.913968197381384 0.106368969286319 -0.59017813487495 0.067574703062077 -0.78490802541009 -0.258917292825702 -0.476539531502999 -0.0300313161776370 -0.175100853624939 -0.198702615585478 -0.185869926463359 -0.230346657829378 -0.150834881350186 -0.155873624401653 -0.00623155684991742 -0.184192902181797 -0.251868061180482 -0.224766183659859 -0.181387859616997 -0.189777824466994 -0.244496260621201
0.00116794225843661 0.00133347803733690 0.0101507728809345 0.000464942469645378 0.00040963841287989 -0.00268497342185536 -4.16384154008899e-05 -0.0022173099262296 -1.19663743722999 0.0873675740617406 -0.777657473433144 0.0488107951392584 -0.992374800229184 -0.379815767597701 -0.597387569843573 -0.0485263459450146 -0.268889730194112 -0.266719066797685 -0.273239110217586 -0.314990298038182 -0.240041598032358 -0.246812166411862 -0.118730935730605 -0.273606610909338 -0.323354852330187 -0.308640521571579 -0.268783743519264 -0.282173024700509 -0.326167086577642
0.000545605116621818 0.000505962044674033 0.0060679951492782 7.7014972737229e-05 3.64385200339971e-05 0.000966835337773351 -0.000391118905136638 -0.00297990990491526 -1.47930667707860 0.0702833300424124 -0.965136811991336 0.0330112835561015 -1.19984157504828 -0.500714242369698 -0.718235608184146 -0.0670213757123922 -0.362678606763284 -0.334735518009891 -0.360608293971813 -0.399633938246986 -0.329248314714531 -0.337750708422072 -0.231230314611295 -0.363020319636877 -0.394841643479894 -0.392514859483299 -0.356179627421532 -0.374568224934024 -0.407837912534083
0.000233620802448903 0.000162181059532834 0.00350390831465161 -9.95588393602672e-06 -5.45107038432059e-05 0.00558824178382374 -0.000740670529611822 -0.00374250988360093 -1.76197591692721 0.0551136716224425 -1.15261615054953 0.0202067577303685 -1.40730834986737 -0.621612717141696 -0.839083646524719 -0.0855164054797698 -0.456467483332456 -0.402751969222097 -0.447977477726041 -0.484277578455791 -0.418455031396703 -0.428689250432282 -0.343729693491986 -0.452434028364417 -0.466328434629599 -0.476389197395021 -0.443575511323799 -0.466963425167539 -0.489508738490526
8.4948110506372e-05 3.72082302647256e-05 0.00191855424216004 -4.37600559140224e-05 -0.000130307587862482 0.0102096482298742 -0.001090222154087 -0.00450510986228659 -2.04464515677581 0.0418494691637622 -1.34009548910772 0.0105591729752609 -1.61477512468646 -0.742511191913695 -0.959931684865292 -0.104011435247147 -0.550256359901627 -0.470768420434304 -0.535346661480267 -0.568921218664594 -0.507661748078876 -0.519627792442492 -0.456229072372676 -0.541847737091956 -0.537815225779305 -0.560263535306741 -0.530971395226066 -0.559358625401057 -0.571179564446967
2.2851384411202e-05 9.7981334567184e-07 0.0009667304044329 -7.80567617217177e-05 -0.000206104471881757 0.0148310546759247 -0.00143977377856218 -0.00526770984097224 -2.32731439662442 0.0304702184222009 -1.52757482766591 0.00419266457356503 -1.82224189950556 -0.863409666685692 -1.08077972320586 -0.122506465014525 -0.644045236470799 -0.538784871646511 -0.622715845234494 -0.653564858873399 -0.596868464761048 -0.610566334452702 -0.568728451253363 -0.631261445819496 -0.60930201692901 -0.644137873218461 -0.618367279128333 -0.651753825634572 -0.65285039040341
1.96496850496923e-06 -7.98957812983145e-06 0.000427944716191558 -0.000112353467529413 -0.000281901355901032 0.0194524611219751 -0.00178932540303737 -0.0060303098196579 -2.60998363647303 0.0209485452272268 -1.71505416622411 0.000341875567842043 -2.02970867432465 -0.98430814145769 -1.20162776154644 -0.141001494781902 -0.737834113039971 -0.606801322858717 -0.71008502898872 -0.738208499082202 -0.68607518144322 -0.701504876462912 -0.681227830134054 -0.720675154547035 -0.680788808078715 -0.728012211130182 -0.705763163030602 -0.744149025868087 -0.734521216359851
-3.03113755126049e-06 -1.58603252425233e-05 0.000151359481397955 -0.000146650173337108 -0.000357698239920307 0.0240738675680255 -0.00213887702751255 -0.00679290979834356 -2.89265287632164 0.0132506020260619 -1.9025335047823 -0.00269102538270983 -2.23717544914374 -1.10520661622969 -1.32247579988701 -0.15949652454928 -0.831622989609143 -0.674817774070924 -0.797454212742947 -0.822852139291007 -0.775281898125393 -0.792443418473121 -0.793727209014744 -0.810088863274576 -0.752275599228422 -0.811886549041902 -0.793159046932869 -0.836544226101604 -0.816192042316293
-6.26025256667524e-06 -2.37310723552151e-05 3.41765836854706e-05 -0.000180946879144803 -0.000433495123939582 0.0286952740140759 -0.00248842865198773 -0.00755550977702923 -3.17532211617024 0.0073835289390893 -2.09001284334050 -0.00570356193788194 -2.44464222396284 -1.22610509100169 -1.44332383822758 -0.177991554316658 -0.925411866178315 -0.74283422528313 -0.884823396497174 -0.907495779499811 -0.864488614807565 -0.883381960483332 -0.906226587895434 -0.899502572002114 -0.823762390378127 -0.895760886953622 -0.880554930835136 -0.92893942633512 -0.897862868272735
-9.48936758209e-06 -3.1601819467907e-05 -3.78999306132433e-06 -0.000215243584952498 -0.000509292007958857 0.0333166804601264 -0.00283798027646291 -0.00831810975571489 -3.45799135601885 0.00334411042935267 -2.27749218189869 -0.00871609849305405 -2.65210899878193 -1.34700356577368 -1.56417187656816 -0.196486584084035 -1.01920074274749 -0.810850676495337 -0.9721925802514 -0.992139419708615 -0.953695331489738 -0.974320502493541 -1.01872596677612 -0.988916280729655 -0.895249181527832 -0.979635224865344 -0.967950814737403 -1.02133462656863 -0.979533694229177
-1.27184825975048e-05 -3.94725665805989e-05 -2.02347797027586e-05 -0.000249540290760193 -0.000585088891978131 0.0379380869061768 -0.00318753190093809 -0.00908070973440055 -3.74066059586746 0.000988781899900103 -2.46497152045688 -0.0117286350482262 -2.85957577360103 -1.46790204054568 -1.68501991490873 -0.214981613851413 -1.11298961931666 -0.878867127707544 -1.05956176400563 -1.07678305991742 -1.04290204817191 -1.06525904450375 -1.13122534565681 -1.07832998945719 -0.966735972677539 -1.06350956277706 -1.05534669863967 -1.11372982680215 -1.06120452018562
-1.59475976129195e-05 -4.73433136932908e-05 -3.65444998200086e-05 -0.000283836996567889 -0.000660885775997406 0.0425594933522272 -0.00353708352541327 -0.0098433097130862 -4.02332983571607 -0.000390584881950083 -2.65245085901507 -0.0147411716033983 -3.06704254842012 -1.58880051531768 -1.80586795324930 -0.233476643618790 -1.20677849588583 -0.94688357891975 -1.14693094775985 -1.16142670012622 -1.13210876485408 -1.15619758651396 -1.24372472453750 -1.16774369818473 -1.03822276382724 -1.14738390068878 -1.14274258254194 -1.20612502703567 -1.14287534614206
-1.91767126283342e-05 -5.52140608059825e-05 -5.28542199372587e-05 -0.000318133702375583 -0.000736682660016681 0.0471808997982776 -0.00388663514988845 -0.0106059096917719 -4.30599907556468 -0.00159876682507603 -2.83993019757326 -0.0177537081585703 -3.27450932323921 -1.70969899008968 -1.92671599158987 -0.251971673386168 -1.300567372455 -1.01490003013196 -1.23430013151408 -1.24607034033503 -1.22131548153625 -1.24713612852417 -1.35622410341819 -1.25715740691227 -1.10970955497695 -1.23125823860050 -1.23013846644420 -1.29852022726918 -1.2245461720985
-2.24058276437490e-05 -6.30848079186744e-05 -6.91639400545087e-05 -0.000352430408183279 -0.000812479544035956 0.0518023062443281 -0.00423618677436363 -0.0113685096704575 -4.58866831541328 -0.00280694876820200 -3.02740953613146 -0.0207662447137424 -3.48197609805831 -1.83059746486168 -2.04756402993045 -0.270466703153545 -1.39435624902417 -1.08291648134416 -1.32166931526831 -1.33071398054383 -1.31052219821843 -1.33807467053438 -1.46872348229888 -1.34657111563981 -1.18119634612665 -1.31513257651222 -1.31753435034647 -1.39091542750270 -1.30621699805494
-2.56349426591637e-05 -7.09555550313662e-05 -8.54736601717587e-05 -0.000386727113990974 -0.000888276428055231 0.0564237126903785 -0.00458573839883881 -0.0121311096491432 -4.87133755526189 -0.00401513071132796 -3.21488887468965 -0.0237787812689146 -3.6894428728774 -1.95149593963367 -2.16841206827102 -0.288961732920923 -1.48814512559335 -1.15093293255637 -1.40903849902253 -1.41535762075264 -1.39972891490060 -1.42901321254459 -1.58122286117957 -1.43598482436735 -1.25268313727636 -1.39900691442395 -1.40493023424874 -1.48331062773621 -1.38788782401138
-2.88640576745785e-05 -7.88263021440581e-05 -0.000101783380289009 -0.000421023819798669 -0.000964073312074506 0.0610451191364289 -0.004935290023314 -0.0128937096278288 -5.1540067951105 -0.00522331265445393 -3.40236821324784 -0.0267913178240867 -3.89690964769649 -2.07239441440567 -2.28926010661159 -0.3074567626883 -1.58193400216252 -1.21894938376858 -1.49640768277676 -1.50000126096144 -1.48893563158277 -1.5199517545548 -1.69372224006026 -1.52539853309489 -1.32416992842606 -1.48288125233567 -1.49232611815101 -1.57570582796973 -1.46955864996783
-3.20931726899932e-05 -8.669704925675e-05 -0.000118093100406259 -0.000455320525606364 -0.00103987019609378 0.0656665255824794 -0.00528484164778918 -0.0136563096065145 -5.43667603495911 -0.0064314945975799 -3.58984755180604 -0.0298038543792588 -4.10437642251559 -2.19329288917767 -2.41010814495217 -0.325951792455678 -1.67572287873169 -1.28696583498078 -1.58377686653099 -1.58464490117024 -1.57814234826494 -1.61089029656501 -1.80622161894095 -1.61481224182243 -1.39565671957577 -1.56675559024739 -1.57972200205327 -1.66810102820324 -1.55122947592427
