19.2905814326414 21.0689996325586 14.0518583280459 17.2423433186804 9.29761295653679 14.8548363641599 15.4982397973005 19.6710091286789 18.3833789806443 34.6998407296081 6.44597398686147 12.2340726609123 18.7689848216515 16.4598601860449 18.9083694119698 13.2683264867602 11.4042949611230 10.7891683318838 16.9803325919364 14.1899928619912 15.820757480368 14.8132181225230 14.9645484684646 14.8076730572125 17.5408650968091 14.3494949164772 17.5855260301665 19.1301494790159 18.8376750108809 23.6414465539769 16.6103197962149 19.2467557405956 18.7426859223612 18.1667887369818 20.3773811572812 18.8280816823507 24.7912915965947 20.9610699331482 20.6498706710667
17.6737878420717 19.2148399137111 13.6681263415915 17.2911127497134 9.18936025150708 14.0069796145759 15.1784079635278 19.0655873857144 17.2111687211636 29.6358192379471 8.16032167927301 12.1881138707292 17.801139615807 16.184839066485 17.8927538708293 13.3552006356016 12.1384700351446 10.8758476972645 16.4877994118204 13.3901862988119 15.5724172717115 15.0286057618048 14.2294570171744 14.6412466764918 16.6243436680027 13.8323980102409 17.1757240214944 17.6732277173033 17.8051701502086 20.1507207562002 16.490322891025 17.7318543067722 17.6239491960939 17.1331756414798 18.3032679700097 17.7682442555997 21.6625301218363 18.9178987990165 18.9444162276134
16.0569942515019 17.3606801948637 13.2843943551370 17.1604905101796 9.08110754647737 13.159122864992 14.8585761297551 17.3723321676631 15.9420886000846 24.5717977462861 9.87466937168455 12.0908293105963 16.8332944099626 15.5993425065798 16.4757789595394 13.3445971072610 12.8726451091662 10.6320020699206 15.7836959877397 12.5903797356326 15.3240770630550 14.9366760215282 13.4943655658841 14.4748202957711 15.7248040136767 13.3153011040046 16.7538339179322 16.2163059555907 16.0955442658063 16.6599949584235 16.3634594973434 16.0075432165537 16.3100350691351 15.9064186158196 16.1928326300278 15.7428710106801 18.2246480885170 16.3308747640086 17.2389617841602
14.4402006609321 15.4541828860736 12.9006623686826 14.9051255703368 8.97285484144766 12.3112661154080 14.5387442959825 14.5942041624246 14.6314816392799 19.5077762546250 11.5890170640961 11.9399651485509 15.8654492041181 14.7530990411783 14.7796789968051 13.1775874309811 13.6068201831879 10.4431065272423 14.8207955966338 11.7905731724534 15.0296636929444 14.5532780012939 12.7592741145938 14.3083939150504 14.8917233191548 12.7982041977683 15.2014541642630 14.7593841938782 14.2630986633625 13.2957225400478 15.9781662887245 13.9660993140584 14.5464898560746 14.5666193313032 14.1832442044270 13.7077940811420 14.3445496662755 13.30151643916 15.4590104100812
12.8234070703623 12.9431978727516 12.5169303822281 11.7919336612086 8.86460213641795 11.4634093658241 13.9906608269337 12.0410628961796 13.3344446142363 12.5371911914977 13.3829251100901 11.7332675526300 14.8057467853807 13.7173088313958 13.1180945788831 12.8066449545900 13.8457521472149 10.5867115253997 13.6433628223857 11.1054590366366 14.0962097157167 13.9254352225559 12.0241826633035 14.1419675343297 14.12413221578 12.2811072915321 12.0028956924961 13.2910234288031 12.5832705221146 12.2531091794424 14.8008138519150 12.089999594484 12.5740429665022 13.2288702181900 12.3488689501596 12.7084108854943 10.6996503301156 10.865883694504 12.9605718222946
11.2085750241205 10.1811097903624 12.1331983957737 10.8316419372569 8.75634943138824 10.6155526162401 11.8074460900403 10.4194021812544 12.0987226566296 7.77410998595043 15.9219146532804 11.4684826908708 11.3046339405632 12.5636584821999 11.8850478790043 12.2081771309509 11.0554258070379 11.1485387330367 12.3403597284674 11.7404245821403 12.2499950555194 13.1002458327699 12.0585298661390 13.8245730104913 13.1457532421105 11.7624983088816 10.1787930797033 11.5506356782006 11.2630502283209 13.0154329634039 12.7384026728676 10.9144238567271 11.1215581033800 12.0082793903101 10.7640731241779 12.2514438946041 8.43245254237529 9.74521710070707 10.5168402176486
9.8626799748038 8.91910537618239 11.5131986177800 11.2961038130512 8.64809672635853 9.76769586665613 9.39074084196533 9.699260055653 10.9636276948998 10.3772820794940 16.5473096464990 11.1433567313106 5.61444076753474 11.3635198894319 11.0380650002495 11.3641284638983 8.0491687023887 11.1751315216207 11.0200998665395 13.6050391550830 10.2887911667750 12.1251135813592 10.6029493361530 11.7734450389177 11.6514845502931 11.2735258994384 10.2540809911602 11.0626213927115 10.5078609443194 10.9599071561506 10.3740476324269 10.3949482535053 10.3642951897192 11.0069191339199 9.503222983434 11.3637395229145 8.05027485583006 9.37325266221958 9.59847532205652
9.59062613798512 8.84530332775816 9.60558391108104 11.0120732161439 8.53984402132883 8.92494283890431 8.78025510499645 9.29805808461262 9.9679845791798 10.8835428227453 12.3538116813628 10.7556358419866 4.09944062807984 10.1661891177014 10.2561598303838 10.298531213129 8.44650709609215 10.1170335999367 9.82090020889492 13.6724404420541 8.92955771659184 11.0556263918809 9.48982665074677 8.43501133812484 9.84240955377024 11.6489059023983 10.2578128143402 11.0028269733987 10.2464704597132 6.65289840634267 8.43722219464928 10.2725280755964 9.90565617930894 10.2168154196524 8.61206529668444 10.0610002161838 8.5423175000789 9.13251812992589 9.4105006194047
9.98440907747797 9.26416520736074 8.13223303217277 9.95922768882256 8.43159131629912 9.03016607163824 8.98261591445646 8.75495463659097 9.14037623294898 9.1200461017733 7.77106434754771 10.3030661909359 6.90757785004464 8.98488340774262 9.26908148660206 9.0715323094302 9.88298460317073 8.39368415133397 8.88368522694176 11.50630774739 8.42420054895758 9.95625483875023 11.0668882924253 6.59358768946097 8.16117776956139 11.8300703514183 9.59007058971132 9.32732265956192 9.86191167758557 4.57118469502903 7.3370030477975 9.7940044062732 9.5206239455881 9.57474719702462 7.99985110156535 8.63093156088443 8.88983741562693 8.87043207713693 9.2895336197626
9.92761246326935 9.60557809260715 7.8837136362837 8.33365351173163 8.32397566698438 11.1502596695316 9.09031365886676 8.54523763914335 8.48311373415018 7.43322827516112 5.34152427230236 9.7833939461957 9.76123543442794 7.83136326222746 8.49405214036302 7.79708321901494 10.1121711711550 6.51433726271246 8.29457325432701 9.13992899449818 8.43107990302564 8.89191508748229 11.2328727976652 6.60162297133204 6.86269838572126 10.9385426218807 8.38159652246426 6.88045575332767 9.27120852945449 4.92877993970897 7.02958896471119 8.75415365470463 9.10305101422471 9.01707773830434 7.53798047598388 7.67870663530473 8.95552303541114 8.50482974659358 8.83857271936132
9.78842122720369 9.57187891689653 7.76824184283838 6.67325167046861 8.21610702980085 12.1449672528871 9.0164101664578 8.8701930549496 7.99435458870002 7.08430481823319 5.84449475896274 9.19453177925768 10.6019688311219 6.73687500913494 8.39049792504147 6.65863847584257 9.41669970084909 4.91561212922452 8.03108201902228 7.59937246132485 8.56125057663926 7.92752330359203 8.78925124065873 7.07446937438645 6.08577357532507 9.21277668404366 7.15679816572639 5.50114915770992 8.71001303074768 7.02985120335407 7.31923867392773 7.58327055384524 8.56073405526666 8.49118316795033 7.18971042206321 7.56566458904773 8.83121282357171 7.99378053018627 8.35548139778309
9.64490498578478 9.22382546896138 7.34618556293513 5.52613639672640 8.10295151794099 9.89981871615856 8.81117328975053 9.39564171011879 7.67225630251512 7.44444903534751 6.43355966791368 8.54803556782774 9.7582537206336 5.79914703541709 8.74115977602303 5.84439621676685 8.06610145483593 3.96459588499063 8.20298977436864 6.91116373963341 8.55570843433928 7.12799565259446 4.8990753383495 7.46213980600568 5.96753737319519 7.15358949799166 6.37442852179495 5.68572287893484 8.16669054106378 9.77739332313476 7.73206044579141 6.6738872889031 7.99547617860575 7.9844847068877 7.02870401332978 7.8998408768453 8.6091755865712 7.629405859094 7.83265457749977
9.3884268792192 8.56545579699367 6.83873487942949 5.22568582324035 7.98113882895152 7.06057202673146 8.48987141702551 9.7563609273766 7.51495326723587 7.6219509286797 7.39774702839367 7.8790287803206 8.41299024346515 5.13789518390293 9.10684726350146 5.53085502360487 6.78828279013542 3.97561345571058 8.43521224968084 6.75493901701523 8.45083381867776 6.55824830000457 3.41867289908077 7.78032794698458 6.54268380095662 5.93375145686281 6.26220538665235 6.45122488396319 7.65483244649275 11.6446991725603 7.97116114308267 6.29663825227098 7.55366199113492 7.49350286084034 7.10379120873302 8.10289232512036 8.40518432116749 7.67680369307667 7.39312461307629
9.04237242467576 7.88708929899787 6.34308875873752 5.68445855688089 7.83212796099944 5.77359455790814 8.06262368618746 9.65412570263481 7.48143601439082 7.296038903706 8.22618444835398 7.2249741458722 7.37256732766589 4.87751577445945 9.12464946285353 5.82745801692035 6.02077014854706 4.91879607266574 8.18637673505183 6.83625734910408 8.25850462081882 6.26802059909624 4.94841382211433 7.98103615649523 7.23008676412208 6.24076444216187 6.58058820496187 7.0484337151647 7.21413101250849 11.7133850597332 7.88899923224608 6.5961954302613 7.18114842729812 7.01475813553211 7.34754478569965 7.94727787934199 8.34854740221317 8.02140744755465 7.16033435703545
8.60087824099194 7.42467944274341 6.07025520300397 6.37370318784062 7.61247478920381 5.85108573065375 7.57632428558828 8.91029020597089 7.41150818750814 6.59402989219659 8.46088317540342 6.62333439361853 7.0118724348067 5.12565110524055 8.68436885384122 6.55946922749103 5.92429169381395 6.39186068018624 7.45737429145066 6.9609047702448 7.95854871038954 6.17390511117912 6.57985457417696 7.9939705394711 7.48154917082866 7.34656962685653 6.92826451106753 6.96889163981728 6.86533221320997 10.0329787336106 7.61077624757587 7.366081149596 6.88642597788816 6.5447710366869 7.66784447544661 7.61538533356332 8.41188047170223 8.49431017520785 7.18084366144894
8.05976335522894 7.33795115108565 6.13935546618496 6.83210438425501 7.36740381147527 6.98563465804498 7.25397573256124 7.72144049398763 7.18043400706405 5.78610318915602 8.03006692417564 6.11123449810909 7.02723452127552 5.83289634299661 7.97926384744574 7.32979153041741 6.2618717578337 7.83588062865903 6.78832057343375 7.10696423912652 7.61174648497497 6.1236207174524 6.84430531646812 7.77212488856945 7.5025841639641 7.98157440813416 7.0251302508934 6.33166582656542 6.61231259613751 7.6853224492292 7.28412342851985 8.14289614632169 6.68358739369502 6.08006207002858 7.99114074227081 7.29961390797329 8.4994794651359 8.92118012666155 7.27575504824538
7.42982084021848 7.54778502939955 6.50311570138822 6.74267236968324 7.19197836894883 8.19897482416431 7.27230539654635 6.5548767205311 6.8300708647137 5.19601614672381 7.36983609835542 5.70855566852172 7.10490574764951 6.62044424431425 7.18008675608381 7.73630128242822 6.7804980321711 8.83582170230231 6.4830045429234 7.25479279339562 7.28012380032765 6.02691607609259 6.26516870109929 7.30971035973948 7.45397130911938 7.65213460837234 6.8581711695799 5.63239172885213 6.50764325244543 5.67483891988037 7.01906605555028 8.59660389205887 6.58057751669352 5.62279073298033 8.25311539002423 7.06279923609436 8.50893721839082 9.126478875382 7.18783365124616
6.81077806985505 7.77798353313927 6.84286602807775 6.18249176926387 7.13818387599486 8.85509120682546 7.69807429730339 5.76558170899904 6.41310150916698 4.9866868822866 6.9023187091266 5.41005743758687 7.00720712611302 7.13695633316189 6.3985734000117 7.49287035071002 7.30108517282754 9.03291747625457 6.42871910770571 7.33920035175065 7.00346736083091 5.95619805526486 5.58385307535897 6.73328707837528 7.30164632763727 6.92419879272763 6.6172743762614 5.26646421463896 6.58610173978736 4.6958108512251 6.87957141351597 8.4850128792332 6.58245447040356 5.2258833568005 8.3895171799825 6.88660933294451 8.30571166707868 8.97613604293786 6.77520511092771
6.29857355220547 7.79350001658969 6.87694639903133 5.4882441604276 7.18987481507289 8.63423133729945 8.30482253428496 5.5535546028398 5.96507748399199 5.13496382658066 6.70282734442768 5.20851573401613 6.70252353876412 7.17243935910207 5.67378715498798 6.73958747450529 7.75438218684324 8.45311244896917 6.50064965338649 7.33105521283025 6.81943885285844 5.99206860045284 5.00448417803576 6.21028556893672 7.06725470563255 6.46631849028334 6.5275907154972 5.45793209186809 6.86981671680073 4.67195367696125 6.81681267347593 7.88721014265693 6.57229307736282 4.9691210161844 8.33964198557442 6.71402016545502 7.75982732607773 8.50908324371404 6.19780796834516
5.95247514423551 7.4870967582056 6.44791843790139 5.09520838251623 7.34835879871282 7.86252010045283 8.61229142971137 5.76325984559102 5.56306202768965 5.58781119597752 6.61776074583108 5.09671955473722 6.35766265585463 6.90580210687022 5.13398557459151 5.94562047553199 8.14155625658526 7.42689097429476 6.64335407862292 7.2267083398379 6.74433716073331 6.12547349148795 4.90682898919348 5.85259834344671 6.79569538972243 6.39684333423598 6.64200946994764 6.00679397750621 7.35305104002895 5.22424763630818 6.76277813543558 7.0922970411434 6.39953694378271 4.91392122068725 8.07419344947742 6.50351708258888 6.85940042412094 7.91934502734968 5.81307639253737
5.77142171877657 6.99822350121706 5.7268276129783 5.174784534193 7.50574356593042 7.03872248393003 8.30665038367538 6.13097834239792 5.29840400645005 6.22180552735551 6.53343841849233 5.0689857968062 6.19120246431898 6.7503881538285 4.93799795130599 5.64087094548975 8.36894270202022 6.45225618955578 6.77506020652374 7.038331302146 6.76727716199181 6.3216073041656 5.61700738924517 5.68276607767634 6.51620491147106 6.56890231251408 6.86531373099135 6.5212266031404 7.96368391228962 5.91987029010056 6.63927946327882 6.49423956085035 5.99237565149378 5.06772548126321 7.60275736126833 6.25387883941309 5.8755037528595 7.40052265565346 5.79107484597055
5.77196616214524 6.58246018624153 5.13149584524551 5.70531597040578 7.54758009881742 6.52102209693015 7.39433014603759 6.40783894727716 5.23715022220604 6.84804809374484 6.41483637621662 5.12257049434293 6.29168401029496 7.02477832894471 5.11113637165522 5.93073608425571 8.3847478477646 6.05142708200620 6.78316108092601 6.77212972561775 6.86152943728372 6.55448523657386 6.88362336665235 5.65411666620354 6.20748346212939 6.85417805395211 6.93219682189007 6.67376688623664 8.54673882381403 6.59433671134454 6.43401808990318 6.32777224007721 5.51651351822295 5.42332098662049 7.02411956480044 5.98729884838251 5.16385833215222 7.11176804537582 6.037258060541
5.98286147061195 6.38016972302462 5.01427465432508 6.4196786939346 7.43132468326842 6.48648832385923 6.24851296950232 6.55264995322602 5.3430474059242 7.32952257590437 6.1882376280947 5.25506345698074 6.61805621465857 7.72111259707994 5.60157983527282 6.64874947629551 8.18719462380899 6.33273097512376 6.64182268215756 6.43389627724113 7.00289157314366 6.80024577210127 8.06895678928131 5.72233382423102 5.88316059903282 7.18447218515902 6.70682330234138 6.43054448887056 8.93497030584545 7.21535285061744 6.17303576329142 6.60131138079606 5.28157973258695 5.93407764619714 6.49550004807285 5.78056951992773 5.00736144027116 7.06329014076658 6.19029096609648
6.40723810938394 6.3607454029407 5.40446328555028 6.96362118502143 7.24888872777606 6.74475896836314 5.428376772177 6.58709042345153 5.45623898351116 7.58221521322624 5.83286176492042 5.46174066975435 6.91988063534717 8.47733473699121 6.26898672986372 7.28580399501656 7.83505833058076 7.27551960576256 6.38029504508272 6.03587450040029 7.16997787909484 7.0399221942285 8.15308695789228 5.85790495922998 5.57135812324872 7.3216971690666 6.22525565334086 5.93143945086281 9.04694336016093 7.69737022933727 5.97622428118783 7.18532864297175 5.38566109310975 6.5314093683014 6.21609302251828 5.69812788337439 5.41885103961712 7.16368748569668 6.0576571010117
7.01347210101759 6.28251552468985 6.0383817335754 7.21168351915525 7.11680065760695 7.01218194048439 5.11468494295614 6.58725383368895 5.40612025576101 7.57795508591421 5.5068582402667 5.72234490390386 6.92502460902044 8.75363550886113 6.86819370368656 7.53686194783671 7.4595401118439 8.47483218544726 6.09347912172804 5.6639131962108 7.3560710344962 7.27059941391272 6.72399072990524 6.04789905642791 5.29016086797497 7.05031296971732 5.75893385081517 5.4523816060383 8.8919113218551 7.92862379176627 5.97448977514627 7.72648950079849 5.69409391716346 7.11634853677509 6.38015061594925 5.76786775905741 6.11035005231256 7.28923165175677 5.6998275372515
7.65743598433885 5.94870624184387 6.43533228432892 7.16508229527805 7.00562312541012 7.02009716774946 5.2358837442164 6.59851086343047 5.17438988286881 7.36253759501421 5.45121838866483 6.0102261723583 6.58448777097033 8.40216190607102 7.20544318685971 7.38384994143795 7.1398519041142 9.30894722697576 5.88057569197222 5.4724128539155 7.50000949561167 7.36225948212396 4.89495829457052 6.21364671166186 5.05445719019377 6.53637569461515 5.55380792903473 5.11622134483264 8.49202313488478 7.8817515720173 6.19658616269739 7.92902646658015 6.05024437074638 7.57252552950464 7.09492071743933 5.97357243456695 6.67471499556187 7.37641224335111 5.42425216835341
8.20064887492174 5.38450374803877 6.41427529331311 6.95118541528972 6.61706345571741 6.73489902779091 5.44095450668017 6.62700772852566 5.10645511250187 7.00822724759353 5.57744855104417 6.29871470471081 6.03688829682536 7.53410747983487 7.23742547548117 6.98193378480313 6.88759287933444 9.41565210948348 5.77053548409814 5.5395670511399 7.39513373913884 7.03016154295504 4.42878528179031 6.22125401953726 4.89761521160519 6.23815303775348 5.64779998957655 4.93003847026612 7.94777171586611 7.5811436928998 6.61037294137876 7.73702970412461 6.32846175371844 7.78353266410063 8.05706424459413 6.2793696976503 6.96075362424574 7.41565359072938 5.4661305159397
8.60806615645503 4.96372660732427 6.0219862045638 6.71316591610572 5.7984518781468 6.23966743281286 5.44967608468104 6.65741165174641 5.63213471295199 6.59014161583316 5.48417844301764 6.56114073055452 5.6745289060248 6.5959669394206 6.97390526814205 6.57291134427479 6.71736613213397 8.75127992652667 5.7732291450563 5.85948429557607 6.83253822490859 5.93475613165795 4.93398098447713 6.01698207538771 4.91578775637181 6.19242092657282 5.97527264619697 4.83817360282043 7.39531940530724 7.1321181078527 7.0247997961012 7.18321114819437 6.2195467423106 7.65131549666927 8.46255562782287 6.6643059142993 6.97647758717792 7.40380131878157 5.757698949649
8.83142042831614 5.110719309615 5.54924354859842 6.49803706873591 5.05094553970406 5.80543739662544 5.27586313555852 6.65322247220221 6.57738140067604 6.2261952036232 5.45496362579961 6.77131081271716 5.81527855376943 5.93781958572754 6.47481217258057 6.28773092954163 6.63713061243501 7.48360948412167 5.9080607387841 6.29883347305393 5.76316553841442 3.97755645161899 5.18517835449573 5.62321177727126 5.20214335733747 6.45573975707228 6.32131656186785 4.78666146223357 6.94645260914525 6.59398979977142 7.24488955191342 6.52202529779942 5.6780371406798 7.13614114702206 7.67173339508971 7.0169969344166 6.84509586926736 7.33079236226605 6.00422671623431
8.75093650149822 5.64062749887513 5.22389565885739 6.31957383260183 5.02181754839857 5.64765353263592 5.21215604681147 6.59381876714665 6.82099136969139 6.03475366854551 5.82585092070415 6.91179923757457 6.43236409165056 5.63002143433614 5.90093928778374 6.10074525047846 6.69096304840203 6.17339142533671 6.21787264330378 6.63794048726544 4.80618539311429 2.45098072316721 5.02555886637522 5.21678123700479 5.76722184560259 6.57850997863222 5.94652443217103 4.75729465495024 6.63220540478572 5.99961318264804 7.15374864717134 6.02471489073864 5.43275379193741 6.36585146186159 6.2829038207753 7.01033072297989 6.66038128175104 7.19416325134508 6.01439663908671
8.23791196608302 5.60385145572077 5.07332910774966 6.20209609360877 5.59841544951713 5.79262629763762 5.51358924948025 6.47583773021424 6.00160603621186 5.97534107853668 6.0460065316911 6.9735581620522 7.07362789310925 5.56802873344968 5.40171785499855 5.89992614646983 6.83175185435193 5.29268968881109 6.39260341766314 6.7388934873214 4.73638918376775 3.47118417606991 4.65630578804146 4.99065133697045 6.30961034730798 4.9516036099726 5.07723704352207 4.76585768179753 6.456614029733 5.49530446771765 6.83858535402655 5.84160992364866 5.2776661339851 5.57662645037347 5.75155810480038 6.64211402590486 6.44316892710451 7.0053888781499 6.05510152393315
7.25488864551522 4.81813648581408 5.00907588854740 6.13994769818696 6.37000213606724 6.12186732037099 5.46905990325399 6.2997537736727 4.91730270504133 5.97752346506898 5.47753792423985 6.96267349776851 7.07149824694434 5.61024736083843 5.07904143772262 5.55334172380993 6.86231306919295 5.06629726348342 6.18427262338998 6.60756460763398 5.35733359654363 6.93403162793558 4.41933877350873 5.02961679339191 6.40987775216873 4.70746673580398 4.73740015234424 4.83628125336486 6.41419111198161 5.31152573650664 6.48659221759463 5.94641972012118 4.70716474042131 5.03822519628092 7.92788341034281 6.03198259215269 6.21715087502438 6.80899619490164 6.17454789778703
6.21830589641151 4.25804995653500 4.91065395356882 5.94006077082509 6.98957292605355 6.2998173544808 4.86554544299719 6.0773565677496 4.41231683888786 6.00460823410237 4.88972536415443 6.90103815114915 6.54415138166693 5.61971860737963 4.9620591326474 5.15061786432284 6.48885479796456 5.34019892513797 5.65727976292979 6.34321612552946 5.4999279671044 8.66363995976862 4.53546090932592 5.2317735570648 6.01527900611635 6.38454594804989 4.98598433779982 4.9525603155406 6.4669269809079 5.38331374577875 6.36475695032236 6.22827114881734 4.6844894742713 4.92520091829856 7.4176035450136 5.52200949741831 6.02574897134215 6.64312786689522 6.1650168989407
5.80294092971861 4.18625750231121 4.79592695178423 5.62443993775728 6.67034165777401 6.04673000900976 4.25233138756451 5.8621384590219 5.57542166206271 6.02347094647692 4.79148849115524 6.82160583935698 5.97271806263117 5.5741186332223 5.00314578011396 4.90913729373625 5.95580395158359 5.8317129777014 5.22823464637736 6.10901381676318 5.47874469494662 7.34059847244765 4.87358001320124 5.41678709221285 5.62742691551129 6.05448014816679 4.96911389503919 5.03770643362659 6.56806748344574 5.59126251851423 6.38096824501553 6.55513797028925 4.73301794084173 5.21295316987655 6.83131656762321 5.38818368402169 5.89872863843842 6.5164500872968 5.99639006456841
6.13850454548294 4.62197377474012 4.68114322411398 5.37278294595177 5.5892668357777 5.27247986902215 3.9944446634198 5.76014379905229 5.20469253380516 6.01168164588625 4.46125568939736 6.76233559094591 5.60764089903856 5.55073288301599 5.13784106643463 4.99861107067754 5.6612498305551 6.13017069893736 5.04604494155851 5.90754433172474 4.75777620646562 5.93891119679302 5.18911926451592 5.4354964147448 5.69250195648011 5.46825525656635 4.66280153806126 5.01858293683087 6.69116535584161 5.90932925045688 6.33453483886448 6.56118089651957 4.63670029488631 5.75042665351993 6.87595320068276 5.39208288159193 5.83063543058054 6.42873135559055 5.7811388248558
6.49482681186078 4.95503226965028 4.5388990547122 5.36865514451478 5.68418869009605 4.39411821806993 3.87889071887999 5.89530613527616 3.52447483222012 5.98938548581662 3.87410788420203 6.75768733556773 5.34084110368651 5.65589914542339 5.23635235265611 5.45933526642114 5.75461090490448 5.98933981655064 4.82215079738451 5.65733921127314 3.98285501464366 5.2334811692652 5.36511484897569 5.38744822669205 6.26115596639574 5.322762166029 4.28509228542797 4.88720021237675 6.83865867546065 6.10532077403214 6.1371272919031 6.0820771006877 4.78125005827629 6.43673414372817 5.85487143709674 5.29785181570034 5.79992642867415 6.3870524476875 5.55149286288772
6.49263084647566 4.26209356307172 4.40978983294807 5.38975436745089 6.29133208678945 4.06332508262786 3.67855495116060 6.31624606920419 3.73542399594117 5.97679099429592 3.62921401710471 6.8227358228052 5.19136721310874 5.93850844015168 5.23886832653143 6.07120150178096 5.99449351925606 5.520662098461 4.63234532323474 5.44499206645139 4.72327090024404 5.51443375269649 5.39205863654887 5.37794353594243 6.40731225224038 5.22141542116013 3.99651180001047 4.81178966757416 6.99497306142918 5.527837540105 5.85861543341035 5.44357565752969 4.55695303095993 6.5028394371539 5.0258592340474 5.11321351576695 5.78462424601635 6.26162618681971 5.25517583604538
6.25606175516404 3.90531702448642 4.48084861233584 5.28257951681889 6.39466772264293 4.62498351466903 3.427105368253 6.72403018424967 4.41867506105554 5.98184954254615 3.97149518563421 6.93417346840093 5.17042099631591 6.24454168234663 5.17370495833403 6.4378927989426 6.18975865911384 5.00886520816357 4.71905211562043 5.47738273202626 4.73425203984259 5.37980874905227 5.30926405757788 5.44392663725327 4.93184934627922 5.22144637412537 3.76607871404657 4.92129381021519 7.14053970545313 4.5465378675204 5.57212103614141 5.30942513744662 4.18707214104376 5.20716028207355 4.6313706233995 4.94321495995525 5.8072149542647 5.979803842489 4.79491864019209
6.05156683880902 3.99248681125183 4.73876104691798 5.06314843170001 6.14633795957729 5.23544429293284 3.4212646459419 6.70814083381676 4.65686471933633 6.02065469786566 3.27874303137122 7.0505235471073 5.21315403152126 6.36945025544796 5.06813184654603 6.34648732268226 6.20390892465525 4.82579458196626 4.76274691112018 5.80266598512424 4.22478906746117 5.37939720691022 5.19107208190852 5.45417963057827 4.7060672026163 5.07634689164782 3.59374578356797 4.97875089356073 7.25563985708866 4.17812697719884 5.26294608080181 5.87641336218634 4.16250454853998 4.7314333332953 4.63411128584288 4.88908478577899 5.89868015896847 5.66254318043929 4.41189153144189
5.93405180232113 3.80202291956555 5.01533353573481 4.8439415555225 5.69862994169311 5.4243672247897 3.68324450180886 6.45998122504226 5.19034640265074 6.09271559218358 2.73453576860741 7.15641830125656 5.23325682840056 6.17323761487464 4.95272016935137 5.95409211211062 5.98150472654776 5.2030106035113 4.42035031839296 6.10592222798711 4.48732703014748 5.64267426688663 5.11581722484561 5.19631574971811 5.08255230140743 4.83720708935301 3.72742103116435 4.7845961613748 7.13116970864832 4.15780167848541 5.02586916549942 6.23895347914258 4.17833707872702 5.59700855842395 4.8389622624518 5.01898328236328 6.06600423619855 5.56207617540883 4.62830564453644
5.81223639842496 3.48312554412917 5.20018471320591 4.75603319871728 5.31100260898681 5.11862869359398 4.06387409639009 6.4351570240286 5.72049949991827 6.16618844621428 5.39437853888068 7.31865726769636 5.14148288921072 5.64954940105533 4.9428321694125 5.48320180801824 5.59562570752647 5.9485084069752 4.23867369045639 6.13412431458348 4.06335543747233 4.40228335070268 5.16004361565466 4.73883539995976 4.58060925036345 4.86276085129684 3.94570872918584 4.52955877208977 6.67001276101338 3.92258149624959 5.0527126981374 6.02401056510978 4.19281702220824 5.82360812997662 5.16276385861195 5.30033327226831 6.19800113942169 5.59115067080952 5.38676218429437
5.58551912044234 3.38935898986389 5.24570783825655 4.78742638446289 5.21067274407458 4.77425026169911 4.34815145247245 6.56951757068128 5.69983428915805 6.20852888357453 8.78438599933259 7.47111445669857 4.92585731168688 5.24515774059653 5.22086672782513 5.22045844122171 5.42619668462826 6.76805169018986 4.65672866918282 5.79175162981892 4.32820413749508 3.87184009143379 5.37950467319659 4.37295538622546 4.76950186176584 5.23512373679965 3.92416790227172 4.4059475147732 6.10289967702255 3.763663100627 5.50270620003293 5.6252378350867 4.37880241740965 6.42775528752418 5.66678313704443 5.54499220101478 6.09875089668717 5.50996695906410 5.96723244763265
5.624264643635 3.67667651237914 5.17630863629388 4.90258902109228 5.47352628034582 4.60047354160601 4.59959471656888 6.5787271011018 5.58365760692294 6.24253652176294 9.21145621538798 5.90205277956243 4.64438974302999 5.38553727997127 5.56070817034689 5.35136844764056 5.62500300260024 7.39099507913824 5.43515077607379 5.32533724548966 5.08926532843969 4.88761406878935 5.72799329405735 4.35684996463383 5.14291789684618 5.74958859841506 3.81818274063222 4.43234015781837 5.98027742371583 3.94736546337801 6.41638137245513 5.39328467496005 4.75333595560045 5.9564230975868 6.23977456519177 5.56474589861413 5.85898512335596 5.39994257151628 6.16249133307508
6.25517065900573 4.20796428830653 5.11197830112559 5.28470569985759 5.99045563172816 4.68365692845866 4.8605717703389 6.606319296204 5.96650442130937 6.36276303682142 6.98698508386621 6.55821939941705 4.31630042053150 5.96096898691713 5.52060748674531 5.80212950567892 5.78955003952391 7.62825691917203 6.065440682366 5.31016855775418 5.62528101086048 6.17465409440933 6.11993819260691 4.7968734793103 5.10015138422585 6.23356511867824 4.03825898319391 4.55716173651757 5.84686477384487 4.43611013250299 7.60625717217241 5.5247438964438 5.16708451938075 5.44423946631118 6.74473745159015 5.52291487118615 5.79530036814803 5.48689827317266 6.26975439293115
7.08754044625417 4.69997557300927 5.32717542316523 5.90818511698717 6.55636803892872 4.8129272752898 4.9847450454325 6.9026344985584 6.666092962609 6.67370921182972 5.19738693902937 6.04772246827304 3.92024946802795 6.67881188125817 5.35551659121133 6.42436862392098 5.75554239425309 7.60348250321973 6.38546719076796 5.81670398187055 6.11350586101192 7.23070278621226 6.48551720001332 5.49498085585309 5.04346442374406 6.61434300009988 4.31270189059046 4.69773323290845 5.43934014769774 4.82991321699795 8.60291051196682 6.14712767426533 5.73968153535015 5.34493402588483 7.0626098261937 5.79043038505769 5.96737580833752 6.08028330020191 6.4912664276431
7.75304411752563 5.00169298936041 5.9496001810701 6.15702613701753 7.01329262996019 4.77598792032207 4.9390220032264 7.41126005506728 7.29341416062815 7.11345561801902 5.6854200084799 5.92644125044034 4.28914749511939 7.42935040841659 5.84457353593586 7.16488110889246 5.9562994811127 7.5905749686695 6.58748578705086 6.35900824042202 6.77532255238362 7.9023872263977 6.77312116840581 6.19248467734179 5.54675206090627 6.96232010892747 4.40040607934946 4.79094196716472 5.81903182980781 5.07205706817695 9.05902122100619 7.3307181443733 6.42247531874041 5.73948108794039 7.14860615824294 6.53609310027081 6.30080816555073 7.14837672150337 6.91129404500373
8.43134373013903 5.33710030776263 6.83666375579055 6.22652712096041 7.5739702339305 4.50660515292798 5.16761424878539 7.92330273080773 7.72336417162584 7.546504072428 6.88174981303199 5.75468963565076 5.78069330203856 8.26294635276144 7.30274366691027 8.04733881710887 6.70052944493212 7.8384739629693 7.06427346053411 6.81209770666248 7.46176604461896 8.10011163549204 6.99431375553634 6.96155909265602 6.46378557013484 7.35704075539036 4.3202593810796 4.82023676343575 7.02220165906654 5.47913260319192 9.20325393530442 8.66830476063065 7.04402420176767 6.1856612946397 7.06956232727062 7.60527630435042 6.88388464696885 8.02156037902807 7.35444857441292
9.3795274719203 6.27035306239887 7.70859551703882 6.98540425723362 8.26191564882151 4.20153790255718 5.68615155900153 8.18577107930793 7.96677711800038 7.9140835845645 7.93072495478392 6.37620116295894 7.99403887300428 9.04368136169144 8.63311653457768 8.92237618267464 7.85318437903587 8.53718211140315 7.72231078989907 7.6037992169494 8.00584083282483 8.02023624021825 7.23976558232107 7.92500017444154 7.47540473756001 7.78099591001036 4.43509967858287 4.79009119496191 8.25861860952375 6.24303476437285 9.36345949325907 9.61722747086804 7.35515925716503 7.30079064341427 6.88510277255759 8.71881346266786 7.75314936650903 8.18940280346682 7.5582653182202
10.5919238193657 7.66888451872804 8.23781784173762 8.47384616476314 8.98228712471887 4.31476592765344 6.19810529782169 8.28410300227237 8.03995042515327 8.2645536468581 8.71003831465168 7.05670439193752 9.66513235523905 9.52803961384867 9.24205855794896 9.5158806077271 9.04755876547516 9.41393396739367 8.3396561404227 8.73214713696384 8.23242174491022 7.93845873978536 7.6292235599704 8.77059470967716 8.35115207466592 8.13815664613486 5.18132466819952 4.84674620139252 9.25394032104593 7.22676040490026 9.546649779862 10.3027438619239 7.5798486519755 9.2596663483287 6.63902795314738 9.58311910156646 8.61451089692735 7.98462878677572 7.51105634814466
11.8104758087413 8.64218912217262 8.54925235583618 9.7411125359565 9.49644104765042 4.99858495174045 6.57827004946539 8.49894300592776 7.95946652886484 8.70186274051262 9.22034444977659 7.7637927923383 10.1197161959434 9.59237086577425 9.31593843117457 9.6602619406679 9.8408599935154 9.93215043220426 8.73056166412125 9.66308438004794 8.10173071600932 8.0891260135909 8.15053824138917 9.28390998874672 8.99099520956847 8.30771443190551 6.59675259392291 5.4173943873657 10.1752029124248 8.37769338201306 9.66699176708262 10.7410248710915 8.0653057800812 10.8355729152756 6.35794127274921 9.9561531467024 9.21399942396975 7.87634189238692 7.28253636985592
12.6417412042376 8.8587769326001 8.80287073414333 10.3610201734051 9.63578972102981 5.70173344531435 7.0901582644807 8.9803270670843 7.74543835401643 9.3261808839992 9.38433777662133 8.72339211383452 9.8426334688004 9.23267804398722 9.01939624222435 9.28362934066688 10.0324249782498 9.83679123688731 8.80509796399116 10.0642548561801 7.7520436182603 8.54670383567756 8.65602839422437 9.40423001562515 9.25712538522543 8.17385138567961 8.16507383794676 6.53783707386582 10.1705726226350 9.46702040552325 9.65435840649327 10.6508124572554 8.6391195047206 11.1978283384629 6.05599248938358 9.85391518691879 9.48786921989624 8.07659020684354 7.14340133806174
12.6813391227509 8.53706959138582 8.8421313814054 10.5581182490088 9.34687809716183 6.05685148054797 7.62315103367294 9.14756423433634 7.42652457688034 9.9466573794878 9.06576681197812 9.3882992573973 9.72249406731118 8.7198077798811 8.49036875452215 8.59525545803952 9.68615378812266 9.22086408851037 8.58248060682948 9.87562856223874 7.29093655649605 8.91226367584242 8.97452290448574 9.26657508040901 9.00156092363733 7.63267803004813 8.81505790239181 7.88548642513169 9.17362821329401 9.7399784069238 9.50757346726772 9.965268168634 8.61744906501345 10.5865270426669 5.747036656073 9.37626274255255 9.36127217747477 8.35995969700632 7.16570873524212
11.8500627227423 7.87198059917582 8.30240256710292 10.1845832589099 8.64666180419676 6.26461767846543 7.76584800852196 8.74693359038416 7.04121147143773 10.1855586344515 8.22826013400124 9.32922600803888 10.1895688646973 8.2982421121913 7.87403473825396 7.95965651232474 8.90934253109834 8.28233319781205 8.12344069011584 9.31273820158664 6.78136415576508 8.6613032678704 8.89137149347057 8.71871506417011 8.20660952629444 6.79239413338156 8.36159322486128 8.82038431246081 8.08228063831441 9.01248052271076 9.16626639366515 9.17315345175382 7.48472623490583 9.3973430539759 5.44492882584 8.6267760982602 8.74032369298576 8.32509998931633 7.2136057456158
10.2808492406648 7.00675469834744 7.72291790177459 9.02548525994719 7.67564612999065 6.52062759803863 7.36767369770702 7.8757942910834 6.63703751211373 9.5004677541446 7.04372568145401 8.08653410723016 9.26084589483505 7.89030178519514 7.18681870127548 7.49381849036442 7.83868568056184 7.21510165618639 7.47358034597222 8.49059822085674 6.2619871713605 7.65588051562885 8.24465110168978 7.79864159317307 7.0499237272216 5.92836716908871 7.29379862059074 8.88742556561675 7.21066400712626 7.87137840437408 8.53834569408295 8.32520013892505 5.9171532983839 8.10805071042064 5.16117531273581 7.69852951688427 7.8254494147023 7.63788916956679 7.13004741562707
8.3597018521841 6.03674743908589 7.6747504116606 7.35140130522426 6.59816600706167 6.8851093189091 6.65416538818791 6.93195034842929 6.2619711131475 7.94423911318224 5.8469668385185 6.53118368873083 6.362649132151 7.15913323437856 6.40562060448982 7.118667399583 6.61192277999579 6.19221864752463 6.65075201454965 7.50045031797946 5.76995103962135 6.27509896234338 7.15017550685513 6.68468125619842 5.79826108510029 5.24104504723488 6.20259675023671 8.05532556629432 6.32206748875084 6.77117332128213 7.6099995688682 7.0655603563395 4.88447574869875 6.94698106235042 4.89237289231573 6.72614715515888 6.88792322313761 6.70078425198938 6.74583545936058
6.3747161824905 5.02305138688671 7.12444066652848 5.56378277891157 5.55196382894816 7.34285562858371 5.80642586221198 6.06996635979395 5.9481684965245 6.18299368252391 4.97365708954461 5.60206492563457 4.14451430211624 6.03307505885101 5.53246758587907 6.48378608287421 5.38816508754491 5.3981757667759 5.66941219635948 6.3933791447379 5.31555696901753 4.97325810747991 5.85831713076441 5.74261133194592 4.75843901128953 4.80245258308905 5.41355927765884 6.71164224719805 5.33027266341947 5.85736111271291 6.42564357834838 5.6296993656897 4.74466543205178 5.97295122139558 4.62928677176029 5.85448296314328 6.06243809892822 5.75608857178621 5.93149689766607
4.54899342880036 4.08847689343137 4.83793817248658 4.07339643677726 4.61234517281835 7.99990267102513 4.84345394438794 5.2599470422485 5.62810678678395 5.0559990048117 4.52833680557144 4.62548251735431 4.03456682526029 5.00965681255059 4.69377668992893 5.49810748094077 4.33284028589401 4.83362506553031 4.61323832398935 5.26231109568616 4.88112187376631 4.00253907111994 4.59153253346785 5.17562460652554 4.11636783727667 4.50428183906807 4.63821954754231 5.3225563575753 4.39112899242387 4.99081093705606 5.13186711424039 4.48907190106676 4.93407030392369 5.06150021309466 4.36402479412741 5.10287015483051 5.25329863427975 4.87617162920828 4.91862359554953
3.02709511368853 3.34572445126151 2.29410343408545 3.05635913190949 3.83382717520184 8.52937050790162 3.7964835479312 4.28720022485701 5.18722464823989 3.89998418926064 4.28228018666913 3.52347251565823 4.36414560147251 4.11365198618332 3.96737847557152 4.29675721161389 3.54025030527180 4.4178816603641 3.67204699584746 4.31958501442623 4.45072233772079 3.32877948294058 3.50430024243728 4.86153706522814 3.81550311109065 4.26588293084766 3.73691126784088 4.26398458662286 3.71367017336823 4.02454268480413 3.89117692009796 3.76811154556256 4.8232371424193 4.03939923000847 4.09365054885449 4.40513653771685 4.34467015538748 3.9410670731936 4.09300469458023
1.96763085024271 2.83692564359702 1.52533655370935 2.38971777277952 3.2488375890389 8.43519888919933 2.85797222766948 3.23222923970163 4.47543360581693 2.7253609037513 4.02047615123105 2.92421554647297 3.98763568950872 3.12227342681664 3.37458796797065 3.27095253940742 2.89313359034196 3.96055740468109 2.97457015523443 3.61094596147431 4.01722924863273 2.89857868106144 2.69775624704219 4.20672300637189 3.7040458981321 4.05225535076371 2.74318813569198 3.50106913465442 3.29387594408837 3.10294518526998 2.90547755430701 3.33523072433309 4.26355160756741 2.95863539164398 3.8163593307633 3.64148396805169 3.29013303671522 3.12913424962860 3.63077548450146
1.50701536753626 2.56724443652194 1.89696028556142 1.95749763500023 2.83039829119438 7.65407393613732 2.25167982981090 2.48048532170666 3.44789692058095 2.13129043256655 3.58970524579559 2.92497994382968 3.43215528905923 2.39981650864027 2.88921890442893 2.61636138265516 2.32736267373916 3.35317746579438 2.56799769663194 2.96761908719081 3.61457919356345 2.65075043771492 2.26256694196899 2.955886655733 3.53805176911500 3.83040466169952 1.87867789608668 2.83890266516558 2.95253217464453 2.39779845415171 2.30661621070754 2.85639934704765 3.51915997803229 2.05461326439504 3.53100988416404 2.72846610989046 2.25069623299152 2.56543665999348 3.31519235515355
1.43216743581355 2.49491078201806 2.07332422542076 1.73628563186156 2.53486768110501 7.30843995307324 1.92005197224025 2.09953535858448 2.37987905663433 1.47984062334374 3.04014309680402 2.74493274165419 3.02570382165233 2.23143895237047 2.4813192751313 2.18841376337753 1.94979868715314 2.69207073886838 2.36433644088748 2.33962250642383 3.28457011495949 2.50919809029426 2.13367915286797 1.90152411633957 3.06985463448552 3.56824693209502 1.26919292256425 2.24761095083208 2.61761418695640 1.92053271447819 2.16729958520013 2.25960890789480 2.88142941895290 1.46918536078189 3.23976554926372 1.82973485089317 1.41668853459597 2.16063195973009 2.89301174622871
1.22724503114979 2.57939021607937 2.02188267206670 1.54497791244464 2.31861551144350 7.53194402988889 1.70340981433554 1.85782463804912 1.52440158567389 0.827628909210311 2.48117964343872 1.99759838152533 2.54339832326493 2.09466411059971 2.12362221064858 1.8862960564613 1.76170329819991 2.09464938810424 2.25023654211348 1.89216759997187 3.03584200243334 2.39637790254332 2.18604838742655 1.58809785376942 2.37136068704512 3.25495068610023 0.961992450419018 1.78484758616513 2.27712955038753 1.60005924125486 2.21910848088679 1.64550136467454 2.36843512507274 1.14560037876863 2.94581654460909 1.29432877252083 0.918296382184227 1.79068254960918 2.3337671543452
0.883379201890854 2.70440829958124 2.22774581214411 1.16511934233390 2.13844906306163 6.69982505817386 1.51954530114649 1.66001516676236 1.01169177301642 0.601358447111225 1.96994038551216 1.29810816548480 1.92302890439303 1.67121533754967 1.81014799309277 1.71269535065143 1.48162929237824 1.65351705147474 2.11522118364545 1.68139760786340 2.86701574185984 2.25090925880466 2.15035629462930 1.56653492322964 1.77881920628254 2.90109876866596 0.731848594423401 1.40266249304573 1.95825234662728 1.33048599983125 2.03817252513514 1.15168583932426 1.92249785897819 0.97060824143641 2.65235341107799 1.19200822520021 0.76809688869274 1.35221037966747 1.79226070742226
0.889913308314396 2.78891625217973 2.15023620174283 0.638687156425058 1.95164527475950 4.29351446714979 1.38747483710675 1.57476090247122 0.961017396505486 0.713424470258437 1.55165391854238 0.918753911278321 1.39392246184602 1.28296959777692 1.54453225800818 1.62557156582010 1.05014786016239 1.42446047402048 1.9208927653065 1.54776314317575 2.776710109521 2.07560974249886 1.8914528262054 1.41267655226685 1.50680943344645 2.51707510464814 0.501704738427783 1.07132187656047 1.68993610697335 1.02945280296398 1.57094784616951 0.865916662733482 1.51834266774903 0.860046824194377 2.36256668954832 1.16645816320276 0.834365274891937 0.833237793112732 1.40661927366306
1.10287222259899 2.87183806108251 1.57154097284539 0.270140969797883 1.71401509573193 2.49550767302 1.43116941250357 1.46809693617815 1.31306664974327 0.83931658031161 1.27150561711814 0.906392291577865 1.07712452680328 1.16401622022410 1.32471637464262 1.54831651464609 0.766347352335694 1.26957478963201 1.70410266061058 1.36455403748131 2.75991489275567 1.88629611642698 1.53581023311101 1.12110220845661 1.40011694786007 2.11120401043183 0.271560882432166 0.79739967298183 1.49897504461478 0.760599798376054 1.13581732360902 0.809415563597582 1.14518908804596 0.801681661654095 2.07964692089793 0.99598833028093 0.958420755736477 0.373642461282777 1.11787142949990
1.17576280113189 2.9547598699853 0.673393936986937 0.281344215347277 1.38478118195146 2.47913907636416 1.59683826762788 1.19454613972990 1.53490988899796 0.814525050480521 1.16059588841881 1.15524860463266 0.958326720323028 1.2549422525348 1.14504710325966 1.35690509635952 0.726882357353623 1.02755976135291 1.49859110133212 1.10930893081701 2.78875720835617 1.69368718018060 1.27996365896244 0.805635314954612 1.34124811580936 1.69398117098784 0.0414170264365515 0.641332296542021 1.38070744476346 0.597523564334484 0.91765724998899 0.909304915445814 0.879835511934015 0.81097400698571 1.80678464600469 0.83573635070721 0.986166491876462 0.131964026324168 0.869078509488411
1.04448672816749 3.03768167888809 0.300521625974078 0.491730541758012 0.995489717924435 2.66304493590252 1.75764100498145 0.780249583277257 1.35253241689497 0.625376331893871 1.21574506552858 1.25541333151283 0.958039094248766 1.39412561471545 0.998957123519827 1.01431790420135 0.821170489851471 0.743582534764387 1.33109369060349 0.807210718374517 2.82932637184287 1.50824226421546 1.10816435908613 0.499561853847508 1.26070313333423 1.28882773807144 -0.188726829559069 0.5983099269111 1.30674544779826 0.479264933503772 0.783998549030177 1.05658548367279 0.774309715871729 0.865703741431298 1.54718747459773 0.756540531571284 0.887540657979817 0.231093711237300 0.627953151831683
1.05290106829057 3.12060348779088 0.517952492758304 0.67075891513415 0.630851341323209 1.95106278254376 1.88013961618013 0.453908738383940 0.936563419879062 0.378881934199307 1.42775041403064 1.13151021205262 1.02880437926677 1.39461185233414 0.878638635229436 0.594458791468318 0.829799120991803 0.61684797679786 1.20831444418418 0.504528677869797 2.87250683769167 1.33953362092747 0.936365059209824 0.261975359212139 1.19762136879746 0.923520020508833 -0.418870685554683 0.608602299387786 1.25431220374096 0.361006302673061 0.562210438606846 1.16206611050333 0.7964809850992 0.856854051331225 1.30413757979445 0.782157574960965 0.748519920904338 0.637321868375236 0.400976484494941
1.36526230218672 3.20352529669367 0.908668201012655 0.830977765003669 0.333861278335118 1.10795930842654 2.00263822737882 0.369892354686723 0.540726775425114 0.224100154208103 1.78513614670589 0.892717186453406 1.08928030985751 1.10542191839365 0.776187303604992 0.209673022648535 0.787656889566847 0.668299244296955 1.11622102656452 0.269640242408395 2.92149368525278 1.18952483497218 0.764565759333513 0.216086949461876 1.29499568580678 0.625837645474688 -0.649014541550304 0.623263316595943 1.21217804906591 0.242747671842349 0.246533914120363 1.21841953835150 0.865552365770447 0.746280311840408 1.08093748968196 0.793639476940654 0.636998484967544 0.98331697664719 0.257006312217073
