-0.199189386629477 -0.0827124804736856 0.26975623035093 -0.0903729175729781 0.149189546256687 -0.0458617884609991 -0.101449003334783 -0.147858013672178 -0.106727374269225 -0.163710058384636 -0.114370327016753 -0.279424371583457 -0.124837345166312 -0.255311055266634 0.626337173235321 -0.177559620789102 0.76875777484379 -0.226591509524022 -0.166546265933559 0.140877037878430
0.0203081599235335 0.0374273507178757 0.248086922702617 0.0691092866177633 0.376023466156809 0.0588020531632107 0.0422804387271456 0.0133460946218597 0.0607853698657453 0.0551797169929066 0.0954663627257106 -0.0555597963960582 0.022972239086758 0.0268406903714836 0.594994336410077 0.092528837017477 0.844965388678393 0.0649991938389145 0.0395460851819124 0.154872618272855
0.238902760326630 0.157713570856827 0.26410580064213 0.228591490808505 0.55205059056272 0.163465894787421 0.185895975437140 0.17391811638414 0.223078204392638 0.273720003102893 0.305303052468174 0.169994859458395 0.170805191162701 0.306628552231879 0.633794257792826 0.360775543278241 0.927190095119742 0.354925688442657 0.24253479236195 0.168330569831140
0.448395751683222 0.285974538214327 0.303739197546267 0.387551293984380 0.492944861523849 0.268129736411630 0.325886162959414 0.323718116120381 0.354765898409214 0.469730959429785 0.509012802882047 0.421942706017297 0.324885534195519 0.559354436345861 0.738678337207712 0.576733769732062 0.963091508433368 0.604601567122864 0.421772469945431 0.181282032689745
0.621763425472276 0.420537885788671 0.348438826835822 0.530818732053265 0.30112598654616 0.37279357803584 0.431754279745058 0.447128462411511 0.437494508367583 0.598709805185803 0.656623190451159 0.684438698322365 0.487378297749948 0.748574034340895 0.86357114526323 0.681414011124976 0.867406346864747 0.764696498338007 0.556800230630996 0.193758146985125
0.725627852915879 0.533131584823394 0.383436063702101 0.622661967176972 0.178582312197177 0.476437886395919 0.456037302806892 0.532783513622842 0.460272267707099 0.628574195412428 0.714659254519924 0.898836137403068 0.635701341566586 0.838779729885448 0.924062110431152 0.657338524077206 0.690645864428863 0.809940661364922 0.633533372229093 0.205790052853738
0.73615514982212 0.585714964845085 0.404132965637762 0.626970034348743 0.188831534182347 0.56123415789872 0.388999423545931 0.570302283021877 0.422424896433217 0.567195927964758 0.672708993808148 0.980436066585145 0.741137409725137 0.818534924869152 0.878911285911659 0.546349271094725 0.562914159358937 0.747946004825278 0.64026731560051 0.217408890432042
0.667934529320121 0.546330184497627 0.412987355071341 0.544947216878792 0.293927360019293 0.577965590866209 0.271915273491216 0.553972782952907 0.351453655185386 0.456178272950955 0.56789770790516 0.912106051593604 0.768021918511821 0.716223512827031 0.738729879899354 0.423149611979903 0.548850883297095 0.626582277265662 0.588019888017002 0.228645799856493
0.55386513751848 0.428947112265151 0.413576379560383 0.425181118078307 0.414052650108101 0.499748914678385 0.177437474886182 0.49622392469596 0.280072114725164 0.342436625634837 0.451480802572574 0.730663175566001 0.716864193317768 0.581281761390057 0.579681823594433 0.348741655145288 0.634291304122252 0.496436605489565 0.505223261846803 0.239531921263549
0.447617806622416 0.286923471337497 0.409056102210867 0.328556729780517 0.496814575652426 0.362665670234445 0.161009921854398 0.41741203990124 0.240487202837638 0.266011718000198 0.370526845359106 0.529692296711672 0.606188880048186 0.465041837885338 0.48545278018725 0.355149118815402 0.73941382277446 0.404870352604317 0.425155886585641 0.250098394789668
0.385680392703173 0.199690136848039 0.398020104665748 0.294920649010746 0.522874898302627 0.262783819604723 0.229309609933585 0.340255916743824 0.256744310321879 0.241277590298314 0.359049394187426 0.395980370888625 0.484278596068869 0.408709011117912 0.484840352381449 0.427321727348969 0.79739182037323 0.379829600538129 0.380376216218117 0.260376360571307
0.38809515790288 0.213581196647999 0.378914149386904 0.318204328359165 0.503683520264681 0.266403426214613 0.332879439645301 0.287540807413693 0.32409879751021 0.269053549286629 0.413557975975284 0.366559496918715 0.397192949624322 0.418160043403163 0.562598034667732 0.530960614439597 0.79353212605674 0.41888289957251 0.394237600630318 0.270396958744922
0.436218850439674 0.307491332251992 0.352856408989242 0.372250471593135 0.462767621595738 0.335530060075701 0.41102406004482 0.27628156902513 0.422242848137884 0.333770499525878 0.512935626283844 0.436543764180411 0.37748266332425 0.487035926021973 0.649233675830482 0.627981052062745 0.741098810792017 0.508011167246969 0.457944798463901 0.280191329446972
0.496878289923922 0.401289677917517 0.322136426010912 0.419853198358609 0.419581999675193 0.388980888694413 0.438429034984313 0.307175527159196 0.514394734298383 0.40950014967033 0.618296034112137 0.551382680816057 0.420006706555376 0.582784977032699 0.69238351455746 0.681949235265023 0.672775135532934 0.610459491510445 0.549241324473759 0.289790612813913
0.534194589302086 0.435522334867911 0.292346817121631 0.445919041033738 0.38741177231371 0.399611970421785 0.429080297384809 0.373081062303683 0.563217935286006 0.475301146149676 0.685863226481206 0.650001643447431 0.50002221522479 0.665585940944403 0.669843704314948 0.681953985850595 0.609460149072591 0.687819783337253 0.636665183860677 0.299225948982203
0.536523795219735 0.414682189082336 0.267824760616119 0.450494487876431 0.36699265080624 0.372776907302412 0.404082569883197 0.450806569700438 0.560403462630358 0.520720192500513 0.696479061373289 0.688660686724577 0.575924483274386 0.706372601110703 0.603768702762001 0.641520236036436 0.559338884824633 0.717179803494721 0.684570176472499 0.308528478088299
0.504684455658234 0.369936149645658 0.250358350847534 0.435629265335605 0.353893654180291 0.320821283540671 0.381043553939028 0.512584225077254 0.52577791248778 0.542487603684502 0.658322892035314 0.668623208680715 0.61631377751771 0.7006978906806 0.528456658329635 0.582190287899873 0.514629866378232 0.701560259159836 0.677200479692145 0.317729340268658
0.457830746163094 0.329784422011852 0.237281907389552 0.40514272180972 0.343812402919895 0.265279316353754 0.363000090912134 0.537312968467495 0.490260230615257 0.539468855596239 0.588318457353683 0.615025601540703 0.604897772373705 0.656122363608123 0.469078142839386 0.530399304961997 0.46297657116923 0.653307441419018 0.625296282760979 0.326859675659738
0.415334605749502 0.310969207608178 0.224347484639232 0.364913789855369 0.333304865814052 0.228961765891500 0.347633042401231 0.520445907785595 0.469414063478482 0.51540379902327 0.509365729575136 0.563548286569662 0.555900465296519 0.59363591978629 0.441017284343058 0.49492610127117 0.407548867622365 0.597849836363574 0.550278248570734 0.335950624397996
0.392040473753242 0.315119880827891 0.213227495578852 0.324010679644352 0.323629300830184 0.220952840687246 0.331782284724462 0.480491429102932 0.459415749590930 0.477961282150599 0.438394236175136 0.541845190537957 0.497203976449748 0.536484433845064 0.436513585751951 0.474357482295804 0.372356357057369 0.547250415347748 0.483250878094151 0.34503332661989
0.390226017672681 0.330604645713333 0.209858953119067 0.293807514509329 0.32259167399299 0.233436437407087 0.322361046038748 0.457062218746677 0.440046740104478 0.435692424748233 0.387251732059534 0.545894817151213 0.452307145703261 0.502816036512606 0.438523874814889 0.453439686708519 0.387710799337123 0.504125497374588 0.442949259888972 0.354138922461876
0.404725691892578 0.350824019150755 0.229472666678249 0.285780419509527 0.350075457241948 0.257998287049566 0.332566825563522 0.479607150909075 0.404976330111163 0.398610540563976 0.359561333024947 0.55395322093507 0.428372885173510 0.495441540128 0.434955644956453 0.423969118863912 0.474376545384422 0.463499861983357 0.432458637588091 0.363298552060412
0.417960243117505 0.38433192355354 0.285580641601143 0.308372701895462 0.421637533461684 0.297558293789383 0.379813721481884 0.550361205359859 0.387665950387771 0.377284750264450 0.355505291347461 0.545514578469179 0.407320238241253 0.506256305194004 0.433261888541039 0.401077576253024 0.605778647741089 0.417493831291767 0.428572584461397 0.372543355551955
0.422378277814006 0.447289069727251 0.37512138762126 0.364025795145217 0.525624560844621 0.365644480352627 0.463221756032639 0.631244459108367 0.437303611172721 0.380769683437726 0.376652124187534 0.551103600490947 0.380092329618453 0.516138177191835 0.453526285559352 0.412779125660747 0.728723744785244 0.377699547310119 0.412508075551025 0.381904473072963
0.422603782441264 0.530255890012268 0.471411315462627 0.447798587242616 0.621895319383206 0.461400554741293 0.550849096914616 0.688444803330033 0.562513417873637 0.413640887798121 0.429066134099161 0.613030108278378 0.38011146610846 0.522529528694429 0.503990364097883 0.478815424907247 0.80119107619566 0.368045014454574 0.409806083493968 0.391413044759893
0.446513073728883 0.594580281008955 0.541281156903896 0.55379887012946 0.666686617786904 0.549532392642645 0.60070061679037 0.738012468409357 0.718393024640631 0.476243969032352 0.519571876140426 0.748933182072047 0.459345418766673 0.539219216481977 0.564498477279173 0.57613231803652 0.791827790474865 0.410272530683527 0.479041310846803 0.401100210749201
0.503493360559854 0.601339277822785 0.553367187322022 0.66895060875487 0.639832694680551 0.59049947467609 0.583288970392078 0.803822388933074 0.836059801091514 0.564103628073212 0.64316472226653 0.912504708033864 0.610999709280285 0.595125908729408 0.603330985291013 0.653851378605879 0.706193187127308 0.503708201779338 0.657018350027508 0.410997111177346
0.585963282643968 0.544237191513132 0.509342892843705 0.767866176812351 0.555613773959965 0.56110880148154 0.510194074967797 0.843582546639815 0.86131620437315 0.65847159303113 0.763105781806328 1.00667307100236 0.74908503561467 0.671134120267318 0.591382129886121 0.671795122673758 0.58820993068896 0.611069967272153 0.86749213075167 0.421134398578798
0.65032134586069 0.449263043866603 0.430278962703426 0.803542443285906 0.445662912365091 0.485157406478863 0.411448592847698 0.781155773630948 0.794628262290311 0.732624043570053 0.832260041675114 0.966732748016227 0.773129908632118 0.72940471390713 0.536389250466448 0.604817815439447 0.483934019315041 0.678571846855212 1.00904140717968 0.431520646194492
0.654967522105461 0.361480659552576 0.359136126595931 0.74839584092624 0.355030238763188 0.415511513464807 0.33577209384816 0.614696278411598 0.667603264470792 0.761232985349814 0.828578143273745 0.811313506233002 0.684149213706124 0.728093762324245 0.466907368385056 0.480574132499407 0.435128571288236 0.681649973180596 0.992137409012117 0.442133794877556
0.598828845870381 0.319138354696324 0.335385456436426 0.611218324449148 0.322242893403103 0.39679130397567 0.313743623094215 0.423889897690508 0.543368887961401 0.747654563063138 0.748450342137356 0.626840934436856 0.574894171605527 0.665705685084194 0.438143589843564 0.357122162794086 0.460802586830824 0.635878668798064 0.831943030003623 0.452949529566507
0.52731313754286 0.342225209106742 0.381343120670676 0.450137041239229 0.366426581755587 0.440504411173249 0.362118667849062 0.317821547834291 0.481555034970914 0.711986859534661 0.640750233730884 0.507764701508309 0.553891372981644 0.609245996422867 0.479961097709505 0.298287985978051 0.549621343261428 0.590833434779644 0.638038233665654 0.463943535199861
0.494356962122802 0.420433603207134 0.490683044190625 0.334186379351724 0.479957258816137 0.54024926970513 0.463207444072146 0.361585471744159 0.514860550225464 0.685964206229488 0.572659335803734 0.514092387231912 0.657991743055679 0.62283075138065 0.602375261296283 0.351586263636941 0.680410846878669 0.611774340289194 0.531468166993541 0.475091496716134
0.531858515805119 0.519043008555262 0.625638751642743 0.321381116493876 0.637522084720503 0.653412896152184 0.585716063540845 0.53105374599588 0.619484708798207 0.690094211258372 0.601332129981768 0.63509781736991 0.80116588403118 0.715224529877508 0.759243931606833 0.514837993009253 0.818026072009481 0.71205956571061 0.578008643704075 0.486369099053845
0.610259435181957 0.59509773363514 0.738529988074382 0.415468462022277 0.79207929980072 0.743235751213274 0.688664336412769 0.728732192599051 0.745913702155567 0.711208034474722 0.737815393326631 0.828292985296267 0.86320978979407 0.8237852347386 0.886646844114415 0.74660789356583 0.933303349469272 0.860385634540068 0.747892580784325 0.497752027151510
0.67682165134945 0.617996720456742 0.787550738437465 0.585000603354542 0.904391816233896 0.778983715237797 0.744668760782242 0.860108878449983 0.849252716019408 0.725386765036755 0.92721208371989 1.01531466172615 0.807893663497756 0.870421017089115 0.927097495399317 0.961742020317874 1.00085659263844 0.970269770680705 0.939039723207073 0.509215965947645
0.675063754321719 0.582989076130047 0.762069439796068 0.750877427369343 0.943001055818785 0.749444517320215 0.738411605818727 0.856443698167171 0.891009561777256 0.699384239901312 1.08787985072606 1.12068657423334 0.683595667475155 0.816095989659683 0.88203097328212 1.07852322086491 1.00488883090054 0.985581472000332 1.04640899756393 0.520736600380767
0.60276221694462 0.502031442018432 0.670933498732701 0.832890376239258 0.903834048409713 0.672793653385396 0.675521099132278 0.73429250893451 0.856328402383916 0.629535213819135 1.14059534697228 1.11009159900365 0.590523280632352 0.703727477699252 0.781836856038198 1.06553384944439 0.936971098299425 0.885823108259318 1.01822922563572 0.532289615389393
0.482222551329107 0.4145340509481 0.558980389362236 0.80379602880768 0.817161800894548 0.579057924542165 0.58607998966824 0.565939237071225 0.760100675309701 0.522361719746585 1.07313975785856 0.98990951860355 0.572172658796592 0.595224573203356 0.685656295395693 0.937331817243563 0.821938525508713 0.724650414442897 0.908996495747182 0.54385069591204
0.368865209525061 0.352857307019247 0.468870292435988 0.693167061827756 0.71975259815353 0.496506874232925 0.507271516792828 0.437257440312893 0.634736006307539 0.402755411304888 0.930755212066719 0.81525285223906 0.617607559009376 0.554162935037611 0.638274214386289 0.770528060781155 0.70563110788223 0.580938297860928 0.811324384086149 0.555395526887224
0.31207003936014 0.342255685704865 0.431810069258104 0.576129025388244 0.642206352256266 0.451461019343718 0.465847973135652 0.392385218826239 0.532308432059907 0.301177135869609 0.773641464237525 0.662885035285928 0.670969330962362 0.601190126262047 0.649924039911477 0.64913480230771 0.636529243310936 0.512988744496145 0.790903196473176 0.566899793253463
0.325645002638847 0.376843899171924 0.438326213455245 0.511095638245244 0.610863729225204 0.456849270993456 0.46373247153788 0.428718589266501 0.482387375584524 0.246711788717718 0.673040949412486 0.591317440800649 0.699495513810576 0.693037680715622 0.707163924532087 0.631948767208537 0.641591394555372 0.52819980408947 0.830837974390883 0.578339179949273
0.389934045028687 0.438626894931951 0.4659118095318 0.518244489655667 0.624373461994896 0.495743125924214 0.49424949875509 0.507727525093963 0.493012939913835 0.258273874467470 0.654774670934856 0.600718172615967 0.703591904650996 0.773113919973381 0.768832458297517 0.705216488524593 0.706569026973424 0.603101195210247 0.883097482229566 0.589689371913171
0.469981228982885 0.502255276369935 0.479801823586366 0.56273109614514 0.6612688816735 0.545657337086741 0.528073298721113 0.577829441992644 0.534541906387789 0.347267596178504 0.685942712827683 0.653391721333975 0.710044200682122 0.801213914128857 0.806066776666794 0.806346073080634 0.791555759292246 0.679589282555926 0.900996995923284 0.600926054083673
0.529521482315586 0.550427083646066 0.468903794752171 0.595174733384678 0.704123780828217 0.584916830072191 0.548779681136435 0.618826941548609 0.576171800468090 0.499301784754063 0.72159153886482 0.706871871100577 0.73541675037497 0.785357008476038 0.800420204139177 0.883976200780572 0.865509280741637 0.729667858870325 0.894138379929254 0.612024911399297
0.558461591359588 0.58206935809299 0.436977224566002 0.594615001266955 0.74089033128112 0.603814299490224 0.550115506945848 0.638963103646612 0.603231548510525 0.67868067615822 0.730250534509747 0.749419770935878 0.771783965694593 0.755576834985781 0.764107236423933 0.920675485692178 0.914789730934057 0.752450580874588 0.878931960492151 0.622961628798559
0.560175210948507 0.600887084636601 0.407391013912411 0.575474725251 0.773069815227132 0.605137295984543 0.540341529160389 0.652380749958266 0.621010755088843 0.844389518309459 0.714226440241053 0.788842952000016 0.800531545354047 0.739834143888022 0.718225882592651 0.928627702988627 0.936923879111503 0.777707287580054 0.872980127872755 0.633711891219976
0.553208387060628 0.616897542141204 0.398716850289011 0.562467045816925 0.7986126026412 0.597024672982976 0.533149398036277 0.667738317049996 0.636490395000387 0.953831979214536 0.698892960727509 0.834394898783959 0.806848890056683 0.757827418853581 0.692993475219751 0.931018694109873 0.95422038746984 0.818061392554412 0.874266958561690 0.644251383602065
0.546660961473872 0.627901921399198 0.415847317703865 0.572150178097488 0.81363090595408 0.585197623495866 0.529997395007061 0.67772302080121 0.651387553057485 0.982452556906684 0.698192717090858 0.877328099897342 0.793781663720564 0.790471036059778 0.694790282402966 0.929870507994623 0.974017349785828 0.866504584379153 0.86375862278506 0.654555790883342
0.536507653989735 0.6289651904684 0.450247191267553 0.591874509733044 0.81492209109895 0.569162381597283 0.52996706904663 0.669722666508197 0.659617018114996 0.923417516593342 0.704333946714083 0.900183871370412 0.774023892034232 0.812181392378876 0.714357665531562 0.909437931148358 0.996017112339812 0.89056710618234 0.841382771557106 0.664600798002325
0.518681827832208 0.620995549399988 0.479661333156635 0.608531474412382 0.799872893859696 0.548067270031928 0.527701540579676 0.644144192869373 0.656032788752614 0.81484000661338 0.699840655464976 0.900440201952703 0.75916623487514 0.804399098779623 0.723306370174018 0.869421764720248 1.00327730524561 0.874092622988136 0.817251041667194 0.674362089897529
0.5011170618064 0.60841210040642 0.491456381473109 0.613155640560379 0.772973738860096 0.525195984930103 0.518756798765041 0.610004246350194 0.649441230536054 0.712131344140577 0.66946869108735 0.885015950611974 0.759673682270004 0.773126791234981 0.703656731906098 0.825643339506468 0.984598852004013 0.837092470704094 0.810559862618945 0.683815351507473
0.500381084066156 0.603612283125878 0.494009322304049 0.618131664557913 0.751777413888853 0.509814295085839 0.51181186119812 0.58616430247619 0.653507280677414 0.660404653488443 0.6286734775316 0.873163303649626 0.779399014568605 0.740074329767733 0.661400059796371 0.802173560864275 0.939794838327628 0.815856042962375 0.824960141193072 0.692936267770672
0.527585302393952 0.617543340429255 0.507037666912709 0.64116207906939 0.747236326970177 0.514123332228343 0.517042469832175 0.588559600910457 0.681567902519905 0.654969338243663 0.604931857866839 0.878151800153093 0.811053372499844 0.726265097785948 0.614611065917915 0.817837983269133 0.879918006940951 0.835766853522789 0.857651229217294 0.701700523625644
0.575436482224577 0.645517629200262 0.546468497853811 0.683550502059722 0.76702469000597 0.545208945065902 0.541388186343212 0.615647497737286 0.729128153997257 0.660104393758592 0.62603730363136 0.903644038254695 0.841480143225107 0.73531346905388 0.595509725197286 0.860467075594166 0.83077195493551 0.885320619982062 0.891513786324178 0.710083804010905
0.618713900358069 0.676514587157279 0.6086514316642 0.723615430650984 0.80280874423998 0.596171607213862 0.583365473773341 0.657767521784461 0.778531681457417 0.645390597165557 0.68407357799802 0.93697761534759 0.856478530153255 0.762578223173964 0.622874175756187 0.901788231516903 0.815163772670285 0.93317961030903 0.906508736523229 0.718061793864972
0.63255453474256 0.689036746269618 0.665949786292456 0.732287957779043 0.833373667492733 0.645262797034812 0.627268652798698 0.690176728147244 0.80393011522742 0.612368794507081 0.758941233514575 0.95445798577981 0.841493751059168 0.789251964574886 0.683910898510962 0.911672805185784 0.839090862027842 0.951241480838715 0.886310723590478 0.725610178126361
0.607450187600195 0.672998304805983 0.690690100360453 0.690019086825447 0.835146381594667 0.670437245113203 0.650325044529223 0.697574885316637 0.784829479680972 0.585169577151694 0.81425362265659 0.933316321054297 0.795469822602926 0.799716676590272 0.749183841164637 0.871738667587069 0.883605479469435 0.91696319564558 0.829834660741275 0.73270464173359
0.547714543273577 0.623527054331247 0.671984773660443 0.600096037634678 0.791846406685151 0.662632780415035 0.635369504487757 0.669440305345215 0.72287123960498 0.580049517876488 0.82092536570068 0.869501283285216 0.723874942297356 0.782736878813267 0.788799780191922 0.782841433627719 0.923786048496985 0.830124351475528 0.744155598443831 0.739320869625176
0.467921629997841 0.547636537634028 0.607596061086628 0.48200080040663 0.708710451722154 0.618992599573538 0.583595229319145 0.610603041860735 0.62708255791098 0.57680352857147 0.77818907798635 0.775594607824903 0.63541553389544 0.734644509402314 0.783561111383256 0.661358039758711 0.931855902283519 0.70930053186384 0.644644326582283 0.745434546739634
0.386851399268704 0.457234221611803 0.518149427578503 0.361086623253557 0.59686381277342 0.553261285012621 0.503342771616033 0.534037862439435 0.520876990738566 0.552065105902045 0.703152241647075 0.674417669497366 0.543922865351881 0.660212636652585 0.732558226803592 0.538804962540212 0.900639242272172 0.581521297800316 0.551133466599394 0.751021358015483
0.320216098576656 0.367186966256429 0.428694556153769 0.261797921358226 0.481759408431024 0.490402718193951 0.418722361033693 0.454509827750562 0.428089594460057 0.520715059729043 0.617197067992246 0.593955514325893 0.46300748107727 0.567382549811149 0.644401169499444 0.449742037824411 0.836503004449578 0.481112353764121 0.477717753461558 0.756056988391238
0.279998762558011 0.293413091724486 0.362708920881781 0.205067995112600 0.387498818353659 0.452661830612171 0.348715979246952 0.386732109301284 0.362971273138234 0.529630149087684 0.544850579055274 0.556781414695921 0.400188508998925 0.469376046344943 0.542291226107431 0.415348138411111 0.75519660498802 0.433997385927336 0.435897057844447 0.760517122805417
0.275382784399767 0.251425628556813 0.339812550508278 0.207872894858995 0.332647020075342 0.455382630747059 0.308177827499915 0.343018335055117 0.331687096112463 0.587058747910914 0.507773179265776 0.575756127619117 0.358539035466407 0.382961299218837 0.455816719355601 0.442914242403997 0.681152022093135 0.45040580354467 0.430396630755530 0.764377446196535
0.312037337531008 0.254408986241943 0.364603347011383 0.266850897230584 0.329230245875275 0.494127165552917 0.306826680496865 0.335355578896575 0.337505548144645 0.649770347233333 0.517555218229465 0.639456511321433 0.339502639102753 0.330384656663628 0.415341492498191 0.512932653563027 0.639192309952356 0.522467615064053 0.463255563398156 0.76761364350311
0.381223432857126 0.301263192203302 0.432672445156658 0.363550565130781 0.374559353765100 0.546590212934486 0.345241548391993 0.369055717644383 0.375630470275145 0.666156523939519 0.568158415264401 0.717992435933563 0.344237155147053 0.331964779610871 0.440124160306888 0.59563840782357 0.642450365133098 0.619358746139038 0.525913357405705 0.77020078266595
0.465144563964106 0.380241867323612 0.520363384665725 0.464150970074905 0.454840497986191 0.588425870201014 0.418587213397119 0.433069840981382 0.433798763266437 0.630982012168422 0.634941601575881 0.780238426869148 0.371690333738887 0.401999572061478 0.529710018263008 0.666381235888008 0.684410691848353 0.704332120634616 0.602246783766815 0.772099788740317
0.538697484552434 0.462759372275195 0.597365660882231 0.540000177658353 0.550335343467877 0.602235394779059 0.507381734767562 0.507246328719408 0.498024715186735 0.565431787976296 0.683546515516732 0.808381595358983 0.417610975174857 0.52764296289777 0.651507618935833 0.719523166895677 0.746496513707938 0.752487160616821 0.674335947975179 0.77325747054551
0.588350359655539 0.524687352729335 0.638236068154385 0.581732281613064 0.634480270791992 0.593059583107155 0.585573548023047 0.560115552902785 0.55930592890196 0.495483596354879 0.70004034040864 0.810173097035054 0.474191934816146 0.666928080721097 0.761412356379361 0.749848817405195 0.799262502346471 0.769649951384094 0.729305792734655 0.77362002523304
0.610781940668707 0.552922713201616 0.642590410662546 0.594267250342618 0.6852991867762 0.57122307305602 0.631152190780813 0.579221491382441 0.614346757453143 0.468689176934911 0.695751450079594 0.796430195149055 0.53321163799036 0.774059357498413 0.823780553927548 0.752859221229992 0.831648145815603 0.765298058697249 0.764116811733442 0.773133649954413
0.609480981076118 0.554446299729942 0.622820844038492 0.599687140428378 0.693890093395462 0.544305381362215 0.640395635440896 0.565409824878798 0.66131952024441 0.533291696949044 0.689695987797023 0.778273481453672 0.587245935316907 0.826657122086253 0.835116844288634 0.732087792805349 0.839637401136463 0.737402909660858 0.78129132924985 0.771744541861141
0.588463314103451 0.543123204167249 0.602926750049621 0.619232090090826 0.673415732545843 0.518842626593357 0.620717896776969 0.539116326666241 0.695389497465635 0.66455469291209 0.684709169690333 0.767084510290582 0.630734185954051 0.825742175507643 0.81045308054405 0.70725434369107 0.83085655421544 0.692025432630646 0.785009073644986 0.769398898104733
0.552118163455698 0.532502957279563 0.601527270745731 0.66167061812916 0.654239956948876 0.501410591863118 0.594996434959282 0.516328851642457 0.71193556850485 0.774120089622895 0.670914632915053 0.77432087570009 0.662195428670233 0.785766844446236 0.785272763977771 0.725463430035633 0.819461813447538 0.666156533096469 0.785193137542422 0.766042915836698
0.520007297415494 0.539123172093026 0.630324842804187 0.716121101175824 0.663710495607355 0.503338234070513 0.586793782566042 0.509086879459029 0.725889008282259 0.797702936445949 0.671318408458429 0.810131032628484 0.68200705189213 0.741125753109435 0.806845927023531 0.80230488256069 0.830206724274547 0.695639512731416 0.800516481373837 0.761622792208546
0.518243803709616 0.576406306936667 0.679288531254816 0.763507195989376 0.703390141802733 0.533528671139962 0.610688242165121 0.535431342018356 0.754752181069288 0.753491325748956 0.723634016012065 0.87661201831476 0.690602656529739 0.762436849860819 0.900111322773356 0.921021375243839 0.898790318787085 0.801565671681251 0.850264878384612 0.756084724371785
0.563726711141246 0.6291140838178 0.712005565193177 0.771723220362304 0.734002007360308 0.578389650498214 0.64595249420016 0.606821838654252 0.801934600200897 0.724184690085657 0.833287706392295 0.94762350740662 0.688953866102573 0.88111988989869 1.04575419824768 1.01162956342115 1.02205419287604 0.928411483779451 0.925548671163472 0.749374909477926
0.63640495977531 0.654933009076664 0.696885585378894 0.7301924113346 0.710096451802804 0.601318013284545 0.65209563629594 0.676030573766387 0.827470694819172 0.747899679769488 0.963078682784964 0.979139755715031 0.678384598827763 1.04169407893977 1.15581799674146 1.02152580775280 1.12988423247002 0.994653152007475 0.99768892235042 0.741439544678477
0.698695946449458 0.629089468802772 0.623703022131738 0.638671746200254 0.613345547502916 0.571660809464807 0.605487218125058 0.683522659055356 0.78925945272786 0.774482577656553 1.01740125262117 0.936375206715163 0.66032424219223 1.10192251390216 1.14467624640966 0.927657065638775 1.13257792276881 0.938813349494309 1.01775796953971 0.732231948358711
0.704168697476396 0.548529306206299 0.507431977989277 0.524151019885014 0.477765481768118 0.495201204981029 0.505131866156042 0.5888516661775 0.678829566470171 0.733402641390052 0.944460942960725 0.824661827975573 0.639493218113855 0.976194420165076 0.994260299011897 0.771678971070007 0.992409625341793 0.777839752032924 0.955131405910358 0.721774847113486
0.651191291730505 0.463463632088393 0.399141823280933 0.42646903535331 0.361085108305319 0.400171362096019 0.400563136252412 0.450952531648983 0.546393871945535 0.630567333296453 0.767148331613817 0.67259659918022 0.62425170563482 0.734352968728678 0.787005691872893 0.612717680106459 0.77802775247087 0.595581519048594 0.822990937139696 0.710130118454865
0.561938082128528 0.426035962210660 0.345431537968972 0.38719010842969 0.315042464601855 0.345819268255859 0.34727371419514 0.368941455413432 0.459181520565341 0.53456033000221 0.602729035109415 0.551166291065635 0.62053498902756 0.529923530169225 0.640726245713803 0.51698560715909 0.59574742410369 0.47170194113397 0.67375778503645 0.697360080496702
0.481888797185724 0.468381263339726 0.377348010732303 0.424807780770887 0.36699503535726 0.368615388619137 0.385892681291041 0.409691877102193 0.451117062019301 0.506122592120473 0.573913682589875 0.513652356900413 0.632996550583106 0.484539812924147 0.611396920650334 0.507970311502865 0.564032922062784 0.468947015664021 0.586561853468611 0.683527051352854
0.458487331007304 0.568985156992188 0.484255296513703 0.52949012277638 0.497290333748208 0.480315444591057 0.507187789729365 0.542833573893522 0.514168358246174 0.563086708923945 0.710215673459896 0.590412332834032 0.666127420002729 0.62631829744466 0.690552097319513 0.589936173141461 0.706402764741673 0.583678368479502 0.612461188068372 0.668693349137175
0.499181182431673 0.678371562198942 0.622177989075764 0.675114225730919 0.651641843068576 0.639220448046783 0.658568631851736 0.698728897402893 0.601367358867434 0.669884682735438 0.960196811558062 0.748860003448046 0.718597819562495 0.860502017209067 0.803474202670418 0.724084569647365 0.933291581843674 0.750018059985845 0.744825132737161 0.652921291963521
0.575979574349842 0.753054798617216 0.749913012444158 0.811306666343483 0.780443513505495 0.788020579387274 0.793520142956107 0.814237843650631 0.674579324254576 0.77391218122501 1.19054007943594 0.920921632644516 0.781463067621781 1.05869483580295 0.895783132930887 0.865778911545766 1.12882294735453 0.89625439425955 0.908323326938904 0.636273197945747
0.653225849394236 0.785449360004106 0.841463571223136 0.909662630038128 0.864103137712818 0.880297035675781 0.881742161747722 0.851424492454431 0.711682847193362 0.84240201992753 1.30674074070968 1.04531214371648 0.843684476332379 1.15202557713947 0.937019205867879 0.9749267765689 1.22462689549234 0.980120890118339 1.01376812277879 0.618811385197708
0.700311269383374 0.779134671495618 0.8790031157716 0.950438736721562 0.896522058941982 0.91128010992353 0.907505896522835 0.83220373810992 0.715226700870441 0.870957678331377 1.28229531328547 1.09490907426315 0.893266104565982 1.13526557512416 0.930987520559464 1.03461549597515 1.21775989483902 1.00085721509319 1.02496758556827 0.60059817183326
0.70954859506638 0.75549487329613 0.875917576084349 0.9395919358666 0.898000277232492 0.888780201610779 0.893058730004793 0.785454113253073 0.696128196971663 0.86745208539965 1.16020081665961 1.06482278480716 0.918239991040541 1.05649772329487 0.891578220630517 1.04238552802783 1.13897136351482 0.971456528526433 0.963209863067304 0.581695875966259
0.68300321088102 0.728859658551709 0.848546137732301 0.89504834335496 0.881195954473502 0.841467312379307 0.85566250463877 0.736684552667975 0.670994201146776 0.83979745889387 0.998975392027405 0.990368484460004 0.911646770646542 0.964528947411594 0.840912187399014 1.01118073699875 1.0346773933326 0.910402006834444 0.885451269022944 0.562166815710558
0.635507407000332 0.703080155554479 0.808454465877665 0.839743850829424 0.853709211111645 0.788118899607486 0.808054449089445 0.691886920735211 0.648826532453558 0.795324450242018 0.86102359709981 0.908288577081387 0.876296350070091 0.887107464916898 0.794383469504142 0.964613166631884 0.944109092098905 0.83950808592873 0.812147043807874 0.542073309180015
0.58690653615337 0.67833482238964 0.762555609841083 0.791267576547372 0.814967268198527 0.736588421206522 0.756828656201988 0.648850388230237 0.634296752219399 0.738321875610603 0.771071015976331 0.840833451455460 0.816126923400322 0.823864222233405 0.760611137576794 0.913837793455353 0.874822658797522 0.785080316441331 0.744802581251178 0.521477674488483
0.557103890213205 0.644258284685613 0.705789389922916 0.751124033617134 0.755451574163517 0.68683309180855 0.696435094706021 0.605169790586046 0.617384336075732 0.671380970827257 0.7005825511174 0.777261317534487 0.736226176804949 0.75363354500132 0.72249508905301 0.863956454748395 0.81867793430715 0.751165772850258 0.687062004089102 0.500442229749819
0.542656501381757 0.596104210747429 0.635809331922836 0.713550981427725 0.675595807027658 0.626287471130284 0.625042115839191 0.558484510234797 0.584862224846173 0.597072884488972 0.616590293038674 0.696687275381351 0.650402712310838 0.67103626731678 0.666560698074331 0.7961615488949 0.740062435127103 0.72791239894279 0.661562927353158 0.479030698081467
0.527218858433266 0.534322338207937 0.552814594171624 0.652743052041402 0.578987557785222 0.551964504162588 0.543644105804619 0.508308587338561 0.534331289757569 0.517922154809179 0.519428704945692 0.590009677714776 0.574430390213364 0.572833664947175 0.585724965860732 0.696761264018242 0.627922363598313 0.68044928314786 0.659356827010934 0.45754537651999
0.475489297571515 0.459543581588968 0.457283405364211 0.556239651327124 0.469264613409456 0.464224019371258 0.45327603092015 0.456522803491778 0.464606339865689 0.436381729140315 0.427922402542521 0.470591023470414 0.517556814551939 0.460109612944227 0.477087245814001 0.560624667819746 0.483497890628467 0.584761657446909 0.625321110933486 0.436794322127625
0.3749622634966 0.374475383661805 0.352389603560605 0.419668909803811 0.350796689562709 0.364567899824588 0.355857711589359 0.405159406075812 0.379804373133533 0.354898472431369 0.349398608550149 0.349875659515483 0.487714850214588 0.33998153730511 0.350574743768431 0.388267084375545 0.314770422482198 0.438147335544468 0.499345041437815 0.417650093174603
0.226357648105037 0.283912501598172 0.242920887182564 0.25008955477102 0.228510278038292 0.257962736153294 0.254701006939696 0.355973080796693 0.287943863236491 0.275898539863603 0.27555819792379 0.229160295560550 0.492064896689238 0.220015109371546 0.218595134439185 0.194471408890547 0.136638357034601 0.248843939968211 0.281597078641963 0.40098524793116
0.0520725702931573 0.192741293982992 0.133612376981575 0.0662853959930114 0.107345813160417 0.150030007693993 0.153239951602791 0.307435238357577 0.196603564353668 0.198537580611228 0.201829633524231 0.10844493160562 0.5292363053711 0.10432009886211 0.087663236584227 -0.00457413057264267 -0.0392933544005821 0.040555302637511 0.0208568474334550 0.387672366129949
