  1.6800000e+001  1.3600000e+001  1.4400000e+001  1.1200000e+001  1.6000000e+001  1.4000000e+001  1.9600000e+001  1.8400000e+001  1.4800000e+001  1.2800000e+001  2.7200000e+001  1.1200000e+001  2.5600000e+001  1.3200000e+001  2.1600000e+001  1.1600000e+001  2.6400000e+001  2.4400000e+001  1.8000000e+001  3.0400000e+001  1.2400000e+001  1.1600000e+001  2.0400000e+001  1.6800000e+001  2.0000000e+001  1.3600000e+001  1.9200000e+001  2.4800000e+001  5.2000000e+000  1.4400000e+001  1.3200000e+001  1.5600000e+001  2.2400000e+001  1.9200000e+001  1.7600000e+001  1.7600000e+001  1.5200000e+001  1.4000000e+001  1.7200000e+001  1.4400000e+001  1.3600000e+001  1.4400000e+001  1.6000000e+001  1.6800000e+001  1.2800000e+001  1.2400000e+001  8.0000000e+000  1.0400000e+001  1.3600000e+001  1.2800000e+001  1.4000000e+001  2.0000000e+001  1.0800000e+001  9.2000000e+000
  1.4200000e+001  1.4800000e+001  1.4400000e+001  1.1200000e+001  1.4000000e+001  1.6000000e+001  1.7000000e+001  1.8400000e+001  1.2800000e+001  1.3200000e+001  2.2800000e+001  1.0800000e+001  1.7800000e+001  1.4200000e+001  2.2800000e+001  1.6000000e+001  2.5800000e+001  2.3000000e+001  1.2400000e+001  2.0200000e+001  1.4200000e+001  1.2600000e+001  1.7200000e+001  1.5600000e+001  1.7200000e+001  1.1800000e+001  1.4800000e+001  2.1200000e+001  7.8000000e+000  1.6600000e+001  1.1400000e+001  1.5400000e+001  1.9400000e+001  1.8400000e+001  1.3400000e+001  1.4600000e+001  1.5400000e+001  1.2400000e+001  1.6000000e+001  1.0200000e+001  1.3200000e+001  1.4400000e+001  1.6400000e+001  1.3400000e+001  1.3600000e+001  1.2200000e+001  9.2000000e+000  1.0200000e+001  1.2800000e+001  1.1400000e+001  1.2800000e+001  2.0000000e+001  9.8000000e+000  1.2400000e+001
  1.0600000e+001  1.7800000e+001  1.2200000e+001  1.3000000e+001  1.2000000e+001  1.3600000e+001  1.4200000e+001  1.7200000e+001  9.8000000e+000  1.3800000e+001  1.6600000e+001  1.1000000e+001  1.0600000e+001  1.3600000e+001  1.7600000e+001  1.5800000e+001  2.0000000e+001  1.8000000e+001  7.6000000e+000  7.6000000e+000  1.4000000e+001  1.1800000e+001  1.2600000e+001  1.2200000e+001  1.2400000e+001  1.1400000e+001  9.8000000e+000  1.6400000e+001  1.2200000e+001  1.7200000e+001  8.8000000e+000  1.5800000e+001  1.7800000e+001  1.5600000e+001  9.0000000e+000  1.0600000e+001  1.3800000e+001  1.2600000e+001  1.5600000e+001  5.6000000e+000  1.4600000e+001  1.1800000e+001  1.4800000e+001  7.6000000e+000  1.2400000e+001  1.1200000e+001  1.3400000e+001  1.1400000e+001  1.1200000e+001  1.0600000e+001  1.2200000e+001  2.0000000e+001  1.2000000e+001  1.5200000e+001
  8.8000000e+000  1.6000000e+001  8.4000000e+000  1.4000000e+001  1.2000000e+001  8.0000000e+000  1.2600000e+001  1.5200000e+001  1.1000000e+001  1.2600000e+001  1.2800000e+001  1.1600000e+001  1.0400000e+001  1.1800000e+001  8.4000000e+000  7.6000000e+000  1.2600000e+001  1.3000000e+001  1.3000000e+001  1.0200000e+001  1.0400000e+001  1.0400000e+001  1.0600000e+001  9.4000000e+000  9.6000000e+000  1.2400000e+001  1.3800000e+001  1.6000000e+001  1.2800000e+001  1.2800000e+001  8.0000000e+000  1.6800000e+001  1.8000000e+001  1.1600000e+001  8.2000000e+000  1.1000000e+001  1.1200000e+001  1.2200000e+001  1.3000000e+001  7.0000000e+000  1.4800000e+001  9.4000000e+000  1.1600000e+001  9.2000000e+000  9.6000000e+000  1.0400000e+001  1.7600000e+001  1.1200000e+001  1.0400000e+001  1.0800000e+001  1.4800000e+001  2.0600000e+001  1.8400000e+001  1.3800000e+001
  8.0088026e+000  9.8300033e+000  6.4828745e+000  1.1823154e+001  1.0712125e+001  6.9994994e+000  1.0607804e+001  1.3036846e+001  1.2068508e+001  1.1054147e+001  9.6182358e+000  1.1883394e+001  9.3408113e+000  1.0201598e+001  5.5232407e+000  5.0328156e+000  9.3467142e+000  1.0346702e+001  1.6243845e+001  1.3622053e+001  8.5219841e+000  1.0441205e+001  9.5987355e+000  8.2526655e+000  8.9590842e+000  1.1182810e+001  1.6777552e+001  1.4832459e+001  1.0168768e+001  8.6896638e+000  8.1215276e+000  1.5248027e+001  1.4081641e+001  8.9119965e+000  8.2417829e+000  1.1663900e+001  1.0044909e+001  9.5878496e+000  9.2351044e+000  9.2642311e+000  1.1702879e+001  9.5834176e+000  1.0670402e+001  1.2065858e+001  8.4577932e+000  1.0000404e+001  1.5724447e+001  9.7337009e+000  1.0535178e+001  1.0480103e+001  1.4358556e+001  1.7933936e+001  1.7640186e+001  1.1749770e+001
  8.1756651e+000  5.9607815e+000  6.3852182e+000  9.4526767e+000  8.2514253e+000  7.3537277e+000  9.7863522e+000  1.0476614e+001  9.3107539e+000  1.1062106e+001  7.8495039e+000  1.2272824e+001  9.0776716e+000  7.5377393e+000  5.6799664e+000  7.4560552e+000  7.5914174e+000  8.0920360e+000  1.2445694e+001  9.4515230e+000  8.2513711e+000  9.3237073e+000  8.8255808e+000  7.1491414e+000  9.2356449e+000  9.6637843e+000  1.2412115e+001  1.0786876e+001  7.7952015e+000  6.8351248e+000  8.3226161e+000  1.1439493e+001  9.2379646e+000  8.0033986e+000  9.5520860e+000  9.8618167e+000  9.3757975e+000  9.4698081e+000  9.3914576e+000  9.6715839e+000  9.2760672e+000  9.2148107e+000  1.1250441e+001  8.8545497e+000  7.8650378e+000  9.2305749e+000  9.6749007e+000  1.0199955e+001  1.0656136e+001  1.0690034e+001  9.2602799e+000  1.1455960e+001  9.5562833e+000  9.9014254e+000
  8.3958925e+000  4.1311657e+000  7.1620783e+000  7.8827076e+000  6.4528884e+000  7.5315928e+000  9.3639202e+000  8.5412282e+000  6.8291142e+000  1.1184866e+001  7.0877843e+000  1.2092447e+001  8.9348848e+000  5.7534137e+000  6.0734683e+000  9.3684516e+000  6.5936976e+000  6.5946494e+000  8.4308516e+000  5.7331795e+000  8.2830885e+000  7.8031503e+000  8.0909001e+000  6.1683812e+000  9.1852990e+000  8.3300569e+000  8.0130688e+000  7.5653967e+000  6.3552660e+000  6.1733596e+000  8.4408689e+000  8.6131847e+000  5.9436649e+000  7.7311050e+000  1.0394563e+001  8.2149251e+000  8.7738787e+000  9.9290130e+000  1.0116977e+001  9.4789136e+000  7.7583426e+000  8.4553808e+000  1.1534857e+001  5.8001083e+000  7.4819703e+000  8.7450535e+000  5.1134580e+000  1.0232531e+001  1.0463849e+001  1.0724846e+001  5.2733071e+000  6.4660693e+000  3.4540534e+000  8.6525977e+000
  8.4243349e+000  3.8392185e+000  8.6147818e+000  7.1473233e+000  5.7485747e+000  7.4462723e+000  9.0136478e+000  7.5233859e+000  5.8892461e+000  1.0937894e+001  7.1504961e+000  1.1127176e+001  8.5223284e+000  5.4622607e+000  6.3200336e+000  9.5439448e+000  6.4085826e+000  6.1079640e+000  6.1543061e+000  4.9484770e+000  8.3486289e+000  6.2762927e+000  7.3744192e+000  5.4508586e+000  8.5643551e+000  7.1362157e+000  5.7878850e+000  6.2131239e+000  5.8047985e+000  6.3648752e+000  8.4773839e+000  7.5605071e+000  4.5620354e+000  7.7966014e+000  1.0247914e+001  7.5381833e+000  8.2242025e+000  1.0130192e+001  1.0208542e+001  9.1284161e+000  6.9239328e+000  7.5851893e+000  1.1149559e+001  4.9454503e+000  7.3349622e+000  8.7694251e+000  3.3250993e+000  9.0000445e+000  9.9438637e+000  1.0309966e+001  3.9397201e+000  4.3440396e+000  1.6437167e+000  8.0985746e+000
  8.2777716e+000  4.9049954e+000  1.0578770e+001  7.1632121e+000  6.0213564e+000  7.1359035e+000  8.7189142e+000  7.3501529e+000  6.3226759e+000  1.0365136e+001  7.9158443e+000  9.5010893e+000  7.8734038e+000  6.4769547e+000  6.4132674e+000  8.2050174e+000  6.9318485e+000  6.5220590e+000  5.4778200e+000  6.7329456e+000  8.4428329e+000  4.8289230e+000  6.7060358e+000  5.0087818e+000  7.4699184e+000  6.1021371e+000  5.5414874e+000  6.5267404e+000  6.0395822e+000  7.2788668e+000  8.4272976e+000  8.0804889e+000  4.9071542e+000  8.1377403e+000  9.2409308e+000  7.7061559e+000  7.7419329e+000  1.0084077e+001  9.7298233e+000  8.6403711e+000  6.7146427e+000  6.6400280e+000  1.0177654e+001  6.0318236e+000  7.4043785e+000  9.2050383e+000  4.0102914e+000  6.7156297e+000  9.1382467e+000  9.5065700e+000  4.9599574e+000  4.7986510e+000  3.6405853e+000  8.1627081e+000
  8.0400997e+000  6.4287742e+000  1.2231250e+001  7.5138161e+000  6.6855956e+000  6.7911734e+000  8.3966149e+000  7.6568588e+000  7.2870353e+000  9.6863235e+000  8.7748548e+000  7.8345664e+000  7.1551177e+000  7.8608668e+000  6.3211942e+000  6.4640830e+000  7.6423749e+000  7.2873303e+000  5.7102059e+000  9.2642360e+000  8.5399038e+000  3.8899842e+000  6.2352381e+000  4.9031924e+000  6.3875144e+000  5.3272038e+000  6.2984947e+000  7.4896608e+000  6.5385330e+000  8.2613117e+000  8.2662922e+000  9.1682752e+000  6.0494113e+000  8.4437830e+000  8.0175754e+000  8.0916662e+000  7.4028901e+000  9.8443319e+000  8.9991749e+000  8.1161777e+000  6.8394954e+000  5.7988555e+000  9.0346880e+000  7.7654675e+000  7.5920434e+000  9.5586361e+000  5.6713669e+000  4.4449630e+000  8.2573310e+000  8.6205464e+000  6.8362117e+000  6.3738020e+000  7.0212199e+000  8.4617583e+000
  7.7952161e+000  7.5108325e+000  1.2749430e+001  7.7825773e+000  7.1556541e+000  6.6027686e+000  7.9636455e+000  8.0788329e+000  7.9399561e+000  9.1211883e+000  9.1185534e+000  6.7479891e+000  6.5344768e+000  8.6773682e+000  6.0118387e+000  5.4335553e+000  8.0190418e+000  7.8541741e+000  6.1602764e+000  1.0719999e+001  8.6140447e+000  3.8884189e+000  6.1115142e+000  5.1951315e+000  5.8026684e+000  4.9107980e+000  7.0835261e+000  8.0852994e+000  6.7805669e+000  8.6581871e+000  7.9700501e+000  9.8190109e+000  7.0591968e+000  8.4039912e+000  7.2218092e+000  8.0675373e+000  7.2828944e+000  9.4646180e+000  8.3349518e+000  7.6572348e+000  7.0075145e+000  5.2406304e+000  8.1362043e+000  8.8526212e+000  7.7997811e+000  9.3369618e+000  6.8106586e+000  3.2537204e+000  7.5114496e+000  7.9577818e+000  8.0706758e+000  7.6133911e+000  9.3621808e+000  8.6124855e+000
  7.5599003e+000  7.9712258e+000  1.1968750e+001  7.8861839e+000  7.3144044e+000  6.6088266e+000  7.4033851e+000  8.5431412e+000  8.1129647e+000  8.7136765e+000  8.8251452e+000  6.3654336e+000  6.0448823e+000  8.7391332e+000  5.4788058e+000  5.3359170e+000  7.9576251e+000  8.1126697e+000  6.6897941e+000  1.0735764e+001  8.6600962e+000  4.9100158e+000  6.3647619e+000  5.8968076e+000  5.8124856e+000  4.8727962e+000  7.7015053e+000  8.1103392e+000  6.6614670e+000  8.3386883e+000  7.5337078e+000  9.8317248e+000  7.7505887e+000  7.9562170e+000  6.9824246e+000  7.5083338e+000  7.3971099e+000  8.9556681e+000  7.8008251e+000  7.2838223e+000  7.1605046e+000  5.0011445e+000  7.5653120e+000  9.0345325e+000  8.0079566e+000  8.4413639e+000  7.1286331e+000  3.3550370e+000  6.9426690e+000  7.5794536e+000  8.3637883e+000  8.2261980e+000  1.0178780e+001  8.5382417e+000
  7.3336477e+000  7.8658422e+000  1.0070956e+001  7.8395266e+000  7.2003730e+000  6.7846283e+000  6.7566082e+000  9.0150573e+000  7.8587936e+000  8.4601725e+000  7.9820139e+000  6.6058402e+000  5.6917124e+000  8.1393293e+000  4.8431642e+000  6.0428310e+000  7.5166926e+000  8.0945703e+000  7.2770479e+000  9.4826857e+000  8.6713188e+000  6.7821074e+000  6.9363930e+000  6.9530605e+000  6.3354896e+000  5.1719980e+000  8.1533821e+000  7.6311374e+000  6.2263335e+000  7.4083229e+000  6.9974518e+000  9.2900818e+000  8.1343618e+000  7.1641790e+000  7.2375232e+000  6.5061577e+000  7.6998451e+000  8.3584579e+000  7.3954174e+000  6.9984549e+000  7.2884098e+000  5.0568199e+000  7.2850741e+000  8.4238205e+000  8.2029659e+000  7.0039029e+000  6.7364156e+000  4.5938933e+000  6.5576304e+000  7.4513959e+000  7.8241635e+000  8.2656436e+000  9.6360109e+000  8.2654894e+000
  7.1139360e+000  7.4741217e+000  7.9647804e+000  7.7170587e+000  7.0061923e+000  7.0065786e+000  6.2271881e+000  9.3209506e+000  7.4411050e+000  8.3425995e+000  7.0260770e+000  7.0639108e+000  5.5018575e+000  7.3437937e+000  4.7102568e+000  6.9126127e+000  6.9890831e+000  7.9586428e+000  7.8134826e+000  7.8165331e+000  8.6140139e+000  8.6413560e+000  7.5334669e+000  8.0880891e+000  6.9642977e+000  5.6024006e+000  8.4439061e+000  6.9794806e+000  5.7006666e+000  6.3946283e+000  6.5622151e+000  8.6124061e+000  8.2643902e+000  6.3464694e+000  7.6776126e+000  5.5215186e+000  7.9626422e+000  7.8778645e+000  7.1118428e+000  6.8137055e+000  7.3409511e+000  5.2897673e+000  7.1108066e+000  7.5835803e+000  8.3167888e+000  5.6848807e+000  6.1896319e+000  6.1951924e+000  6.3895397e+000  7.4027798e+000  6.9948733e+000  7.9988317e+000  8.5588372e+000  7.9265414e+000
  6.8982429e+000  7.0755044e+000  6.5589528e+000  7.5932334e+000  6.9244951e+000  7.1510827e+000  6.0189978e+000  9.2871900e+000  7.1235613e+000  8.3428807e+000  6.3942522e+000  7.3343470e+000  5.5022082e+000  6.8183635e+000  5.6854270e+000  7.3035771e+000  6.6676353e+000  7.8636540e+000  8.1905428e+000  6.5930755e+000  8.4544829e+000  9.6244240e+000  7.8630430e+000  9.0260926e+000  7.2915274e+000  5.9580013e+000  8.5778267e+000  6.4871555e+000  5.3099665e+000  5.8251421e+000  6.4289306e+000  8.2170219e+000  8.1945479e+000  5.8216804e+000  7.9932001e+000  5.0149258e+000  7.9570436e+000  7.7187652e+000  6.9432151e+000  6.7421471e+000  7.2678494e+000  5.5820975e+000  6.8578253e+000  7.0769070e+000  8.2814052e+000  5.1445994e+000  6.0439077e+000  7.3838369e+000  6.4716026e+000  7.2627765e+000  6.4189896e+000  7.6928663e+000  7.7722236e+000  7.6537103e+000
  6.6860640e+000  6.7258783e+000  6.0352196e+000  7.4829413e+000  6.9938077e+000  7.1934214e+000  6.1728119e+000  8.8790494e+000  6.9588950e+000  8.4574005e+000  6.1739230e+000  7.3360892e+000  5.6981425e+000  6.6562063e+000  7.8897432e+000  7.0873873e+000  6.6109169e+000  7.8413572e+000  8.3865174e+000  5.9834669e+000  8.1859861e+000  9.5586440e+000  7.8665331e+000  9.7119109e+000  7.2357023e+000  6.1975994e+000  8.5560939e+000  6.2205194e+000  5.0993334e+000  5.8053717e+000  6.6377849e+000  8.1875939e+000  7.9356098e+000  5.6535306e+000  8.1223874e+000  5.0784814e+000  7.6373578e+000  7.9221355e+000  6.8881572e+000  6.7862945e+000  7.0590489e+000  5.9102327e+000  6.4891934e+000  7.0164197e+000  8.0832112e+000  5.5151193e+000  6.4103681e+000  8.0048076e+000  6.8104603e+000  6.9972202e+000  6.2051267e+000  7.4011683e+000  7.4411628e+000  7.4734586e+000
  6.4782627e+000  6.4378859e+000  6.2842797e+000  7.3724316e+000  7.1771517e+000  7.1318334e+000  6.6202779e+000  8.1552427e+000  6.9265247e+000  8.6504242e+000  6.3154751e+000  7.0942997e+000  6.0503717e+000  6.8126031e+000  1.1054701e+001  6.3486585e+000  6.7826310e+000  7.8840348e+000  8.3952382e+000  5.9238116e+000  7.8375167e+000  8.5863975e+000  7.5796422e+000  1.0113351e+001  6.8693734e+000  6.3254957e+000  8.3793593e+000  6.1518351e+000  5.0675837e+000  6.2597167e+000  7.1266452e+000  8.4529339e+000  7.5147735e+000  5.7992938e+000  8.0777262e+000  5.6473381e+000  7.0493118e+000  8.4195911e+000  6.9197570e+000  6.9283094e+000  6.7317182e+000  6.2576924e+000  6.0414243e+000  7.3260195e+000  7.7337580e+000  6.6574752e+000  7.1909211e+000  8.1025470e+000  7.3562317e+000  6.6284716e+000  6.3058887e+000  7.1293997e+000  7.5153712e+000  7.3847093e+000
  6.2791564e+000  6.2747391e+000  6.7596280e+000  7.1929492e+000  7.2896351e+000  6.9575121e+000  7.0196327e+000  7.4093389e+000  6.9235446e+000  8.7432783e+000  6.5708372e+000  6.7347903e+000  6.3624522e+000  7.0639586e+000  1.3837778e+001  5.5104663e+000  7.0012928e+000  7.9530985e+000  8.1858638e+000  6.0946317e+000  7.5540407e+000  7.4195919e+000  7.1808944e+000  1.0069451e+001  6.5552950e+000  6.3631937e+000  8.0508810e+000  6.1424167e+000  5.2088006e+000  6.8101750e+000  7.5848475e+000  8.6571003e+000  7.0680279e+000  6.0453395e+000  7.9219744e+000  6.3972595e+000  6.4215411e+000  8.8692103e+000  6.9034540e+000  7.0790005e+000  6.3717003e+000  6.5420751e+000  5.6970854e+000  7.6252114e+000  7.2908015e+000  7.8768411e+000  7.8951056e+000  7.8992675e+000  7.8595104e+000  6.2683343e+000  6.4842952e+000  6.9058712e+000  7.7434311e+000  7.3820762e+000
  6.0930622e+000  6.2996500e+000  6.9147591e+000  6.8757393e+000  7.1463656e+000  6.6616507e+000  7.0291134e+000  6.9349071e+000  6.8470486e+000  8.5572890e+000  6.6919378e+000  6.3833729e+000  6.4379405e+000  7.1866777e+000  1.4896453e+001  4.9958863e+000  7.0854172e+000  8.0099599e+000  7.7275525e+000  6.1764491e+000  7.4805238e+000  6.7701350e+000  6.8488139e+000  9.4192479e+000  6.6562219e+000  6.3321970e+000  7.5739170e+000  6.0535785e+000  5.5170669e+000  7.0787446e+000  7.7017275e+000  8.4441517e+000  6.7313615e+000  6.1780371e+000  7.7178904e+000  7.0040094e+000  5.9826811e+000  8.9290713e+000  6.7046877e+000  7.1491766e+000  6.0648379e+000  6.6809794e+000  5.6387444e+000  7.5335008e+000  6.8120980e+000  8.4783907e+000  8.0324608e+000  7.6171819e+000  8.0708901e+000  6.0286121e+000  6.5033659e+000  6.7588935e+000  7.8739249e+000  7.4601734e+000
  5.9208436e+000  6.5252609e+000  6.6403720e+000  6.4070508e+000  6.7103649e+000  6.2424879e+000  6.5803673e+000  6.7906611e+000  6.6764554e+000  8.0567217e+000  6.6291628e+000  6.0652097e+000  6.2375478e+000  7.1360414e+000  1.3962222e+001  4.8895337e+000  6.9987072e+000  8.0469015e+000  7.0141362e+000  6.1053683e+000  7.6459593e+000  6.7804081e+000  6.6191056e+000  8.1305488e+000  7.2447050e+000  6.2368063e+000  6.9491190e+000  5.8575833e+000  5.9911994e+000  6.9898250e+000  7.4151525e+000  7.7428997e+000  6.5319721e+000  6.1546605e+000  7.4780256e+000  7.4027405e+000  5.7784589e+000  8.5307897e+000  6.2965460e+000  7.1209995e+000  5.8282997e+000  6.6579249e+000  5.9029146e+000  6.9747886e+000  6.3091985e+000  8.3231589e+000  7.5048944e+000  7.3007325e+000  7.9404896e+000  5.9316657e+000  6.3157048e+000  6.6941288e+000  7.8565689e+000  7.6179238e+000
  5.7595514e+000  6.9076142e+000  6.0012998e+000  5.8176221e+000  6.0597701e+000  5.7286630e+000  5.7497801e+000  6.9327219e+000  6.4257325e+000  7.2881307e+000  6.4060857e+000  5.7919609e+000  5.8005508e+000  6.9290084e+000  1.1303657e+001  5.1281598e+000  6.7684082e+000  8.0505405e+000  6.1044991e+000  5.9033179e+000  7.9942392e+000  7.3504277e+000  6.4825382e+000  6.3122842e+000  8.2182670e+000  6.0885192e+000  6.2104306e+000  5.5708973e+000  6.5783316e+000  6.5809353e+000  6.7740923e+000  6.6481828e+000  6.4471690e+000  5.9980206e+000  7.2140720e+000  7.5888649e+000  5.7810325e+000  7.7444276e+000  5.7318045e+000  7.0101824e+000  5.6628422e+000  6.4842856e+000  6.4242288e+000  6.0377266e+000  5.7963772e+000  7.5099463e+000  6.4280252e+000  6.9490437e+000  7.5080679e+000  5.9659679e+000  5.9585316e+000  6.6823827e+000  7.6993794e+000  7.8237986e+000
  5.5944386e+000  7.2269218e+000  5.3217076e+000  5.2611445e+000  5.5852672e+000  5.2633729e+000  4.9192810e+000  7.1416939e+000  6.1647166e+000  6.4842873e+000  6.1405743e+000  5.6219278e+000  5.3233336e+000  6.6503720e+000  8.2636295e+000  5.3955220e+000  6.5307459e+000  7.9539633e+000  5.2930623e+000  5.6799403e+000  8.2448234e+000  7.9802763e+000  6.3929555e+000  4.5091059e+000  9.0645223e+000  5.9448245e+000  5.5275700e+000  5.2758525e+000  7.0141311e+000  6.0396715e+000  6.0233951e+000  5.6341927e+000  6.3634983e+000  5.8221725e+000  6.9844897e+000  7.5394433e+000  5.8511932e+000  6.9202944e+000  5.2743413e+000  6.8952924e+000  5.5722479e+000  6.2169321e+000  6.8758516e+000  5.1655740e+000  5.3450051e+000  6.5327551e+000  5.3799458e+000  6.5577375e+000  6.9724189e+000  6.0738829e+000  5.6179458e+000  6.5776835e+000  7.4424382e+000  7.9201539e+000
  5.4107584e+000  7.2633957e+000  4.9257608e+000  4.8913096e+000  5.6775424e+000  4.9898145e+000  4.4707987e+000  7.1981817e+000  5.9632445e+000  5.8779632e+000  5.9504965e+000  5.6134115e+000  5.0022798e+000  6.3849256e+000  6.1850093e+000  5.3753776e+000  6.4219461e+000  7.6902563e+000  4.8742471e+000  5.5448781e+000  8.1171719e+000  8.1700361e+000  6.3042013e+000  3.2656658e+000  9.2710849e+000  5.8632107e+000  5.0702552e+000  5.0547804e+000  7.0342657e+000  5.5536295e+000  5.4079094e+000  5.1751214e+000  6.1675061e+000  5.7411712e+000  6.8477385e+000  7.2315365e+000  5.8497319e+000  6.4086998e+000  5.1880341e+000  6.8548963e+000  5.5602990e+000  5.9127349e+000  6.9309472e+000  4.8015899e+000  5.0264529e+000  5.8855878e+000  4.9387493e+000  6.1224356e+000  6.5323371e+000  6.1977750e+000  5.4800467e+000  6.2340596e+000  7.1258269e+000  7.7493460e+000
  5.2055614e+000  6.9730782e+000  4.8782924e+000  4.7388555e+000  6.4147328e+000  4.9366271e+000  4.4807190e+000  7.0583061e+000  5.8352834e+000  5.5157127e+000  5.8594257e+000  5.7780722e+000  4.8766664e+000  6.1496280e+000  5.3363705e+000  5.0044780e+000  6.4692541e+000  7.2460367e+000  4.9069377e+000  5.5200597e+000  7.5551766e+000  7.8197237e+000  6.2070445e+000  2.6908941e+000  8.7354777e+000  5.8551755e+000  4.8724300e+000  4.9241475e+000  6.5858689e+000  5.1603285e+000  4.9766049e+000  5.3658073e+000  5.8365017e+000  5.7778275e+000  6.8155103e+000  6.6605567e+000  5.7488068e+000  6.2797056e+000  5.5256587e+000  6.9047076e+000  5.6277521e+000  5.5830679e+000  6.5241484e+000  5.0344260e+000  4.8549949e+000  5.6672449e+000  5.2200542e+000  5.6422625e+000  6.2275811e+000  6.3261171e+000  5.5820542e+000  5.6223165e+000  6.7575618e+000  7.2798461e+000
  5.0022818e+000  6.4035324e+000  5.1542712e+000  4.7914551e+000  7.6462680e+000  5.0910146e+000  4.8899765e+000  6.7638699e+000  5.7642952e+000  5.3845531e+000  5.8445570e+000  6.0722317e+000  4.9224249e+000  5.9401135e+000  5.5775463e+000  4.3512022e+000  6.6437361e+000  6.6575531e+000  5.3305154e+000  5.6004168e+000  6.6417765e+000  7.0025166e+000  6.0995802e+000  2.7500120e+000  7.5763086e+000  5.9048023e+000  4.9101682e+000  4.8770756e+000  5.7409650e+000  4.8727921e+000  4.7238606e+000  6.1105851e+000  5.4121753e+000  5.9117486e+000  6.8659856e+000  5.8847024e+000  5.5703080e+000  6.4901985e+000  6.2217748e+000  7.0278358e+000  5.7700378e+000  5.2457901e+000  5.7397854e+000  5.7668241e+000  4.8182331e+000  5.8308647e+000  6.1063533e+000  5.1450281e+000  6.0427469e+000  6.4420320e+000  5.8818599e+000  4.8191946e+000  6.3496112e+000  6.5669715e+000
  4.9180894e+000  5.7925737e+000  5.6285416e+000  4.9874726e+000  8.6192960e+000  5.3889962e+000  5.4032434e+000  6.5238856e+000  5.6675889e+000  5.4195723e+000  5.7918655e+000  6.2774985e+000  5.0192135e+000  5.7345536e+000  6.2077036e+000  3.7574455e+000  6.8007237e+000  6.1060483e+000  5.8418870e+000  5.7606072e+000  5.7916657e+000  6.0843029e+000  5.9722837e+000  3.2691251e+000  6.3866159e+000  5.9325083e+000  5.0638392e+000  4.8791734e+000  4.8596751e+000  4.7561388e+000  4.6215721e+000  6.9311289e+000  5.1029788e+000  6.0409703e+000  6.8900667e+000  5.1949671e+000  5.4236860e+000  6.8246120e+000  6.9491809e+000  7.1398298e+000  5.9643083e+000  4.9901963e+000  4.9995082e+000  6.5124926e+000  4.8541780e+000  6.1421386e+000  7.0101112e+000  4.7697825e+000  5.9008139e+000  6.4611340e+000  6.1689216e+000  4.2083948e+000  5.9618161e+000  5.8873082e+000
  5.0701543e+000  5.3780173e+000  6.1759477e+000  5.2652725e+000  8.5809648e+000  5.7665913e+000  5.7251919e+000  6.5473663e+000  5.4624736e+000  5.5558580e+000  5.5873264e+000  6.1754812e+000  5.0466901e+000  5.5111198e+000  6.5260092e+000  3.5651033e+000  6.7955483e+000  5.7727650e+000  6.1379591e+000  5.9752887e+000  5.4195387e+000  5.4309705e+000  5.8156307e+000  4.0743390e+000  5.7594385e+000  5.8587103e+000  5.2138121e+000  4.8960498e+000  4.3021203e+000  4.8754873e+000  4.6416348e+000  7.3491126e+000  5.1173640e+000  6.0635283e+000  6.7786558e+000  4.8823444e+000  5.4183913e+000  7.0673796e+000  7.3806758e+000  7.1562380e+000  6.1877161e+000  4.9055812e+000  4.7249670e+000  6.7851398e+000  4.9008403e+000  6.3667581e+000  7.3437920e+000  4.6555756e+000  5.7247617e+000  6.2990378e+000  6.2326972e+000  4.1736183e+000  5.6540176e+000  5.5174426e+000
  5.4819106e+000  5.2074263e+000  6.7714584e+000  5.6125274e+000  7.3807040e+000  6.2110038e+000  5.7967566e+000  6.8761144e+000  5.1324111e+000  5.7804277e+000  5.2081345e+000  5.7225015e+000  4.9807865e+000  5.2654464e+000  6.3922964e+000  3.8425545e+000  6.5992763e+000  5.6939517e+000  6.1581130e+000  6.2393928e+000  5.6083343e+000  5.1156971e+000  5.6277163e+000  5.1308749e+000  5.8133841e+000  5.6674917e+000  5.3361608e+000  4.9208266e+000  4.1403249e+000  5.2438612e+000  4.7784279e+000  7.2688711e+000  5.4970212e+000  5.9590297e+000  6.5099333e+000  5.0050329e+000  5.5763140e+000  7.1753880e+000  7.4508191e+000  7.0601702e+000  6.4356917e+000  5.0098037e+000  5.0004918e+000  6.4875074e+000  4.9458220e+000  6.4578614e+000  6.9898888e+000  4.8302175e+000  5.4991861e+000  5.9388660e+000  6.0310784e+000  4.7916052e+000  5.4381839e+000  5.5126918e+000
  6.0677960e+000  5.3060331e+000  7.3517245e+000  5.9898120e+000  5.3317144e+000  6.6596984e+000  5.6443457e+000  7.4539533e+000  4.7652209e+000  6.0564789e+000  4.7385658e+000  5.0481026e+000  4.8253978e+000  5.0341109e+000  5.9104632e+000  4.4889446e+000  6.2577273e+000  5.8321415e+000  5.9560156e+000  6.5134360e+000  6.2494658e+000  5.1260668e+000  5.4137775e+000  6.3139937e+000  6.4278720e+000  5.3922536e+000  5.4436372e+000  4.9542435e+000  4.2987873e+000  5.8202998e+000  5.0066756e+000  6.7636904e+000  6.1729315e+000  5.7563667e+000  6.1213300e+000  5.4934896e+000  5.8747277e+000  7.1752463e+000  7.2212294e+000  6.8853007e+000  6.7075668e+000  5.2797686e+000  5.7008653e+000  5.6969200e+000  4.9852802e+000  6.4355086e+000  6.0709853e+000  5.2129523e+000  5.2366540e+000  5.4025817e+000  5.6101080e+000  5.9641219e+000  5.3040136e+000  5.7732389e+000
  6.4000000e+000  5.8000000e+000  7.6000000e+000  6.2000000e+000  4.0000000e+000  6.8000000e+000  5.4000000e+000  8.0000000e+000  4.8000000e+000  6.2000000e+000  4.6000000e+000  4.8000000e+000  4.6000000e+000  5.0000000e+000  5.6000000e+000  5.0000000e+000  6.0000000e+000  6.0000000e+000  5.8000000e+000  6.6000000e+000  6.8000000e+000  5.4000000e+000  5.2000000e+000  7.0000000e+000  7.0000000e+000  5.2000000e+000  5.6000000e+000  5.0000000e+000  4.4000000e+000  6.4000000e+000  5.2000000e+000  6.2000000e+000  6.8000000e+000  5.6000000e+000  5.8000000e+000  6.0000000e+000  6.2000000e+000  7.2000000e+000  7.0000000e+000  6.8000000e+000  7.0000000e+000  5.6000000e+000  6.2000000e+000  4.8000000e+000  5.0000000e+000  6.4000000e+000  5.2000000e+000  5.4000000e+000  5.0000000e+000  4.8000000e+000  5.2000000e+000  7.2000000e+000  5.2000000e+000  5.8000000e+000
  6.1339158e+000  6.6932725e+000  7.3136649e+000  6.1099296e+000  4.6391137e+000  6.4248753e+000  5.1885061e+000  8.2461352e+000  5.5407735e+000  6.0894024e+000  5.0807803e+000  5.4189876e+000  4.3488815e+000  5.2824143e+000  5.8609529e+000  4.9461434e+000  6.0465523e+000  6.0070360e+000  5.8977895e+000  6.4042976e+000  6.7805175e+000  5.8579294e+000  5.0304792e+000  6.6795922e+000  6.9908795e+000  5.2078777e+000  5.8110813e+000  5.0442492e+000  4.2136239e+000  6.7139317e+000  5.2223393e+000  5.9355215e+000  6.9827184e+000  5.5983366e+000  5.6883408e+000  6.1825377e+000  6.3925614e+000  7.3139523e+000  7.0241591e+000  6.8680275e+000  7.2301690e+000  5.8273045e+000  6.0479245e+000  4.2428257e+000  5.0090495e+000  6.4253262e+000  4.9694610e+000  5.1757134e+000  4.8763840e+000  4.3475169e+000  5.0373365e+000  7.8968083e+000  5.1099337e+000  5.3245040e+000
  5.6000000e+000  7.4000000e+000  7.0000000e+000  6.0000000e+000  6.0000000e+000  6.0000000e+000  5.0000000e+000  8.2000000e+000  6.4000000e+000  6.0000000e+000  5.6000000e+000  6.0000000e+000  4.2000000e+000  5.6000000e+000  6.2000000e+000  4.6000000e+000  6.4000000e+000  5.8000000e+000  6.0000000e+000  6.4000000e+000  6.4000000e+000  6.4000000e+000  5.0000000e+000  5.8000000e+000  6.6000000e+000  5.2000000e+000  5.8000000e+000  5.0000000e+000  4.4000000e+000  6.4000000e+000  5.0000000e+000  6.0000000e+000  6.4000000e+000  5.6000000e+000  5.6000000e+000  6.0000000e+000  6.2000000e+000  7.2000000e+000  7.0000000e+000  6.6000000e+000  7.0000000e+000  5.8000000e+000  6.0000000e+000  4.4000000e+000  5.2000000e+000  6.4000000e+000  5.4000000e+000  5.4000000e+000  5.0000000e+000  4.6000000e+000  5.2000000e+000  7.4000000e+000  5.2000000e+000  5.4000000e+000
  5.2067798e+000  7.3718053e+000  7.1400482e+000  6.1220355e+000  6.5344187e+000  5.9671758e+000  4.8012246e+000  8.0210204e+000  6.7382364e+000  6.1834651e+000  5.5643298e+000  5.6412598e+000  4.2516744e+000  5.6694128e+000  6.1197621e+000  4.3318011e+000  6.9809732e+000  5.4514584e+000  5.8975904e+000  6.9492976e+000  6.0045061e+000  6.9066777e+000  5.1677704e+000  4.9839969e+000  6.1852828e+000  4.9596720e+000  5.3540576e+000  4.7838631e+000  5.4392576e+000  5.3044561e+000  4.5762706e+000  6.3028326e+000  5.0083226e+000  5.4451655e+000  5.3640487e+000  5.5269889e+000  5.5270661e+000  6.6658681e+000  6.6384867e+000  5.6751107e+000  6.1012186e+000  5.4372389e+000  6.7324981e+000  5.3427156e+000  5.6717496e+000  6.1954191e+000  6.2749066e+000  6.7629713e+000  5.4202082e+000  5.8497088e+000  5.6444306e+000  5.4225954e+000  5.5860246e+000  6.8178315e+000
  5.0000000e+000  6.8000000e+000  7.4000000e+000  6.2000000e+000  6.0000000e+000  6.0000000e+000  4.6000000e+000  8.2000000e+000  6.6000000e+000  6.4000000e+000  5.2000000e+000  4.8000000e+000  4.4000000e+000  5.6000000e+000  6.0000000e+000  4.2000000e+000  7.6000000e+000  5.4000000e+000  6.0000000e+000  7.4000000e+000  5.8000000e+000  7.2000000e+000  5.4000000e+000  4.6000000e+000  6.0000000e+000  4.6000000e+000  4.8000000e+000  4.4000000e+000  6.2000000e+000  4.2000000e+000  4.4000000e+000  6.6000000e+000  3.8000000e+000  5.2000000e+000  5.2000000e+000  5.0000000e+000  5.0000000e+000  6.4000000e+000  6.2000000e+000  5.0000000e+000  5.4000000e+000  5.0000000e+000  7.4000000e+000  6.0000000e+000  6.0000000e+000  5.8000000e+000  7.0000000e+000  8.2000000e+000  5.8000000e+000  7.0000000e+000  6.0000000e+000  3.2000000e+000  6.0000000e+000  8.0000000e+000
  4.9889651e+000  6.0445065e+000  7.3761422e+000  5.9519286e+000  4.7232115e+000  5.7564214e+000  4.4315956e+000  9.0447832e+000  6.2312808e+000  6.4017372e+000  4.8869004e+000  4.1659731e+000  4.5194211e+000  5.5649345e+000  6.3099986e+000  4.2016521e+000  8.0795548e+000  5.9871304e+000  6.7368487e+000  7.1235120e+000  5.9514582e+000  7.1903599e+000  5.5984393e+000  4.8094203e+000  6.1679891e+000  4.3284344e+000  4.5476882e+000  4.0202984e+000  5.6293455e+000  3.8682439e+000  4.8225783e+000  6.7031480e+000  3.7089911e+000  5.0210012e+000  5.3304646e+000  4.6595067e+000  5.1491744e+000  6.9725754e+000  5.9968943e+000  5.4315298e+000  5.6899564e+000  4.7737400e+000  7.1720829e+000  5.4863120e+000  5.8539521e+000  5.3679974e+000  7.1059124e+000  8.5474015e+000  5.8427831e+000  7.0286478e+000  5.9599409e+000  2.1128100e+000  6.1709679e+000  7.4541700e+000
  5.4000000e+000  5.4000000e+000  7.2000000e+000  5.6000000e+000  4.0000000e+000  5.6000000e+000  4.4000000e+000  9.8000000e+000  6.0000000e+000  6.4000000e+000  4.8000000e+000  4.0000000e+000  4.6000000e+000  5.6000000e+000  7.0000000e+000  4.4000000e+000  8.4000000e+000  6.8000000e+000  8.0000000e+000  6.6000000e+000  6.6000000e+000  7.2000000e+000  6.0000000e+000  5.2000000e+000  6.4000000e+000  4.4000000e+000  4.8000000e+000  4.4000000e+000  4.6000000e+000  4.2000000e+000  5.4000000e+000  6.8000000e+000  4.4000000e+000  5.2000000e+000  5.6000000e+000  4.6000000e+000  5.4000000e+000  7.6000000e+000  6.0000000e+000  6.4000000e+000  6.4000000e+000  4.8000000e+000  6.8000000e+000  4.8000000e+000  5.8000000e+000  5.6000000e+000  7.0000000e+000  8.0000000e+000  5.8000000e+000  6.6000000e+000  5.8000000e+000  2.6000000e+000  6.2000000e+000  6.4000000e+000
  6.3873598e+000  5.0751688e+000  7.0803830e+000  5.4202503e+000  4.8227354e+000  5.9321387e+000  4.5723931e+000  9.7248469e+000  6.2116405e+000  6.6595860e+000  4.9630688e+000  4.3698477e+000  4.6206414e+000  5.6708492e+000  7.8402436e+000  4.8365905e+000  8.5758074e+000  7.3250200e+000  9.4800147e+000  6.3816545e+000  7.7146611e+000  7.5318827e+000  6.7884725e+000  5.3783220e+000  6.4177609e+000  4.9265905e+000  5.5551896e+000  6.0099432e+000  4.1933602e+000  4.8475682e+000  5.6584163e+000  7.1095752e+000  5.2807130e+000  5.9208296e+000  5.8390929e+000  4.8599844e+000  5.1512365e+000  7.4688304e+000  6.1239362e+000  7.1737702e+000  6.8139557e+000  5.0428011e+000  7.1541701e+000  5.0370364e+000  6.3624420e+000  6.9325913e+000  7.1514439e+000  7.1224226e+000  5.9586595e+000  6.5357000e+000  5.8408058e+000  4.5011644e+000  6.2551038e+000  6.2654886e+000
  7.6000000e+000  5.0000000e+000  7.0000000e+000  5.4000000e+000  6.0000000e+000  6.6000000e+000  4.8000000e+000  9.2000000e+000  6.8000000e+000  7.2000000e+000  5.0000000e+000  5.0000000e+000  4.4000000e+000  5.6000000e+000  8.4000000e+000  5.4000000e+000  8.6000000e+000  7.4000000e+000  1.0600000e+001  6.2000000e+000  8.6000000e+000  8.0000000e+000  7.6000000e+000  5.6000000e+000  6.4000000e+000  5.4000000e+000  6.2000000e+000  7.6000000e+000  4.4000000e+000  5.4000000e+000  5.8000000e+000  7.6000000e+000  6.0000000e+000  6.8000000e+000  6.2000000e+000  5.4000000e+000  4.8000000e+000  7.0000000e+000  6.4000000e+000  7.8000000e+000  7.0000000e+000  5.4000000e+000  8.0000000e+000  5.8000000e+000  7.0000000e+000  8.2000000e+000  7.4000000e+000  6.6000000e+000  6.2000000e+000  6.6000000e+000  6.0000000e+000  6.2000000e+000  6.4000000e+000  6.6000000e+000
  8.5615958e+000  5.0798183e+000  6.8773257e+000  5.4670703e+000  6.2358470e+000  7.3400237e+000  4.9288320e+000  8.7308291e+000  7.5471573e+000  7.9349187e+000  4.5858246e+000  5.6046361e+000  3.8480132e+000  5.2516686e+000  8.3790271e+000  5.9269859e+000  8.4422155e+000  7.0627894e+000  1.0868093e+001  5.7998702e+000  8.6398974e+000  8.3571094e+000  8.0726708e+000  6.1522917e+000  6.5609675e+000  5.3902037e+000  6.2315534e+000  7.9899290e+000  4.9222135e+000  5.6164833e+000  6.0937565e+000  8.1335512e+000  6.3181570e+000  7.4456802e+000  6.8131638e+000  6.1255558e+000  4.8208797e+000  6.7771029e+000  6.8823610e+000  8.4233896e+000  7.1792207e+000  5.7800557e+000  8.8862367e+000  6.4155426e+000  7.1712799e+000  8.2766375e+000  7.5133122e+000  6.8629082e+000  6.3725789e+000  6.4035522e+000  6.1518361e+000  6.3075323e+000  6.6586169e+000  6.7088758e+000
  8.8000000e+000  5.4000000e+000  6.6000000e+000  5.6000000e+000  6.0000000e+000  8.0000000e+000  5.0000000e+000  8.2000000e+000  8.0000000e+000  8.6000000e+000  4.0000000e+000  6.2000000e+000  3.4000000e+000  4.8000000e+000  8.2000000e+000  6.2000000e+000  8.0000000e+000  6.8000000e+000  1.0400000e+001  5.8000000e+000  8.2000000e+000  8.6000000e+000  8.4000000e+000  6.8000000e+000  6.8000000e+000  5.4000000e+000  6.2000000e+000  8.0000000e+000  5.4000000e+000  6.0000000e+000  6.4000000e+000  8.4000000e+000  6.2000000e+000  8.0000000e+000  7.4000000e+000  6.8000000e+000  5.0000000e+000  6.8000000e+000  7.6000000e+000  8.8000000e+000  7.4000000e+000  6.2000000e+000  9.6000000e+000  6.6000000e+000  7.4000000e+000  7.8000000e+000  7.6000000e+000  7.2000000e+000  6.6000000e+000  6.0000000e+000  6.4000000e+000  5.8000000e+000  7.0000000e+000  6.8000000e+000
  8.0662569e+000  6.0055580e+000  6.0603140e+000  5.7864687e+000  5.9838766e+000  8.4577665e+000  5.0622788e+000  7.4268366e+000  7.8247304e+000  8.9257391e+000  3.5936327e+000  6.8366079e+000  3.4623057e+000  4.4724763e+000  8.3186480e+000  6.1054659e+000  7.2053305e+000  7.0238223e+000  9.4726151e+000  6.7438649e+000  7.8257495e+000  8.7146798e+000  8.7708442e+000  7.2375111e+000  6.9633691e+000  5.9625947e+000  6.6935968e+000  8.6053410e+000  5.5427857e+000  6.9864985e+000  6.5165576e+000  8.1312201e+000  5.7466591e+000  8.6214495e+000  7.6582518e+000  7.1877926e+000  5.0402447e+000  6.9227581e+000  8.4716198e+000  8.6576716e+000  7.6191615e+000  6.6619761e+000  9.9758830e+000  6.3007934e+000  8.2024385e+000  7.6358587e+000  7.7953073e+000  6.8759446e+000  7.0010248e+000  5.5750913e+000  6.8268500e+000  5.8937064e+000  7.3354287e+000  7.1490083e+000
  7.0000000e+000  6.6000000e+000  5.2000000e+000  6.0000000e+000  6.0000000e+000  8.6000000e+000  5.0000000e+000  6.6000000e+000  7.4000000e+000  8.8000000e+000  3.4000000e+000  7.4000000e+000  3.8000000e+000  4.4000000e+000  8.6000000e+000  6.0000000e+000  6.2000000e+000  7.4000000e+000  8.4000000e+000  8.0000000e+000  7.8000000e+000  8.4000000e+000  8.8000000e+000  7.4000000e+000  7.0000000e+000  6.8000000e+000  7.4000000e+000  9.4000000e+000  5.4000000e+000  8.0000000e+000  6.4000000e+000  7.4000000e+000  5.4000000e+000  9.0000000e+000  7.6000000e+000  7.2000000e+000  5.0000000e+000  7.0000000e+000  9.0000000e+000  8.0000000e+000  7.6000000e+000  7.0000000e+000  9.8000000e+000  6.0000000e+000  9.0000000e+000  7.8000000e+000  8.0000000e+000  6.2000000e+000  7.4000000e+000  5.4000000e+000  7.2000000e+000  6.4000000e+000  7.4000000e+000  7.4000000e+000
  6.2483765e+000  6.8979499e+000  4.0314182e+000  6.2370550e+000  5.8286464e+000  8.3789104e+000  4.7220527e+000  5.8868246e+000  7.1789212e+000  8.2121248e+000  3.3896444e+000  7.7489324e+000  4.0777639e+000  4.6584260e+000  8.6963809e+000  6.2011506e+000  5.1364624e+000  7.4669215e+000  7.3914470e+000  8.7246704e+000  8.1571047e+000  7.4341716e+000  8.1439524e+000  7.2976640e+000  6.8855562e+000  7.5094176e+000  7.8190595e+000  9.7387069e+000  5.1566436e+000  8.4125228e+000  6.1150131e+000  6.3665685e+000  5.5202067e+000  8.7935219e+000  7.3288289e+000  6.8732738e+000  5.0181414e+000  6.9068647e+000  8.7561597e+000  6.9459241e+000  7.1441333e+000  7.0970399e+000  8.9352311e+000  6.1812837e+000  9.1189663e+000  8.0299277e+000  8.0554584e+000  5.6333135e+000  7.6483217e+000  5.6710826e+000  7.3157641e+000  6.8676420e+000  6.9746682e+000  7.1700911e+000
  5.6000000e+000  7.0000000e+000  2.8000000e+000  6.6000000e+000  6.0000000e+000  8.0000000e+000  4.4000000e+000  5.0000000e+000  7.2000000e+000  7.4000000e+000  3.6000000e+000  7.8000000e+000  4.2000000e+000  5.2000000e+000  8.0000000e+000  6.4000000e+000  4.0000000e+000  7.0000000e+000  6.2000000e+000  8.4000000e+000  8.2000000e+000  6.2000000e+000  7.2000000e+000  7.0000000e+000  6.6000000e+000  8.0000000e+000  7.6000000e+000  9.4000000e+000  5.2000000e+000  8.4000000e+000  6.0000000e+000  5.2000000e+000  5.8000000e+000  8.0000000e+000  7.0000000e+000  6.6000000e+000  5.2000000e+000  6.6000000e+000  8.0000000e+000  5.8000000e+000  6.4000000e+000  7.2000000e+000  7.6000000e+000  6.8000000e+000  8.6000000e+000  7.8000000e+000  7.8000000e+000  5.2000000e+000  8.0000000e+000  6.2000000e+000  7.4000000e+000  7.2000000e+000  6.2000000e+000  6.6000000e+000
  4.7402371e+000  7.0526425e+000  1.7640133e+000  7.0903112e+000  6.9515376e+000  7.6765920e+000  4.2245104e+000  3.7258649e+000  7.2845849e+000  6.5757619e+000  4.0477897e+000  7.5176627e+000  4.1516388e+000  5.8938195e+000  6.1708283e+000  6.2899319e+000  2.8238198e+000  5.9334916e+000  4.6365971e+000  6.9324535e+000  7.3458316e+000  5.1236339e+000  6.4283460e+000  6.5968330e+000  6.2194061e+000  8.2247349e+000  6.6051652e+000  8.3648312e+000  5.8056400e+000  8.2634102e+000  6.2983899e+000  4.0525061e+000  5.8975143e+000  6.7544628e+000  6.7264328e+000  6.7191121e+000  5.6121895e+000  6.0997831e+000  7.1037414e+000  4.8586322e+000  5.5793052e+000  7.4748641e+000  6.1081925e+000  7.5990717e+000  7.6466964e+000  6.7194305e+000  7.0828589e+000  4.7908013e+000  8.6556884e+000  6.7405781e+000  7.7100937e+000  7.3607257e+000  5.2908985e+000  5.8956272e+000
  3.8000000e+000  7.0000000e+000  1.0000000e+000  7.2000000e+000  8.0000000e+000  7.4000000e+000  4.2000000e+000  2.6000000e+000  6.8000000e+000  5.6000000e+000  4.6000000e+000  7.0000000e+000  4.0000000e+000  6.4000000e+000  4.2000000e+000  6.2000000e+000  2.0000000e+000  4.6000000e+000  3.2000000e+000  5.6000000e+000  6.2000000e+000  4.2000000e+000  5.8000000e+000  6.2000000e+000  6.2000000e+000  8.0000000e+000  5.4000000e+000  7.0000000e+000  6.6000000e+000  8.0000000e+000  6.6000000e+000  3.0000000e+000  6.0000000e+000  5.4000000e+000  6.4000000e+000  7.0000000e+000  6.2000000e+000  5.6000000e+000  6.2000000e+000  4.2000000e+000  4.8000000e+000  7.4000000e+000  4.8000000e+000  8.0000000e+000  6.4000000e+000  5.2000000e+000  5.8000000e+000  4.2000000e+000  9.2000000e+000  7.2000000e+000  8.2000000e+000  7.2000000e+000  4.4000000e+000  5.0000000e+000
  2.9906752e+000  6.7414801e+000  5.3752859e-001  6.5267001e+000  8.3652030e+000  7.0647217e+000  4.2799058e+000  2.1347158e+000  5.3077391e+000  4.3598278e+000  5.1191968e+000  6.3554169e+000  3.8406809e+000  6.4662960e+000  3.0953059e+000  6.4141220e+000  1.8182583e+000  3.3741122e+000  2.3871648e+000  5.4705155e+000  5.4345690e+000  3.3462928e+000  5.1426634e+000  5.8400038e+000  6.8868194e+000  7.2166427e+000  4.5602799e+000  5.7019682e+000  7.1207966e+000  7.5588364e+000  6.4914273e+000  2.0984073e+000  6.3397361e+000  4.2636268e+000  5.8654401e+000  7.1002780e+000  6.8581004e+000  5.2440030e+000  5.3538748e+000  3.8195473e+000  4.1636460e+000  6.5285035e+000  3.9069988e+000  7.5474294e+000  5.0192480e+000  3.7923504e+000  4.0131058e+000  3.3034812e+000  9.2039248e+000  7.5166048e+000  8.6438612e+000  6.6144553e+000  3.6367377e+000  3.8724000e+000
  2.4000000e+000  6.2000000e+000  4.0000000e-001  5.6000000e+000  8.0000000e+000  6.4000000e+000  4.4000000e+000  2.0000000e+000  3.6000000e+000  3.2000000e+000  5.6000000e+000  5.6000000e+000  3.8000000e+000  6.4000000e+000  2.6000000e+000  6.4000000e+000  1.8000000e+000  2.4000000e+000  2.0000000e+000  5.4000000e+000  4.8000000e+000  2.6000000e+000  4.2000000e+000  5.2000000e+000  7.8000000e+000  6.2000000e+000  4.0000000e+000  4.6000000e+000  7.2000000e+000  7.0000000e+000  6.2000000e+000  1.4000000e+000  6.8000000e+000  3.4000000e+000  5.0000000e+000  6.8000000e+000  7.4000000e+000  4.8000000e+000  4.6000000e+000  3.6000000e+000  3.8000000e+000  5.4000000e+000  3.2000000e+000  6.6000000e+000  3.8000000e+000  2.8000000e+000  2.4000000e+000  2.4000000e+000  8.8000000e+000  7.6000000e+000  8.4000000e+000  5.8000000e+000  3.0000000e+000  2.8000000e+000
  2.0470621e+000  5.3314373e+000  5.8587231e-001  5.0028883e+000  7.0876503e+000  5.2395211e+000  4.5558664e+000  1.7852721e+000  2.5344588e+000  2.4849268e+000  6.0754231e+000  4.7606697e+000  4.0106376e+000  6.5409966e+000  2.2729482e+000  5.6285803e+000  1.4531469e+000  1.7450595e+000  1.7397436e+000  4.2354843e+000  3.9408924e+000  2.0161949e+000  2.8760002e+000  4.0681516e+000  8.3833162e+000  5.2836944e+000  3.5037154e+000  3.7522961e+000  6.8111737e+000  6.3762442e+000  5.9359010e+000  9.2886464e-001  7.1685411e+000  2.7910302e+000  3.8118069e+000  6.0297761e+000  7.6304088e+000  4.0492048e+000  3.9557593e+000  3.3881786e+000  3.7161109e+000  4.6361219e+000  2.4388124e+000  5.6362106e+000  3.0263117e+000  2.3611679e+000  1.5897178e+000  1.7952739e+000  8.2286124e+000  7.3180028e+000  7.0644616e+000  4.9814532e+000  2.4371506e+000  2.0647727e+000
  1.8000000e+000  4.2000000e+000  1.0000000e+000  4.6000000e+000  6.0000000e+000  4.0000000e+000  5.0000000e+000  1.6000000e+000  2.0000000e+000  2.2000000e+000  6.6000000e+000  4.0000000e+000  4.6000000e+000  6.8000000e+000  2.2000000e+000  4.4000000e+000  1.0000000e+000  1.4000000e+000  1.6000000e+000  3.0000000e+000  3.0000000e+000  1.6000000e+000  1.8000000e+000  3.0000000e+000  8.6000000e+000  4.4000000e+000  3.0000000e+000  3.2000000e+000  6.2000000e+000  5.6000000e+000  5.2000000e+000  6.0000000e-001  7.2000000e+000  2.4000000e+000  2.8000000e+000  5.2000000e+000  7.4000000e+000  3.2000000e+000  3.4000000e+000  3.0000000e+000  3.4000000e+000  4.2000000e+000  1.8000000e+000  4.8000000e+000  2.8000000e+000  2.2000000e+000  1.4000000e+000  1.4000000e+000  7.6000000e+000  6.4000000e+000  5.6000000e+000  4.2000000e+000  1.8000000e+000  1.6000000e+000
  1.5210763e+000  2.9577709e+000  1.4689822e+000  4.1117467e+000  5.0341958e+000  3.1271937e+000  5.8716286e+000  1.6241960e+000  1.6794259e+000  2.2004650e+000  7.1541109e+000  3.4519043e+000  5.5667688e+000  6.9447177e+000  2.4379013e+000  3.1965569e+000  7.4415401e-001  1.2956496e+000  1.6038607e+000  2.7875472e+000  2.1768615e+000  1.3389277e+000  1.5283357e+000  2.5123899e+000  8.5049158e+000  3.4735799e+000  2.4748585e+000  2.9138473e+000  5.6345085e+000  4.6111869e+000  3.6399688e+000  3.3613411e-001  6.7360993e+000  2.1722526e+000  2.4123324e+000  4.6806176e+000  6.6452646e+000  2.5341777e+000  2.8980880e+000  2.3277382e+000  2.4469106e+000  3.8770088e+000  1.4877516e+000  4.1077283e+000  3.0255054e+000  1.9879782e+000  1.4780228e+000  1.0654231e+000  6.9566258e+000  4.7363842e+000  4.9482923e+000  3.4597321e+000  1.0146600e+000  1.2935091e+000
  1.2000000e+000  2.0000000e+000  1.6000000e+000  3.4000000e+000  4.0000000e+000  2.6000000e+000  6.6000000e+000  1.8000000e+000  1.4000000e+000  2.2000000e+000  7.4000000e+000  3.0000000e+000  6.4000000e+000  6.6000000e+000  2.4000000e+000  2.4000000e+000  6.0000000e-001  1.2000000e+000  1.6000000e+000  2.8000000e+000  1.4000000e+000  1.2000000e+000  1.6000000e+000  2.2000000e+000  8.0000000e+000  2.8000000e+000  2.0000000e+000  2.6000000e+000  5.2000000e+000  3.6000000e+000  2.2000000e+000  2.0000000e-001  6.0000000e+000  2.0000000e+000  2.4000000e+000  4.2000000e+000  5.6000000e+000  2.2000000e+000  2.4000000e+000  1.6000000e+000  1.4000000e+000  3.4000000e+000  1.4000000e+000  3.4000000e+000  3.0000000e+000  1.6000000e+000  1.6000000e+000  8.0000000e-001  6.2000000e+000  3.0000000e+000  4.6000000e+000  2.8000000e+000  4.0000000e-001  1.2000000e+000
  8.6863252e-001  1.6874791e+000  1.1131991e+000  2.4501248e+000  2.7755665e+000  2.2767040e+000  6.6326194e+000  1.9929441e+000  1.0978376e+000  1.9632131e+000  7.0331335e+000  2.5067133e+000  6.6222871e+000  5.5301328e+000  1.6254465e+000  2.2351921e+000  4.4523705e-001  9.2234201e-001  1.4448137e+000  2.1393268e+000  6.2666148e-001  1.1530944e+000  1.4606569e+000  1.6072889e+000  7.0220208e+000  2.6219860e+000  1.6468506e+000  2.0423145e+000  4.8757923e+000  2.7790081e+000  1.8042237e+000  2.2659892e-001  5.2370615e+000  1.7949595e+000  2.3888635e+000  3.4477534e+000  4.5385330e+000  2.2140844e+000  1.8768887e+000  1.0758686e+000  8.7124685e-001  2.6058429e+000  1.3851813e+000  2.5578763e+000  2.1716667e+000  1.0369195e+000  1.5981909e+000  6.4303351e-001  5.2448846e+000  1.8864604e+000  3.8923691e+000  2.2546185e+000  2.5420945e-001  1.3361908e+000
  6.0000000e-001  2.0000000e+000  4.0000000e-001  1.6000000e+000  2.0000000e+000  2.0000000e+000  6.2000000e+000  2.0000000e+000  1.0000000e+000  1.6000000e+000  6.2000000e+000  2.0000000e+000  6.4000000e+000  4.2000000e+000  8.0000000e-001  2.4000000e+000  4.0000000e-001  6.0000000e-001  1.2000000e+000  1.4000000e+000  2.0000000e-001  1.2000000e+000  1.2000000e+000  1.0000000e+000  5.8000000e+000  2.6000000e+000  1.4000000e+000  1.6000000e+000  4.4000000e+000  2.2000000e+000  2.0000000e+000  2.0000000e-001  4.4000000e+000  1.6000000e+000  2.2000000e+000  2.6000000e+000  3.6000000e+000  2.2000000e+000  1.4000000e+000  8.0000000e-001  8.0000000e-001  1.8000000e+000  1.4000000e+000  1.8000000e+000  1.2000000e+000  6.0000000e-001  1.4000000e+000  6.0000000e-001  4.2000000e+000  1.4000000e+000  3.0000000e+000  1.8000000e+000  4.0000000e-001  1.4000000e+000
  4.5439359e-001  2.6673127e+000 -7.1778451e-002  1.1627541e+000  2.1135382e+000  1.6409903e+000  5.6728939e+000  1.6790277e+000  1.2542238e+000  1.2716827e+000  5.1633551e+000  1.5462426e+000  5.9690827e+000  3.1347512e+000  6.3531273e-001  2.5126746e+000  5.4989781e-001  4.1498234e-001  9.6688451e-001  1.2801457e+000  3.9149253e-001  1.2986949e+000  1.0040366e+000  7.0845452e-001  4.5820012e+000  2.3634762e+000  1.2127389e+000  1.5918947e+000  3.5873224e+000  1.8727807e+000  2.1181364e+000 -4.2529777e-002  3.4406545e+000  1.4729095e+000  1.7572135e+000  1.9033687e+000  2.8756033e+000  1.8094847e+000  1.0443571e+000  7.4378750e-001  9.6810205e-001  1.2996194e+000  1.4215232e+000  1.3357664e+000  8.1282791e-001  5.3934386e-001  1.0042134e+000  6.3744283e-001  3.2138360e+000  1.3427741e+000  2.2572311e+000  1.4217940e+000  5.9350219e-001  1.1367277e+000
  4.0000000e-001  2.8000000e+000 -2.0000000e-001  1.0000000e+000  2.0000000e+000  1.2000000e+000  5.2000000e+000  1.2000000e+000  1.4000000e+000  1.0000000e+000  4.2000000e+000  1.2000000e+000  5.2000000e+000  2.4000000e+000  8.0000000e-001  2.4000000e+000  6.0000000e-001  4.0000000e-001  8.0000000e-001  1.4000000e+000  8.0000000e-001  1.2000000e+000  8.0000000e-001  6.0000000e-001  3.4000000e+000  2.0000000e+000  1.0000000e+000  1.6000000e+000  2.8000000e+000  1.8000000e+000  2.0000000e+000 -2.0000000e-001  2.6000000e+000  1.4000000e+000  1.2000000e+000  1.4000000e+000  2.4000000e+000  1.2000000e+000  8.0000000e-001  8.0000000e-001  1.2000000e+000  1.0000000e+000  1.4000000e+000  1.0000000e+000  8.0000000e-001  6.0000000e-001  6.0000000e-001  6.0000000e-001  2.4000000e+000  1.4000000e+000  1.8000000e+000  1.2000000e+000  8.0000000e-001  8.0000000e-001
  3.8879313e-001  1.7682700e+000 -2.6085271e-002  8.9885862e-001  7.7028066e-001  7.3433496e-001  4.8258049e+000  7.9094521e-001  1.0102672e+000  7.7505615e-001  3.5134459e+000  9.8331619e-001  4.0013820e+000  1.9308624e+000  8.3330258e-001  2.0141094e+000  3.0517172e-001  5.1772864e-001  7.1264827e-001  1.2900905e+000  9.8236840e-001  7.2712617e-001  5.2319671e-001  4.8389301e-001  2.2999745e+000  1.6741093e+000  7.2719356e-001  1.2151067e+000  2.3999180e+000  1.9298693e+000  1.6482307e+000 -6.4798080e-003  2.1003206e+000  1.3384025e+000  7.0728255e-001  1.0637717e+000  2.1590537e+000  6.2297671e-001  6.4568301e-001  8.4898144e-001  1.3563450e+000  7.4567932e-001  1.2787258e+000  6.2405816e-001  8.0202168e-001  5.0570505e-001  4.0995540e-001  3.8219519e-001  1.8247716e+000  1.2924432e+000  1.6537064e+000  1.1832055e+000  9.9678180e-001  6.6689827e-001
  4.0000000e-001  6.0000000e-001  2.0000000e-001  8.0000000e-001  0.0000000e+000  4.0000000e-001  4.4000000e+000  6.0000000e-001  4.0000000e-001  6.0000000e-001  3.0000000e+000  8.0000000e-001  2.8000000e+000  1.6000000e+000  8.0000000e-001  1.6000000e+000  0.0000000e+000  6.0000000e-001  6.0000000e-001  1.2000000e+000  1.0000000e+000  2.0000000e-001  4.0000000e-001  4.0000000e-001  1.6000000e+000  1.4000000e+000  6.0000000e-001  8.0000000e-001  2.2000000e+000  2.0000000e+000  1.2000000e+000  2.0000000e-001  1.8000000e+000  1.2000000e+000  4.0000000e-001  8.0000000e-001  2.0000000e+000  2.0000000e-001  6.0000000e-001  8.0000000e-001  1.4000000e+000  6.0000000e-001  1.0000000e+000  4.0000000e-001  8.0000000e-001  4.0000000e-001  6.0000000e-001  2.0000000e-001  1.4000000e+000  1.0000000e+000  1.6000000e+000  1.2000000e+000  1.0000000e+000  6.0000000e-001
  4.1543388e-001  3.5960721e-001  2.5111953e-001  6.9181136e-001  1.0553392e+000  3.2166991e-001  3.7738865e+000  6.8219148e-001 -2.0292591e-002  4.7809269e-001  2.5078612e+000  5.7049262e-001  2.0253894e+000  1.3167993e+000  8.3147693e-001  1.4058878e+000  2.9415313e-002  5.1410310e-001  3.8252243e-001  1.3844923e+000  9.7903388e-001 -3.2199554e-002  6.0317657e-001  4.0597342e-001  1.4931008e+000  1.1650867e+000  7.7848681e-001  7.4767860e-001  1.9380054e+000  1.7827422e+000  8.1394096e-001  9.3449009e-002  1.5330633e+000  9.2348055e-001  3.3865633e-001  5.4154461e-001  1.7631817e+000 -1.3915483e-003  6.4791091e-001  6.1028674e-001  1.3065181e+000  6.4266328e-001  5.6357347e-001  4.9300099e-001  8.2908535e-001  4.6283594e-001  1.1809650e+000  2.5877643e-001  1.0370778e+000  6.1245306e-001  1.4279433e+000  1.0953842e+000  6.9437062e-001  4.2067919e-001
  4.0000000e-001  6.0000000e-001  2.0000000e-001  6.0000000e-001  2.0000000e+000  4.0000000e-001  3.0000000e+000  8.0000000e-001 -2.0000000e-001  4.0000000e-001  2.0000000e+000  4.0000000e-001  1.6000000e+000  1.2000000e+000  8.0000000e-001  1.4000000e+000  2.0000000e-001  4.0000000e-001  2.0000000e-001  1.4000000e+000  8.0000000e-001  0.0000000e+000  8.0000000e-001  4.0000000e-001  1.4000000e+000  1.0000000e+000  1.0000000e+000  8.0000000e-001  1.6000000e+000  1.4000000e+000  6.0000000e-001  0.0000000e+000  1.4000000e+000  6.0000000e-001  4.0000000e-001  4.0000000e-001  1.4000000e+000  0.0000000e+000  6.0000000e-001  4.0000000e-001  1.0000000e+000  8.0000000e-001  2.0000000e-001  6.0000000e-001  8.0000000e-001  6.0000000e-001  1.6000000e+000  4.0000000e-001  8.0000000e-001  4.0000000e-001  1.2000000e+000  1.0000000e+000  4.0000000e-001  2.0000000e-001
  3.2447133e-001  6.6830116e-001  1.4660714e-001  5.3389592e-001  1.0083627e+000  4.7898538e-001  2.2036490e+000  7.3028888e-001 -2.0409683e-001  3.6257309e-001  1.4801094e+000  4.0971332e-001  1.3470606e+000  1.3019404e+000  5.9078969e-001  1.4873393e+000  2.5216703e-001  4.0085896e-001  1.8226203e-001  8.4694020e-001  3.7649607e-001  1.7667205e-001  6.6409700e-001  2.9221331e-001  7.7762248e-001  9.1554376e-001  9.8385921e-001  6.4417893e-001  1.2480604e+000  1.0391619e+000  6.2100552e-001  2.5768377e-001  1.4674263e+000  3.4267532e-001  4.3809212e-001  4.7004990e-001  9.3821933e-001  1.5758949e-001  3.1267337e-001  2.8487160e-001  4.6758279e-001  9.5866758e-001  1.1698031e-001  4.2893788e-001  6.5663692e-001  6.6795119e-001  1.3911846e+000  4.5769910e-001  7.5191729e-001  5.5774454e-001  1.0095203e+000  1.0602579e+000  4.2573571e-001  5.0384958e-002
  2.0000000e-001  6.0000000e-001  0.0000000e+000  4.0000000e-001  0.0000000e+000  4.0000000e-001  1.6000000e+000  6.0000000e-001 -2.0000000e-001  4.0000000e-001  1.0000000e+000  6.0000000e-001  1.2000000e+000  1.2000000e+000  4.0000000e-001  1.6000000e+000  2.0000000e-001  4.0000000e-001  2.0000000e-001  2.0000000e-001  0.0000000e+000  4.0000000e-001  4.0000000e-001  2.0000000e-001  0.0000000e+000  8.0000000e-001  8.0000000e-001  4.0000000e-001  1.0000000e+000  8.0000000e-001  8.0000000e-001  6.0000000e-001  1.4000000e+000  2.0000000e-001  4.0000000e-001  6.0000000e-001  6.0000000e-001  4.0000000e-001  0.0000000e+000  2.0000000e-001  0.0000000e+000  1.0000000e+000  2.0000000e-001  2.0000000e-001  6.0000000e-001  6.0000000e-001  1.0000000e+000  6.0000000e-001  8.0000000e-001  8.0000000e-001  8.0000000e-001  1.2000000e+000  6.0000000e-001  0.0000000e+000
  6.1680796e-002  5.4218815e-001 -2.8754807e-001  1.4760494e-001  9.1121004e-001  1.1238855e-001  1.3365176e+000  5.4665299e-001 -3.1332008e-001  5.2161494e-001  6.2170132e-001  8.6565411e-001  1.1113683e+000  5.7543913e-001  4.0536431e-001  1.6697548e+000  1.1191657e-001  2.8246105e-001  1.1342945e-001 -2.2253131e-002 -6.0018173e-002  5.7551137e-001  2.6543542e-001  2.2517334e-001 -4.2859067e-001  5.7273822e-001  5.8607637e-001  2.5060567e-001  9.1975297e-001  7.1061026e-001  1.0020370e+000  7.0081591e-001  9.2223137e-001  1.8081818e-001  2.8397520e-001  6.2825580e-001  5.5894095e-001  6.4603360e-001 -9.8604368e-002  7.5226878e-002 -1.2684921e-001  8.4766642e-001  2.6850530e-001  1.6624749e-001  7.6936698e-001  3.9035929e-001  9.0429644e-001  9.6042716e-001  8.3025304e-001  8.3156878e-001  5.3397529e-001  1.2885844e+000  6.7768654e-001  5.2780973e-002
  0.0000000e+000  4.0000000e-001 -4.0000000e-001  0.0000000e+000  2.0000000e+000  0.0000000e+000  1.2000000e+000  4.0000000e-001 -4.0000000e-001  6.0000000e-001  4.0000000e-001  8.0000000e-001  1.0000000e+000  0.0000000e+000  4.0000000e-001  1.6000000e+000  0.0000000e+000  2.0000000e-001  0.0000000e+000  0.0000000e+000  0.0000000e+000  6.0000000e-001  2.0000000e-001  2.0000000e-001 -4.0000000e-001  4.0000000e-001  4.0000000e-001  2.0000000e-001  8.0000000e-001  6.0000000e-001  1.0000000e+000  6.0000000e-001  4.0000000e-001  2.0000000e-001  2.0000000e-001  6.0000000e-001  6.0000000e-001  8.0000000e-001  0.0000000e+000  0.0000000e+000  0.0000000e+000  6.0000000e-001  2.0000000e-001  2.0000000e-001  8.0000000e-001  2.0000000e-001  8.0000000e-001  1.2000000e+000  8.0000000e-001  8.0000000e-001  4.0000000e-001  1.2000000e+000  6.0000000e-001  2.0000000e-001
  7.8805487e-002  8.7946243e-002 -7.1414836e-002  1.5068430e-001  1.3467971e+000  3.7146041e-001  9.7528069e-001  3.3099145e-002 -3.1762283e-001  5.2596716e-001  3.5808534e-001  1.2767026e-001  8.0746620e-001  4.6303107e-002  1.8775305e-001  1.3336415e+000 -1.2483331e-001  2.9429684e-001 -3.5979844e-002 -7.9276768e-003 -6.1423379e-002  4.2128247e-001  9.9161308e-002 -1.7906668e-002  3.6740191e-002  4.4350337e-001  2.7183532e-001  2.0339838e-001  4.7292772e-001  3.1839707e-001  6.4584658e-001  4.1405260e-001  2.4364818e-001  1.8405195e-001  2.5100709e-001  5.9192692e-001  5.0101687e-001  7.8327611e-001  2.0674411e-001  6.4220892e-002  2.1481406e-001  3.7566674e-001 -4.1001515e-002  1.3107214e-001  3.6589515e-001  1.7061163e-001  3.4162959e-001  1.0005922e+000  7.0207056e-001  8.9098035e-001  5.5457849e-001  8.8540445e-001  3.8851813e-001  4.1349115e-001
  2.0000000e-001 -2.0000000e-001  4.0000000e-001  4.0000000e-001  0.0000000e+000  8.0000000e-001  8.0000000e-001 -2.0000000e-001 -2.0000000e-001  4.0000000e-001  4.0000000e-001 -6.0000000e-001  6.0000000e-001  4.0000000e-001  0.0000000e+000  1.0000000e+000 -2.0000000e-001  4.0000000e-001  0.0000000e+000  0.0000000e+000 -2.0000000e-001  2.0000000e-001  0.0000000e+000 -2.0000000e-001  6.0000000e-001  6.0000000e-001  2.0000000e-001  2.0000000e-001  2.0000000e-001  0.0000000e+000  2.0000000e-001  2.0000000e-001  4.0000000e-001  2.0000000e-001  4.0000000e-001  6.0000000e-001  4.0000000e-001  6.0000000e-001  4.0000000e-001  2.0000000e-001  4.0000000e-001  2.0000000e-001 -2.0000000e-001  0.0000000e+000 -2.0000000e-001  2.0000000e-001 -2.0000000e-001  6.0000000e-001  6.0000000e-001  1.0000000e+000  8.0000000e-001  6.0000000e-001  2.0000000e-001  6.0000000e-001
  2.4809726e-001 -2.4397312e-001  6.4820742e-001  4.9965785e-001 -5.4839857e-001  7.7676979e-001  8.6235966e-001  9.5950428e-002 -2.1618858e-001  3.4951642e-001  4.2095733e-001 -7.5133513e-001  4.5876690e-001  6.1434845e-001  1.1862347e-001  7.4567926e-001 -1.6258335e-001  3.1535158e-001  8.0489922e-002  1.2896384e-001 -3.1928831e-001  1.1435877e-001 -3.7080654e-002 -7.8546666e-002  1.0066299e+000  7.2824832e-001  1.7658234e-001  1.3580081e-001  2.8853614e-001 -1.8419853e-001 -3.5423289e-002 -7.0262989e-003  7.2817591e-001  3.3297403e-001  5.8699646e-001  6.0403654e-001  4.8699156e-001  2.7086194e-001  4.7162795e-001  3.1788955e-001  4.6759297e-001  7.4666632e-002 -4.4992426e-003 -1.1553607e-001 -4.8294757e-001  1.5219418e-001 -4.7081479e-001  3.1220388e-001  5.6146472e-001  9.7950983e-001  8.9771076e-001  6.1979777e-001  1.9324093e-001  6.6825442e-001
  2.0000000e-001  0.0000000e+000  6.0000000e-001  4.0000000e-001  0.0000000e+000  2.0000000e-001  1.2000000e+000  1.0000000e+000 -4.0000000e-001  4.0000000e-001  4.0000000e-001 -2.0000000e-001  4.0000000e-001  6.0000000e-001  6.0000000e-001  6.0000000e-001  0.0000000e+000  0.0000000e+000  2.0000000e-001  4.0000000e-001 -4.0000000e-001  2.0000000e-001  0.0000000e+000  4.0000000e-001  1.2000000e+000  8.0000000e-001  2.0000000e-001  0.0000000e+000  8.0000000e-001 -2.0000000e-001  0.0000000e+000 -2.0000000e-001  1.2000000e+000  6.0000000e-001  8.0000000e-001  6.0000000e-001  8.0000000e-001 -2.0000000e-001  4.0000000e-001  4.0000000e-001  4.0000000e-001  0.0000000e+000  6.0000000e-001 -2.0000000e-001 -4.0000000e-001  0.0000000e+000 -4.0000000e-001  2.0000000e-001  6.0000000e-001  8.0000000e-001  8.0000000e-001  1.0000000e+000  4.0000000e-001  6.0000000e-001
  1.5190274e-001  1.9397312e-001  5.0179258e-001  3.0034215e-001  5.4839857e-001 -2.2676979e-001  1.4376403e+000  1.6040496e+000 -5.3381142e-001  4.5048358e-001  3.7904267e-001  2.5133513e-001  3.9123310e-001  5.3565155e-001  9.3137653e-001  5.5432074e-001  1.1258335e-001 -2.1535158e-001  2.6951008e-001  5.7103616e-001 -4.3071169e-001  2.8564123e-001  3.7080654e-002  7.2854667e-001  1.2433701e+000  8.2175168e-001  2.2341766e-001 -8.5800810e-002  1.1614639e+000 -1.6580147e-001  8.5423289e-002 -2.9297370e-001  1.4718241e+000  7.6702597e-001  9.1300354e-001  5.9596346e-001  1.0130084e+000 -4.7086194e-001  3.2837205e-001  4.3211045e-001  3.3240703e-001 -2.4666632e-002  1.0044992e+000 -2.3446393e-001 -2.6705243e-001 -1.0219418e-001 -2.7918521e-001  1.8779612e-001  6.3853528e-001  6.7049017e-001  7.0228924e-001  1.2802022e+000  5.5675907e-001  5.3174558e-001
