  3.2851301e-001  3.7983315e-001  3.5582812e-001  3.9214147e-001  3.2903199e-001  3.7917041e-001  3.5581182e-001  3.5857767e-001  3.7250259e-001  3.9337939e-001  3.3216197e-001  3.5846289e-001  3.9858403e-001  3.4600167e-001  3.8443571e-001  3.7604274e-001  4.0513579e-001  3.4474664e-001  3.8335574e-001  3.7757936e-001  3.7595870e-001
  3.5881316e-001  4.1486634e-001  3.8864845e-001  4.2830923e-001  3.5937960e-001  4.1414218e-001  3.8862864e-001  3.9164965e-001  4.0685988e-001  4.2966219e-001  3.6279924e-001  3.9152555e-001  4.3534623e-001  3.7791556e-001  4.1989193e-001  4.1072568e-001  4.4250222e-001  3.7654395e-001  4.1871440e-001  4.1240490e-001  4.1063334e-001
  3.9050165e-001  4.5150459e-001  4.2297285e-001  4.6613379e-001  3.9111757e-001  4.5071608e-001  4.2294869e-001  4.2623656e-001  4.4279132e-001  4.6760734e-001  3.9484049e-001  4.2610316e-001  4.7379254e-001  4.1129196e-001  4.5697206e-001  4.4699739e-001  4.8158043e-001  4.0979815e-001  4.5569321e-001  4.4882605e-001  4.4689619e-001
  4.2346402e-001  4.8961551e-001  4.5867746e-001  5.0547841e-001  4.2413123e-001  4.8875993e-001  4.5864788e-001  4.6221336e-001  4.8016713e-001  5.0707778e-001  4.2817005e-001  4.6207085e-001  5.1378399e-001  4.4601042e-001  4.9554198e-001  4.8472676e-001  5.2222916e-001  4.4438912e-001  4.9415864e-001  4.8671126e-001  4.8461608e-001
  4.5756186e-001  5.2903900e-001  4.9561245e-001  5.4617770e-001  4.5828189e-001  5.2811386e-001  4.9557611e-001  4.9942880e-001  5.1883031e-001  5.4790773e-001  4.6264806e-001  4.9927759e-001  5.5515253e-001  4.8192522e-001  5.3543942e-001  5.2375518e-001  5.6427758e-001  4.8017158e-001  5.3394918e-001  5.2590138e-001  5.2363439e-001
  4.9263286e-001  5.6958734e-001  5.3360215e-001  5.8803775e-001  4.9340692e-001  5.6859044e-001  5.3355740e-001  5.3770553e-001  5.5859680e-001  5.8990278e-001  4.9811050e-001  5.3754631e-001  5.9770108e-001  5.1886555e-001  5.7647414e-001  5.6389669e-001  6.0752536e-001  5.1697518e-001  5.7487544e-001  5.6620987e-001  5.6376510e-001
  5.2849142e-001  6.1104584e-001  5.7244571e-001  6.3083677e-001  5.2932034e-001  6.0997527e-001  5.7239045e-001  5.7684071e-001  5.9925609e-001  6.3284064e-001  5.3436981e-001  5.7667450e-001  6.4120426e-001  5.5663607e-001  6.1842852e-001  6.0493861e-001  6.5174342e-001  5.5460513e-001  6.1672087e-001  6.0742332e-001  6.0479544e-001
  5.6492968e-001  6.5317404e-001  6.1191816e-001  6.7432633e-001  5.6581383e-001  6.5202825e-001  6.1184982e-001  6.1660716e-001  6.4057244e-001  6.7647231e-001  5.7121598e-001  6.1643537e-001  6.8540963e-001  5.9501802e-001  6.6105884e-001  6.4664271e-001  6.9667515e-001  5.9284324e-001  6.5924294e-001  6.4930279e-001  6.4648713e-001
  6.0171906e-001  6.9570754e-001  6.5177218e-001  7.1823326e-001  6.0265836e-001  6.9448534e-001  6.5168759e-001  6.5675503e-001  6.8228660e-001  7.2052403e-001  6.0841807e-001  6.5657956e-001  7.3003959e-001  6.3377088e-001  7.0409701e-001  6.8874702e-001  7.4203838e-001  6.3144962e-001  7.0217495e-001  6.9158551e-001  6.8857807e-001
  6.3861239e-001  7.3836038e-001  6.9174034e-001  7.6226209e-001  6.3960619e-001  7.3706097e-001  6.9163555e-001  6.9701408e-001  7.2411821e-001  7.6469971e-001  6.4572637e-001  6.9683738e-001  7.7479390e-001  6.7263458e-001  7.4725306e-001  7.3096821e-001  7.8752791e-001  6.7016483e-001  7.4522852e-001  7.3398729e-001  7.3078477e-001
  6.7534644e-001  7.8082801e-001  7.3153787e-001  8.0609808e-001  6.7639349e-001  7.7945098e-001  7.3140806e-001  7.3709645e-001  7.6576870e-001  8.0868402e-001  6.8287498e-001  7.3692165e-001  8.1935278e-001  7.1133217e-001  7.9021806e-001  7.7300444e-001  8.3281867e-001  7.0871255e-001  7.8809652e-001  7.7620550e-001  7.7280524e-001
  7.1164498e-001  8.2279084e-001  7.7086603e-001  8.4941091e-001  7.1274337e-001  8.2133615e-001  7.7070528e-001  7.7670002e-001  8.0692475e-001  8.5214605e-001  7.1958491e-001  7.7653104e-001  8.6338058e-001  7.4957311e-001  8.3266773e-001  8.1453895e-001  8.7756949e-001  7.4680285e-001  8.3045668e-001  8.1792254e-001  8.1432247e-001
  7.4722231e-001  8.6391822e-001  8.0941585e-001  8.9185880e-001  7.4836940e-001  8.6238624e-001  8.0921696e-001  8.1551217e-001  8.4726226e-001  8.9474351e-001  7.5556766e-001  8.1535386e-001  9.0653007e-001  7.8705693e-001  8.7426646e-001  8.5524399e-001  9.2142739e-001  7.8413581e-001  8.7197570e-001  8.5880990e-001  8.5500842e-001
  7.8178713e-001  9.0387302e-001  8.4687244e-001  9.3309315e-001  7.8297951e-001  9.0226445e-001  8.4662666e-001  8.5321403e-001  8.8645074e-001  9.3612738e-001  7.9052913e-001  8.5307233e-001  9.4844711e-001  8.2347736e-001  9.1467186e-001  8.9478526e-001  9.6403237e-001  8.2040563e-001  9.1231374e-001  8.9853261e-001  8.9452844e-001
  8.1504677e-001  9.4231647e-001  8.8291954e-001  9.7276360e-001  8.1628018e-001  9.4063233e-001  8.8261627e-001  8.8948508e-001  9.2415817e-001  9.7594696e-001  8.2417394e-001  8.8936722e-001  9.8877580e-001  8.5852681e-001  9.5353968e-001  9.3282677e-001  1.0050226e+000  8.5530508e-001  9.5112939e-001  9.3675411e-001  9.3254611e-001
  8.4671172e-001  9.7891335e-001  9.1724440e-001  1.0105233e+000  8.4798101e-001  9.7715491e-001  9.1687089e-001  9.2400805e-001  9.6005603e-001  1.0138553e+000  8.5620996e-001  9.2392274e-001  1.0271639e+000  8.9190108e-001  9.9052904e-001  9.6903592e-001  1.0440401e+000  8.8853017e-001  9.8808496e-001  9.7314141e-001  9.6872831e-001
  8.7650029e-001  1.0133374e+000  9.4954291e-001  1.0460347e+000  8.7779930e-001  1.0115061e+000  9.4908387e-001  9.5647397e-001  9.9382462e-001  1.0495147e+000  8.8635308e-001  9.5643163e-001  1.0632684e+000  9.2330436e-001  1.0253078e+000  1.0030889e+000  1.0807360e+000  9.1978511e-001  1.0228519e+000  1.0073705e+000  1.0027506e+000
  9.0414332e-001  1.0452768e+000  9.7952473e-001  1.0789747e+000  9.0546489e-001  1.0433742e+000  9.7896188e-001  9.8658733e-001  1.0251585e+000  1.0826026e+000  9.1433202e-001  9.8660038e-001  1.0967614e+000  9.5245421e-001  1.0575582e+000  1.0346760e+000  1.1147772e+000  9.4878727e-001  1.0551162e+000  1.0391317e+000  1.0343024e+000
  9.2938901e-001  1.0744396e+000  1.0069185e+000  1.1090408e+000  9.3072484e-001  1.0724672e+000  1.0062301e+000  1.0140713e+000  1.0537717e+000  1.1128168e+000  9.3989314e-001  1.0141544e+000  1.1273360e+000  9.7908661e-001  1.0869821e+000  1.0635070e+000  1.1458514e+000  9.7527217e-001  1.0845845e+000  1.0681352e+000  1.0630929e+000
  9.5200750e-001  1.1005593e+000  1.0314768e+000  1.1359565e+000  9.5334811e-001  1.0985185e+000  1.0306371e+000  1.0386725e+000  1.0794031e+000  1.1398817e+000  9.6280517e-001  1.0388432e+000  1.1547112e+000  1.0029608e+000  1.1133068e+000  1.0893168e+000  1.1736731e+000  9.9899830e-001  1.1109885e+000  1.0941164e+000  1.0888557e+000
  9.7179531e-001  1.1233995e+000  1.0529810e+000  1.1594762e+000  9.7312994e-001  1.1212914e+000  1.0519597e+000  1.0601664e+000  1.1018217e+000  1.1635530e+000  9.8286367e-001  1.0604448e+000  1.1786383e+000  1.0238642e+000  1.1362897e+000  1.1118699e+000  1.1979891e+000  1.0197518e+000  1.1340913e+000  1.1168411e+000  1.1113541e+000
  9.8857944e-001  1.1427592e+000  1.0712460e+000  1.1793905e+000  9.8989597e-001  1.1405843e+000  1.0700074e+000  1.0783608e+000  1.1208306e+000  1.1836229e+000  9.9989520e-001  1.0787708e+000  1.1989049e+000  1.0416162e+000  1.1557232e+000  1.1309653e+000  1.2185837e+000  1.0373509e+000  1.1536913e+000  1.1361097e+000  1.1303858e+000
  1.0022211e+000  1.1584764e+000  1.0861235e+000  1.1955304e+000  1.0035059e+000  1.1562348e+000  1.0846261e+000  1.0931010e+000  1.1362719e+000  1.1999242e+000  1.0137611e+000  1.0936702e+000  1.2153399e+000  1.0560729e+000  1.1714392e+000  1.1464410e+000  1.2352827e+000  1.0516493e+000  1.1696268e+000  1.1517622e+000  1.1457871e+000
  1.0126187e+000  1.1704324e+000  1.0975065e+000  1.2077709e+000  1.0138568e+000  1.1681233e+000  1.0957018e+000  1.1042720e+000  1.1480297e+000  1.2123347e+000  1.0243607e+000  1.1050324e+000  1.2278171e+000  1.0671295e+000  1.1833123e+000  1.1581772e+000  1.2479577e+000  1.0625402e+000  1.1817799e+000  1.1636811e+000  1.1574364e+000
  1.0197110e+000  1.1785546e+000  1.1053314e+000  1.2160344e+000  1.0208854e+000  1.1761761e+000  1.1031633e+000  1.1118025e+000  1.1560336e+000  1.2207797e+000  1.0316340e+000  1.1127910e+000  1.2362585e+000  1.0747241e+000  1.1912634e+000  1.1660992e+000  1.2565293e+000  1.0699586e+000  1.1900793e+000  1.1717951e+000  1.1652570e+000
  1.0234783e+000  1.1828185e+000  1.1095804e+000  1.2202929e+000  1.0245704e+000  1.1803675e+000  1.1069843e+000  1.1156661e+000  1.1602605e+000  1.2252348e+000  1.0355636e+000  1.1169249e+000  1.2406366e+000  1.0788391e+000  1.1952613e+000  1.1701802e+000  1.2609691e+000  1.0738834e+000  1.1945029e+000  1.1760809e+000  1.1692195e+000
  1.0239443e+000  1.1832494e+000  1.1102829e+000  1.2205693e+000  1.0249337e+000  1.1807213e+000  1.1071847e+000  1.1158832e+000  1.1607363e+000  1.2257270e+000  1.0361763e+000  1.1174607e+000  1.2409758e+000  1.0795026e+000  1.1953247e+000  1.1704422e+000  1.2613019e+000  1.0743388e+000  1.1950789e+000  1.1765647e+000  1.1693435e+000
  1.0211766e+000  1.1799232e+000  1.1075162e+000  1.2169383e+000  1.0220406e+000  1.1773115e+000  1.1038311e+000  1.1125214e+000  1.1575365e+000  1.2223358e+000  1.0335433e+000  1.1144726e+000  1.2373532e+000  1.0767893e+000  1.1915223e+000  1.1669567e+000  1.2576058e+000  1.0713950e+000  1.1918867e+000  1.1733230e+000  1.1656976e+000
  1.0152862e+000  1.1729657e+000  1.1014051e+000  1.2095260e+000  1.0160000e+000  1.1702623e+000  1.0970370e+000  1.1056950e+000  1.1507857e+000  1.2151926e+000  1.0277799e+000  1.1080823e+000  1.2298984e+000  1.0708203e+000  1.1839732e+000  1.1598445e+000  1.2500122e+000  1.0651677e+000  1.1850566e+000  1.1664822e+000  1.1583993e+000
  1.0064266e+000  1.1625519e+000  1.0921209e+000  1.1985087e+000  1.0069632e+000  1.1597460e+000  1.0869609e+000  1.0955646e+000  1.1406568e+000  1.2044798e+000  1.0190452e+000  1.0984580e+000  1.2187921e+000  1.0617615e+000  1.1728449e+000  1.1492748e+000  1.2387045e+000  1.0558173e+000  1.1747687e+000  1.1562175e+000  1.1476143e+000
  9.9479241e-001  1.1489035e+000  1.0798795e+000  1.1841111e+000  9.9512196e-001  1.1459823e+000  1.0738053e+000  1.0823343e+000  1.1273688e+000  1.1904283e+000  1.0075395e+000  1.0858128e+000  1.2042640e+000  1.0498224e+000  1.1583520e+000  1.1354626e+000  1.2239158e+000  1.0435468e+000  1.1612507e+000  1.1427511e+000  1.1335539e+000
  9.8061630e-001  1.1322867e+000  1.0649390e+000  1.1666027e+000  9.8070657e-001  1.1292344e+000  1.0578133e+000  1.0662498e+000  1.1111842e+000  1.1733151e+000  9.9350232e-001  1.0704014e+000  1.1865901e+000  1.0352534e+000  1.1407527e+000  1.1186666e+000  1.2059263e+000  1.0285997e+000  1.1447753e+000  1.1263490e+000  1.1164726e+000
  9.6416642e-001  1.1130081e+000  1.0475958e+000  1.1462949e+000  9.6398232e-001  1.1098061e+000  1.0392661e+000  1.0475948e+000  1.0924053e+000  1.1534590e+000  9.7720918e-001  1.0525173e+000  1.1660885e+000  1.0183420e+000  1.1203459e+000  1.0991852e+000  1.1850590e+000  1.0112562e+000  1.1256562e+000  1.1073177e+000  1.0966646e+000
  9.4574238e-001  1.0914105e+000  1.0281809e+000  1.1235362e+000  9.4524588e-001  1.0880372e+000  1.0184779e+000  1.0266865e+000  1.0713702e+000  1.1312168e+000  9.5896766e-001  1.0324882e+000  1.1431153e+000  9.9940962e-001  1.0974663e+000  1.0773525e+000  1.1616756e+000  9.9182964e-001  1.1042443e+000  1.0859999e+000  1.0744592e+000
  9.2567099e-001  1.0678682e+000  1.0070553e+000  1.0987071e+000  9.2482102e-001  1.0642984e+000  9.9579238e-001  1.0038718e+000  1.0484475e+000  1.1069775e+000  9.3911307e-001  1.0106717e+000  1.1180593e+000  9.7880635e-001  1.0724798e+000  1.0535332e+000  1.1361706e+000  9.7066182e-001  1.0809220e+000  1.0627694e+000  1.0502165e+000
  9.0430152e-001  1.0427810e+000  9.8460413e-001  1.0722145e+000  9.0305388e-001  1.0389864e+000  9.7157693e-001  9.7952142e-001  1.0240316e+000  1.0811569e+000  9.1800361e-001  9.8744984e-001  1.0913362e+000  9.5690622e-001  1.0457779e+000  1.0281173e+000  1.1089662e+000  9.4811808e-001  1.0560980e+000  1.0380259e+000  1.0243214e+000
  8.8200053e-001  1.0165688e+000  9.6123180e-001  1.0444855e+000  8.8030777e-001  1.0125175e+000  9.4621737e-001  9.5402478e-001  9.9853600e-001  1.0541917e+000  8.9601509e-001  9.6322368e-001  1.0633824e+000  9.3410162e-001  1.0177719e+000  1.0015147e+000  1.0805056e+000  9.2458184e-001  1.0302011e+000  1.0121886e+000  9.9717855e-001
  8.5914638e-001  9.8966515e-001  9.3735547e-001  1.0159616e+000  8.5695782e-001  9.8532149e-001  9.2011221e-001  9.2778405e-001  9.7238787e-001  1.0265324e+000  8.7353535e-001  9.3840706e-001  1.0346486e+000  9.1079750e-001  9.8888657e-001  9.7414820e-001  1.0512464e+000  9.0044892e-001  1.0036743e+000  9.8569062e-001  9.6920562e-001
  8.3612364e-001  9.6251061e-001  9.1339902e-001  9.8709132e-001  8.3338535e-001  9.5783545e-001  8.9366663e-001  9.0120811e-001  9.4602128e-001  9.9863699e-001  8.5095848e-001  9.1342060e-001  1.0055929e+000  8.8740531e-001  9.5955407e-001  9.4644794e-001  1.0216538e+000  8.7612162e-001  9.7696731e-001  9.5897196e-001  9.4082749e-001
  8.1331725e-001  9.3554632e-001  8.8978669e-001  9.5832387e-001  8.0997211e-001  9.3049693e-001  8.6728639e-001  8.7470644e-001  9.1987081e-001  9.7096414e-001  8.2867891e-001  8.8868536e-001  9.7667409e-001  8.6433683e-001  9.3020717e-001  9.1884463e-001  9.9219374e-001  8.5200270e-001  9.5053066e-001  9.3247318e-001  9.1246971e-001
  7.9110684e-001  9.0920737e-001  8.6693668e-001  9.3010247e-001  7.8709465e-001  9.0373754e-001  8.4137186e-001  8.4868305e-001  8.9436504e-001  9.4396604e-001  8.0708549e-001  8.6461654e-001  9.4834472e-001  8.4199803e-001  9.0127297e-001  8.9176315e-001  9.6332574e-001  8.2848933e-001  9.2480844e-001  9.0662875e-001  8.8455218e-001
  7.6986100e-001  8.8391630e-001  8.4525488e-001  9.0285769e-001  7.6511866e-001  8.7797649e-001  8.1631199e-001  8.2353044e-001  8.6992014e-001  9.1808184e-001  7.8655568e-001  8.4161725e-001  9.2104436e-001  8.2078293e-001  8.7316660e-001  8.6561628e-001  9.3549622e-001  8.0596719e-001  9.0023186e-001  8.8186057e-001  8.5748293e-001
  7.4993178e-001  8.6007681e-001  8.2512873e-001  8.7700109e-001  7.4439353e-001  8.5361444e-001  7.9247867e-001  7.9962385e-001  8.4693367e-001  8.9373106e-001  7.6744981e-001  8.2007248e-001  8.9519317e-001  8.0106767e-001  8.4628509e-001  8.4079859e-001  9.0913184e-001  7.8480467e-001  8.7721274e-001  8.5857166e-001  8.3165218e-001
  7.3164945e-001  8.3806780e-001  8.0692143e-001  8.5291921e-001  7.2524722e-001  8.3102751e-001  7.7022124e-001  7.7731575e-001  8.2577870e-001  8.7130739e-001  7.5010573e-001  8.0034336e-001  8.7118564e-001  7.8320486e-001  8.2100169e-001  8.1768068e-001  8.8463328e-001  7.6534746e-001  8.5613739e-001  8.3714021e-001  8.0742665e-001
  7.1531761e-001  8.1823781e-001  7.9096639e-001  8.3096796e-001  7.0798140e-001  8.1056185e-001  7.4986147e-001  7.5693078e-001  8.0679825e-001  8.5117284e-001  7.3483367e-001  7.8276181e-001  8.4938487e-001  7.6751825e-001  7.9766049e-001  7.9660377e-001  8.6236931e-001  7.4791337e-001  8.3736081e-001  8.1791394e-001  7.8514428e-001
  7.0120866e-001  8.0089983e-001  7.7756221e-001  8.1146748e-001  6.9286704e-001  7.9252857e-001  7.3168893e-001  7.3876101e-001  7.9030024e-001  8.3365241e-001  7.2191161e-001  7.6762554e-001  8.3011731e-001  7.5429785e-001  7.7657163e-001  7.7787480e-001  8.4267154e-001  7.3278765e-001  8.2120146e-001  8.0120502e-001  7.6510947e-001
  6.8955977e-001  7.8632683e-001  7.6696810e-001  7.9469757e-001  6.8014047e-001  7.7719923e-001  7.1595691e-001  7.2306190e-001  7.7655299e-001  8.1902933e-001  7.1158102e-001  7.5519367e-001  8.1366804e-001  7.4379549e-001  7.5800695e-001  7.6176205e-001  8.2582960e-001  7.2021880e-001  8.0793648e-001  7.8728543e-001  7.4758882e-001
  6.8056937e-001  7.7474771e-001  7.5939995e-001  7.8089376e-001  6.6999995e-001  7.6480197e-001  7.0287888e-001  7.1004863e-001  7.6578125e-001  8.0754089e-001  7.0404321e-001  7.4568285e-001  8.0027675e-001  7.3622099e-001  7.4219636e-001  7.4849138e-001  8.1208704e-001  7.1041490e-001  7.9779759e-001  7.7638298e-001  7.3280746e-001
  6.7439420e-001  7.6634404e-001  7.5502691e-001  7.7024401e-001  6.6260276e-001  7.5551829e-001  6.9262555e-001  6.9989320e-001  7.5816291e-001  7.9937499e-001  6.9945622e-001  7.3926403e-001  7.9013429e-001  7.3173890e-001  7.2932478e-001  7.3824302e-001  8.0163792e-001  7.0354053e-001  7.9096758e-001  7.6867800e-001  7.2094604e-001
  6.7114696e-001  7.6124741e-001  7.5396873e-001  7.6288618e-001  6.5806303e-001  7.4948045e-001  6.8532257e-001  6.9272207e-001  7.5382638e-001  7.9466736e-001  6.9793234e-001  7.3605986e-001  7.8338010e-001  7.3046588e-001  7.1952980e-001  7.3114921e-001  7.9462408e-001  6.9971437e-001  7.8757762e-001  7.6430062e-001  7.1213838e-001
  6.7089463e-001  7.5953752e-001  7.5629375e-001  7.5890612e-001  6.5645003e-001  7.4676963e-001  6.8104895e-001  6.8861452e-001  7.5284873e-001  7.9349960e-001  6.9953627e-001  7.3614284e-001  7.8010022e-001  7.3246881e-001  7.1290000e-001  7.2729237e-001  7.9113325e-001  6.9900741e-001  7.8770515e-001  7.6332892e-001  7.0646979e-001
  6.7365739e-001  7.6124110e-001  7.6201765e-001  7.5833669e-001  6.5778719e-001  7.4741489e-001  6.7983605e-001  6.8760170e-001  7.5525448e-001  7.9589793e-001  7.0428402e-001  7.3953415e-001  7.8032622e-001  7.3776355e-001  7.0947407e-001  7.2670406e-001  7.9119788e-001  7.0144187e-001  7.9137273e-001  7.6578772e-001  7.0397617e-001
  6.7940826e-001  7.6633145e-001  7.7110295e-001  7.6115737e-001  6.6205183e-001  7.5139279e-001  6.8166737e-001  6.8966632e-001  7.6101523e-001  8.0183280e-001  7.1214238e-001  7.4620319e-001  7.8403480e-001  7.4631446e-001  7.0924057e-001  7.2936476e-001  7.9479479e-001  7.0699086e-001  7.9854753e-001  7.7164818e-001  7.0464374e-001
  6.8807338e-001  7.7472887e-001  7.8345924e-001  7.6729475e-001  6.6917542e-001  7.5862777e-001  6.8647894e-001  6.9474315e-001  7.7005001e-001  8.1121923e-001  7.2302924e-001  7.5606796e-001  7.9114829e-001  7.5803469e-001  7.1213845e-001  7.3520423e-001  8.0184566e-001  7.1557864e-001  8.0914169e-001  7.8082815e-001  7.0840954e-001
  6.9953302e-001  7.8630179e-001  7.9894424e-001  7.7662373e-001  6.7904464e-001  7.6899336e-001  6.9416048e-001  7.0272006e-001  7.8222642e-001  8.2391805e-001  7.3681451e-001  7.6899606e-001  8.0153581e-001  7.7278712e-001  7.1805830e-001  7.4410270e-001  8.1221822e-001  7.2708171e-001  8.2301343e-001  7.9319330e-001  7.1516262e-001
  7.1362319e-001  8.0086866e-001  8.1736556e-001  7.8896947e-001  6.9150297e-001  7.8231404e-001  7.0455710e-001  7.1343984e-001  7.9736242e-001  8.3973780e-001  7.5332183e-001  7.8480652e-001  8.1501531e-001  7.9038614e-001  7.2684423e-001  7.5589273e-001  8.2572833e-001  7.4133048e-001  8.3996899e-001  8.0855904e-001  7.2474588e-001
  7.3013795e-001  8.1820059e-001  8.3848322e-001  8.0411007e-001  7.0635298e-001  7.9836786e-001  7.1747177e-001  7.2670263e-001  8.1522901e-001  8.5843752e-001  7.7233086e-001  8.0327228e-001  8.3135626e-001  8.1060006e-001  7.3829645e-001  7.7036181e-001  8.4214269e-001  7.5811171e-001  8.5976529e-001  8.2669309e-001  7.3695865e-001
  7.4883229e-001  8.3802466e-001  8.6201289e-001  8.2177992e-001  7.2335921e-001  8.1688968e-001  7.3266832e-001  7.4226895e-001  8.3555341e-001  8.7973013e-001  7.9358032e-001  8.2412340e-001  8.5028310e-001  8.3315432e-001  7.5217446e-001  7.8725550e-001  8.6118235e-001  7.7717151e-001  8.8211335e-001  8.4731883e-001  7.5155978e-001
  7.6942566e-001  8.6002786e-001  8.8762983e-001  8.4167366e-001  7.4225159e-001  8.3757511e-001  7.4987499e-001  7.5986336e-001  8.5802305e-001  9.0328663e-001  8.1677160e-001  8.4705086e-001  8.7147930e-001  8.5773518e-001  7.6820080e-001  8.0628131e-001  8.8252683e-001  7.9821902e-001  9.0668240e-001  8.7011928e-001  7.6827138e-001
  7.9160598e-001  8.8386169e-001  9.1497342e-001  8.6345076e-001  7.6272938e-001  8.6008499e-001  7.6878857e-001  7.7917852e-001  8.8229008e-001  9.2874086e-001  8.4157301e-001  8.7171102e-001  8.9459208e-001  8.8399425e-001  7.8606536e-001  8.2711304e-001  9.0581893e-001  8.2093059e-001  9.3310459e-001  8.9474167e-001  7.8678310e-001
  8.1503418e-001  9.0914729e-001  9.4365228e-001  8.8674060e-001  7.8446558e-001  8.8405042e-001  7.8907891e-001  7.9987990e-001  9.0797645e-001  9.5569481e-001  8.6762445e-001  8.9773057e-001  9.1923764e-001  9.1155334e-001  8.0543012e-001  8.4939567e-001  9.3067000e-001  8.4495448e-001  9.6098032e-001  9.2080262e-001  8.0675680e-001
  8.3934916e-001  9.3548095e-001  9.7324994e-001  9.1114803e-001  8.0711179e-001  9.0907820e-001  8.1039394e-001  8.2161074e-001  9.3467944e-001  9.8372454e-001  8.9454266e-001  9.2471198e-001  9.4500686e-001  9.4000998e-001  8.2593431e-001  8.7275066e-001  9.5666571e-001  8.6991607e-001  9.8988409e-001  9.4789373e-001  8.2783172e-001
  8.6417306e-001  9.6244017e-001  1.0033308e+000  9.3625926e-001  8.3030335e-001  9.3475673e-001  8.3236490e-001  8.4399739e-001  9.6197760e-001  1.0123863e+000  9.2192680e-001  9.5223935e-001  9.7147141e-001  9.6894327e-001  8.4719987e-001  8.9678160e-001  9.8337230e-001  8.9542331e-001  1.0193707e+000  9.7558763e-001  8.4962990e-001
  8.8911692e-001  9.8958989e-001  1.0334467e+000  9.6164807e-001  8.5366474e-001  9.6066210e-001  8.5461192e-001  8.6665496e-001  9.8943705e-001  1.0412234e+000  9.4936431e-001  9.7988451e-001  9.9819012e-001  9.9792001e-001  8.6883721e-001  9.2108020e-001  1.0103430e+000  9.2107258e-001  1.0489819e+000  1.0034443e+000  8.7176188e-001
  9.1378640e-001  1.0164890e+000  1.0631434e+000  9.8688218e-001  8.7681522e-001  9.8636444e-001  8.7674968e-001  8.8919306e-001  1.0166179e+000  1.0697726e+000  9.7643706e-001  1.0072134e+000  1.0247156e+000  1.0265012e+000  8.9045104e-001  9.4523233e-001  1.0371246e+000  9.4645469e-001  1.0782531e+000  1.0310176e+000  8.9383258e-001
  9.3778771e-001  1.0426969e+000  1.0919672e+000  1.0115297e+000  8.9937450e-001  1.0114344e+000  8.9839323e-001  9.1122168e-001  1.0430807e+000  1.0975713e+000  1.0027276e+000  1.0337927e+000  1.0506010e+000  1.0542485e+000  9.1164634e-001  9.6882430e-001  1.0632647e+000  9.7116097e-001  1.1067203e+000  1.0578621e+000  9.1544723e-001
  9.6073346e-001  1.0677801e+000  1.1194722e+000  1.0351658e+000  9.2096845e-001  1.0354494e+000  9.1916372e-001  9.3235699e-001  1.0683933e+000  1.1241645e+000  1.0278252e+000  1.0591960e+000  1.0754066e+000  1.0807308e+000  9.3203429e-001  9.9144901e-001  1.0883177e+000  9.9478941e-001  1.1339273e+000  1.0835394e+000  9.3621727e-001
  9.8224853e-001  1.0913189e+000  1.1452266e+000  1.0573787e+000  9.4123468e-001  1.0580004e+000  9.3869409e-001  9.5222712e-001  1.0921372e+000  1.1491115e+000  1.0513325e+000  1.0830105e+000  1.0987064e+000  1.1055307e+000  9.5123802e-001  1.0127120e+000  1.1118524e+000  1.0169507e+000  1.1594321e+000  1.1076251e+000  9.5576616e-001
  1.0019756e+000  1.1129132e+000  1.1688192e+000  1.0777760e+000  9.5982795e-001  1.0786972e+000  9.5663450e-001  9.7047766e-001  1.1139136e+000  1.1719924e+000  1.0728708e+000  1.1048429e+000  1.1200944e+000  1.1282510e+000  9.6889823e-001  1.0322375e+000  1.1334575e+000  1.0372739e+000  1.1828138e+000  1.1297148e+000  9.7373495e-001
  1.0195805e+000  1.1321889e+000  1.1898657e+000  1.0959905e+000  9.7642529e-001  1.0971752e+000  9.7265745e-001  9.8677686e-001  1.1333495e+000  1.1924147e+000  1.0920863e+000  1.1243256e+000  1.1391909e+000  1.1485199e+000  9.8467842e-001  1.0496737e+000  1.1527484e+000  1.0554122e+000  1.2036790e+000  1.1494303e+000  9.8978755e-001
  1.0347572e+000  1.1488032e+000  1.2080143e+000  1.1116856e+000  9.9073073e-001  1.1130997e+000  9.8646259e-001  1.0008205e+000  1.1501034e+000  1.2100184e+000  1.1086551e+000  1.1411217e+000  1.1556477e+000  1.1659977e+000  9.9826975e-001  1.0646980e+000  1.1693723e+000  1.0710479e+000  1.2216670e+000  1.1664251e+000  1.0036156e+000
  1.0472321e+000  1.1624494e+000  1.2229510e+000  1.1245598e+000  1.0024796e+000  1.1261718e+000  9.9778099e-001  1.0123361e+000  1.1638696e+000  1.2244820e+000  1.1222878e+000  1.1549304e+000  1.1691532e+000  1.1803805e+000  1.0093954e+000  1.0770217e+000  1.1830137e+000  1.0838968e+000  1.2364559e+000  1.1803895e+000  1.0149427e+000
  1.0567681e+000  1.1728616e+000  1.2344038e+000  1.1343513e+000  1.0114421e+000  1.1361315e+000  1.0063788e+000  1.0210870e+000  1.1743833e+000  1.2355264e+000  1.1327339e+000  1.1654907e+000  1.1794367e+000  1.1914055e+000  1.0178144e+000  1.0863938e+000  1.1933983e+000  1.0937127e+000  1.2477663e+000  1.1910548e+000  1.0235286e+000
  1.0631675e+000  1.1798178e+000  1.2421470e+000  1.1408411e+000  1.0174268e+000  1.1427620e+000  1.0120605e+000  1.0268751e+000  1.1814236e+000  1.2429190e+000  1.1397851e+000  1.1725855e+000  1.1862722e+000  1.1988542e+000  1.0233246e+000  1.0926046e+000  1.2002972e+000  1.1002902e+000  1.2553659e+000  1.1981972e+000  1.0291719e+000
  1.0662751e+000  1.1831431e+000  1.2460034e+000  1.1438561e+000  1.0202825e+000  1.1458920e+000  1.0146712e+000  1.0295437e+000  1.1848168e+000  1.2464768e+000  1.1432781e+000  1.1760440e+000  1.1894813e+000  1.2025555e+000  1.0257654e+000  1.0954883e+000  1.2035294e+000  1.1034679e+000  1.2590719e+000  1.2016402e+000  1.0317128e+000
  1.0659794e+000  1.1827118e+000  1.2458473e+000  1.1432709e+000  1.0199005e+000  1.1453980e+000  1.0140984e+000  1.0289790e+000  1.1844379e+000  1.2460681e+000  1.1430966e+000  1.1757441e+000  1.1889348e+000  1.2023874e+000  1.0250194e+000  1.0949245e+000  1.2029640e+000  1.1031298e+000  1.2587536e+000  1.2012574e+000  1.0310347e+000
  1.0622142e+000  1.1784479e+000  1.2416050e+000  1.1390087e+000  1.0162152e+000  1.1412049e+000  1.0102729e+000  1.0251112e+000  1.1802122e+000  1.2416141e+000  1.1391722e+000  1.1716130e+000  1.1845543e+000  1.1982785e+000  1.0210132e+000  1.0908399e+000  1.1985213e+000  1.0992064e+000  1.2543331e+000  1.1969728e+000  1.0270653e+000
  1.0549583e+000  1.1703261e+000  1.2332553e+000  1.1310418e+000  1.0092046e+000  1.1332869e+000  1.0031691e+000  1.0179145e+000  1.1721152e+000  1.2330889e+000  1.1314848e+000  1.1636279e+000  1.1763120e+000  1.1902081e+000  1.0137178e+000  1.0832076e+000  1.1901732e+000  1.0916754e+000  1.2457863e+000  1.1887619e+000  1.0197769e+000
  1.0442353e+000  1.1583709e+000  1.2208291e+000  1.1193909e+000  9.9888951e-001  1.1216660e+000  9.9280442e-001  1.0074071e+000  1.1601723e+000  1.2205189e+000  1.1200620e+000  1.1518154e+000  1.1642306e+000  1.1782056e+000  1.0031478e+000  1.0720476e+000  1.1779422e+000  1.0805606e+000  1.2331413e+000  1.1766502e+000  1.0091855e+000
  1.0301122e+000  1.1426549e+000  1.2044077e+000  1.1041237e+000  9.8533246e-001  1.1064117e+000  9.7923810e-001  9.9364909e-001  1.1444571e+000  1.2039815e+000  1.1049778e+000  1.1362497e+000  1.1483813e+000  1.1623493e+000  9.8936065e-001  1.0574245e+000  1.1619004e+000  1.0659308e+000  1.2164779e+000  1.1607125e+000  9.9534981e-001
  1.0126972e+000  1.1232968e+000  1.1841203e+000  1.0853525e+000  9.6863574e-001  1.0876378e+000  9.6256907e-001  9.7674123e-001  1.1250893e+000  1.1836025e+000  1.0863502e+000  1.1170506e+000  1.1288821e+000  1.1427635e+000  9.7245388e-001  1.0394460e+000  1.1421667e+000  1.0478977e+000  1.1959243e+000  1.1410702e+000  9.7836903e-001
  9.9213748e-001  1.1004585e+000  1.1601411e+000  1.0632317e+000  9.4893873e-001  1.0655000e+000  9.4293347e-001  9.5682185e-001  1.1022317e+000  1.1595528e+000  1.0643387e+000  1.0943807e+000  1.1058940e+000  1.1196162e+000  9.5256301e-001  1.0182598e+000  1.1189042e+000  1.0266130e+000  1.1716546e+000  1.1178883e+000  9.5838039e-001
  9.6861530e-001  1.0743411e+000  1.1326854e+000  1.0379537e+000  9.2641475e-001  1.0401923e+000  9.2050145e-001  9.3406377e-001  1.0760861e+000  1.1320449e+000  1.0391402e+000  1.0684413e+000  1.0796180e+000  1.0931150e+000  9.2985811e-001  9.9405012e-001  1.0923158e+000  1.0022650e+000  1.1438844e+000  1.0913717e+000  9.3555581e-001
  9.4234455e-001  1.0451809e+000  1.1020052e+000  1.0097452e+000  9.0126743e-001  1.0119427e+000  8.9547349e-001  9.0867059e-001  1.0468898e+000  1.1013282e+000  1.0109856e+000  1.0394686e+000  1.0502905e+000  1.0635028e+000  9.0454012e-001  9.6703410e-001  1.0626406e+000  9.7507474e-001  1.1128665e+000  1.0617610e+000  9.1009811e-001
  9.1356637e-001  1.0132443e+000  1.0683838e+000  9.7886235e-001  8.7372657e-001  9.8100859e-001  8.6807633e-001  8.8087252e-001  1.0149102e+000  1.0676839e+000  9.8013459e-001  1.0077289e+000  1.0181783e+000  1.0310532e+000  8.7683668e-001  9.3745700e-001  1.0301487e+000  9.4529144e-001  1.0788861e+000  1.0293274e+000  8.8223696e-001
  8.8254458e-001  9.7882337e-001  1.0321314e+000  9.4558591e-001  8.4404379e-001  9.4767207e-001  8.3855856e-001  8.5092194e-001  9.8044006e-001  1.0314200e+000  9.4687126e-001  9.7351330e-001  9.8357399e-001  9.9606499e-001  8.4699770e-001  9.0558768e-001  9.9513582e-001  9.1318788e-001  1.0422549e+000  9.9436777e-001  8.5222431e-001
  8.4956088e-001  9.4222980e-001  9.9357835e-001  9.1021605e-001  8.1248786e-001  9.1223454e-001  8.0718604e-001  8.1908873e-001  9.4379202e-001  9.9286520e-001  9.1149867e-001  9.3713272e-001  9.4679015e-001  9.5885720e-001  8.1529068e-001  8.7171359e-001  9.5791819e-001  8.7905531e-001  1.0033057e+000  9.5719928e-001  8.2032977e-001
  8.1490991e-001  9.0378984e-001  9.5307039e-001  8.7306701e-001  7.7934006e-001  8.7501143e-001  7.7423717e-001  7.8565549e-001  9.0529311e-001  9.5236360e-001  8.7433363e-001  8.9891231e-001  9.0815399e-001  9.1976325e-001  7.8199594e-001  8.3613567e-001  9.1882680e-001  8.4319845e-001  9.6238672e-001  9.1815360e-001  7.8683576e-001
  7.7889430e-001  8.6383869e-001  9.1096227e-001  8.3446183e-001  7.4488937e-001  8.3632692e-001  7.3999817e-001  7.5091273e-001  8.6527932e-001  9.1026858e-001  8.3570148e-001  8.5918602e-001  8.6800181e-001  8.7912545e-001  7.4740181e-001  7.9916328e-001  8.7820185e-001  8.0593029e-001  9.1985547e-001  8.7757148e-001  7.5203273e-001
  7.4181984e-001  8.2271506e-001  8.6761237e-001  7.9472709e-001  7.0942783e-001  7.9650865e-001  7.0475845e-001  7.1515419e-001  8.2409015e-001  8.6693725e-001  7.9593082e-001  8.1829126e-001  8.2667354e-001  8.3728956e-001  7.1179995e-001  7.6110917e-001  8.3638721e-001  7.6756711e-001  8.7607318e-001  8.3579726e-001  7.1621443e-001
  7.0399080e-001  7.8075609e-001  8.2337713e-001  7.5418788e-001  6.7324612e-001  7.5588275e-001  6.6880613e-001  6.7867229e-001  7.8206346e-001  8.2272500e-001  7.5534853e-001  7.7656375e-001  7.8450756e-001  7.9459954e-001  6.7548083e-001  7.2228468e-001  7.9372520e-001  7.2842363e-001  8.3139929e-001  7.9317359e-001  6.7967335e-001
  6.6570551e-001  7.3829235e-001  7.7860601e-001  7.1316310e-001  6.3662927e-001  7.1476909e-001  6.3242384e-001  6.4175390e-001  7.3953051e-001  7.7798029e-001  7.1427510e-001  7.3433264e-001  7.4183574e-001  7.5139258e-001  6.3872946e-001  6.8299519e-001  7.5055156e-001  6.8880844e-001  7.8618622e-001  7.5003647e-001  6.4269647e-001
  6.2725233e-001  6.9564342e-001  7.3363670e-001  6.7196107e-001  5.9985283e-001  6.7347688e-001  5.9588490e-001  6.0467636e-001  6.9681156e-001  7.3304001e-001  6.7302022e-001  6.9191609e-001  6.9897894e-001  7.0799452e-001  6.0182149e-001  6.4353597e-001  7.0719088e-001  6.4901986e-001  7.4077458e-001  7.0671068e-001  6.0556131e-001
  5.8890603e-001  6.5311383e-001  6.8879091e-001  6.3087563e-001  5.6317937e-001  6.3230080e-001  5.5944976e-001  5.6770404e-001  6.5421173e-001  6.8822511e-001  6.3187895e-001  6.4961723e-001  6.5624293e-001  6.6471581e-001  5.6501966e-001  6.0418844e-001  6.6395251e-001  6.0934212e-001  6.9548892e-001  6.6350570e-001  5.6853239e-001
  5.5092457e-001  6.1098951e-001  6.4437066e-001  5.9018271e-001  5.2685544e-001  5.9151755e-001  5.2336304e-001  5.3108517e-001  6.1201751e-001  6.4383699e-001  5.9112830e-001  6.0772066e-001  6.1391483e-001  6.2184786e-001  5.2857077e-001  5.6521685e-001  6.2112693e-001  5.7004208e-001  6.5063393e-001  6.2071208e-001  5.3185815e-001
  5.1354646e-001  5.6953483e-001  6.0065514e-001  5.5013747e-001  4.9110899e-001  5.5138299e-001  4.8785094e-001  4.9504933e-001  5.7049380e-001  6.0015427e-001  5.5102434e-001  5.6648950e-001  5.7226015e-001  5.7966010e-001  4.9270306e-001  5.2686556e-001  5.7898274e-001  5.3136648e-001  6.0649134e-001  5.7859848e-001  4.9576834e-001
  4.7698858e-001  5.2899022e-001  5.5789822e-001  5.1097198e-001  4.5614734e-001  5.1212979e-001  4.5311921e-001  4.5980529e-001  5.2988148e-001  5.5743038e-001  5.1179994e-001  5.2616303e-001  5.3152035e-001  5.3839751e-001  4.5762414e-001  4.8935682e-001  5.3776422e-001  4.9353971e-001  5.6331731e-001  5.3740922e-001  4.6047194e-001
  4.4144459e-001  4.8957036e-001  5.1632657e-001  4.7289346e-001  4.2215558e-001  4.7396574e-001  4.1935154e-001  4.2553949e-001  4.9039563e-001  5.1589155e-001  4.7366298e-001  4.8695489e-001  4.9191104e-001  4.9827881e-001  4.2351940e-001  4.5288907e-001  4.9768950e-001  4.5676211e-001  5.2134056e-001  4.9736243e-001  4.2615555e-001
  4.0708379e-001  4.5146295e-001  4.7613836e-001  4.3608311e-001  3.8929557e-001  4.3707249e-001  3.8670860e-001  3.9241497e-001  4.5222431e-001  4.7573562e-001  4.3679524e-001  4.4905187e-001  4.5362073e-001  4.5949523e-001  3.9055098e-001  4.1763585e-001  4.5894932e-001  4.2120884e-001  4.8076108e-001  4.5864884e-001  3.9298238e-001
  3.7405060e-001  4.1482808e-001  4.3750258e-001  4.0069547e-001  3.5770535e-001  4.0160500e-001  3.5532738e-001  3.6057076e-001  4.1552792e-001  4.3713132e-001  4.0135174e-001  4.1261327e-001  4.1681022e-001  4.2220986e-001  3.5885716e-001  3.8374517e-001  4.2170635e-001  3.8702931e-001  4.4174943e-001  4.2143112e-001  3.6109159e-001
  3.4246441e-001  3.7979811e-001  4.0055896e-001  3.6685831e-001  3.2749905e-001  3.6769137e-001  3.2532118e-001  3.3012184e-001  3.8043905e-001  4.0021813e-001  3.6746064e-001  3.7777080e-001  3.8161246e-001  3.8655753e-001  3.2855227e-001  3.5133938e-001  3.8609509e-001  3.5434703e-001  4.0444661e-001  3.8584377e-001  3.3059827e-001
