%!PS-Adobe-3.0 EPSF-3.0
%%Creator: MATLAB, The Mathworks, Inc. Version 7.10.0.499 (R2010a). Operating System: Microsoft Windows 7.
%%Title: C:\Users\wwu\Desktop\warping\Muller_method\comp_neural_autc.eps
%%CreationDate: 04/12/2011  15:11:49
%%DocumentNeededFonts: Helvetica
%%DocumentProcessColors: Cyan Magenta Yellow Black
%%LanguageLevel: 2
%%Pages: 1
%%BoundingBox:   212   320   399   470
%%EndComments

%%BeginProlog
% MathWorks dictionary
/MathWorks 160 dict begin
% definition operators
/bdef {bind def} bind def
/ldef {load def} bind def
/xdef {exch def} bdef
/xstore {exch store} bdef
% operator abbreviations
/c  /clip ldef
/cc /concat ldef
/cp /closepath ldef
/gr /grestore ldef
/gs /gsave ldef
/mt /moveto ldef
/np /newpath ldef
/cm /currentmatrix ldef
/sm /setmatrix ldef
/rm /rmoveto ldef
/rl /rlineto ldef
/s {show newpath} bdef
/sc {setcmykcolor} bdef
/sr /setrgbcolor ldef
/sg /setgray ldef
/w /setlinewidth ldef
/j /setlinejoin ldef
/cap /setlinecap ldef
/rc {rectclip} bdef
/rf {rectfill} bdef
% page state control
/pgsv () def
/bpage {/pgsv save def} bdef
/epage {pgsv restore} bdef
/bplot /gsave ldef
/eplot {stroke grestore} bdef
% orientation switch
/portraitMode 0 def /landscapeMode 1 def /rotateMode 2 def
% coordinate system mappings
/dpi2point 0 def
% font control
/FontSize 0 def
/FMS {/FontSize xstore findfont [FontSize 0 0 FontSize neg 0 0]
  makefont setfont} bdef
/ISOLatin1Encoding where {pop /WindowsLatin1Encoding 256 array bdef
ISOLatin1Encoding WindowsLatin1Encoding copy pop
/.notdef/.notdef/quotesinglbase/florin/quotedblbase/ellipsis/dagger
/daggerdbl/circumflex/perthousand/Scaron/guilsinglleft/OE/.notdef/.notdef
/.notdef/.notdef/quoteleft/quoteright/quotedblleft/quotedblright/bullet
/endash/emdash/tilde/trademark/scaron/guilsinglright/oe/.notdef/.notdef
/Ydieresis WindowsLatin1Encoding 128 32 getinterval astore pop}
{/WindowsLatin1Encoding StandardEncoding bdef} ifelse
/reencode {exch dup where {pop load} {pop StandardEncoding} ifelse
  exch dup 3 1 roll findfont dup length dict begin
  { 1 index /FID ne {def}{pop pop} ifelse } forall
  /Encoding exch def currentdict end definefont pop} bdef
/isroman {findfont /CharStrings get /Agrave known} bdef
/FMSR {3 1 roll 1 index dup isroman {reencode} {pop pop} ifelse
  exch FMS} bdef
/csm {1 dpi2point div -1 dpi2point div scale neg translate
 dup landscapeMode eq {pop -90 rotate}
  {rotateMode eq {90 rotate} if} ifelse} bdef
% line types: solid, dotted, dashed, dotdash
/SO { [] 0 setdash } bdef
/DO { [.5 dpi2point mul 4 dpi2point mul] 0 setdash } bdef
/DA { [6 dpi2point mul] 0 setdash } bdef
/DD { [.5 dpi2point mul 4 dpi2point mul 6 dpi2point mul 4
  dpi2point mul] 0 setdash } bdef
% macros for lines and objects
/L {lineto stroke} bdef
/MP {3 1 roll moveto 1 sub {rlineto} repeat} bdef
/AP {{rlineto} repeat} bdef
/PDlw -1 def
/W {/PDlw currentlinewidth def setlinewidth} def
/PP {closepath eofill} bdef
/DP {closepath stroke} bdef
/MR {4 -2 roll moveto dup  0 exch rlineto exch 0 rlineto
  neg 0 exch rlineto closepath} bdef
/FR {MR stroke} bdef
/PR {MR fill} bdef
/L1i {{currentfile picstr readhexstring pop} image} bdef
/tMatrix matrix def
/MakeOval {newpath tMatrix currentmatrix pop translate scale
0 0 1 0 360 arc tMatrix setmatrix} bdef
/FO {MakeOval stroke} bdef
/PO {MakeOval fill} bdef
/PD {currentlinewidth 2 div 0 360 arc fill
   PDlw -1 eq not {PDlw w /PDlw -1 def} if} def
/FA {newpath tMatrix currentmatrix pop translate scale
  0 0 1 5 -2 roll arc tMatrix setmatrix stroke} bdef
/PA {newpath tMatrix currentmatrix pop	translate 0 0 moveto scale
  0 0 1 5 -2 roll arc closepath tMatrix setmatrix fill} bdef
/FAn {newpath tMatrix currentmatrix pop translate scale
  0 0 1 5 -2 roll arcn tMatrix setmatrix stroke} bdef
/PAn {newpath tMatrix currentmatrix pop translate 0 0 moveto scale
  0 0 1 5 -2 roll arcn closepath tMatrix setmatrix fill} bdef
/vradius 0 def /hradius 0 def /lry 0 def
/lrx 0 def /uly 0 def /ulx 0 def /rad 0 def
/MRR {/vradius xdef /hradius xdef /lry xdef /lrx xdef /uly xdef
  /ulx xdef newpath tMatrix currentmatrix pop ulx hradius add uly
  vradius add translate hradius vradius scale 0 0 1 180 270 arc 
  tMatrix setmatrix lrx hradius sub uly vradius add translate
  hradius vradius scale 0 0 1 270 360 arc tMatrix setmatrix
  lrx hradius sub lry vradius sub translate hradius vradius scale
  0 0 1 0 90 arc tMatrix setmatrix ulx hradius add lry vradius sub
  translate hradius vradius scale 0 0 1 90 180 arc tMatrix setmatrix
  closepath} bdef
/FRR {MRR stroke } bdef
/PRR {MRR fill } bdef
/MlrRR {/lry xdef /lrx xdef /uly xdef /ulx xdef /rad lry uly sub 2 div def
  newpath tMatrix currentmatrix pop ulx rad add uly rad add translate
  rad rad scale 0 0 1 90 270 arc tMatrix setmatrix lrx rad sub lry rad
  sub translate rad rad scale 0 0 1 270 90 arc tMatrix setmatrix
  closepath} bdef
/FlrRR {MlrRR stroke } bdef
/PlrRR {MlrRR fill } bdef
/MtbRR {/lry xdef /lrx xdef /uly xdef /ulx xdef /rad lrx ulx sub 2 div def
  newpath tMatrix currentmatrix pop ulx rad add uly rad add translate
  rad rad scale 0 0 1 180 360 arc tMatrix setmatrix lrx rad sub lry rad
  sub translate rad rad scale 0 0 1 0 180 arc tMatrix setmatrix
  closepath} bdef
/FtbRR {MtbRR stroke } bdef
/PtbRR {MtbRR fill } bdef
/stri 6 array def /dtri 6 array def
/smat 6 array def /dmat 6 array def
/tmat1 6 array def /tmat2 6 array def /dif 3 array def
/asub {/ind2 exch def /ind1 exch def dup dup
  ind1 get exch ind2 get sub exch } bdef
/tri_to_matrix {
  2 0 asub 3 1 asub 4 0 asub 5 1 asub
  dup 0 get exch 1 get 7 -1 roll astore } bdef
/compute_transform {
  dmat dtri tri_to_matrix tmat1 invertmatrix 
  smat stri tri_to_matrix tmat2 concatmatrix } bdef
/ds {stri astore pop} bdef
/dt {dtri astore pop} bdef
/db {2 copy /cols xdef /rows xdef mul dup 3 mul string
  currentfile 
  3 index 0 eq {/ASCIIHexDecode filter}
  {/ASCII85Decode filter 3 index 2 eq {/RunLengthDecode filter} if }
  ifelse exch readstring pop
  dup 0 3 index getinterval /rbmap xdef
  dup 2 index dup getinterval /gbmap xdef
  1 index dup 2 mul exch getinterval /bbmap xdef pop pop}bdef
/it {gs np dtri aload pop moveto lineto lineto cp c
  cols rows 8 compute_transform 
  rbmap gbmap bbmap true 3 colorimage gr}bdef
/il {newpath moveto lineto stroke}bdef
currentdict end def
%%EndProlog

%%BeginSetup
MathWorks begin

0 cap

end
%%EndSetup

%%Page: 1 1
%%BeginPageSetup
%%PageBoundingBox:   212   320   399   470
MathWorks begin
bpage
%%EndPageSetup

%%BeginObject: obj1
bplot

/dpi2point 12 def
portraitMode 2544 5640 csm

    0     0  2249  1800 rc
85 dict begin %Colortable dictionary
/c0 { 0.000000 0.000000 0.000000 sr} bdef
/c1 { 1.000000 1.000000 1.000000 sr} bdef
/c2 { 0.900000 0.000000 0.000000 sr} bdef
/c3 { 0.000000 0.820000 0.000000 sr} bdef
/c4 { 0.000000 0.000000 0.800000 sr} bdef
/c5 { 0.910000 0.820000 0.320000 sr} bdef
/c6 { 1.000000 0.260000 0.820000 sr} bdef
/c7 { 0.000000 0.820000 0.820000 sr} bdef
c0
1 j
1 sg
   0    0 2250 1801 rf
6 w
0 1467 1743 0 0 -1467 292 1602 4 MP
PP
-1743 0 0 1467 1743 0 0 -1467 292 1602 5 MP stroke
4 w
DO
SO
6 w
0 sg
 292  135 mt 2035  135 L
 292 1602 mt 2035 1602 L
2035 1602 mt 2035  135 L
 292 1602 mt  292  135 L
 292 1602 mt 2035 1602 L
 292 1602 mt  292  135 L
 635 1602 mt  635 1584 L
 635  135 mt  635  152 L
%%IncludeResource: font Helvetica
/Helvetica /WindowsLatin1Encoding 120 FMSR

 552 1747 mt 
(0.5) s
 985 1602 mt  985 1584 L
 985  135 mt  985  152 L
 952 1747 mt 
(1) s
1335 1602 mt 1335 1584 L
1335  135 mt 1335  152 L
1252 1747 mt 
(1.5) s
1685 1602 mt 1685 1584 L
1685  135 mt 1685  152 L
1652 1747 mt 
(2) s
2035 1602 mt 2035 1584 L
2035  135 mt 2035  152 L
1952 1747 mt 
(2.5) s
 292 1602 mt  309 1602 L
2035 1602 mt 2017 1602 L
 191 1646 mt 
(0) s
 292 1113 mt  309 1113 L
2035 1113 mt 2017 1113 L
  91 1157 mt 
(0.5) s
 292  624 mt  309  624 L
2035  624 mt 2017  624 L
 191  668 mt 
(1) s
 292  135 mt  309  135 L
2035  135 mt 2017  135 L
  91  179 mt 
(1.5) s
 292  135 mt 2035  135 L
 292 1602 mt 2035 1602 L
2035 1602 mt 2035  135 L
 292 1602 mt  292  135 L
gs 292 135 1744 1468 rc
/c8 { 0.000000 0.000000 1.000000 sr} bdef
c8
7 137 7 89 7 66 7 46 7 30 7 16 7 4 7 -9 
7 -27 7 -41 7 -57 7 -77 7 -110 7 25 7 102 7 78 
7 58 7 46 7 35 7 23 7 17 7 12 7 6 7 3 
7 1 7 1 7 0 7 0 7 0 7 2 7 -2 7 -4 
7 -7 7 -10 7 -10 7 -15 7 -13 7 -11 7 -4 7 6 
7 17 7 26 7 35 7 36 7 38 7 36 7 33 7 30 
8 24 6 23 7 12 7 12 7 3 7 -2 7 -4 7 -18 
7 -17 7 -28 7 -31 7 -39 7 -47 7 -56 7 -63 7 -77 
7 -89 7 -106 7 -145 7 126 7 89 7 67 7 46 7 31 
7 16 7 4 7 -9 7 -26 7 -41 7 -56 7 -77 7 -109 
7 19 7 102 7 76 7 58 7 42 7 31 7 18 7 10 
7 5 7 -1 7 -5 7 -5 7 -4 7 0 7 2 7 4 
7 5 7 3 7 1 7 -7 7 -14 7 -21 7 -33 7 -48 
7 -64 7 -83 7 -118 7 78 7 115 7 93 7 82 7 67 
7 63 7 50 7 48 7 36 7 36 7 25 7 23 7 20 
7 12 7 12 7 5 7 2 7 2 7 -5 7 -7 7 -7 
7 -12 7 -13 7 -14 7 -16 7 -15 7 -19 7 -19 7 -20 
7 -21 7 -22 7 -23 7 -23 7 -25 7 -24 7 -24 7 -21 
7 -18 7 -13 7 -9 7 0 7 8 7 11 7 15 7 19 
7 19 7 18 7 18 7 13 7 13 7 8 7 7 7 1 
7 1 7 -6 7 -7 7 -13 7 -14 7 -21 7 -26 7 -32 
7 -40 7 -47 7 -58 7 -71 7 -90 7 -121 7 66 7 106 
7 88 7 74 7 68 7 56 7 53 7 46 7 45 7 39 
7 38 7 34 7 33 7 32 7 29 7 28 7 27 7 24 
7 23 7 24 7 19 7 20 7 20 7 15 7 14 7 13 
7 13 7 7 7 6 7 6 7 6 7 -2 7 -1 7 -2 
7 -3 7 -10 7 -9 7 -10 7 -14 7 -17 7 -17 7 -18 
7 -23 7 -24 7 -24 7 -25 7 -27 7 -27 7 -28 7 -29 
7 -29 7 -27 7 -26 7 -25 7 -21 7 -22 7 -17 7 -17 
7 -13 7 -12 7 -11 7 -10 7 -7 7 -6 7 -6 7 -5 
7 -7 7 -6 7 -7 7 -7 7 -13 7 -14 7 -18 7 -23 
7 -29 292 1171 250 MP stroke
/c9 { 0.000000 0.500000 0.000000 sr} bdef
c9
7 123 7 85 7 67 7 55 7 46 7 35 7 30 7 24 
7 21 7 17 7 14 7 11 7 9 7 7 7 7 7 7 
7 6 7 6 7 6 7 7 7 8 7 7 7 7 7 7 
7 7 7 6 7 7 7 6 7 7 7 6 7 6 7 6 
7 6 7 5 7 5 7 5 7 5 7 3 7 3 7 2 
7 1 7 1 7 -1 7 -3 7 -3 7 -7 7 -8 7 -10 
8 -14 6 -15 7 -20 7 -22 7 -24 7 -30 7 -29 7 -41 
7 -40 7 -46 7 -48 7 -48 7 -40 7 -20 7 11 7 39 
7 53 7 57 7 54 7 54 7 47 7 46 7 42 7 37 
7 36 7 31 7 29 7 29 7 22 7 21 7 20 7 16 
7 12 7 12 7 12 7 3 7 3 7 4 7 0 7 -6 
7 -5 7 -6 7 -11 7 -14 7 -13 7 -16 7 -23 7 -23 
7 -24 7 -31 7 -32 7 -32 7 -40 7 -39 7 -42 7 -44 
7 -43 7 -43 7 -37 7 -33 7 -19 7 -6 7 4 7 13 
7 16 7 14 7 10 7 3 7 -2 7 -10 7 -23 7 -30 
7 -39 7 -55 7 -70 7 -79 7 9 7 94 7 87 7 80 
7 67 7 62 7 51 7 48 7 37 7 37 7 26 7 22 
7 23 7 9 7 7 7 7 7 -5 7 -5 7 -6 7 -20 
7 -20 7 -21 7 -31 7 -31 7 -36 7 -40 7 -41 7 -43 
7 -38 7 -34 7 -17 7 -4 7 13 7 32 7 36 7 42 
7 42 7 40 7 39 7 31 7 31 7 24 7 20 7 21 
7 9 7 6 7 6 7 -5 7 -7 7 -8 7 -19 7 -22 
7 -22 7 -37 7 -37 7 -44 7 -51 7 -58 7 -66 7 -76 
7 -85 7 -94 7 -51 7 72 7 73 7 59 7 46 7 36 
7 26 7 14 7 8 7 1 7 -5 7 -8 7 -12 7 -11 
7 -10 7 -4 7 2 7 5 7 11 7 11 7 11 7 8 
7 2 7 -1 7 -13 7 -17 7 -27 7 -40 7 -51 7 -63 
7 -84 7 -94 7 113 7 83 7 66 7 53 7 45 7 35 
7 29 7 25 7 18 7 15 7 11 7 9 7 5 7 4 
7 2 7 0 7 -2 7 -4 7 -6 7 -9 7 -11 7 -15 
7 -19 7 -24 7 -30 7 -35 7 -46 7 -54 7 -66 7 -85 
7 -117 292 1593 250 MP stroke
/c10 { 1.000000 0.000000 0.000000 sr} bdef
c10
7 94 7 67 7 53 7 44 7 39 7 28 7 25 7 17 
7 13 7 6 7 4 7 -6 7 -6 7 -17 7 -17 7 -28 
7 -30 7 -40 7 -44 7 -47 7 -44 7 0 7 48 7 63 
7 61 7 56 7 53 7 48 7 44 7 44 7 34 7 33 
7 33 7 26 7 22 7 22 7 22 7 13 7 11 7 11 
7 11 7 4 7 1 7 1 7 1 7 -4 7 -10 7 -10 
8 -10 6 -12 7 -19 7 -18 7 -19 7 -21 7 -26 7 -26 
7 -26 7 -30 7 -29 7 -29 7 -26 7 -25 7 -19 7 -14 
7 -8 7 5 7 6 7 20 7 20 7 25 7 28 7 27 
7 28 7 27 7 27 7 23 7 22 7 22 7 19 7 13 
7 14 7 13 7 10 7 4 7 4 7 5 7 2 7 -6 
7 -5 7 -5 7 -6 7 -16 7 -16 7 -16 7 -17 7 -25 
7 -25 7 -25 7 -32 7 -35 7 -34 7 -41 7 -42 7 -44 
7 -46 7 -44 7 -42 7 -28 7 -8 7 12 7 25 7 30 
7 29 7 26 7 25 7 16 7 15 7 7 7 6 7 -2 
7 -6 7 -12 7 -16 7 -23 7 -28 7 -37 7 -42 7 -52 
7 -65 7 -84 7 60 7 68 7 56 7 46 7 39 7 29 
7 27 7 17 7 15 7 6 7 6 7 -4 7 -3 7 -13 
7 -14 7 -21 7 -23 7 -27 7 -27 7 -26 7 -17 7 -4 
7 9 7 19 7 27 7 27 7 26 7 22 7 19 7 14 
7 10 7 3 7 1 7 -6 7 -7 7 -17 7 -18 7 -28 
7 -33 7 -39 7 -49 7 -59 7 -74 7 -10 7 77 7 60 
7 50 7 40 7 33 7 28 7 20 7 17 7 9 7 5 
7 -1 7 -5 7 -11 7 -17 7 -22 7 -28 7 -36 7 -41 
7 -51 7 -64 7 -69 7 34 7 68 7 57 7 47 7 39 
7 30 7 28 7 16 7 17 7 5 7 6 7 -4 7 -6 
7 -14 7 -17 7 -26 7 -28 7 -39 7 -45 7 -54 7 -67 
7 -80 7 88 7 66 7 55 7 47 7 40 7 32 7 29 
7 22 7 22 7 14 7 14 7 10 7 8 7 7 7 3 
7 3 7 2 7 1 7 1 7 0 7 0 7 0 7 0 
7 0 7 -1 7 -1 7 -1 7 -3 7 -3 7 -6 7 -8 
7 -8 292 1159 250 MP stroke
/c11 { 0.000000 0.750000 0.750000 sr} bdef
c11
7 169 7 100 7 71 7 43 7 22 7 4 7 -5 7 -12 
7 -9 7 4 7 21 7 36 7 45 7 46 7 44 7 37 
7 33 7 21 7 15 7 6 7 -5 7 -12 7 -23 7 -28 
7 -42 7 -51 7 -60 7 -67 7 -68 7 -50 7 -13 7 27 
7 40 7 34 7 18 7 -3 7 -25 7 -47 7 -76 7 -111 
7 -30 7 138 7 119 7 100 7 83 7 66 7 56 7 47 
8 34 6 31 7 17 7 15 7 6 7 4 7 -2 7 -4 
7 -8 7 -10 7 -11 7 -11 7 -9 7 -7 7 -4 7 -1 
7 3 7 6 7 11 7 13 7 16 7 17 7 18 7 18 
7 17 7 13 7 14 7 7 7 8 7 -2 7 -4 7 -11 
7 -20 7 -22 7 -37 7 -37 7 -55 7 -58 7 -77 7 -88 
7 -104 7 -125 7 -143 7 -11 7 113 7 85 7 57 7 35 
7 20 7 6 7 -2 7 -7 7 -6 7 0 7 4 7 7 
7 6 7 0 7 -9 7 -19 7 -28 7 -29 7 -21 7 5 
7 33 7 51 7 58 7 54 7 51 7 41 7 34 7 27 
7 14 7 11 7 -1 7 -3 7 -13 7 -17 7 -22 7 -24 
7 -24 7 -23 7 -20 7 -16 7 -5 7 0 7 7 7 13 
7 15 7 15 7 14 7 17 7 18 7 15 7 16 7 15 
7 15 7 16 7 17 7 18 7 18 7 17 7 19 7 19 
7 16 7 16 7 13 7 13 7 10 7 7 7 7 7 1 
7 2 7 -5 7 -7 7 -9 7 -11 7 -13 7 -18 7 -18 
7 -23 7 -23 7 -26 7 -27 7 -30 7 -31 7 -36 7 -38 
7 -41 7 -51 7 -59 7 -71 7 -86 7 -102 7 -69 7 93 
7 110 7 92 7 79 7 64 7 50 7 41 7 30 7 20 
7 16 7 4 7 1 7 -8 7 -10 7 -14 7 -13 7 -13 
7 -7 7 -5 7 6 7 9 7 17 7 21 7 23 7 21 
7 22 7 16 7 15 7 4 7 0 7 -9 7 -14 7 -23 
7 -29 7 -39 7 -42 7 -51 7 -51 7 -50 7 -39 7 -26 
7 -11 7 2 7 8 7 5 7 -2 7 -11 7 -17 7 -21 
7 -14 7 -4 7 10 7 17 7 15 7 8 7 -6 7 -23 
7 -46 7 -72 7 -104 7 -135 7 156 7 97 7 65 7 38 
7 12 292 1211 250 MP stroke
/c12 { 0.750000 0.000000 0.750000 sr} bdef
c12
7 109 7 76 7 59 7 47 7 35 7 28 7 21 7 9 
7 6 7 -6 7 -11 7 -20 7 -29 7 -36 7 -47 7 -60 
7 -77 7 -91 7 102 7 74 7 58 7 47 7 34 7 29 
7 23 7 11 7 8 7 -2 7 -4 7 -11 7 -14 7 -17 
7 -17 7 -15 7 -11 7 -2 7 4 7 11 7 17 7 17 
7 17 7 13 7 11 7 2 7 0 7 -9 7 -15 7 -23 
8 -31 6 -38 7 -48 7 -62 7 -79 7 -64 7 97 7 72 
7 60 7 49 7 38 7 32 7 27 7 19 7 17 7 11 
7 10 7 6 7 6 7 5 7 3 7 3 7 4 7 4 
7 6 7 6 7 8 7 8 7 9 7 9 7 10 7 9 
7 9 7 7 7 7 7 7 7 4 7 4 7 4 7 0 
7 -1 7 -1 7 -5 7 -5 7 -8 7 -11 7 -11 7 -16 
7 -16 7 -21 7 -24 7 -27 7 -33 7 -36 7 -44 7 -50 
7 -58 7 -69 7 -88 7 -24 7 89 7 68 7 54 7 43 
7 34 7 23 7 18 7 7 7 1 7 -7 7 -16 7 -20 
7 -34 7 -41 7 -51 7 -66 7 -84 7 -12 7 88 7 67 
7 53 7 42 7 34 7 22 7 17 7 7 7 0 7 -6 
7 -17 7 -21 7 -31 7 -37 7 -45 7 -46 7 -32 7 7 
7 48 7 60 7 62 7 55 7 53 7 44 7 44 7 36 
7 35 7 30 7 23 7 24 7 18 7 11 7 12 7 9 
7 0 7 0 7 0 7 -11 7 -11 7 -12 7 -20 7 -23 
7 -24 7 -31 7 -35 7 -36 7 -47 7 -47 7 -58 7 -61 
7 -71 7 -82 7 -101 7 23 7 83 7 64 7 51 7 40 
7 33 7 20 7 15 7 6 7 -2 7 -7 7 -19 7 -23 
7 -34 7 -45 7 -55 7 -68 7 -93 7 41 7 81 7 63 
7 50 7 39 7 32 7 20 7 14 7 7 7 -3 7 -7 
7 -17 7 -22 7 -30 7 -37 7 -40 7 -36 7 -17 7 14 
7 41 7 51 7 52 7 50 7 45 7 44 7 34 7 34 
7 29 7 26 7 26 7 16 7 15 7 15 7 6 7 5 
7 5 7 -3 7 -5 7 -5 7 -13 7 -15 7 -15 7 -23 
7 -26 7 -26 7 -36 7 -36 7 -43 7 -48 7 -54 7 -60 
7 -70 292 1392 250 MP stroke
/c13 { 0.750000 0.750000 0.000000 sr} bdef
c13
7 146 7 94 7 66 7 46 7 32 7 13 7 0 7 -11 
7 -20 7 -25 7 -23 7 -12 7 4 7 19 7 25 7 23 
7 17 7 4 7 -7 7 -22 7 -38 7 -53 7 -71 7 -77 
7 9 7 96 7 95 7 82 7 70 7 62 7 51 7 41 
7 35 7 24 7 17 7 11 7 0 7 -2 7 -17 7 -17 
7 -32 7 -35 7 -48 7 -53 7 -69 7 -78 7 -94 7 -113 
8 -156 6 150 7 114 7 96 7 82 7 71 7 57 7 55 
7 41 7 42 7 28 7 27 7 22 7 18 7 17 7 9 
7 8 7 8 7 4 7 4 7 5 7 4 7 4 7 9 
7 9 7 9 7 13 7 14 7 14 7 17 7 18 7 18 
7 19 7 20 7 19 7 19 7 19 7 20 7 16 7 15 
7 15 7 15 7 10 7 10 7 9 7 8 7 3 7 3 
7 3 7 0 7 -2 7 -2 7 -2 7 -6 7 -8 7 -8 
7 -8 7 -12 7 -13 7 -12 7 -14 7 -15 7 -16 7 -15 
7 -18 7 -19 7 -19 7 -20 7 -22 7 -22 7 -23 7 -25 
7 -25 7 -28 7 -30 7 -31 7 -36 7 -37 7 -39 7 -40 
7 -43 7 -45 7 -45 7 -46 7 -37 7 -30 7 -19 7 -5 
7 6 7 10 7 8 7 4 7 1 7 -13 7 -23 7 -33 
7 -37 7 -33 7 -17 7 12 7 37 7 41 7 38 7 32 
7 23 7 15 7 11 7 5 7 3 7 2 7 0 7 0 
7 -1 7 -1 7 -5 7 -7 7 -14 7 -23 7 -32 7 -44 
7 -59 7 -82 7 -109 7 -22 7 125 7 94 7 77 7 65 
7 52 7 43 7 38 7 25 7 23 7 12 7 10 7 0 
7 -2 7 -12 7 -14 7 -25 7 -29 7 -38 7 -47 7 -55 
7 -66 7 -78 7 -90 7 -70 7 56 7 100 7 89 7 80 
7 74 7 64 7 58 7 51 7 48 7 39 7 40 7 32 
7 30 7 29 7 24 7 23 7 21 7 16 7 15 7 15 
7 9 7 9 7 10 7 4 7 5 7 4 7 1 7 0 
7 0 7 -1 7 -4 7 -3 7 -4 7 -7 7 -6 7 -7 
7 -9 7 -9 7 -9 7 -12 7 -12 7 -13 7 -14 7 -17 
7 -16 7 -20 7 -23 7 -23 7 -27 7 -28 7 -31 7 -38 
7 -37 292 913 250 MP stroke
0.25 sg
7 103 7 75 7 61 7 52 7 46 7 39 7 35 7 30 
7 28 7 22 7 22 7 16 7 15 7 14 7 8 7 9 
7 7 7 3 7 2 7 2 7 -3 7 -3 7 -4 7 -8 
7 -9 7 -11 7 -14 7 -15 7 -20 7 -21 7 -24 7 -30 
7 -30 7 -37 7 -38 7 -45 7 -47 7 -48 7 -38 7 -3 
7 33 7 44 7 43 7 42 7 30 7 28 7 22 7 18 
8 13 6 9 7 5 7 3 7 -1 7 -1 7 -3 7 -4 
7 -3 7 -3 7 0 7 0 7 2 7 2 7 4 7 3 
7 3 7 1 7 0 7 -5 7 -5 7 -13 7 -12 7 -22 
7 -23 7 -33 7 -39 7 -47 7 -56 7 -70 7 -95 7 86 
7 72 7 57 7 45 7 38 7 31 7 20 7 19 7 6 
7 5 7 -6 7 -7 7 -19 7 -22 7 -31 7 -39 7 -47 
7 -58 7 -74 7 -60 7 99 7 79 7 68 7 61 7 53 
7 50 7 43 7 42 7 32 7 32 7 31 7 21 7 22 
7 21 7 13 7 10 7 11 7 8 7 0 7 0 7 0 
7 -6 7 -11 7 -10 7 -11 7 -22 7 -21 7 -21 7 -28 
7 -30 7 -31 7 -38 7 -40 7 -42 7 -45 7 -45 7 -46 
7 -36 7 -16 7 10 7 31 7 46 7 53 7 55 7 52 
7 53 7 48 7 46 7 46 7 42 7 37 7 38 7 37 
7 33 7 29 7 30 7 30 7 29 7 21 7 22 7 22 
7 21 7 22 7 14 7 14 7 14 7 14 7 13 7 12 
7 7 7 7 7 6 7 7 7 7 7 4 7 1 7 1 
7 1 7 0 7 1 7 -1 7 -6 7 -5 7 -6 7 -5 
7 -6 7 -7 7 -11 7 -11 7 -11 7 -11 7 -12 7 -13 
7 -16 7 -17 7 -16 7 -16 7 -17 7 -20 7 -20 7 -21 
7 -20 7 -21 7 -24 7 -23 7 -23 7 -24 7 -24 7 -25 
7 -24 7 -25 7 -23 7 -23 7 -23 7 -21 7 -20 7 -20 
7 -17 7 -16 7 -16 7 -12 7 -11 7 -11 7 -10 7 -11 
7 -11 7 -12 7 -13 7 -18 7 -17 7 -27 7 -27 7 -34 
7 -39 7 -45 7 -58 7 -67 7 -66 7 41 7 69 7 58 
7 47 7 39 7 31 7 22 7 19 7 7 7 6 7 -5 
7 -6 292 1223 250 MP stroke
c8
7 104 7 73 7 57 7 45 7 37 7 30 7 19 7 16 
7 6 7 1 7 -6 7 -14 7 -19 7 -29 7 -33 7 -41 
7 -50 7 -53 7 -34 7 21 7 50 7 52 7 42 7 38 
7 34 7 23 7 20 7 10 7 9 7 1 7 0 7 -6 
7 -7 7 -10 7 -9 7 -9 7 -5 7 -1 7 4 7 6 
7 12 7 13 7 15 7 16 7 16 7 15 7 14 7 12 
8 11 6 9 7 9 7 5 7 6 7 3 7 2 7 1 
7 1 7 0 7 -1 7 -3 7 -3 7 -6 7 -7 7 -8 
7 -13 7 -13 7 -17 7 -20 7 -24 7 -28 7 -33 7 -38 
7 -47 7 -54 7 -65 7 -79 7 -10 7 88 7 80 7 72 
7 67 7 55 7 55 7 44 7 44 7 41 7 33 7 33 
7 32 7 23 7 22 7 23 7 19 7 13 7 14 7 13 
7 9 7 5 7 5 7 5 7 3 7 -2 7 -3 7 -2 
7 -3 7 -8 7 -8 7 -9 7 -8 7 -13 7 -13 7 -12 
7 -14 7 -16 7 -17 7 -16 7 -19 7 -20 7 -20 7 -21 
7 -24 7 -24 7 -25 7 -29 7 -29 7 -34 7 -35 7 -39 
7 -43 7 -49 7 -53 7 -65 7 -76 7 -85 7 79 7 84 
7 72 7 65 7 55 7 52 7 44 7 44 7 33 7 33 
7 31 7 22 7 22 7 22 7 11 7 11 7 11 7 5 
7 0 7 0 7 0 7 -11 7 -11 7 -11 7 -17 7 -22 
7 -22 7 -26 7 -32 7 -33 7 -40 7 -44 7 -46 7 -55 
7 -60 7 -67 7 -79 7 -95 7 24 7 90 7 76 7 66 
7 57 7 55 7 45 7 44 7 36 7 33 7 33 7 23 
7 22 7 22 7 15 7 11 7 11 7 8 7 0 7 0 
7 0 7 -8 7 -11 7 -10 7 -14 7 -22 7 -22 7 -22 
7 -33 7 -33 7 -36 7 -44 7 -44 7 -54 7 -57 7 -66 
7 -75 7 -80 7 -34 7 71 7 66 7 54 7 44 7 32 
7 27 7 19 7 12 7 6 7 -3 7 -6 7 -18 7 -20 
7 -31 7 -39 7 -47 7 -59 7 -75 7 -68 7 93 7 70 
7 56 7 44 7 34 7 29 7 19 7 14 7 6 7 -1 
7 -6 7 -16 7 -19 7 -30 7 -37 7 -45 7 -57 7 -73 
7 -104 292 1602 250 MP stroke
c9
7 88 7 62 7 52 7 44 7 36 7 29 7 26 7 19 
7 15 7 10 7 5 7 4 7 -5 7 -6 7 -14 7 -15 
7 -22 7 -26 7 -33 7 -38 7 -46 7 -55 7 -68 7 -24 
7 74 7 59 7 47 7 40 7 36 7 26 7 26 7 15 
7 16 7 6 7 5 7 0 7 -5 7 -8 7 -15 7 -16 
7 -26 7 -26 7 -36 7 -41 7 -48 7 -60 7 -75 7 41 
8 74 6 64 7 57 7 54 7 44 7 45 7 37 7 36 
7 36 7 27 7 27 7 27 7 22 7 18 7 18 7 18 
7 13 7 9 7 9 7 8 7 7 7 0 7 0 7 0 
7 0 7 -8 7 -9 7 -9 7 -8 7 -15 7 -18 7 -17 
7 -18 7 -23 7 -25 7 -26 7 -27 7 -34 7 -33 7 -36 
7 -39 7 -40 7 -41 7 -41 7 -36 7 -25 7 -7 7 10 
7 22 7 28 7 30 7 28 7 23 7 22 7 13 7 14 
7 5 7 6 7 -1 7 -6 7 -8 7 -15 7 -17 7 -25 
7 -28 7 -36 7 -41 7 -49 7 -60 7 -70 7 39 7 66 
7 54 7 46 7 36 7 32 7 25 7 21 7 16 7 12 
7 5 7 5 7 -4 7 -5 7 -12 7 -16 7 -20 7 -26 
7 -31 7 -36 7 -45 7 -52 7 -65 7 -60 7 84 7 64 
7 56 7 50 7 43 7 41 7 35 7 34 7 28 7 27 
7 26 7 20 7 20 7 20 7 14 7 13 7 12 7 12 
7 6 7 6 7 7 7 3 7 0 7 0 7 0 7 -3 
7 -7 7 -6 7 -6 7 -12 7 -12 7 -13 7 -14 7 -20 
7 -20 7 -19 7 -27 7 -27 7 -28 7 -34 7 -35 7 -41 
7 -42 7 -51 7 -53 7 -57 7 -47 7 27 7 54 7 49 
7 45 7 36 7 31 7 26 7 20 7 16 7 12 7 5 
7 4 7 -5 7 -5 7 -12 7 -16 7 -21 7 -25 7 -32 
7 -36 7 -46 7 -53 7 -66 7 -45 7 87 7 71 7 62 
7 55 7 53 7 45 7 43 7 41 7 33 7 34 7 33 
7 24 7 24 7 24 7 21 7 15 7 14 7 15 7 13 
7 5 7 5 7 5 7 5 7 -1 7 -5 7 -5 7 -4 
7 -6 7 -14 7 -15 7 -14 7 -15 7 -22 7 -24 7 -24 
7 -25 292 1021 250 MP stroke
c10
7 129 7 85 7 68 7 52 7 41 7 33 7 22 7 17 
7 12 7 7 7 5 7 2 7 1 7 0 7 0 7 0 
7 -1 7 -1 7 -4 7 -6 7 -11 7 -15 7 -21 7 -30 
7 -37 7 -43 7 -56 7 -63 7 -43 7 23 7 66 7 72 
7 66 7 57 7 53 7 45 7 41 7 31 7 31 7 19 
7 19 7 11 7 6 7 6 7 -6 7 -7 7 -12 7 -19 
8 -20 6 -31 7 -32 7 -42 7 -45 7 -57 7 -62 7 -72 
7 -86 7 -95 7 -20 7 87 7 79 7 63 7 50 7 40 
7 35 7 25 7 21 7 17 7 13 7 12 7 7 7 7 
7 6 7 6 7 5 7 5 7 6 7 5 7 6 7 7 
7 8 7 9 7 9 7 12 7 12 7 14 7 15 7 15 
7 17 7 16 7 17 7 16 7 16 7 13 7 12 7 12 
7 8 7 6 7 6 7 0 7 -2 7 -2 7 -10 7 -13 
7 -14 7 -20 7 -23 7 -23 7 -32 7 -33 7 -35 7 -37 
7 -37 7 -36 7 -30 7 -21 7 -7 7 0 7 21 7 24 
7 34 7 34 7 36 7 35 7 31 7 31 7 24 7 19 
7 20 7 9 7 9 7 8 7 -4 7 -5 7 -6 7 -14 
7 -15 7 -17 7 -23 7 -24 7 -26 7 -28 7 -27 7 -27 
7 -26 7 -21 7 -20 7 -14 7 -11 7 -8 7 -7 7 -7 
7 -8 7 -12 7 -16 7 -24 7 -28 7 -31 7 -35 7 -27 
7 -12 7 8 7 24 7 30 7 29 7 24 7 18 7 5 
7 -3 7 -9 7 -21 7 -30 7 -37 7 -40 7 -32 7 -9 
7 20 7 39 7 40 7 34 7 24 7 16 7 5 7 -7 
7 -16 7 -27 7 -41 7 -57 7 -75 7 -103 7 20 7 97 
7 71 7 53 7 41 7 25 7 13 7 5 7 -9 7 -22 
7 -32 7 -46 7 -63 7 -82 7 -120 7 107 7 85 7 65 
7 48 7 35 7 24 7 12 7 1 7 -7 7 -18 7 -25 
7 -30 7 -29 7 -21 7 0 7 20 7 33 7 40 7 40 
7 37 7 35 7 28 7 26 7 18 7 18 7 11 7 12 
7 5 7 3 7 -1 7 -3 7 -8 7 -11 7 -14 7 -20 
7 -22 7 -30 7 -35 7 -40 7 -51 7 -60 7 -71 7 -89 
7 -128 292 1597 250 MP stroke
gr

c10

end %%Color Dict

eplot
%%EndObject

epage
end

showpage

%%Trailer
%%EOF
