%!PS-Adobe-3.0 EPSF-3.0
%%Creator: MATLAB, The Mathworks, Inc. Version 7.10.0.499 (R2010a). Operating System: Microsoft Windows 7.
%%Title: C:\Users\wwu\Desktop\warping\Muller_method\comp_wave_autc.eps
%%CreationDate: 04/12/2011  15:14:23
%%DocumentNeededFonts: Helvetica
%%DocumentProcessColors: Cyan Magenta Yellow Black
%%LanguageLevel: 2
%%Pages: 1
%%BoundingBox:   212   320   399   470
%%EndComments

%%BeginProlog
% MathWorks dictionary
/MathWorks 160 dict begin
% definition operators
/bdef {bind def} bind def
/ldef {load def} bind def
/xdef {exch def} bdef
/xstore {exch store} bdef
% operator abbreviations
/c  /clip ldef
/cc /concat ldef
/cp /closepath ldef
/gr /grestore ldef
/gs /gsave ldef
/mt /moveto ldef
/np /newpath ldef
/cm /currentmatrix ldef
/sm /setmatrix ldef
/rm /rmoveto ldef
/rl /rlineto ldef
/s {show newpath} bdef
/sc {setcmykcolor} bdef
/sr /setrgbcolor ldef
/sg /setgray ldef
/w /setlinewidth ldef
/j /setlinejoin ldef
/cap /setlinecap ldef
/rc {rectclip} bdef
/rf {rectfill} bdef
% page state control
/pgsv () def
/bpage {/pgsv save def} bdef
/epage {pgsv restore} bdef
/bplot /gsave ldef
/eplot {stroke grestore} bdef
% orientation switch
/portraitMode 0 def /landscapeMode 1 def /rotateMode 2 def
% coordinate system mappings
/dpi2point 0 def
% font control
/FontSize 0 def
/FMS {/FontSize xstore findfont [FontSize 0 0 FontSize neg 0 0]
  makefont setfont} bdef
/ISOLatin1Encoding where {pop /WindowsLatin1Encoding 256 array bdef
ISOLatin1Encoding WindowsLatin1Encoding copy pop
/.notdef/.notdef/quotesinglbase/florin/quotedblbase/ellipsis/dagger
/daggerdbl/circumflex/perthousand/Scaron/guilsinglleft/OE/.notdef/.notdef
/.notdef/.notdef/quoteleft/quoteright/quotedblleft/quotedblright/bullet
/endash/emdash/tilde/trademark/scaron/guilsinglright/oe/.notdef/.notdef
/Ydieresis WindowsLatin1Encoding 128 32 getinterval astore pop}
{/WindowsLatin1Encoding StandardEncoding bdef} ifelse
/reencode {exch dup where {pop load} {pop StandardEncoding} ifelse
  exch dup 3 1 roll findfont dup length dict begin
  { 1 index /FID ne {def}{pop pop} ifelse } forall
  /Encoding exch def currentdict end definefont pop} bdef
/isroman {findfont /CharStrings get /Agrave known} bdef
/FMSR {3 1 roll 1 index dup isroman {reencode} {pop pop} ifelse
  exch FMS} bdef
/csm {1 dpi2point div -1 dpi2point div scale neg translate
 dup landscapeMode eq {pop -90 rotate}
  {rotateMode eq {90 rotate} if} ifelse} bdef
% line types: solid, dotted, dashed, dotdash
/SO { [] 0 setdash } bdef
/DO { [.5 dpi2point mul 4 dpi2point mul] 0 setdash } bdef
/DA { [6 dpi2point mul] 0 setdash } bdef
/DD { [.5 dpi2point mul 4 dpi2point mul 6 dpi2point mul 4
  dpi2point mul] 0 setdash } bdef
% macros for lines and objects
/L {lineto stroke} bdef
/MP {3 1 roll moveto 1 sub {rlineto} repeat} bdef
/AP {{rlineto} repeat} bdef
/PDlw -1 def
/W {/PDlw currentlinewidth def setlinewidth} def
/PP {closepath eofill} bdef
/DP {closepath stroke} bdef
/MR {4 -2 roll moveto dup  0 exch rlineto exch 0 rlineto
  neg 0 exch rlineto closepath} bdef
/FR {MR stroke} bdef
/PR {MR fill} bdef
/L1i {{currentfile picstr readhexstring pop} image} bdef
/tMatrix matrix def
/MakeOval {newpath tMatrix currentmatrix pop translate scale
0 0 1 0 360 arc tMatrix setmatrix} bdef
/FO {MakeOval stroke} bdef
/PO {MakeOval fill} bdef
/PD {currentlinewidth 2 div 0 360 arc fill
   PDlw -1 eq not {PDlw w /PDlw -1 def} if} def
/FA {newpath tMatrix currentmatrix pop translate scale
  0 0 1 5 -2 roll arc tMatrix setmatrix stroke} bdef
/PA {newpath tMatrix currentmatrix pop	translate 0 0 moveto scale
  0 0 1 5 -2 roll arc closepath tMatrix setmatrix fill} bdef
/FAn {newpath tMatrix currentmatrix pop translate scale
  0 0 1 5 -2 roll arcn tMatrix setmatrix stroke} bdef
/PAn {newpath tMatrix currentmatrix pop translate 0 0 moveto scale
  0 0 1 5 -2 roll arcn closepath tMatrix setmatrix fill} bdef
/vradius 0 def /hradius 0 def /lry 0 def
/lrx 0 def /uly 0 def /ulx 0 def /rad 0 def
/MRR {/vradius xdef /hradius xdef /lry xdef /lrx xdef /uly xdef
  /ulx xdef newpath tMatrix currentmatrix pop ulx hradius add uly
  vradius add translate hradius vradius scale 0 0 1 180 270 arc 
  tMatrix setmatrix lrx hradius sub uly vradius add translate
  hradius vradius scale 0 0 1 270 360 arc tMatrix setmatrix
  lrx hradius sub lry vradius sub translate hradius vradius scale
  0 0 1 0 90 arc tMatrix setmatrix ulx hradius add lry vradius sub
  translate hradius vradius scale 0 0 1 90 180 arc tMatrix setmatrix
  closepath} bdef
/FRR {MRR stroke } bdef
/PRR {MRR fill } bdef
/MlrRR {/lry xdef /lrx xdef /uly xdef /ulx xdef /rad lry uly sub 2 div def
  newpath tMatrix currentmatrix pop ulx rad add uly rad add translate
  rad rad scale 0 0 1 90 270 arc tMatrix setmatrix lrx rad sub lry rad
  sub translate rad rad scale 0 0 1 270 90 arc tMatrix setmatrix
  closepath} bdef
/FlrRR {MlrRR stroke } bdef
/PlrRR {MlrRR fill } bdef
/MtbRR {/lry xdef /lrx xdef /uly xdef /ulx xdef /rad lrx ulx sub 2 div def
  newpath tMatrix currentmatrix pop ulx rad add uly rad add translate
  rad rad scale 0 0 1 180 360 arc tMatrix setmatrix lrx rad sub lry rad
  sub translate rad rad scale 0 0 1 0 180 arc tMatrix setmatrix
  closepath} bdef
/FtbRR {MtbRR stroke } bdef
/PtbRR {MtbRR fill } bdef
/stri 6 array def /dtri 6 array def
/smat 6 array def /dmat 6 array def
/tmat1 6 array def /tmat2 6 array def /dif 3 array def
/asub {/ind2 exch def /ind1 exch def dup dup
  ind1 get exch ind2 get sub exch } bdef
/tri_to_matrix {
  2 0 asub 3 1 asub 4 0 asub 5 1 asub
  dup 0 get exch 1 get 7 -1 roll astore } bdef
/compute_transform {
  dmat dtri tri_to_matrix tmat1 invertmatrix 
  smat stri tri_to_matrix tmat2 concatmatrix } bdef
/ds {stri astore pop} bdef
/dt {dtri astore pop} bdef
/db {2 copy /cols xdef /rows xdef mul dup 3 mul string
  currentfile 
  3 index 0 eq {/ASCIIHexDecode filter}
  {/ASCII85Decode filter 3 index 2 eq {/RunLengthDecode filter} if }
  ifelse exch readstring pop
  dup 0 3 index getinterval /rbmap xdef
  dup 2 index dup getinterval /gbmap xdef
  1 index dup 2 mul exch getinterval /bbmap xdef pop pop}bdef
/it {gs np dtri aload pop moveto lineto lineto cp c
  cols rows 8 compute_transform 
  rbmap gbmap bbmap true 3 colorimage gr}bdef
/il {newpath moveto lineto stroke}bdef
currentdict end def
%%EndProlog

%%BeginSetup
MathWorks begin

0 cap

end
%%EndSetup

%%Page: 1 1
%%BeginPageSetup
%%PageBoundingBox:   212   320   399   470
MathWorks begin
bpage
%%EndPageSetup

%%BeginObject: obj1
bplot

/dpi2point 12 def
portraitMode 2544 5640 csm

    0     0  2249  1800 rc
85 dict begin %Colortable dictionary
/c0 { 0.000000 0.000000 0.000000 sr} bdef
/c1 { 1.000000 1.000000 1.000000 sr} bdef
/c2 { 0.900000 0.000000 0.000000 sr} bdef
/c3 { 0.000000 0.820000 0.000000 sr} bdef
/c4 { 0.000000 0.000000 0.800000 sr} bdef
/c5 { 0.910000 0.820000 0.320000 sr} bdef
/c6 { 1.000000 0.260000 0.820000 sr} bdef
/c7 { 0.000000 0.820000 0.820000 sr} bdef
c0
1 j
1 sg
   0    0 2250 1801 rf
6 w
0 1467 1743 0 0 -1467 292 1602 4 MP
PP
-1743 0 0 1467 1743 0 0 -1467 292 1602 5 MP stroke
4 w
DO
SO
6 w
0 sg
 292  135 mt 2035  135 L
 292 1602 mt 2035 1602 L
2035 1602 mt 2035  135 L
 292 1602 mt  292  135 L
 292 1602 mt 2035 1602 L
 292 1602 mt  292  135 L
 292 1602 mt  292 1584 L
 292  135 mt  292  152 L
%%IncludeResource: font Helvetica
/Helvetica /WindowsLatin1Encoding 120 FMSR

 259 1747 mt 
(0) s
 679 1602 mt  679 1584 L
 679  135 mt  679  152 L
 646 1747 mt 
(2) s
1066 1602 mt 1066 1584 L
1066  135 mt 1066  152 L
1033 1747 mt 
(4) s
1454 1602 mt 1454 1584 L
1454  135 mt 1454  152 L
1421 1747 mt 
(6) s
1841 1602 mt 1841 1584 L
1841  135 mt 1841  152 L
1808 1747 mt 
(8) s
 292 1479 mt  309 1479 L
2035 1479 mt 2017 1479 L
 121 1523 mt 
(-1) s
 292 1174 mt  309 1174 L
2035 1174 mt 2017 1174 L
  21 1218 mt 
(-0.5) s
 292  868 mt  309  868 L
2035  868 mt 2017  868 L
 191  912 mt 
(0) s
 292  562 mt  309  562 L
2035  562 mt 2017  562 L
  91  606 mt 
(0.5) s
 292  257 mt  309  257 L
2035  257 mt 2017  257 L
 191  301 mt 
(1) s
 292  135 mt 2035  135 L
 292 1602 mt 2035 1602 L
2035 1602 mt 2035  135 L
 292 1602 mt  292  135 L
gs 292 135 1744 1468 rc
/c8 { 0.000000 0.000000 1.000000 sr} bdef
c8
10 148 10 62 10 45 9 37 10 31 10 27 9 24 10 21 
10 18 9 16 10 14 10 12 9 10 10 8 10 7 9 5 
10 3 10 2 9 1 10 -2 10 -3 10 -5 9 -7 10 -10 
10 -11 9 -13 10 -17 10 -19 9 -24 10 -28 10 -34 9 -41 
10 -56 10 -84 9 -250 10 -103 10 -66 9 -49 10 -41 10 -34 
10 -29 9 -24 10 -21 10 -18 9 -14 10 -11 10 -9 9 -7 
10 -3 10 -1 9 1 10 5 10 7 9 10 10 15 10 17 
9 20 10 27 10 32 9 39 10 50 10 66 10 105 9 296 
10 112 10 73 9 56 10 43 10 37 9 30 10 25 10 19 
9 16 10 11 10 7 9 5 10 -2 10 -3 9 -8 10 -13 
10 -16 10 -23 9 -28 10 -35 10 -44 9 -57 10 -79 10 -136 
9 -324 10 -119 10 -76 9 -57 10 -44 10 -36 9 -30 10 -21 
10 -16 9 -11 10 -4 10 -2 10 7 9 11 10 16 10 24 
9 30 10 41 10 53 9 71 10 103 10 297 9 221 10 101 
10 69 9 52 10 41 10 31 9 21 10 16 10 6 9 0 
10 -6 10 -15 10 -21 9 -34 10 -43 10 -57 9 -78 10 -132 
10 -372 9 -172 10 -93 10 -63 9 -47 10 -38 10 -20 9 -14 
10 -5 10 7 9 12 10 29 10 38 10 50 9 78 10 116 
10 373 9 207 10 103 10 68 9 50 10 27 10 18 9 5 
10 -10 10 -18 9 -37 10 -56 10 -79 9 -133 10 -384 10 -189 
10 -94 9 -59 10 -39 10 -19 9 0 10 13 10 32 9 57 
10 88 10 158 9 410 10 141 10 71 9 38 10 15 10 -3 
9 -29 10 -59 10 -101 9 -293 292 868 181 MP stroke
/c9 { 0.000000 0.500000 0.000000 sr} bdef
c9
10 166 10 67 10 49 9 39 10 33 10 28 9 23 10 20 
10 18 9 14 10 11 10 9 9 7 10 4 10 2 9 0 
10 -2 10 -5 9 -8 10 -11 10 -12 10 -17 9 -21 10 -25 
10 -30 9 -38 10 -48 10 -65 9 -119 10 -256 10 -88 9 -60 
10 -47 10 -39 9 -33 10 -26 10 -22 9 -19 10 -15 10 -11 
10 -8 9 -6 10 -2 10 1 9 3 10 8 10 11 9 13 
10 19 10 24 9 28 10 34 10 44 9 57 10 81 10 163 
9 265 10 91 10 64 9 51 10 41 10 32 10 26 9 23 
10 17 10 12 9 10 10 4 10 1 9 -3 10 -7 10 -11 
9 -16 10 -22 10 -25 9 -34 10 -43 10 -55 9 -73 10 -112 
10 -331 10 -130 9 -82 10 -60 10 -47 9 -38 10 -30 10 -23 
9 -19 10 -12 10 -7 9 -3 10 4 10 6 9 14 10 19 
10 24 9 34 10 43 10 53 10 73 9 111 10 329 10 171 
9 94 10 66 10 51 9 41 10 29 10 23 9 17 10 7 
10 4 9 -4 10 -10 10 -15 9 -26 10 -31 10 -43 9 -59 
10 -78 10 -118 10 -366 9 -164 10 -92 10 -65 9 -49 10 -39 
10 -24 9 -18 10 -9 10 -1 9 4 10 18 10 23 9 33 
10 48 10 64 9 90 10 156 10 384 10 128 9 82 10 60 
10 38 9 28 10 19 10 4 9 -2 10 -14 10 -25 9 -35 
10 -53 10 -77 9 -116 10 -386 10 -176 9 -94 10 -61 10 -43 
10 -25 9 -10 10 0 10 14 9 30 10 44 10 65 9 107 
10 273 10 279 9 102 10 58 10 35 9 17 10 3 10 -18 
9 -37 10 -60 10 -98 9 -275 292 868 181 MP stroke
/c10 { 1.000000 0.000000 0.000000 sr} bdef
c10
10 184 10 73 10 52 9 42 10 33 10 28 9 22 10 19 
10 15 9 10 10 7 10 4 9 2 10 -3 10 -6 9 -9 
10 -13 10 -18 9 -23 10 -28 10 -35 10 -46 9 -60 10 -95 
10 -284 9 -114 10 -69 10 -53 9 -43 10 -34 10 -28 9 -22 
10 -18 10 -15 9 -9 10 -6 10 -3 9 2 10 5 10 8 
10 13 9 18 10 22 10 28 9 37 10 46 10 59 9 84 
10 212 10 231 9 89 10 64 10 50 9 40 10 33 10 25 
9 21 10 16 10 10 9 7 10 4 10 -3 10 -5 9 -11 
10 -15 10 -19 9 -27 10 -34 10 -42 9 -53 10 -72 10 -110 
9 -330 10 -139 10 -82 9 -61 10 -49 10 -37 9 -30 10 -24 
10 -18 10 -12 9 -9 10 -1 10 1 9 8 10 12 10 16 
9 26 10 31 10 38 9 51 10 67 10 93 9 205 10 294 
10 103 9 72 10 55 10 44 10 31 9 25 10 20 10 11 
9 8 10 0 10 -4 9 -10 10 -18 10 -22 9 -32 10 -41 
10 -53 9 -69 10 -103 10 -266 9 -251 10 -102 10 -71 9 -53 
10 -42 10 -28 10 -22 9 -16 10 -6 10 -3 9 8 10 12 
10 19 9 30 10 38 10 49 9 69 10 97 10 205 9 323 
10 110 10 73 9 51 10 38 10 30 10 18 9 9 10 5 
10 -8 9 -14 10 -22 10 -36 9 -46 10 -62 10 -91 9 -164 
10 -366 10 -114 9 -73 10 -53 10 -36 9 -21 10 -13 10 -5 
10 10 9 17 10 26 10 45 9 61 10 89 10 169 9 342 
10 117 10 68 9 43 10 27 10 15 9 4 10 -13 10 -25 
9 -39 10 -60 10 -96 9 -257 292 868 181 MP stroke
/c11 { 0.000000 0.750000 0.750000 sr} bdef
c11
10 202 10 80 10 56 9 42 10 34 10 26 9 19 10 15 
10 11 9 4 10 0 10 -4 9 -8 10 -15 10 -20 9 -27 
10 -34 10 -46 9 -62 10 -93 10 -293 10 -134 9 -77 10 -56 
10 -44 9 -35 10 -28 10 -21 9 -15 10 -12 10 -6 9 -1 
10 2 10 8 9 13 10 17 10 25 9 32 10 40 10 51 
10 71 9 107 10 325 10 126 9 79 10 57 10 45 9 36 
10 29 10 22 9 16 10 13 10 6 9 2 10 -2 10 -9 
9 -12 10 -18 10 -24 9 -31 10 -38 10 -52 10 -67 9 -95 
10 -277 10 -205 9 -95 10 -66 10 -50 9 -40 10 -33 10 -25 
9 -18 10 -15 10 -7 9 -4 10 2 10 7 9 11 10 19 
10 23 10 30 9 40 10 50 10 66 9 92 10 188 10 305 
9 106 10 73 10 55 9 41 10 34 10 28 9 18 10 14 
10 8 9 2 10 -1 10 -9 10 -13 9 -20 10 -27 10 -33 
9 -44 10 -57 10 -76 9 -112 10 -342 10 -162 9 -88 10 -64 
10 -50 9 -36 10 -29 10 -23 9 -13 10 -10 10 -2 9 3 
10 8 10 16 10 21 9 30 10 39 10 50 9 65 10 94 
10 179 9 327 10 109 10 72 9 53 10 40 10 32 9 20 
10 15 10 8 9 0 10 -5 10 -13 10 -20 9 -26 10 -38 
10 -50 9 -66 10 -95 10 -199 9 -302 10 -102 10 -69 9 -49 
10 -34 10 -26 9 -18 10 -7 10 -1 9 5 10 16 10 23 
10 32 9 43 10 62 10 87 9 168 10 327 10 101 9 63 
10 43 10 30 9 20 10 11 10 -2 9 -9 10 -18 10 -28 
9 -42 10 -60 10 -90 9 -241 292 868 181 MP stroke
/c12 { 0.750000 0.000000 0.750000 sr} bdef
c12
10 222 10 83 10 58 9 43 10 33 10 24 9 16 10 8 
10 2 9 -2 10 -12 10 -18 9 -26 10 -36 10 -49 9 -70 
10 -112 10 -334 9 -115 10 -75 10 -53 10 -41 9 -32 10 -25 
10 -16 9 -10 10 -6 10 3 9 7 10 12 10 21 9 28 
10 36 10 48 9 65 10 100 10 315 9 170 10 87 10 64 
10 49 9 36 10 29 10 24 9 14 10 10 10 5 9 -2 
10 -6 10 -12 9 -20 10 -24 10 -33 9 -44 10 -56 10 -76 
9 -116 10 -353 10 -133 9 -83 10 -60 10 -49 10 -34 9 -29 
10 -23 10 -14 9 -10 10 -5 10 1 9 4 10 13 10 17 
9 23 10 32 10 39 9 49 10 65 10 94 9 192 10 311 
10 104 10 71 9 53 10 42 10 35 9 24 10 19 10 14 
9 7 10 4 10 -4 9 -7 10 -14 10 -19 9 -24 10 -35 
10 -42 9 -53 10 -71 10 -104 10 -311 9 -192 10 -94 10 -65 
9 -49 10 -39 10 -32 9 -23 10 -17 10 -13 9 -4 10 -1 
10 5 9 10 10 14 10 23 9 29 10 34 10 49 9 60 
10 83 10 133 10 353 9 116 10 76 10 56 9 44 10 33 
10 24 9 20 10 12 10 6 9 2 10 -5 10 -10 9 -14 
10 -24 10 -29 9 -36 10 -49 10 -64 10 -87 9 -170 10 -315 
10 -100 9 -65 10 -48 10 -36 9 -28 10 -21 10 -12 9 -7 
10 -3 10 6 9 10 10 16 10 25 9 32 10 41 10 53 
10 75 9 115 10 334 10 112 9 70 10 49 10 36 9 26 
10 18 10 12 9 2 10 -2 10 -8 9 -16 10 -24 10 -33 
9 -43 10 -58 10 -83 9 -222 292 868 181 MP stroke
/c13 { 0.750000 0.750000 0.000000 sr} bdef
c13
10 241 10 90 10 60 9 42 10 28 10 18 9 9 10 2 
10 -11 9 -20 10 -30 10 -43 9 -63 10 -101 10 -327 9 -168 
10 -87 10 -62 9 -43 10 -32 10 -23 10 -16 9 -5 10 1 
10 7 9 18 10 26 10 34 9 49 10 69 10 102 9 302 
10 199 10 95 9 66 10 50 10 38 9 26 10 20 10 13 
10 5 9 0 10 -8 10 -15 9 -20 10 -32 10 -40 9 -53 
10 -72 10 -109 9 -327 10 -179 10 -94 9 -65 10 -50 10 -39 
9 -30 10 -21 10 -16 9 -8 10 -3 10 2 10 10 9 13 
10 23 10 29 9 36 10 50 10 64 9 88 10 162 10 342 
9 112 10 76 10 57 9 44 10 33 10 27 9 20 10 13 
10 9 10 1 9 -2 10 -8 10 -14 9 -18 10 -28 10 -34 
9 -41 10 -55 10 -73 9 -106 10 -305 10 -188 9 -92 10 -66 
10 -50 9 -40 10 -30 10 -23 10 -19 9 -11 10 -7 10 -2 
9 4 10 7 10 15 9 18 10 25 10 33 9 40 10 50 
10 66 9 95 10 205 10 277 9 95 10 67 10 52 9 38 
10 31 10 24 10 18 9 12 10 9 10 2 9 -2 10 -6 
10 -13 9 -16 10 -22 10 -29 9 -36 10 -45 10 -57 9 -79 
10 -126 10 -325 9 -107 10 -71 10 -51 10 -40 9 -32 10 -25 
10 -17 9 -13 10 -8 10 -2 9 1 10 6 10 12 9 15 
10 21 10 28 9 35 10 44 10 56 9 77 10 134 10 293 
10 93 9 62 10 46 10 34 9 27 10 20 10 15 9 8 
10 4 10 0 9 -4 10 -11 10 -15 9 -19 10 -26 10 -34 
9 -42 10 -56 10 -80 9 -202 292 868 181 MP stroke
0.25 sg
10 257 10 96 10 60 9 39 10 25 10 13 9 -4 10 -15 
10 -27 9 -43 10 -68 10 -117 9 -342 10 -169 10 -89 9 -61 
10 -45 10 -26 9 -17 10 -10 10 5 10 13 9 21 10 36 
10 53 9 73 10 114 10 366 9 164 10 91 10 62 9 46 
10 36 10 22 9 14 10 8 10 -5 9 -9 10 -18 10 -30 
10 -38 9 -51 10 -73 10 -110 9 -323 10 -205 10 -97 9 -69 
10 -49 10 -38 9 -30 10 -19 10 -12 9 -8 10 3 10 6 
9 16 10 22 10 28 9 42 10 53 10 71 10 102 9 251 
10 266 10 103 9 69 10 53 10 41 9 32 10 22 10 18 
9 10 10 4 10 0 9 -8 10 -11 10 -20 9 -25 10 -31 
10 -44 10 -55 9 -72 10 -103 10 -294 9 -205 10 -93 10 -67 
9 -51 10 -38 10 -31 9 -26 10 -16 10 -12 9 -8 10 -1 
10 1 9 9 10 12 10 18 10 24 9 30 10 37 10 49 
9 61 10 82 10 139 9 330 10 110 10 72 9 53 10 42 
10 34 9 27 10 19 10 15 9 11 10 5 10 3 9 -4 
10 -7 10 -10 10 -16 9 -21 10 -25 10 -33 9 -40 10 -50 
10 -64 9 -89 10 -231 10 -212 9 -84 10 -59 10 -46 9 -37 
10 -28 10 -22 9 -18 10 -13 10 -8 10 -5 9 -2 10 3 
10 6 9 9 10 15 10 18 9 22 10 28 10 34 9 43 
10 53 10 69 9 114 10 284 10 95 9 60 10 46 10 35 
10 28 9 23 10 18 10 13 9 9 10 6 10 3 9 -2 
10 -4 10 -7 9 -10 10 -15 10 -19 9 -22 10 -28 10 -33 
9 -42 10 -52 10 -73 9 -184 292 868 181 MP stroke
c8
10 275 10 98 10 60 9 37 10 18 10 -3 9 -17 10 -35 
10 -58 9 -102 10 -279 10 -273 9 -107 10 -65 10 -44 9 -30 
10 -14 10 0 9 10 10 25 10 43 10 61 9 94 10 176 
10 386 9 116 10 77 10 53 9 35 10 25 10 14 9 2 
10 -4 10 -19 9 -28 10 -38 10 -60 9 -82 10 -128 10 -384 
10 -156 9 -90 10 -64 10 -48 9 -33 10 -23 10 -18 9 -4 
10 1 10 9 9 18 10 24 10 39 9 49 10 65 10 92 
9 164 10 366 10 118 9 78 10 59 10 43 10 31 9 26 
10 15 10 10 9 4 10 -4 10 -7 9 -17 10 -23 10 -29 
9 -41 10 -51 10 -66 9 -94 10 -171 10 -329 9 -111 10 -73 
10 -53 10 -43 9 -34 10 -24 10 -19 9 -14 10 -6 10 -4 
9 3 10 7 10 12 9 19 10 23 10 30 9 38 10 47 
10 60 9 82 10 130 10 331 10 112 9 73 10 55 10 43 
9 34 10 25 10 22 9 16 10 11 10 7 9 3 10 -1 
10 -4 9 -10 10 -12 10 -17 9 -23 10 -26 10 -32 9 -41 
10 -51 10 -64 10 -91 9 -265 10 -163 10 -81 9 -57 10 -44 
10 -34 9 -28 10 -24 10 -19 9 -13 10 -11 10 -8 9 -3 
10 -1 10 2 9 6 10 8 10 11 10 15 9 19 10 22 
10 26 9 33 10 39 10 47 9 60 10 88 10 256 9 119 
10 65 10 48 9 38 10 30 10 25 9 21 10 17 10 12 
10 11 9 8 10 5 10 2 9 0 10 -2 10 -4 9 -7 
10 -9 10 -11 9 -14 10 -18 10 -20 9 -23 10 -28 10 -33 
9 -39 10 -49 10 -67 9 -166 292 868 181 MP stroke
c9
10 293 10 101 10 59 9 29 10 3 10 -15 9 -38 10 -71 
10 -141 9 -410 10 -158 10 -88 9 -57 10 -32 10 -13 9 0 
10 19 10 39 9 59 10 94 10 189 10 384 9 133 10 79 
10 56 9 37 10 18 10 10 9 -5 10 -18 10 -27 9 -50 
10 -68 10 -103 9 -207 10 -373 10 -116 9 -78 10 -50 10 -38 
10 -29 9 -12 10 -7 10 5 9 14 10 20 10 38 9 47 
10 63 10 93 9 172 10 372 10 132 9 78 10 57 10 43 
9 34 10 21 10 15 9 6 10 0 10 -6 10 -16 9 -21 
10 -31 10 -41 9 -52 10 -69 10 -101 9 -221 10 -297 10 -103 
9 -71 10 -53 10 -41 9 -30 10 -24 10 -16 9 -11 10 -7 
10 2 10 4 9 11 10 16 10 21 9 30 10 36 10 44 
9 57 10 76 10 119 9 324 10 136 10 79 9 57 10 44 
10 35 9 28 10 23 10 16 10 13 9 8 10 3 10 2 
9 -5 10 -7 10 -11 9 -16 10 -19 10 -25 9 -30 10 -37 
10 -43 9 -56 10 -73 10 -112 9 -296 10 -105 10 -66 9 -50 
10 -39 10 -32 10 -27 9 -20 10 -17 10 -15 9 -10 10 -7 
10 -5 9 -1 10 1 10 3 9 7 10 9 10 11 9 14 
10 18 10 21 9 24 10 29 10 34 10 41 9 49 10 66 
10 103 9 250 10 84 10 56 9 41 10 34 10 28 9 24 
10 19 10 17 9 13 10 11 10 10 9 7 10 5 10 3 
10 2 9 -1 10 -2 10 -3 9 -5 10 -7 10 -8 9 -10 
10 -12 10 -14 9 -16 10 -18 10 -21 9 -24 10 -27 10 -31 
9 -37 10 -45 10 -62 9 -148 292 868 181 MP stroke
gr

c9

end %%Color Dict

eplot
%%EndObject

epage
end

showpage

%%Trailer
%%EOF
