%!PS-Adobe-3.0 EPSF-3.0
%%Creator: MATLAB, The Mathworks, Inc. Version 7.10.0.499 (R2010a). Operating System: Microsoft Windows 7.
%%Title: C:\Users\wwu\Desktop\warping\Muller_method\comp_growthm_autc.eps
%%CreationDate: 04/12/2011  15:11:24
%%DocumentNeededFonts: Helvetica
%%DocumentProcessColors: Cyan Magenta Yellow Black
%%LanguageLevel: 2
%%Pages: 1
%%BoundingBox:   212   320   399   470
%%EndComments

%%BeginProlog
% MathWorks dictionary
/MathWorks 160 dict begin
% definition operators
/bdef {bind def} bind def
/ldef {load def} bind def
/xdef {exch def} bdef
/xstore {exch store} bdef
% operator abbreviations
/c  /clip ldef
/cc /concat ldef
/cp /closepath ldef
/gr /grestore ldef
/gs /gsave ldef
/mt /moveto ldef
/np /newpath ldef
/cm /currentmatrix ldef
/sm /setmatrix ldef
/rm /rmoveto ldef
/rl /rlineto ldef
/s {show newpath} bdef
/sc {setcmykcolor} bdef
/sr /setrgbcolor ldef
/sg /setgray ldef
/w /setlinewidth ldef
/j /setlinejoin ldef
/cap /setlinecap ldef
/rc {rectclip} bdef
/rf {rectfill} bdef
% page state control
/pgsv () def
/bpage {/pgsv save def} bdef
/epage {pgsv restore} bdef
/bplot /gsave ldef
/eplot {stroke grestore} bdef
% orientation switch
/portraitMode 0 def /landscapeMode 1 def /rotateMode 2 def
% coordinate system mappings
/dpi2point 0 def
% font control
/FontSize 0 def
/FMS {/FontSize xstore findfont [FontSize 0 0 FontSize neg 0 0]
  makefont setfont} bdef
/ISOLatin1Encoding where {pop /WindowsLatin1Encoding 256 array bdef
ISOLatin1Encoding WindowsLatin1Encoding copy pop
/.notdef/.notdef/quotesinglbase/florin/quotedblbase/ellipsis/dagger
/daggerdbl/circumflex/perthousand/Scaron/guilsinglleft/OE/.notdef/.notdef
/.notdef/.notdef/quoteleft/quoteright/quotedblleft/quotedblright/bullet
/endash/emdash/tilde/trademark/scaron/guilsinglright/oe/.notdef/.notdef
/Ydieresis WindowsLatin1Encoding 128 32 getinterval astore pop}
{/WindowsLatin1Encoding StandardEncoding bdef} ifelse
/reencode {exch dup where {pop load} {pop StandardEncoding} ifelse
  exch dup 3 1 roll findfont dup length dict begin
  { 1 index /FID ne {def}{pop pop} ifelse } forall
  /Encoding exch def currentdict end definefont pop} bdef
/isroman {findfont /CharStrings get /Agrave known} bdef
/FMSR {3 1 roll 1 index dup isroman {reencode} {pop pop} ifelse
  exch FMS} bdef
/csm {1 dpi2point div -1 dpi2point div scale neg translate
 dup landscapeMode eq {pop -90 rotate}
  {rotateMode eq {90 rotate} if} ifelse} bdef
% line types: solid, dotted, dashed, dotdash
/SO { [] 0 setdash } bdef
/DO { [.5 dpi2point mul 4 dpi2point mul] 0 setdash } bdef
/DA { [6 dpi2point mul] 0 setdash } bdef
/DD { [.5 dpi2point mul 4 dpi2point mul 6 dpi2point mul 4
  dpi2point mul] 0 setdash } bdef
% macros for lines and objects
/L {lineto stroke} bdef
/MP {3 1 roll moveto 1 sub {rlineto} repeat} bdef
/AP {{rlineto} repeat} bdef
/PDlw -1 def
/W {/PDlw currentlinewidth def setlinewidth} def
/PP {closepath eofill} bdef
/DP {closepath stroke} bdef
/MR {4 -2 roll moveto dup  0 exch rlineto exch 0 rlineto
  neg 0 exch rlineto closepath} bdef
/FR {MR stroke} bdef
/PR {MR fill} bdef
/L1i {{currentfile picstr readhexstring pop} image} bdef
/tMatrix matrix def
/MakeOval {newpath tMatrix currentmatrix pop translate scale
0 0 1 0 360 arc tMatrix setmatrix} bdef
/FO {MakeOval stroke} bdef
/PO {MakeOval fill} bdef
/PD {currentlinewidth 2 div 0 360 arc fill
   PDlw -1 eq not {PDlw w /PDlw -1 def} if} def
/FA {newpath tMatrix currentmatrix pop translate scale
  0 0 1 5 -2 roll arc tMatrix setmatrix stroke} bdef
/PA {newpath tMatrix currentmatrix pop	translate 0 0 moveto scale
  0 0 1 5 -2 roll arc closepath tMatrix setmatrix fill} bdef
/FAn {newpath tMatrix currentmatrix pop translate scale
  0 0 1 5 -2 roll arcn tMatrix setmatrix stroke} bdef
/PAn {newpath tMatrix currentmatrix pop translate 0 0 moveto scale
  0 0 1 5 -2 roll arcn closepath tMatrix setmatrix fill} bdef
/vradius 0 def /hradius 0 def /lry 0 def
/lrx 0 def /uly 0 def /ulx 0 def /rad 0 def
/MRR {/vradius xdef /hradius xdef /lry xdef /lrx xdef /uly xdef
  /ulx xdef newpath tMatrix currentmatrix pop ulx hradius add uly
  vradius add translate hradius vradius scale 0 0 1 180 270 arc 
  tMatrix setmatrix lrx hradius sub uly vradius add translate
  hradius vradius scale 0 0 1 270 360 arc tMatrix setmatrix
  lrx hradius sub lry vradius sub translate hradius vradius scale
  0 0 1 0 90 arc tMatrix setmatrix ulx hradius add lry vradius sub
  translate hradius vradius scale 0 0 1 90 180 arc tMatrix setmatrix
  closepath} bdef
/FRR {MRR stroke } bdef
/PRR {MRR fill } bdef
/MlrRR {/lry xdef /lrx xdef /uly xdef /ulx xdef /rad lry uly sub 2 div def
  newpath tMatrix currentmatrix pop ulx rad add uly rad add translate
  rad rad scale 0 0 1 90 270 arc tMatrix setmatrix lrx rad sub lry rad
  sub translate rad rad scale 0 0 1 270 90 arc tMatrix setmatrix
  closepath} bdef
/FlrRR {MlrRR stroke } bdef
/PlrRR {MlrRR fill } bdef
/MtbRR {/lry xdef /lrx xdef /uly xdef /ulx xdef /rad lrx ulx sub 2 div def
  newpath tMatrix currentmatrix pop ulx rad add uly rad add translate
  rad rad scale 0 0 1 180 360 arc tMatrix setmatrix lrx rad sub lry rad
  sub translate rad rad scale 0 0 1 0 180 arc tMatrix setmatrix
  closepath} bdef
/FtbRR {MtbRR stroke } bdef
/PtbRR {MtbRR fill } bdef
/stri 6 array def /dtri 6 array def
/smat 6 array def /dmat 6 array def
/tmat1 6 array def /tmat2 6 array def /dif 3 array def
/asub {/ind2 exch def /ind1 exch def dup dup
  ind1 get exch ind2 get sub exch } bdef
/tri_to_matrix {
  2 0 asub 3 1 asub 4 0 asub 5 1 asub
  dup 0 get exch 1 get 7 -1 roll astore } bdef
/compute_transform {
  dmat dtri tri_to_matrix tmat1 invertmatrix 
  smat stri tri_to_matrix tmat2 concatmatrix } bdef
/ds {stri astore pop} bdef
/dt {dtri astore pop} bdef
/db {2 copy /cols xdef /rows xdef mul dup 3 mul string
  currentfile 
  3 index 0 eq {/ASCIIHexDecode filter}
  {/ASCII85Decode filter 3 index 2 eq {/RunLengthDecode filter} if }
  ifelse exch readstring pop
  dup 0 3 index getinterval /rbmap xdef
  dup 2 index dup getinterval /gbmap xdef
  1 index dup 2 mul exch getinterval /bbmap xdef pop pop}bdef
/it {gs np dtri aload pop moveto lineto lineto cp c
  cols rows 8 compute_transform 
  rbmap gbmap bbmap true 3 colorimage gr}bdef
/il {newpath moveto lineto stroke}bdef
currentdict end def
%%EndProlog

%%BeginSetup
MathWorks begin

0 cap

end
%%EndSetup

%%Page: 1 1
%%BeginPageSetup
%%PageBoundingBox:   212   320   399   470
MathWorks begin
bpage
%%EndPageSetup

%%BeginObject: obj1
bplot

/dpi2point 12 def
portraitMode 2544 5640 csm

    0     0  2249  1800 rc
85 dict begin %Colortable dictionary
/c0 { 0.000000 0.000000 0.000000 sr} bdef
/c1 { 1.000000 1.000000 1.000000 sr} bdef
/c2 { 0.900000 0.000000 0.000000 sr} bdef
/c3 { 0.000000 0.820000 0.000000 sr} bdef
/c4 { 0.000000 0.000000 0.800000 sr} bdef
/c5 { 0.910000 0.820000 0.320000 sr} bdef
/c6 { 1.000000 0.260000 0.820000 sr} bdef
/c7 { 0.000000 0.820000 0.820000 sr} bdef
c0
1 j
1 sg
   0    0 2250 1801 rf
6 w
0 1468 1743 0 0 -1468 292 1602 4 MP
PP
-1743 0 0 1468 1743 0 0 -1468 292 1602 5 MP stroke
4 w
DO
SO
6 w
0 sg
 292  134 mt 2035  134 L
 292 1602 mt 2035 1602 L
2035 1602 mt 2035  134 L
 292 1602 mt  292  134 L
 292 1602 mt 2035 1602 L
 292 1602 mt  292  134 L
 702 1602 mt  702 1584 L
 702  135 mt  702  152 L
%%IncludeResource: font Helvetica
/Helvetica /WindowsLatin1Encoding 120 FMSR

 669 1747 mt 
(5) s
1214 1602 mt 1214 1584 L
1214  135 mt 1214  152 L
1148 1747 mt 
(10) s
1727 1602 mt 1727 1584 L
1727  135 mt 1727  152 L
1661 1747 mt 
(15) s
 292 1418 mt  309 1418 L
2035 1418 mt 2017 1418 L
 191 1462 mt 
(0) s
 292 1051 mt  309 1051 L
2035 1051 mt 2017 1051 L
 124 1095 mt 
(10) s
 292  685 mt  309  685 L
2035  685 mt 2017  685 L
 124  729 mt 
(20) s
 292  318 mt  309  318 L
2035  318 mt 2017  318 L
 124  362 mt 
(30) s
 292  134 mt 2035  134 L
 292 1602 mt 2035 1602 L
2035 1602 mt 2035  134 L
 292 1602 mt  292  134 L
gs 292 135 1744 1468 rc
/c8 { 0.000000 0.000000 1.000000 sr} bdef
c8
26 -28 26 16 25 90 26 79 26 63 25 50 26 43 26 34 
25 23 26 19 25 5 26 3 26 -10 25 -11 26 -22 26 -23 
25 -28 26 -26 26 -25 25 -22 26 -18 25 -21 26 -28 26 -25 
25 -3 26 9 26 4 25 5 26 8 25 7 26 -2 26 -14 
25 -9 26 25 26 37 25 26 26 15 26 7 25 -1 26 -7 
25 -11 26 -14 26 -18 25 -21 26 -20 26 -14 25 -5 26 3 
25 11 26 17 26 20 25 20 26 18 26 15 25 12 26 10 
26 8 25 6 26 5 25 3 26 2 26 3 25 1 26 -8 
26 -12 25 21 26 27 25 31 292 993 69 MP stroke
/c9 { 0.000000 0.500000 0.000000 sr} bdef
c9
26 -8 26 27 25 49 26 45 26 36 25 30 26 21 26 14 
25 9 26 0 25 -13 26 -23 26 -36 25 -40 26 -21 26 -10 
25 -14 26 -21 26 -18 25 0 26 13 25 6 26 -3 26 17 
25 22 26 -8 26 -17 25 -3 26 12 25 23 26 19 26 -1 
25 -16 26 -10 26 7 25 17 26 15 26 9 25 4 26 0 
25 2 26 6 26 10 25 14 26 11 26 8 25 2 26 -2 
25 -7 26 -6 26 0 25 6 26 14 26 19 25 18 26 14 
26 8 25 1 26 -3 25 -10 26 -9 26 -3 25 28 26 53 
26 73 25 56 26 40 25 40 292 802 69 MP stroke
/c10 { 1.000000 0.000000 0.000000 sr} bdef
c10
26 47 26 -5 25 6 26 124 26 59 25 16 26 -2 26 10 
25 15 26 16 25 4 26 0 26 -7 25 -5 26 -6 26 -10 
25 -16 26 -21 26 -26 25 -26 26 -16 25 -3 26 3 26 1 
25 -3 26 -8 26 -11 25 -8 26 2 25 6 26 4 26 4 
25 4 26 3 26 3 25 8 26 12 26 15 25 11 26 2 
25 -6 26 -14 26 -19 25 -12 26 5 26 19 25 22 26 15 
25 6 26 -2 26 -10 25 -11 26 -6 26 3 25 10 26 14 
26 15 25 11 26 8 25 6 26 3 26 6 25 25 26 37 
26 34 25 31 26 7 25 7 292 978 69 MP stroke
/c11 { 0.000000 0.750000 0.750000 sr} bdef
c11
26 46 26 48 25 65 26 63 26 52 25 42 26 25 26 16 
25 8 26 -2 25 -5 26 -11 26 -19 25 -25 26 -41 26 -39 
25 -16 26 -1 26 -12 25 -24 26 -12 25 -4 26 1 26 8 
25 9 26 4 26 0 25 1 26 11 25 12 26 5 26 2 
25 5 26 6 26 8 25 7 26 8 26 2 25 -4 26 -13 
25 -23 26 -26 26 -12 25 14 26 26 26 20 25 3 26 -13 
25 -26 26 -16 26 21 25 45 26 50 26 45 25 26 26 20 
26 10 25 1 26 -5 25 -2 26 5 26 56 25 54 26 45 
26 45 25 15 26 3 25 3 292 787 69 MP stroke
/c12 { 0.750000 0.000000 0.750000 sr} bdef
c12
26 88 26 48 25 63 26 56 26 44 25 28 26 20 26 5 
25 -4 26 -10 25 -19 26 -20 26 -21 25 -16 26 -14 26 -16 
25 -18 26 -14 26 -7 25 2 26 10 25 11 26 10 26 7 
25 2 26 -1 26 -7 25 -13 26 -12 25 6 26 22 26 18 
25 9 26 0 26 -8 25 -13 26 -15 26 -14 25 -14 26 -10 
25 1 26 13 26 18 25 18 26 13 26 8 25 4 26 3 
25 2 26 2 26 3 25 4 26 3 26 2 25 0 26 -2 
26 -4 25 -4 26 -3 25 -1 26 2 26 6 25 8 26 9 
26 5 25 6 26 5 25 5 292 1110 69 MP stroke
/c13 { 0.750000 0.750000 0.000000 sr} bdef
c13
26 -6 26 60 25 -1 26 111 26 60 25 9 26 -9 26 9 
25 19 26 19 25 -2 26 -10 26 -17 25 -16 26 -13 26 -12 
25 -10 26 -8 26 -8 25 -17 26 -31 25 -15 26 12 26 9 
25 -2 26 -5 26 6 25 14 26 9 25 -9 26 -30 26 0 
25 36 26 26 26 8 25 -4 26 -10 26 -7 25 4 26 13 
25 15 26 12 26 6 25 -2 26 -8 26 -8 25 -1 26 10 
25 19 26 24 26 19 25 10 26 1 26 -16 25 -27 26 -37 
26 -33 25 8 26 50 25 64 26 59 26 42 25 20 26 -36 
26 -38 25 -44 26 -11 25 14 292 1081 69 MP stroke
0.25 sg
26 -7 26 36 25 66 26 49 26 33 25 25 26 14 26 3 
25 -11 26 -18 25 -15 26 -13 26 -18 25 -19 26 -7 26 1 
25 -7 26 -11 26 -10 25 -15 26 -15 25 4 26 11 26 6 
25 11 26 22 26 21 25 2 26 -9 25 -1 26 6 26 2 
25 -4 26 -7 26 3 25 19 26 30 26 31 25 25 26 13 
25 4 26 -4 26 -12 25 -15 26 -12 26 -6 25 2 26 10 
25 11 26 12 26 10 25 8 26 6 26 5 25 3 26 1 
26 -1 25 -3 26 -3 25 -3 26 19 26 31 25 48 26 39 
26 34 25 22 26 6 25 6 292 890 69 MP stroke
c8
26 42 26 32 25 62 26 47 26 32 25 31 26 29 26 22 
25 16 26 7 25 -9 26 -11 26 -10 25 -4 26 -2 26 -7 
25 -13 26 -16 26 -15 25 -8 26 -1 25 0 26 -5 26 1 
25 8 26 1 26 -13 25 -16 26 -5 25 4 26 8 26 8 
25 6 26 4 26 2 25 0 26 -1 26 -1 25 -1 26 0 
25 -1 26 -5 26 -9 25 -14 26 -9 26 14 25 33 26 40 
25 34 26 21 26 11 25 1 26 -11 26 -14 25 -14 26 -2 
26 9 25 17 26 21 25 19 26 33 26 66 25 64 26 62 
26 61 25 20 26 16 25 15 292 699 69 MP stroke
c9
26 8 26 121 25 45 26 21 26 22 25 21 26 14 26 8 
25 0 26 -8 25 -14 26 -20 26 -26 25 -20 26 2 26 5 
25 -8 26 -15 26 -14 25 -8 26 -5 25 -12 26 -18 26 -6 
25 19 26 32 26 25 25 11 26 -5 25 -19 26 -20 26 -7 
25 9 26 17 26 18 25 18 26 15 26 10 25 2 26 -7 
25 -14 26 -19 26 -17 25 -7 26 3 26 7 25 3 26 -1 
25 -5 26 -1 26 8 25 17 26 20 26 19 25 12 26 7 
26 9 25 17 26 50 25 57 26 63 26 65 25 67 26 67 
26 47 25 34 26 35 25 34 292 597 69 MP stroke
c10
26 33 26 54 25 57 26 40 26 37 25 47 26 41 26 28 
25 19 26 7 25 -4 26 -9 26 -16 25 -15 26 -14 26 -13 
25 -11 26 -12 26 -16 25 -18 26 -12 25 -4 26 -2 26 -4 
25 -3 26 1 26 0 25 0 26 -1 25 8 26 22 26 21 
25 7 26 -8 26 -24 25 -35 26 -24 26 7 25 34 26 31 
25 18 26 3 26 -7 25 -9 26 -1 26 13 25 24 26 31 
25 28 26 22 26 15 25 6 26 2 26 -8 25 -12 26 -16 
26 -21 25 -23 26 -28 25 -21 26 31 26 66 25 84 26 64 
26 62 25 35 26 22 25 22 292 758 69 MP stroke
c11
26 -77 26 61 25 43 26 33 26 66 25 52 26 26 26 9 
25 -9 26 -20 25 -29 26 -41 26 -44 25 27 26 83 26 37 
25 -37 26 -103 26 -105 25 42 26 -9 25 19 26 18 26 6 
25 6 26 20 26 17 25 0 26 -9 25 -10 26 -2 26 4 
25 1 26 -3 26 -2 25 5 26 8 26 10 25 7 26 5 
25 4 26 2 26 2 25 2 26 2 26 4 25 7 26 11 
25 14 26 14 26 10 25 3 26 -5 26 -13 25 -24 26 -27 
26 -22 25 -9 26 39 25 116 26 123 26 63 25 62 26 -10 
26 -40 25 -40 26 -41 25 -41 292 978 69 MP stroke
c12
26 52 26 38 25 43 26 48 26 32 25 36 26 36 26 29 
25 12 26 2 25 -3 26 -8 26 -12 25 -13 26 -14 26 -14 
25 -11 26 -10 26 -9 25 -11 26 -9 25 -7 26 -9 26 -9 
25 3 26 8 26 -5 25 -7 26 12 25 24 26 17 26 -2 
25 -28 26 -34 26 7 25 33 26 24 26 12 25 3 26 -2 
25 -3 26 -3 26 -2 25 -2 26 -2 26 -3 25 -3 26 -3 
25 -2 26 -1 26 1 25 3 26 3 26 -2 25 -12 26 -24 
26 -26 25 17 26 66 25 79 26 68 26 22 25 -8 26 -26 
26 -34 25 -19 26 -22 25 -26 292 1110 69 MP stroke
c13
26 27 26 48 25 30 26 17 26 -9 25 80 26 81 26 49 
25 8 26 -7 25 -10 26 5 26 7 25 8 26 -10 26 -19 
25 -37 26 -61 26 -71 25 -29 26 16 25 14 26 10 26 5 
25 0 26 -1 26 1 25 6 26 11 25 14 26 18 26 17 
25 6 26 -14 26 -24 25 -15 26 1 26 16 25 17 26 9 
25 1 26 -7 26 -11 25 -7 26 0 26 7 25 10 26 9 
25 5 26 0 26 -3 25 1 26 13 26 23 25 29 26 32 
26 20 25 12 26 -15 25 -36 26 -62 26 -113 25 53 26 148 
26 93 25 65 26 19 25 18 292 861 69 MP stroke
0.25 sg
26 58 26 36 25 42 26 49 26 38 25 39 26 30 26 14 
25 10 26 12 25 13 26 13 26 7 25 2 26 -6 26 -16 
25 -22 26 -26 26 -26 25 -28 26 -27 25 -4 26 20 26 15 
25 -1 26 -10 26 -12 25 -4 26 1 25 1 26 -1 26 1 
25 10 26 21 26 28 25 26 26 20 26 9 25 -3 26 -13 
25 -19 26 -21 26 -14 25 -2 26 8 26 7 25 -2 26 -13 
25 -26 26 -31 26 -11 25 27 26 44 26 49 25 49 26 46 
26 45 25 42 26 39 25 31 26 31 26 9 25 6 26 -11 
26 -37 25 -37 26 -37 25 -36 292 978 69 MP stroke
c8
26 42 26 65 25 58 26 45 26 31 25 23 26 18 26 15 
25 11 26 7 25 3 26 -3 26 -5 25 -10 26 -20 26 -27 
25 -35 26 -33 26 -12 25 3 26 5 25 -6 26 -12 26 -7 
25 4 26 4 26 3 25 0 26 -5 25 -5 26 11 26 22 
25 27 26 19 26 6 25 -9 26 -23 26 -29 25 -21 26 1 
25 22 26 27 26 25 25 22 26 20 26 16 25 13 26 4 
25 0 26 -4 26 -11 25 -8 26 -3 26 10 25 22 26 27 
26 30 25 26 26 21 25 37 26 56 26 54 25 40 26 41 
26 32 25 0 26 0 25 0 292 714 69 MP stroke
c9
26 58 26 30 25 50 26 55 26 37 25 22 26 15 26 12 
25 14 26 20 25 18 26 12 26 7 25 -5 26 -13 26 -20 
25 -29 26 -28 26 -27 25 -25 26 -15 25 8 26 21 26 14 
25 -1 26 -22 26 -24 25 -6 26 12 25 17 26 10 26 6 
25 9 26 12 26 14 25 10 26 3 26 -7 25 -16 26 -23 
25 -18 26 1 26 21 25 27 26 18 26 4 25 -15 26 -31 
25 -29 26 7 26 49 25 64 26 55 26 50 25 26 26 24 
26 4 25 1 26 -11 25 -14 26 -8 26 -6 25 2 26 4 
26 -3 25 -3 26 -4 25 -4 292 978 69 MP stroke
c10
26 31 26 34 25 46 26 47 26 46 25 40 26 32 26 26 
25 19 26 11 25 6 26 -1 26 -11 25 -17 26 -27 26 -34 
25 -33 26 -24 26 -7 25 0 26 -7 25 -7 26 11 26 13 
25 5 26 -2 26 -7 25 -8 26 1 25 14 26 18 26 8 
25 -2 26 -4 26 -1 25 2 26 5 26 8 25 9 26 11 
25 11 26 9 26 6 25 3 26 -3 26 -7 25 -11 26 -13 
25 -16 26 -17 26 -18 25 -6 26 16 26 33 25 42 26 32 
26 21 25 10 26 -9 25 -18 26 -33 26 -19 25 48 26 79 
26 51 25 42 26 -7 25 -6 292 919 69 MP stroke
c11
26 38 26 46 25 49 26 28 26 23 25 32 26 36 26 33 
25 29 26 23 25 13 26 8 26 -3 25 -13 26 -20 26 -23 
25 -17 26 -9 26 0 25 0 26 -3 25 -9 26 -22 26 -30 
25 -29 26 -8 26 19 25 19 26 7 25 -8 26 -19 26 -8 
25 20 26 39 26 42 25 35 26 15 26 6 25 -10 26 -25 
25 -33 26 -37 26 -17 25 12 26 33 26 32 25 24 26 4 
25 -15 26 -30 26 -59 25 -68 26 7 26 72 25 72 26 60 
26 25 25 21 26 -7 25 -10 26 -19 26 -2 25 25 26 2 
26 -16 25 -58 26 -68 25 -25 292 1183 69 MP stroke
c12
26 19 26 39 25 68 26 69 26 44 25 26 26 16 26 9 
25 3 26 -10 25 -14 26 -19 26 -21 25 -16 26 -8 26 -7 
25 -18 26 -29 26 -23 25 5 26 12 25 -4 26 2 26 11 
25 7 26 16 26 19 25 7 26 -7 25 -10 26 -4 26 1 
25 6 26 9 26 10 25 8 26 3 26 -1 25 -4 26 -4 
25 -3 26 -1 26 1 25 4 26 9 26 13 25 15 26 14 
25 11 26 6 26 -1 25 -4 26 -6 26 -4 25 7 26 15 
26 22 25 32 26 43 25 48 26 46 26 44 25 34 26 25 
26 25 25 10 26 7 25 8 292 758 69 MP stroke
c13
26 26 26 33 25 46 26 42 26 43 25 39 26 32 26 25 
25 20 26 16 25 10 26 4 26 0 25 -13 26 -18 26 -28 
25 -31 26 -23 26 -17 25 -18 26 -20 25 -1 26 17 26 10 
25 -2 26 -12 26 -10 25 2 26 11 25 7 26 7 26 10 
25 8 26 1 26 -5 25 -13 26 -16 26 -10 25 1 26 11 
25 14 26 13 26 10 25 8 26 6 26 3 25 1 26 -1 
25 -4 26 -5 26 -4 25 -4 26 -2 26 3 25 15 26 35 
26 44 25 48 26 48 25 42 26 18 26 18 25 -32 26 -33 
26 -26 25 -23 26 8 25 11 292 993 69 MP stroke
0.25 sg
26 -6 26 -3 25 29 26 41 26 34 25 30 26 25 26 21 
25 14 26 3 25 -7 26 -15 26 -22 25 -22 26 -19 26 -15 
25 -18 26 -26 26 -6 25 12 26 1 25 -10 26 8 26 23 
25 -1 26 -22 26 -13 25 2 26 17 25 23 26 10 26 -1 
25 1 26 3 26 -2 25 -10 26 -14 26 -5 25 13 26 28 
25 28 26 19 26 10 25 4 26 -1 26 -6 25 -5 26 -6 
25 -5 26 -3 26 0 25 6 26 11 26 14 25 14 26 12 
26 7 25 1 26 -1 25 -2 26 18 26 39 25 58 26 47 
26 42 25 26 26 9 25 8 292 861 69 MP stroke
c8
26 49 26 30 25 31 26 62 26 66 25 46 26 28 26 0 
25 -11 26 -13 25 -7 26 0 26 2 25 3 26 -3 26 -9 
25 -15 26 -21 26 -29 25 -35 26 -36 25 0 26 33 26 25 
25 5 26 -17 26 -9 25 15 26 10 25 -10 26 -11 26 3 
25 10 26 13 26 15 25 20 26 23 26 23 25 14 26 4 
25 -8 26 -30 26 -52 25 -79 26 -52 26 65 25 58 26 33 
25 17 26 2 26 -5 25 -8 26 -10 26 -11 25 -11 26 -6 
26 6 25 17 26 43 25 69 26 90 26 52 25 36 26 14 
26 -50 25 -49 26 -47 25 -47 292 1066 69 MP stroke
c9
26 32 26 24 25 70 26 62 26 47 25 29 26 14 26 1 
25 -10 26 -16 25 -18 26 -15 26 -11 25 -9 26 -12 26 -17 
25 -18 26 -12 26 0 25 6 26 3 25 -6 26 -15 26 -15 
25 11 26 14 26 -2 25 -21 26 28 25 61 26 39 26 10 
25 -14 26 -31 26 -37 25 -31 26 -10 26 12 25 18 26 18 
25 15 26 9 26 -5 25 -21 26 -46 26 -50 25 36 26 83 
25 66 26 45 26 33 25 16 26 8 26 0 25 -8 26 -10 
26 -15 25 -16 26 -19 25 -6 26 13 26 56 25 29 26 11 
26 -10 25 -20 26 7 25 12 292 978 69 MP stroke
c10
26 25 26 35 25 72 26 21 26 15 25 25 26 32 26 30 
25 24 26 18 25 10 26 5 26 2 25 -2 26 -7 26 -10 
25 -19 26 -22 26 -26 25 -23 26 -23 25 -26 26 -23 26 -3 
25 15 26 17 26 7 25 0 26 -2 25 1 26 1 26 -1 
25 -6 26 -8 26 -1 25 8 26 15 26 13 25 8 26 2 
25 -4 26 -6 26 -6 25 -4 26 -1 26 1 25 7 26 12 
25 16 26 17 26 16 25 9 26 6 26 2 25 -4 26 -6 
26 -9 25 -10 26 -12 25 -11 26 10 26 41 25 76 26 58 
26 47 25 27 26 6 25 6 292 905 69 MP stroke
c11
26 -19 26 38 25 46 26 10 26 27 25 43 26 43 26 36 
25 27 26 13 25 7 26 0 26 -8 25 -11 26 -15 26 -20 
25 -23 26 -26 26 -25 25 -19 26 -6 25 4 26 0 26 -10 
25 -11 26 5 26 15 25 -7 26 -16 25 29 26 40 26 7 
25 -9 26 -13 26 -9 25 -3 26 4 26 10 25 10 26 5 
25 -3 26 -10 26 -16 25 -16 26 -9 26 -1 25 7 26 10 
25 11 26 14 26 13 25 12 26 11 26 9 25 7 26 1 
26 -10 25 -22 26 -16 25 39 26 92 26 60 25 56 26 30 
26 31 25 28 26 26 25 27 292 802 69 MP stroke
c12
26 109 26 35 25 30 26 50 26 43 25 19 26 1 26 -11 
25 -16 26 -16 25 -14 26 -16 26 -20 25 -20 26 -11 26 5 
25 9 26 0 26 2 25 5 26 5 25 17 26 15 26 -21 
25 -51 26 28 26 46 25 6 26 -10 25 -5 26 0 26 3 
25 9 26 13 26 10 25 5 26 -1 26 -6 25 -9 26 -7 
25 -6 26 -5 26 1 25 8 26 14 26 17 25 13 26 4 
25 -8 26 -19 26 -28 25 -17 26 10 26 35 25 43 26 41 
26 29 25 24 26 19 25 10 26 8 26 -7 25 -8 26 -8 
26 0 25 9 26 8 25 8 292 978 69 MP stroke
c13
26 77 26 52 25 32 26 29 26 33 25 30 26 20 26 9 
25 -5 26 -30 25 -42 26 -47 26 -32 25 -6 26 2 26 -8 
25 -12 26 3 26 -3 25 -9 26 8 25 11 26 15 26 13 
25 4 26 -7 26 4 25 29 26 19 25 -1 26 -11 26 -9 
25 -3 26 7 26 13 25 15 26 10 26 5 25 -2 26 -5 
25 -6 26 -2 26 4 25 7 26 6 26 1 25 -5 26 -10 
25 -10 26 0 26 15 25 27 26 33 26 29 25 21 26 16 
26 4 25 1 26 -4 25 5 26 11 26 53 25 52 26 43 
26 42 25 20 26 8 25 8 292 802 69 MP stroke
0.25 sg
26 41 26 44 25 39 26 40 26 45 25 38 26 29 26 21 
25 8 26 -5 25 -12 26 -28 26 -33 25 -36 26 -27 26 -10 
25 0 26 0 26 -3 25 -5 26 -5 25 -1 26 5 26 10 
25 6 26 -3 26 -4 25 4 26 4 25 0 26 -3 26 -4 
25 -2 26 0 26 1 25 2 26 5 26 8 25 12 26 16 
25 14 26 9 26 2 25 -8 26 -16 26 -17 25 -8 26 7 
25 20 26 21 26 13 25 2 26 -12 26 -24 25 -18 26 12 
26 46 25 56 26 54 25 27 26 8 26 -1 25 -7 26 15 
26 31 25 26 26 21 25 21 292 905 69 MP stroke
c8
26 39 26 59 25 51 26 53 26 34 25 25 26 25 26 23 
25 21 26 18 25 8 26 2 26 -7 25 -13 26 -14 26 -13 
25 -14 26 -16 26 -20 25 -23 26 -26 25 -24 26 -10 26 11 
25 10 26 -1 26 9 25 20 26 13 25 4 26 -4 26 -5 
25 -7 26 -6 26 -5 25 -2 26 7 26 17 25 24 26 23 
25 17 26 7 26 -6 25 -15 26 -23 26 -24 25 -18 26 -6 
25 6 26 12 26 17 25 19 26 22 26 21 25 20 26 18 
26 17 25 26 26 29 25 71 26 71 26 45 25 42 26 8 
26 -65 25 -65 26 -84 25 -88 292 1037 69 MP stroke
c9
26 50 26 54 25 50 26 35 26 30 25 31 26 30 26 25 
25 21 26 7 25 -5 26 -15 26 -27 25 -28 26 -28 26 -28 
25 -24 26 -15 26 -9 25 -19 26 -18 25 3 26 11 26 3 
25 29 26 33 26 4 25 -11 26 -9 25 -6 26 -1 26 10 
25 19 26 19 26 16 25 13 26 10 26 7 25 0 26 -5 
25 -11 26 -15 26 -21 25 -23 26 -27 26 -17 25 23 26 60 
25 67 26 52 26 44 25 10 26 5 26 -26 25 -39 26 -66 
26 -84 25 -51 26 58 25 105 26 91 26 67 25 -17 26 -16 
26 -4 25 7 26 50 25 50 292 861 69 MP stroke
c10
26 1 26 23 25 59 26 67 26 50 25 38 26 26 26 15 
25 10 26 7 25 2 26 0 26 -2 25 -5 26 -4 26 -5 
25 -4 26 -7 26 -14 25 -32 26 -41 25 -37 26 -19 26 5 
25 13 26 13 26 10 25 7 26 2 25 0 26 7 26 12 
25 9 26 2 26 -6 25 -14 26 -16 26 -9 25 0 26 8 
25 10 26 7 26 4 25 2 26 2 26 5 25 8 26 10 
25 10 26 6 26 0 25 -8 26 -12 26 -10 25 4 26 23 
26 39 25 49 26 48 25 46 26 40 26 28 25 28 26 11 
26 12 25 7 26 3 25 2 292 817 69 MP stroke
c11
26 -5 26 63 25 31 26 36 26 49 25 46 26 36 26 22 
25 18 26 18 25 18 26 11 26 7 25 -3 26 -8 26 -12 
25 -15 26 -19 26 -27 25 -36 26 -42 25 -27 26 -7 26 9 
25 15 26 4 26 -21 25 -12 26 25 25 19 26 0 26 -10 
25 -11 26 0 26 15 25 25 26 21 26 10 25 -2 26 -14 
25 -21 26 -16 26 3 25 22 26 27 26 21 25 7 26 -9 
25 -23 26 -29 26 -19 25 8 26 30 26 38 25 34 26 21 
26 12 25 6 26 4 25 21 26 34 26 37 25 37 26 38 
26 39 25 30 26 25 25 26 292 743 69 MP stroke
c12
26 44 26 56 25 42 26 2 26 7 25 64 26 49 26 19 
25 -2 26 -21 25 -13 26 -9 26 -9 25 -19 26 -26 26 -23 
25 -18 26 -15 26 -7 25 1 26 -1 25 11 26 12 26 -4 
25 -1 26 4 26 -5 25 2 26 17 25 10 26 -1 26 6 
25 13 26 10 26 5 25 -1 26 -5 26 -8 25 -8 26 -8 
25 -6 26 -2 26 5 25 11 26 13 26 10 25 6 26 2 
25 0 26 0 26 2 25 6 26 8 26 11 25 13 26 16 
26 18 25 18 26 18 25 13 26 15 26 27 25 37 26 63 
26 62 25 37 26 35 25 35 292 743 69 MP stroke
c13
26 52 26 90 25 58 26 39 26 37 25 35 26 32 26 26 
25 24 26 13 25 9 26 -4 26 -8 25 -20 26 -28 26 -36 
25 -39 26 -30 26 -18 25 -11 26 -11 25 -8 26 -1 26 5 
25 8 26 10 26 11 25 5 26 -2 25 -9 26 -12 26 -6 
25 0 26 -5 26 -18 25 -13 26 7 26 24 25 25 26 13 
25 3 26 -5 26 -12 25 -14 26 -14 26 -12 25 -4 26 10 
25 25 26 32 26 23 25 10 26 -2 26 -17 25 -36 26 -36 
26 -4 25 36 26 51 25 40 26 47 26 53 25 76 26 83 
26 70 25 40 26 41 25 40 292 655 69 MP stroke
0.25 sg
26 -51 26 112 25 50 26 35 26 28 25 17 26 3 26 -12 
25 -26 26 -27 25 -17 26 -8 26 3 25 13 26 17 26 18 
25 15 26 14 26 11 25 3 26 -5 25 -15 26 -14 26 10 
25 33 26 32 26 16 25 -3 26 -16 25 -26 26 -31 26 -23 
25 -10 26 4 26 14 25 20 26 24 26 20 25 14 26 3 
25 -12 26 -22 26 -26 25 -18 26 2 26 22 25 26 26 18 
25 6 26 -8 26 -20 25 -16 26 9 26 38 25 57 26 74 
26 79 25 85 26 82 25 47 26 47 26 47 25 -29 26 -32 
26 -32 25 -42 26 -45 25 -46 292 817 69 MP stroke
c8
26 26 26 79 25 48 26 35 26 35 25 34 26 31 26 23 
25 18 26 13 25 4 26 -4 26 -12 25 -26 26 -34 26 -39 
25 -33 26 -13 26 2 25 -11 26 -13 25 1 26 10 26 6 
25 3 26 21 26 26 25 9 26 -9 25 -15 26 -15 26 -8 
25 1 26 9 26 11 25 9 26 8 26 6 25 5 26 7 
25 9 26 9 26 7 25 5 26 0 26 -5 25 -8 26 -6 
25 2 26 13 26 20 25 27 26 27 26 24 25 21 26 17 
26 15 25 11 26 10 25 7 26 13 26 28 25 31 26 42 
26 42 25 25 26 19 25 18 292 729 69 MP stroke
c9
26 11 26 56 25 65 26 40 26 29 25 26 26 25 26 25 
25 20 26 18 25 6 26 3 26 -2 25 -8 26 -12 26 -15 
25 -22 26 -23 26 -22 25 -15 26 -10 25 -5 26 2 26 7 
25 5 26 -2 26 -6 25 -4 26 -3 25 0 26 1 26 1 
25 3 26 4 26 6 25 7 26 7 26 6 25 5 26 3 
25 0 26 -5 26 -12 25 -19 26 -23 26 -11 25 13 26 32 
25 32 26 25 26 16 25 8 26 0 26 -1 25 -3 26 1 
26 4 25 7 26 9 25 -2 26 -8 26 -15 25 131 26 157 
26 112 25 93 26 94 25 93 292 435 69 MP stroke
c10
26 -21 26 77 25 44 26 49 26 38 25 32 26 30 26 21 
25 9 26 -2 25 -9 26 -5 26 -1 25 4 26 5 26 -3 
25 -15 26 -30 26 -34 25 -17 26 -1 25 4 26 2 26 0 
25 8 26 11 26 7 25 3 26 2 25 3 26 4 26 4 
25 6 26 6 26 5 25 4 26 2 26 2 25 0 26 -2 
25 -2 26 -3 26 -4 25 -2 26 3 26 9 25 14 26 18 
25 16 26 10 26 5 25 -5 26 -11 26 -16 25 -15 26 -5 
26 7 25 17 26 23 25 11 26 10 26 31 25 67 26 102 
26 92 25 55 26 55 25 55 292 611 69 MP stroke
c11
26 72 26 46 25 35 26 51 26 35 25 15 26 2 26 -2 
25 1 26 5 25 7 26 3 26 -9 25 -14 26 -14 26 -10 
25 -5 26 -7 26 -20 25 -30 26 -4 25 21 26 14 26 8 
25 8 26 6 26 4 25 0 26 -4 25 -2 26 0 26 -3 
25 -9 26 -8 26 0 25 8 26 10 26 7 25 1 26 -5 
25 -7 26 -2 26 6 25 13 26 14 26 12 25 8 26 2 
25 -2 26 -3 26 1 25 5 26 8 26 12 25 13 26 12 
26 12 25 10 26 8 25 6 26 2 26 12 25 26 26 52 
26 63 25 45 26 33 25 34 292 802 69 MP stroke
gr

c11

end %%Color Dict

eplot
%%EndObject

epage
end

showpage

%%Trailer
%%EOF
