%!PS-Adobe-3.0 EPSF-3.0
%%Creator: MATLAB, The Mathworks, Inc. Version 7.10.0.499 (R2010a). Operating System: Microsoft Windows 7.
%%Title: C:\Users\wwu\Desktop\warping\Muller_method\comp_signa_autc.eps
%%CreationDate: 04/12/2011  14:49:55
%%DocumentNeededFonts: Helvetica
%%DocumentProcessColors: Cyan Magenta Yellow Black
%%LanguageLevel: 2
%%Pages: 1
%%BoundingBox:   212   320   399   470
%%EndComments

%%BeginProlog
% MathWorks dictionary
/MathWorks 160 dict begin
% definition operators
/bdef {bind def} bind def
/ldef {load def} bind def
/xdef {exch def} bdef
/xstore {exch store} bdef
% operator abbreviations
/c  /clip ldef
/cc /concat ldef
/cp /closepath ldef
/gr /grestore ldef
/gs /gsave ldef
/mt /moveto ldef
/np /newpath ldef
/cm /currentmatrix ldef
/sm /setmatrix ldef
/rm /rmoveto ldef
/rl /rlineto ldef
/s {show newpath} bdef
/sc {setcmykcolor} bdef
/sr /setrgbcolor ldef
/sg /setgray ldef
/w /setlinewidth ldef
/j /setlinejoin ldef
/cap /setlinecap ldef
/rc {rectclip} bdef
/rf {rectfill} bdef
% page state control
/pgsv () def
/bpage {/pgsv save def} bdef
/epage {pgsv restore} bdef
/bplot /gsave ldef
/eplot {stroke grestore} bdef
% orientation switch
/portraitMode 0 def /landscapeMode 1 def /rotateMode 2 def
% coordinate system mappings
/dpi2point 0 def
% font control
/FontSize 0 def
/FMS {/FontSize xstore findfont [FontSize 0 0 FontSize neg 0 0]
  makefont setfont} bdef
/ISOLatin1Encoding where {pop /WindowsLatin1Encoding 256 array bdef
ISOLatin1Encoding WindowsLatin1Encoding copy pop
/.notdef/.notdef/quotesinglbase/florin/quotedblbase/ellipsis/dagger
/daggerdbl/circumflex/perthousand/Scaron/guilsinglleft/OE/.notdef/.notdef
/.notdef/.notdef/quoteleft/quoteright/quotedblleft/quotedblright/bullet
/endash/emdash/tilde/trademark/scaron/guilsinglright/oe/.notdef/.notdef
/Ydieresis WindowsLatin1Encoding 128 32 getinterval astore pop}
{/WindowsLatin1Encoding StandardEncoding bdef} ifelse
/reencode {exch dup where {pop load} {pop StandardEncoding} ifelse
  exch dup 3 1 roll findfont dup length dict begin
  { 1 index /FID ne {def}{pop pop} ifelse } forall
  /Encoding exch def currentdict end definefont pop} bdef
/isroman {findfont /CharStrings get /Agrave known} bdef
/FMSR {3 1 roll 1 index dup isroman {reencode} {pop pop} ifelse
  exch FMS} bdef
/csm {1 dpi2point div -1 dpi2point div scale neg translate
 dup landscapeMode eq {pop -90 rotate}
  {rotateMode eq {90 rotate} if} ifelse} bdef
% line types: solid, dotted, dashed, dotdash
/SO { [] 0 setdash } bdef
/DO { [.5 dpi2point mul 4 dpi2point mul] 0 setdash } bdef
/DA { [6 dpi2point mul] 0 setdash } bdef
/DD { [.5 dpi2point mul 4 dpi2point mul 6 dpi2point mul 4
  dpi2point mul] 0 setdash } bdef
% macros for lines and objects
/L {lineto stroke} bdef
/MP {3 1 roll moveto 1 sub {rlineto} repeat} bdef
/AP {{rlineto} repeat} bdef
/PDlw -1 def
/W {/PDlw currentlinewidth def setlinewidth} def
/PP {closepath eofill} bdef
/DP {closepath stroke} bdef
/MR {4 -2 roll moveto dup  0 exch rlineto exch 0 rlineto
  neg 0 exch rlineto closepath} bdef
/FR {MR stroke} bdef
/PR {MR fill} bdef
/L1i {{currentfile picstr readhexstring pop} image} bdef
/tMatrix matrix def
/MakeOval {newpath tMatrix currentmatrix pop translate scale
0 0 1 0 360 arc tMatrix setmatrix} bdef
/FO {MakeOval stroke} bdef
/PO {MakeOval fill} bdef
/PD {currentlinewidth 2 div 0 360 arc fill
   PDlw -1 eq not {PDlw w /PDlw -1 def} if} def
/FA {newpath tMatrix currentmatrix pop translate scale
  0 0 1 5 -2 roll arc tMatrix setmatrix stroke} bdef
/PA {newpath tMatrix currentmatrix pop	translate 0 0 moveto scale
  0 0 1 5 -2 roll arc closepath tMatrix setmatrix fill} bdef
/FAn {newpath tMatrix currentmatrix pop translate scale
  0 0 1 5 -2 roll arcn tMatrix setmatrix stroke} bdef
/PAn {newpath tMatrix currentmatrix pop translate 0 0 moveto scale
  0 0 1 5 -2 roll arcn closepath tMatrix setmatrix fill} bdef
/vradius 0 def /hradius 0 def /lry 0 def
/lrx 0 def /uly 0 def /ulx 0 def /rad 0 def
/MRR {/vradius xdef /hradius xdef /lry xdef /lrx xdef /uly xdef
  /ulx xdef newpath tMatrix currentmatrix pop ulx hradius add uly
  vradius add translate hradius vradius scale 0 0 1 180 270 arc 
  tMatrix setmatrix lrx hradius sub uly vradius add translate
  hradius vradius scale 0 0 1 270 360 arc tMatrix setmatrix
  lrx hradius sub lry vradius sub translate hradius vradius scale
  0 0 1 0 90 arc tMatrix setmatrix ulx hradius add lry vradius sub
  translate hradius vradius scale 0 0 1 90 180 arc tMatrix setmatrix
  closepath} bdef
/FRR {MRR stroke } bdef
/PRR {MRR fill } bdef
/MlrRR {/lry xdef /lrx xdef /uly xdef /ulx xdef /rad lry uly sub 2 div def
  newpath tMatrix currentmatrix pop ulx rad add uly rad add translate
  rad rad scale 0 0 1 90 270 arc tMatrix setmatrix lrx rad sub lry rad
  sub translate rad rad scale 0 0 1 270 90 arc tMatrix setmatrix
  closepath} bdef
/FlrRR {MlrRR stroke } bdef
/PlrRR {MlrRR fill } bdef
/MtbRR {/lry xdef /lrx xdef /uly xdef /ulx xdef /rad lrx ulx sub 2 div def
  newpath tMatrix currentmatrix pop ulx rad add uly rad add translate
  rad rad scale 0 0 1 180 360 arc tMatrix setmatrix lrx rad sub lry rad
  sub translate rad rad scale 0 0 1 0 180 arc tMatrix setmatrix
  closepath} bdef
/FtbRR {MtbRR stroke } bdef
/PtbRR {MtbRR fill } bdef
/stri 6 array def /dtri 6 array def
/smat 6 array def /dmat 6 array def
/tmat1 6 array def /tmat2 6 array def /dif 3 array def
/asub {/ind2 exch def /ind1 exch def dup dup
  ind1 get exch ind2 get sub exch } bdef
/tri_to_matrix {
  2 0 asub 3 1 asub 4 0 asub 5 1 asub
  dup 0 get exch 1 get 7 -1 roll astore } bdef
/compute_transform {
  dmat dtri tri_to_matrix tmat1 invertmatrix 
  smat stri tri_to_matrix tmat2 concatmatrix } bdef
/ds {stri astore pop} bdef
/dt {dtri astore pop} bdef
/db {2 copy /cols xdef /rows xdef mul dup 3 mul string
  currentfile 
  3 index 0 eq {/ASCIIHexDecode filter}
  {/ASCII85Decode filter 3 index 2 eq {/RunLengthDecode filter} if }
  ifelse exch readstring pop
  dup 0 3 index getinterval /rbmap xdef
  dup 2 index dup getinterval /gbmap xdef
  1 index dup 2 mul exch getinterval /bbmap xdef pop pop}bdef
/it {gs np dtri aload pop moveto lineto lineto cp c
  cols rows 8 compute_transform 
  rbmap gbmap bbmap true 3 colorimage gr}bdef
/il {newpath moveto lineto stroke}bdef
currentdict end def
%%EndProlog

%%BeginSetup
MathWorks begin

0 cap

end
%%EndSetup

%%Page: 1 1
%%BeginPageSetup
%%PageBoundingBox:   212   320   399   470
MathWorks begin
bpage
%%EndPageSetup

%%BeginObject: obj1
bplot

/dpi2point 12 def
portraitMode 2544 5640 csm

    0     0  2249  1800 rc
85 dict begin %Colortable dictionary
/c0 { 0.000000 0.000000 0.000000 sr} bdef
/c1 { 1.000000 1.000000 1.000000 sr} bdef
/c2 { 0.900000 0.000000 0.000000 sr} bdef
/c3 { 0.000000 0.820000 0.000000 sr} bdef
/c4 { 0.000000 0.000000 0.800000 sr} bdef
/c5 { 0.910000 0.820000 0.320000 sr} bdef
/c6 { 1.000000 0.260000 0.820000 sr} bdef
/c7 { 0.000000 0.820000 0.820000 sr} bdef
c0
1 j
1 sg
   0    0 2250 1801 rf
6 w
0 1467 1743 0 0 -1467 292 1602 4 MP
PP
-1743 0 0 1467 1743 0 0 -1467 292 1602 5 MP stroke
4 w
DO
SO
6 w
0 sg
 292  135 mt 2035  135 L
 292 1602 mt 2035 1602 L
2035 1602 mt 2035  135 L
 292 1602 mt  292  135 L
 292 1602 mt 2035 1602 L
 292 1602 mt  292  135 L
 633 1602 mt  633 1584 L
 633  135 mt  633  152 L
%%IncludeResource: font Helvetica
/Helvetica /WindowsLatin1Encoding 120 FMSR

 567 1747 mt 
(20) s
 992 1602 mt  992 1584 L
 992  135 mt  992  152 L
 926 1747 mt 
(40) s
1352 1602 mt 1352 1584 L
1352  135 mt 1352  152 L
1286 1747 mt 
(60) s
1711 1602 mt 1711 1584 L
1711  135 mt 1711  152 L
1645 1747 mt 
(80) s
 292 1602 mt  309 1602 L
2035 1602 mt 2017 1602 L
 191 1646 mt 
(0) s
 292 1113 mt  309 1113 L
2035 1113 mt 2017 1113 L
  91 1157 mt 
(0.5) s
 292  624 mt  309  624 L
2035  624 mt 2017  624 L
 191  668 mt 
(1) s
 292  135 mt  309  135 L
2035  135 mt 2017  135 L
  91  179 mt 
(1.5) s
 292  135 mt 2035  135 L
 292 1602 mt 2035 1602 L
2035 1602 mt 2035  135 L
 292 1602 mt  292  135 L
gs 292 135 1744 1468 rc
/c8 { 0.000000 0.000000 1.000000 sr} bdef
c8
18 355 18 100 18 30 18 4 18 11 18 34 18 47 18 39 
18 25 18 12 18 -2 18 -28 18 -49 18 -69 18 -76 18 -30 
18 52 18 87 18 77 18 50 18 -2 18 -32 18 -58 18 -72 
18 -48 18 6 18 39 18 36 18 16 18 3 18 -5 18 -18 
17 -40 18 -75 18 -105 18 -82 18 26 18 89 18 91 18 74 
18 48 18 23 18 -2 18 -28 18 -49 18 -46 18 -16 18 17 
18 25 18 11 18 1 18 2 18 7 18 4 18 -17 18 -51 
18 -92 18 -92 18 61 18 137 18 111 18 62 18 19 18 -23 
17 -74 18 -88 18 -39 18 50 18 82 18 53 18 14 18 -27 
18 -70 18 -93 18 -54 18 1 18 5 18 -20 18 -25 18 10 
18 41 18 51 18 40 18 14 18 -21 18 -57 18 -74 18 -8 
18 89 18 110 18 92 18 61 18 6 18 -32 18 -80 18 -161 
17 -405 292 1549 98 MP stroke
/c9 { 0.000000 0.500000 0.000000 sr} bdef
c9
18 259 18 127 18 69 18 39 18 22 18 21 18 21 18 22 
18 17 18 14 18 -11 18 -27 18 -52 18 -91 18 -103 18 -76 
18 15 18 81 18 77 18 50 18 21 18 -17 18 -38 18 -42 
18 -33 18 -9 18 8 18 9 18 5 18 1 18 -8 18 -31 
17 -66 18 -102 18 -87 18 34 18 107 18 100 18 77 18 57 
18 39 18 17 18 -5 18 -17 18 -30 18 -28 18 -12 18 4 
18 15 18 15 18 0 18 -9 18 -14 18 -15 18 -13 18 -23 
18 -46 18 -75 18 -85 18 3 18 100 18 97 18 61 18 20 
17 -43 18 -83 18 -114 18 -79 18 62 18 107 18 81 18 43 
18 5 18 -33 18 -70 18 -78 18 -52 18 -22 18 -20 18 -20 
18 1 18 31 18 38 18 33 18 19 18 -3 18 -40 18 -96 
18 -115 18 116 18 140 18 96 18 51 18 5 18 -64 18 -137 
17 -293 292 1515 98 MP stroke
/c10 { 1.000000 0.000000 0.000000 sr} bdef
c10
18 295 18 143 18 88 18 56 18 37 18 34 18 29 18 20 
18 16 18 -10 18 -20 18 -57 18 -83 18 -115 18 -151 18 -98 
18 60 18 124 18 99 18 63 18 34 18 -5 18 -28 18 -38 
18 -38 18 -18 18 1 18 12 18 16 18 17 18 6 18 -15 
17 -41 18 -71 18 -95 18 -74 18 5 18 82 18 92 18 79 
18 59 18 25 18 -1 18 -25 18 -56 18 -63 18 -44 18 -11 
18 8 18 -8 18 -38 18 -51 18 -12 18 43 18 44 18 14 
18 -23 18 -39 18 7 18 83 18 104 18 88 18 66 18 14 
17 -8 18 -51 18 -93 18 -123 18 -135 18 -55 18 91 18 95 
18 51 18 -4 18 -69 18 -132 18 -133 18 5 18 21 18 37 
18 53 18 42 18 22 18 7 18 -1 18 -10 18 -43 18 -82 
18 -12 18 119 18 108 18 69 18 31 18 -4 18 -37 18 -58 
17 -48 292 1168 98 MP stroke
/c11 { 0.000000 0.750000 0.750000 sr} bdef
c11
18 387 18 142 18 66 18 36 18 26 18 28 18 43 18 43 
18 42 18 25 18 17 18 -13 18 -29 18 -59 18 -101 18 -133 
18 -156 18 -70 18 91 18 132 18 94 18 53 18 20 18 -10 
18 -44 18 -49 18 -45 18 -27 18 -8 18 -2 18 -15 18 -52 
17 -121 18 -179 18 55 18 166 18 128 18 93 18 50 18 18 
18 -7 18 -30 18 -43 18 -32 18 -12 18 4 18 3 18 -11 
18 -26 18 -24 18 1 18 23 18 24 18 2 18 -28 18 -50 
18 -34 18 37 18 103 18 100 18 71 18 45 18 -15 18 -53 
17 -92 18 -147 18 -173 18 -52 18 144 18 145 18 110 18 70 
18 19 18 -10 18 -42 18 -75 18 -83 18 -88 18 -93 18 -90 
18 -34 18 34 18 54 18 44 18 25 18 3 18 -15 18 -39 
18 -73 18 -19 18 119 18 128 18 77 18 16 18 -46 18 -112 
17 -183 292 1310 98 MP stroke
/c12 { 0.750000 0.000000 0.750000 sr} bdef
c12
18 496 18 159 18 81 18 49 18 29 18 18 18 13 18 8 
18 -14 18 -29 18 -57 18 -98 18 -134 18 -165 18 -75 18 110 
18 134 18 101 18 59 18 17 18 -11 18 -32 18 -40 18 -16 
18 10 18 23 18 19 18 5 18 -19 18 -54 18 -83 18 -110 
17 -92 18 28 18 128 18 129 18 102 18 73 18 33 18 2 
18 -16 18 -35 18 -30 18 -16 18 2 18 25 18 25 18 20 
18 9 18 -11 18 -17 18 -22 18 -22 18 -26 18 -32 18 -41 
18 -38 18 -3 18 59 18 86 18 82 18 71 18 28 18 6 
17 -29 18 -73 18 -101 18 -143 18 -175 18 -93 18 96 18 125 
18 86 18 40 18 -12 18 -69 18 -124 18 -111 18 -24 18 12 
18 12 18 19 18 27 18 43 18 47 18 29 18 -1 18 -42 
18 -94 18 -169 18 29 18 177 18 121 18 60 18 -5 18 -83 
17 -204 292 1305 98 MP stroke
/c13 { 0.750000 0.750000 0.000000 sr} bdef
c13
18 292 18 135 18 78 18 53 18 39 18 39 18 40 18 39 
18 28 18 24 18 -9 18 -19 18 -58 18 -88 18 -121 18 -164 
18 -108 18 55 18 108 18 74 18 28 18 -10 18 -37 18 -43 
18 -19 18 10 18 22 18 20 18 18 18 20 18 16 18 -2 
17 -26 18 -50 18 -56 18 -21 18 38 18 67 18 62 18 44 
18 21 18 -17 18 -39 18 -52 18 -48 18 -18 18 16 18 28 
18 21 18 11 18 9 18 10 18 3 18 -11 18 -35 18 -58 
18 -51 18 15 18 80 18 96 18 79 18 41 18 19 18 -17 
17 -54 18 -80 18 -107 18 -105 18 -18 18 73 18 80 18 42 
18 -4 18 -52 18 -95 18 -102 18 -61 18 -39 18 -8 18 52 
18 61 18 40 18 17 18 -2 18 -20 18 -44 18 -75 18 12 
18 110 18 91 18 62 18 39 18 16 18 -12 18 -45 18 -66 
17 -68 292 1214 98 MP stroke
0.25 sg
18 378 18 147 18 87 18 61 18 43 18 38 18 35 18 21 
18 18 18 -11 18 -22 18 -58 18 -87 18 -117 18 -156 18 -105 
18 45 18 107 18 88 18 54 18 25 18 -10 18 -28 18 -29 
18 -18 18 2 18 18 18 20 18 15 18 6 18 -6 18 -33 
17 -56 18 -79 18 -94 18 -62 18 24 18 79 18 92 18 80 
18 50 18 16 18 -9 18 -30 18 -45 18 -38 18 -18 18 3 
18 12 18 8 18 -2 18 -5 18 3 18 14 18 13 18 -7 
18 -37 18 -47 18 -14 18 54 18 89 18 76 18 54 18 31 
17 -18 18 -42 18 -73 18 -116 18 -132 18 -61 18 78 18 112 
18 75 18 28 18 -13 18 -53 18 -87 18 -87 18 -40 18 10 
18 14 18 15 18 17 18 20 18 22 18 15 18 -4 18 -35 
18 -83 18 -143 18 56 18 131 18 79 18 28 18 -32 18 -100 
17 -203 292 1479 98 MP stroke
c8
18 134 18 91 18 60 18 42 18 43 18 44 18 39 18 21 
18 -14 18 -40 18 -87 18 -135 18 -157 18 -54 18 109 18 128 
18 79 18 26 18 -19 18 -56 18 -70 18 -42 18 -5 18 9 
18 13 18 21 18 20 18 2 18 -35 18 -78 18 -96 18 -26 
17 66 18 97 18 87 18 66 18 38 18 1 18 -24 18 -41 
18 -40 18 -16 18 20 18 38 18 34 18 12 18 -9 18 -17 
18 -15 18 -9 18 -12 18 -30 18 -67 18 -94 18 -36 18 102 
18 150 18 117 18 75 18 44 18 -6 18 -48 18 -83 18 -131 
17 -175 18 -126 18 92 18 161 18 128 18 95 18 48 18 14 
18 -9 18 -38 18 -42 18 -37 18 -22 18 -9 18 -20 18 -41 
18 -61 18 -66 18 -43 18 -3 18 32 18 36 18 16 18 -15 
18 -52 18 -88 18 -94 18 22 18 127 18 101 18 33 18 -76 
17 -455 292 1569 98 MP stroke
c9
18 232 18 109 18 40 18 13 18 15 18 26 18 28 18 18 
18 -3 18 -22 18 -42 18 -70 18 -90 18 -54 18 62 18 123 
18 112 18 67 18 31 18 3 18 -33 18 -40 18 -32 18 -14 
18 3 18 -5 18 -21 18 -34 18 -43 18 -47 18 -60 18 -80 
17 -80 18 5 18 93 18 117 18 105 18 81 18 50 18 6 
18 -17 18 -39 18 -51 18 -37 18 -14 18 5 18 11 18 1 
18 -13 18 -21 18 -15 18 -9 18 -20 18 -44 18 -56 18 2 
18 84 18 112 18 101 18 61 18 34 18 12 18 -26 18 -46 
17 -65 18 -92 18 -105 18 -83 18 21 18 96 18 105 18 85 
18 50 18 28 18 6 18 -35 18 -58 18 -89 18 -122 18 -126 
18 -47 18 36 18 32 18 10 18 4 18 18 18 34 18 36 
18 14 18 -24 18 -76 18 -129 18 -103 18 114 18 99 18 -9 
17 -412 292 1583 98 MP stroke
c10
18 245 18 143 18 88 18 56 18 29 18 13 18 -2 18 -39 
18 -73 18 -102 18 -107 18 -41 18 65 18 101 18 77 18 42 
18 7 18 -32 18 -36 18 -18 18 10 18 35 18 38 18 20 
18 -2 18 -25 18 -59 18 -91 18 -100 18 -68 18 17 18 54 
17 49 18 37 18 30 18 20 18 0 18 -31 18 -62 18 -57 
18 -5 18 36 18 32 18 6 18 -10 18 0 18 23 18 35 
18 27 18 8 18 -10 18 -11 18 14 18 55 18 85 18 76 
18 62 18 35 18 1 18 -16 18 -64 18 -89 18 -123 18 -172 
17 -209 18 -16 18 168 18 135 18 88 18 43 18 5 18 -26 
18 -33 18 4 18 39 18 40 18 18 18 -19 18 -70 18 -106 
18 -112 18 -69 18 -3 18 57 18 58 18 35 18 3 18 -34 
18 -80 18 -131 18 -24 18 164 18 130 18 64 18 -15 18 -122 
17 -312 292 1432 98 MP stroke
c11
18 108 18 114 18 99 18 67 18 43 18 46 18 73 18 99 
18 94 18 90 18 56 18 48 18 18 18 1 18 -27 18 -58 
18 -90 18 -149 18 -180 18 -187 18 -54 18 126 18 157 18 116 
18 73 18 7 18 -50 18 -85 18 -114 18 -94 18 -24 18 20 
17 11 18 -10 18 -3 18 13 18 7 18 -33 18 -77 18 -74 
18 -6 18 68 18 86 18 79 18 57 18 25 18 -13 18 -56 
18 -79 18 -71 18 -9 18 50 18 48 18 16 18 -14 18 -15 
18 13 18 30 18 14 18 -23 18 -51 18 -20 18 69 18 134 
17 141 18 93 18 60 18 3 18 -59 18 -98 18 -166 18 -179 
18 -100 18 79 18 121 18 86 18 24 18 -47 18 -104 18 -143 
18 -131 18 -62 18 15 18 88 18 101 18 81 18 45 18 -6 
18 -70 18 -137 18 -128 18 82 18 154 18 101 18 18 18 -95 
17 -303 292 1302 98 MP stroke
c12
18 151 18 98 18 56 18 41 18 52 18 70 18 61 18 43 
18 16 18 -30 18 -62 18 -103 18 -162 18 -182 18 -34 18 143 
18 158 18 102 18 47 18 4 18 -37 18 -68 18 -62 18 -35 
18 -5 18 10 18 10 18 11 18 9 18 -8 18 -43 18 -84 
17 -92 18 -23 18 75 18 106 18 96 18 75 18 36 18 5 
18 -18 18 -31 18 -28 18 -10 18 6 18 14 18 15 18 4 
18 -14 18 -41 18 -49 18 -38 18 -26 18 -38 18 -68 18 -51 
18 73 18 154 18 151 18 117 18 47 18 8 18 -35 18 -100 
17 -137 18 -175 18 -166 18 5 18 173 18 165 18 116 18 55 
18 -30 18 -85 18 -139 18 -152 18 -70 18 13 18 0 18 -21 
18 -1 18 45 18 59 18 41 18 -2 18 -60 18 -128 18 -137 
18 101 18 210 18 171 18 115 18 32 18 -43 18 -124 18 -242 
17 -533 292 1568 98 MP stroke
c13
5 -40 18 -127 18 -137 18 -140 18 -115 18 -80 18 -34 18 12 
18 36 18 27 18 14 18 0 18 -30 18 -59 18 -92 18 -123 
18 -99 18 29 18 139 18 135 18 83 18 35 18 -6 18 -57 
18 -93 18 -91 18 -48 18 11 18 35 18 21 18 -1 18 -19 
17 -44 18 -82 18 -121 18 -76 18 67 18 127 18 127 18 99 
18 66 18 23 18 -4 18 -22 18 -33 18 -29 18 -13 18 4 
18 15 18 20 18 16 18 5 18 -21 18 -37 18 -38 18 -20 
18 3 18 7 18 -12 18 -45 18 -66 18 -27 18 71 18 119 
17 97 18 53 18 -10 18 -87 18 -132 18 -130 18 -13 18 118 
18 118 18 54 18 -18 18 -90 18 -159 18 -165 18 10 18 39 
18 5 18 32 18 64 18 61 18 33 18 -9 18 -58 18 -97 
18 -90 18 64 18 149 18 126 18 67 18 -10 18 -86 18 -185 
17 -376 292 1495 98 MP stroke
0.25 sg
18 374 18 159 18 78 18 57 18 60 18 71 18 71 18 53 
18 35 18 -14 18 -36 18 -92 18 -139 18 -181 18 -190 18 -27 
18 184 18 187 18 146 18 83 18 46 18 -11 18 -64 18 -94 
18 -125 18 -88 18 -17 18 34 18 39 18 22 18 4 18 -9 
17 -31 18 -82 18 -144 18 -182 18 -26 18 124 18 123 18 94 
18 62 18 34 18 10 18 -10 18 -25 18 -30 18 -16 18 13 
18 35 18 35 18 16 18 -6 18 -28 18 -36 18 -18 18 16 
18 37 18 27 18 -6 18 -45 18 -85 18 -98 18 -32 18 94 
17 119 18 93 18 37 18 -23 18 -71 18 -105 18 -87 18 6 
18 79 18 63 18 3 18 -57 18 -93 18 -66 18 -2 18 -5 
18 -27 18 4 18 50 18 71 18 62 18 28 18 -20 18 -76 
18 -129 18 -87 18 107 18 167 18 120 18 49 18 -39 18 -173 
17 -548 292 1531 98 MP stroke
c8
18 330 18 133 18 46 18 29 18 41 18 52 18 47 18 28 
18 -1 18 -20 18 -41 18 -69 18 -103 18 -99 18 5 18 131 
18 165 18 127 18 93 18 56 18 -2 18 -22 18 -77 18 -87 
18 -99 18 -74 18 -32 18 2 18 18 18 19 18 11 18 -4 
17 -35 18 -74 18 -115 18 -136 18 -51 18 77 18 116 18 93 
18 60 18 26 18 -7 18 -44 18 -73 18 -68 18 -6 18 52 
18 58 18 29 18 -10 18 -31 18 -12 18 31 18 54 18 43 
18 6 18 -31 18 -62 18 -70 18 -23 18 67 18 112 18 89 
17 45 18 -13 18 -109 18 -167 18 -185 18 -17 18 104 18 65 
18 -16 18 -80 18 -79 18 -1 18 10 18 -11 18 25 18 77 
18 81 18 57 18 16 18 -35 18 -89 18 -101 18 30 18 148 
18 145 18 94 18 43 18 -5 18 -74 18 -118 18 -121 18 -38 
17 97 292 943 98 MP stroke
c9
18 493 18 165 18 72 18 45 18 42 18 43 18 45 18 27 
18 10 18 -22 18 -59 18 -89 18 -125 18 -156 18 -92 18 81 
18 165 18 142 18 98 18 60 18 -17 18 -50 18 -88 18 -112 
18 -72 18 -3 18 35 18 23 18 -4 18 -25 18 -36 18 -49 
17 -79 18 -106 18 -39 18 85 18 131 18 114 18 86 18 51 
18 20 18 -2 18 -21 18 -35 18 -35 18 -20 18 4 18 28 
18 40 18 35 18 19 18 6 18 -6 18 -8 18 0 18 1 
18 -2 18 -28 18 -58 18 -84 18 -91 18 -34 18 74 18 132 
17 126 18 99 18 35 18 6 18 -45 18 -105 18 -152 18 -219 
18 -249 18 63 18 173 18 104 18 23 18 -54 18 -116 18 -102 
18 11 18 45 18 20 18 28 18 57 18 66 18 47 18 8 
18 -41 18 -101 18 -146 18 -48 18 151 18 140 18 48 18 -91 
17 -420 292 1432 98 MP stroke
c10
18 504 18 158 18 72 18 44 18 56 18 80 18 79 18 63 
18 49 18 15 18 -3 18 -25 18 -77 18 -117 18 -172 18 -203 
18 -75 18 144 18 196 18 143 18 87 18 43 18 -11 18 -68 
18 -92 18 -99 18 -64 18 -8 18 16 18 6 18 -3 18 -8 
17 -22 18 -51 18 -76 18 -50 18 33 18 80 18 84 18 67 
18 39 18 6 18 -37 18 -54 18 -37 18 8 18 50 18 60 
18 49 18 27 18 -2 18 -21 18 -24 18 -19 18 -10 18 -11 
18 -40 18 -79 18 -109 18 -75 18 69 18 137 18 119 18 72 
17 -2 18 -44 18 -82 18 -120 18 -161 18 -160 18 54 18 161 
18 118 18 42 18 -51 18 -158 18 -209 18 12 18 96 18 60 
18 61 18 78 18 69 18 34 18 -16 18 -72 18 -118 18 -72 
18 86 18 164 18 130 18 65 18 8 18 -39 18 -67 18 -50 
17 18 292 773 98 MP stroke
c11
18 499 18 136 18 46 18 14 18 25 18 54 18 65 18 51 
18 35 18 20 18 -3 18 -23 18 -46 18 -97 18 -154 18 -182 
18 -18 18 163 18 171 18 120 18 71 18 18 18 -49 18 -81 
18 -108 18 -96 18 -25 18 39 18 47 18 24 18 1 18 -3 
17 -5 18 -24 18 -60 18 -101 18 -106 18 -20 18 77 18 125 
18 115 18 90 18 57 18 30 18 10 18 -7 18 -34 18 -42 
18 -40 18 -21 18 9 18 36 18 34 18 15 18 -9 18 -38 
18 -52 18 -36 18 -14 18 -8 18 -28 18 -68 18 -101 18 -46 
17 119 18 165 18 138 18 68 18 15 18 -33 18 -116 18 -148 
18 -120 18 2 18 83 18 45 18 -35 18 -124 18 -155 18 -14 
18 79 18 50 18 51 18 65 18 62 18 30 18 -18 18 -75 
18 -132 18 -116 18 75 18 164 18 126 18 58 18 -25 18 -147 
17 -468 292 1451 98 MP stroke
c12
18 413 18 123 18 27 18 -15 18 8 18 51 18 61 18 44 
18 35 18 42 18 52 18 58 18 33 18 7 18 -42 18 -106 
18 -145 18 -142 18 -22 18 126 18 148 18 104 18 59 18 13 
18 -47 18 -65 18 -72 18 -51 18 -10 18 4 18 -5 18 -15 
17 -30 18 -51 18 -87 18 -113 18 -53 18 58 18 116 18 116 
18 94 18 61 18 26 18 -9 18 -24 18 -32 18 -29 18 -12 
18 13 18 28 18 25 18 11 18 -3 18 -12 18 0 18 20 
18 21 18 6 18 -22 18 -61 18 -52 18 2 18 68 18 95 
17 92 18 32 18 -13 18 -59 18 -138 18 -176 18 -157 18 33 
18 163 18 156 18 119 18 42 18 -11 18 -63 18 -144 18 -205 
18 -174 18 -8 18 18 18 -9 18 37 18 84 18 79 18 46 
18 0 18 -57 18 -117 18 -121 18 53 18 140 18 69 18 -65 
17 -554 292 1586 98 MP stroke
c13
18 373 18 182 18 79 18 9 18 -10 18 40 18 92 18 103 
18 81 18 47 18 28 18 11 18 -22 18 -56 18 -96 18 -152 
18 -159 18 -10 18 136 18 142 18 89 18 27 18 -66 18 -110 
18 -114 18 -42 18 57 18 83 18 57 18 32 18 16 18 6 
17 -13 18 -65 18 -121 18 -166 18 -116 18 50 18 145 18 114 
18 62 18 15 18 -16 18 -36 18 -44 18 -29 18 19 18 64 
18 74 18 55 18 20 18 -1 18 -9 18 -6 18 1 18 0 
18 -19 18 -43 18 -67 18 -72 18 -13 18 92 18 149 18 146 
17 107 18 35 18 -2 18 -97 18 -153 18 -204 18 -194 18 -13 
18 165 18 170 18 110 18 49 18 -9 18 -98 18 -130 18 -124 
18 -62 18 -8 18 -6 18 1 18 30 18 53 18 50 18 20 
18 -37 18 -112 18 -191 18 -106 18 173 18 160 18 54 18 -94 
17 -605 292 1543 98 MP stroke
gr

c13

end %%Color Dict

eplot
%%EndObject

epage
end

showpage

%%Trailer
%%EOF
