%!PS-Adobe-3.0 EPSF-3.0
%%Creator: MATLAB, The Mathworks, Inc. Version 7.10.0.499 (R2010a). Operating System: Microsoft Windows 7.
%%Title: C:\Users\wwu\Desktop\warping\Muller_method\comp_gene_autc.eps
%%CreationDate: 04/15/2011  15:44:49
%%DocumentNeededFonts: Helvetica
%%DocumentProcessColors: Cyan Magenta Yellow Black
%%LanguageLevel: 2
%%Pages: 1
%%BoundingBox:   212   320   399   470
%%EndComments

%%BeginProlog
% MathWorks dictionary
/MathWorks 160 dict begin
% definition operators
/bdef {bind def} bind def
/ldef {load def} bind def
/xdef {exch def} bdef
/xstore {exch store} bdef
% operator abbreviations
/c  /clip ldef
/cc /concat ldef
/cp /closepath ldef
/gr /grestore ldef
/gs /gsave ldef
/mt /moveto ldef
/np /newpath ldef
/cm /currentmatrix ldef
/sm /setmatrix ldef
/rm /rmoveto ldef
/rl /rlineto ldef
/s {show newpath} bdef
/sc {setcmykcolor} bdef
/sr /setrgbcolor ldef
/sg /setgray ldef
/w /setlinewidth ldef
/j /setlinejoin ldef
/cap /setlinecap ldef
/rc {rectclip} bdef
/rf {rectfill} bdef
% page state control
/pgsv () def
/bpage {/pgsv save def} bdef
/epage {pgsv restore} bdef
/bplot /gsave ldef
/eplot {stroke grestore} bdef
% orientation switch
/portraitMode 0 def /landscapeMode 1 def /rotateMode 2 def
% coordinate system mappings
/dpi2point 0 def
% font control
/FontSize 0 def
/FMS {/FontSize xstore findfont [FontSize 0 0 FontSize neg 0 0]
  makefont setfont} bdef
/ISOLatin1Encoding where {pop /WindowsLatin1Encoding 256 array bdef
ISOLatin1Encoding WindowsLatin1Encoding copy pop
/.notdef/.notdef/quotesinglbase/florin/quotedblbase/ellipsis/dagger
/daggerdbl/circumflex/perthousand/Scaron/guilsinglleft/OE/.notdef/.notdef
/.notdef/.notdef/quoteleft/quoteright/quotedblleft/quotedblright/bullet
/endash/emdash/tilde/trademark/scaron/guilsinglright/oe/.notdef/.notdef
/Ydieresis WindowsLatin1Encoding 128 32 getinterval astore pop}
{/WindowsLatin1Encoding StandardEncoding bdef} ifelse
/reencode {exch dup where {pop load} {pop StandardEncoding} ifelse
  exch dup 3 1 roll findfont dup length dict begin
  { 1 index /FID ne {def}{pop pop} ifelse } forall
  /Encoding exch def currentdict end definefont pop} bdef
/isroman {findfont /CharStrings get /Agrave known} bdef
/FMSR {3 1 roll 1 index dup isroman {reencode} {pop pop} ifelse
  exch FMS} bdef
/csm {1 dpi2point div -1 dpi2point div scale neg translate
 dup landscapeMode eq {pop -90 rotate}
  {rotateMode eq {90 rotate} if} ifelse} bdef
% line types: solid, dotted, dashed, dotdash
/SO { [] 0 setdash } bdef
/DO { [.5 dpi2point mul 4 dpi2point mul] 0 setdash } bdef
/DA { [6 dpi2point mul] 0 setdash } bdef
/DD { [.5 dpi2point mul 4 dpi2point mul 6 dpi2point mul 4
  dpi2point mul] 0 setdash } bdef
% macros for lines and objects
/L {lineto stroke} bdef
/MP {3 1 roll moveto 1 sub {rlineto} repeat} bdef
/AP {{rlineto} repeat} bdef
/PDlw -1 def
/W {/PDlw currentlinewidth def setlinewidth} def
/PP {closepath eofill} bdef
/DP {closepath stroke} bdef
/MR {4 -2 roll moveto dup  0 exch rlineto exch 0 rlineto
  neg 0 exch rlineto closepath} bdef
/FR {MR stroke} bdef
/PR {MR fill} bdef
/L1i {{currentfile picstr readhexstring pop} image} bdef
/tMatrix matrix def
/MakeOval {newpath tMatrix currentmatrix pop translate scale
0 0 1 0 360 arc tMatrix setmatrix} bdef
/FO {MakeOval stroke} bdef
/PO {MakeOval fill} bdef
/PD {currentlinewidth 2 div 0 360 arc fill
   PDlw -1 eq not {PDlw w /PDlw -1 def} if} def
/FA {newpath tMatrix currentmatrix pop translate scale
  0 0 1 5 -2 roll arc tMatrix setmatrix stroke} bdef
/PA {newpath tMatrix currentmatrix pop	translate 0 0 moveto scale
  0 0 1 5 -2 roll arc closepath tMatrix setmatrix fill} bdef
/FAn {newpath tMatrix currentmatrix pop translate scale
  0 0 1 5 -2 roll arcn tMatrix setmatrix stroke} bdef
/PAn {newpath tMatrix currentmatrix pop translate 0 0 moveto scale
  0 0 1 5 -2 roll arcn closepath tMatrix setmatrix fill} bdef
/vradius 0 def /hradius 0 def /lry 0 def
/lrx 0 def /uly 0 def /ulx 0 def /rad 0 def
/MRR {/vradius xdef /hradius xdef /lry xdef /lrx xdef /uly xdef
  /ulx xdef newpath tMatrix currentmatrix pop ulx hradius add uly
  vradius add translate hradius vradius scale 0 0 1 180 270 arc 
  tMatrix setmatrix lrx hradius sub uly vradius add translate
  hradius vradius scale 0 0 1 270 360 arc tMatrix setmatrix
  lrx hradius sub lry vradius sub translate hradius vradius scale
  0 0 1 0 90 arc tMatrix setmatrix ulx hradius add lry vradius sub
  translate hradius vradius scale 0 0 1 90 180 arc tMatrix setmatrix
  closepath} bdef
/FRR {MRR stroke } bdef
/PRR {MRR fill } bdef
/MlrRR {/lry xdef /lrx xdef /uly xdef /ulx xdef /rad lry uly sub 2 div def
  newpath tMatrix currentmatrix pop ulx rad add uly rad add translate
  rad rad scale 0 0 1 90 270 arc tMatrix setmatrix lrx rad sub lry rad
  sub translate rad rad scale 0 0 1 270 90 arc tMatrix setmatrix
  closepath} bdef
/FlrRR {MlrRR stroke } bdef
/PlrRR {MlrRR fill } bdef
/MtbRR {/lry xdef /lrx xdef /uly xdef /ulx xdef /rad lrx ulx sub 2 div def
  newpath tMatrix currentmatrix pop ulx rad add uly rad add translate
  rad rad scale 0 0 1 180 360 arc tMatrix setmatrix lrx rad sub lry rad
  sub translate rad rad scale 0 0 1 0 180 arc tMatrix setmatrix
  closepath} bdef
/FtbRR {MtbRR stroke } bdef
/PtbRR {MtbRR fill } bdef
/stri 6 array def /dtri 6 array def
/smat 6 array def /dmat 6 array def
/tmat1 6 array def /tmat2 6 array def /dif 3 array def
/asub {/ind2 exch def /ind1 exch def dup dup
  ind1 get exch ind2 get sub exch } bdef
/tri_to_matrix {
  2 0 asub 3 1 asub 4 0 asub 5 1 asub
  dup 0 get exch 1 get 7 -1 roll astore } bdef
/compute_transform {
  dmat dtri tri_to_matrix tmat1 invertmatrix 
  smat stri tri_to_matrix tmat2 concatmatrix } bdef
/ds {stri astore pop} bdef
/dt {dtri astore pop} bdef
/db {2 copy /cols xdef /rows xdef mul dup 3 mul string
  currentfile 
  3 index 0 eq {/ASCIIHexDecode filter}
  {/ASCII85Decode filter 3 index 2 eq {/RunLengthDecode filter} if }
  ifelse exch readstring pop
  dup 0 3 index getinterval /rbmap xdef
  dup 2 index dup getinterval /gbmap xdef
  1 index dup 2 mul exch getinterval /bbmap xdef pop pop}bdef
/it {gs np dtri aload pop moveto lineto lineto cp c
  cols rows 8 compute_transform 
  rbmap gbmap bbmap true 3 colorimage gr}bdef
/il {newpath moveto lineto stroke}bdef
currentdict end def
%%EndProlog

%%BeginSetup
MathWorks begin

0 cap

end
%%EndSetup

%%Page: 1 1
%%BeginPageSetup
%%PageBoundingBox:   212   320   399   470
MathWorks begin
bpage
%%EndPageSetup

%%BeginObject: obj1
bplot

/dpi2point 12 def
portraitMode 2544 5640 csm

    0     0  2249  1800 rc
85 dict begin %Colortable dictionary
/c0 { 0.000000 0.000000 0.000000 sr} bdef
/c1 { 1.000000 1.000000 1.000000 sr} bdef
/c2 { 0.900000 0.000000 0.000000 sr} bdef
/c3 { 0.000000 0.820000 0.000000 sr} bdef
/c4 { 0.000000 0.000000 0.800000 sr} bdef
/c5 { 0.910000 0.820000 0.320000 sr} bdef
/c6 { 1.000000 0.260000 0.820000 sr} bdef
/c7 { 0.000000 0.820000 0.820000 sr} bdef
c0
1 j
1 sg
   0    0 2250 1801 rf
6 w
0 1467 1743 0 0 -1467 292 1602 4 MP
PP
-1743 0 0 1467 1743 0 0 -1467 292 1602 5 MP stroke
4 w
DO
SO
6 w
0 sg
 292  135 mt 2035  135 L
 292 1602 mt 2035 1602 L
2035 1602 mt 2035  135 L
 292 1602 mt  292  135 L
 292 1602 mt 2035 1602 L
 292 1602 mt  292  135 L
 292 1602 mt  292 1584 L
 292  135 mt  292  152 L
%%IncludeResource: font Helvetica
/Helvetica /WindowsLatin1Encoding 120 FMSR

 259 1747 mt 
(0) s
1024 1602 mt 1024 1584 L
1024  135 mt 1024  152 L
 958 1747 mt 
(50) s
1756 1602 mt 1756 1584 L
1756  135 mt 1756  152 L
1656 1747 mt 
(100) s
 292 1468 mt  309 1468 L
2035 1468 mt 2017 1468 L
 121 1512 mt 
(-2) s
 292 1201 mt  309 1201 L
2035 1201 mt 2017 1201 L
 121 1245 mt 
(-1) s
 292  935 mt  309  935 L
2035  935 mt 2017  935 L
 191  979 mt 
(0) s
 292  668 mt  309  668 L
2035  668 mt 2017  668 L
 191  712 mt 
(1) s
 292  401 mt  309  401 L
2035  401 mt 2017  401 L
 191  445 mt 
(2) s
 292  135 mt  309  135 L
2035  135 mt 2017  135 L
 191  179 mt 
(3) s
 292  135 mt 2035  135 L
 292 1602 mt 2035 1602 L
2035 1602 mt 2035  135 L
 292 1602 mt  292  135 L
gs 292 135 1744 1468 rc
/c8 { 0.000000 0.000000 1.000000 sr} bdef
c8
35 -14 34 -14 34 -17 34 -19 34 -26 35 -39 34 -69 34 -16 
34 -8 34 -7 34 -3 35 5 34 18 34 71 34 28 34 5 
34 -8 35 -13 34 4 34 18 34 18 34 14 35 10 34 -1 
34 -7 34 -20 34 -41 34 -17 35 -81 34 -42 34 -18 34 -10 
34 5 34 10 35 23 34 27 34 24 34 0 34 21 35 87 
34 13 34 -48 34 -93 34 -53 34 -25 35 -24 34 -2 34 -2 
34 7 34 35 34 35 292 1031 52 MP stroke
/c9 { 0.000000 0.500000 0.000000 sr} bdef
c9
35 -17 34 -50 34 -108 34 -15 34 -7 35 -26 34 -27 34 -17 
34 -5 34 9 34 22 35 25 34 14 34 13 34 130 34 74 
34 25 35 15 34 7 34 1 34 1 34 -1 35 -3 34 -5 
34 -20 34 -34 34 -75 34 -61 35 -111 34 -44 34 -11 34 -1 
34 12 34 6 35 -2 34 -27 34 -30 34 -24 34 -25 35 -5 
34 3 34 10 34 56 34 76 34 214 35 62 34 -6 34 -47 
34 -44 34 117 34 116 292 657 52 MP stroke
/c10 { 1.000000 0.000000 0.000000 sr} bdef
c10
35 -97 34 22 34 48 34 25 34 12 35 -16 34 -38 34 -112 
34 -73 34 21 34 113 35 -81 34 143 34 48 34 22 34 -7 
34 -22 35 -32 34 -21 34 33 34 35 34 32 35 12 34 9 
34 -29 34 -33 34 -83 34 -117 35 -24 34 -54 34 -45 34 -24 
34 -20 34 -3 35 -2 34 8 34 8 34 7 34 6 35 -4 
34 -5 34 -7 34 -7 34 3 34 4 35 22 34 26 34 59 
34 125 34 -61 34 -90 292 1057 52 MP stroke
/c11 { 0.000000 0.750000 0.750000 sr} bdef
c11
35 -174 34 -44 34 -61 34 -41 34 -19 35 18 34 41 34 68 
34 160 34 130 34 55 35 27 34 9 34 -5 34 -2 34 3 
34 24 35 27 34 31 34 27 34 22 34 19 35 6 34 5 
34 -5 34 -9 34 -13 34 -22 35 -24 34 -36 34 -39 34 -51 
34 -59 34 -65 35 -194 34 -96 34 -37 34 -6 34 16 35 29 
34 29 34 31 34 49 34 -33 34 -80 35 -61 34 -46 34 -31 
34 -27 34 -8 34 -8 292 1295 52 MP stroke
/c12 { 0.750000 0.000000 0.750000 sr} bdef
c12
35 -223 34 -49 34 74 34 42 34 -141 35 -45 34 -9 34 19 
34 33 34 55 34 133 35 78 34 38 34 19 34 -4 34 -10 
34 -10 35 2 34 25 34 30 34 29 34 24 35 9 34 9 
34 -19 34 -20 34 -41 34 -50 35 -70 34 -37 34 -131 34 -72 
34 -40 34 -29 35 -22 34 -13 34 -9 34 -3 34 4 35 6 
34 15 34 18 34 31 34 43 34 76 35 146 34 18 34 -47 
34 -134 34 -23 34 30 292 1020 52 MP stroke
/c13 { 0.750000 0.750000 0.000000 sr} bdef
c13
35 104 34 -47 34 -39 34 -13 34 -2 35 27 34 83 34 19 
34 -64 34 1 34 -22 35 -19 34 -9 34 8 34 19 34 27 
34 5 35 18 34 63 34 33 34 12 34 7 35 -14 34 -25 
34 -73 34 43 34 58 34 21 35 20 34 2 34 -7 34 -7 
34 -27 34 -27 35 -32 34 7 34 25 34 19 34 5 35 -9 
34 -33 34 -94 34 -63 34 -39 34 -20 35 -19 34 0 34 7 
34 7 34 55 34 84 292 953 52 MP stroke
0.25 sg
35 -30 34 62 34 22 34 10 34 3 35 -11 34 -25 34 -81 
34 -80 34 -33 34 -11 35 -4 34 7 34 20 34 39 34 132 
34 44 35 20 34 -4 34 -16 34 -29 34 -75 35 54 34 32 
34 15 34 -11 34 -20 34 -28 35 6 34 23 34 6 34 -29 
34 -38 34 -81 35 -55 34 -16 34 -9 34 27 34 50 35 106 
34 -95 34 -64 34 -40 34 -27 34 -27 35 -5 34 -4 34 -4 
34 21 34 29 34 29 292 1084 52 MP stroke
c8
35 267 34 56 34 30 34 -13 34 -36 35 -64 34 -124 34 -263 
34 187 34 117 34 -51 35 -274 34 -50 34 289 34 64 34 -29 
34 -153 35 226 34 115 34 57 34 20 34 -16 35 -42 34 -65 
34 -80 34 -41 34 13 34 -3 35 -179 34 -226 34 -87 34 -62 
34 -47 34 -45 35 -38 34 -38 34 -26 34 -22 34 -21 35 0 
34 1 34 8 34 33 34 33 34 56 35 71 34 103 34 168 
34 257 34 -95 34 -357 292 1255 52 MP stroke
c9
35 -48 34 -43 34 -40 34 -54 34 -195 35 145 34 75 34 98 
34 63 34 31 34 17 35 11 34 7 34 9 34 10 34 10 
34 7 35 5 34 -2 34 -6 34 -16 34 -21 35 -34 34 -52 
34 -73 34 -116 34 -264 34 -138 35 -95 34 -44 34 -39 34 13 
34 13 34 42 35 44 34 38 34 10 34 -13 34 -26 35 -9 
34 3 34 56 34 90 34 122 34 -66 35 -102 34 -69 34 -46 
34 -21 34 16 34 35 292 1295 52 MP stroke
c10
35 -144 34 9 34 76 34 21 34 4 35 -15 34 -47 34 -78 
34 74 34 42 34 26 35 8 34 4 34 -4 34 -10 34 -15 
34 -24 35 -30 34 -24 34 10 34 7 34 -6 35 -8 34 -25 
34 -81 34 -34 34 -27 34 -21 35 -19 34 -13 34 -12 34 -7 
34 -5 34 -2 35 3 34 3 34 6 34 7 34 7 35 6 
34 5 34 0 34 0 34 -2 34 -1 35 1 34 3 34 10 
34 15 34 31 34 94 292 951 52 MP stroke
c11
35 49 34 15 34 9 34 3 34 -1 35 -3 34 -5 34 -5 
34 -3 34 1 34 2 35 1 34 -4 34 -11 34 -28 34 -91 
34 -36 35 -14 34 -2 34 11 34 20 34 27 35 21 34 50 
34 -2 34 -7 34 10 34 15 35 11 34 2 34 -16 34 -77 
34 41 34 -47 35 -48 34 -3 34 8 34 5 34 -15 35 -24 
34 -25 34 -19 34 -16 34 -14 34 -4 35 -5 34 1 34 13 
34 12 34 45 34 62 292 988 52 MP stroke
c12
35 -51 34 49 34 20 34 -52 34 -236 35 -97 34 -47 34 11 
34 33 34 66 34 139 35 126 34 80 34 47 34 26 34 -4 
34 -8 35 -8 34 14 34 36 34 46 34 40 35 40 34 21 
34 10 34 11 34 -33 34 -33 35 -57 34 -81 34 -125 34 -193 
34 -112 34 -68 35 -41 34 -16 34 -2 34 13 34 22 35 27 
34 28 34 16 34 9 34 5 34 8 35 20 34 30 34 33 
34 18 34 10 34 55 292 964 52 MP stroke
c13
35 -198 34 -41 34 -79 34 -37 34 1 35 27 34 50 34 95 
34 179 34 60 34 37 35 25 34 20 34 17 34 16 34 14 
34 14 35 12 34 12 34 10 34 9 34 6 35 4 34 0 
34 -5 34 -9 34 -17 34 -21 35 -31 34 -40 34 -50 34 -77 
34 -218 34 -132 35 -47 34 -13 34 19 34 50 34 53 35 -1 
34 -20 34 8 34 36 34 -13 34 -62 35 -53 34 -36 34 -25 
34 7 34 28 34 67 292 1137 52 MP stroke
0.25 sg
35 -41 34 47 34 25 34 4 34 -8 35 -25 34 -90 34 -4 
34 -8 34 6 34 46 35 62 34 27 34 8 34 0 34 -11 
34 -15 35 -17 34 -5 34 5 34 8 34 8 35 -1 34 -10 
34 -33 34 -103 34 -55 34 -34 35 -20 34 -16 34 2 34 2 
34 8 34 15 35 15 34 16 34 14 34 0 34 -3 35 -5 
34 5 34 10 34 49 34 96 34 9 35 -92 34 -57 34 -28 
34 2 34 16 34 67 292 972 52 MP stroke
c8
35 -91 34 16 34 38 34 10 34 -4 35 -24 34 -81 34 -58 
34 -21 34 -12 34 -10 35 -7 34 -2 34 -1 34 11 34 19 
34 44 35 108 34 29 34 8 34 0 34 -6 35 -18 34 -28 
34 -12 34 26 34 20 34 13 35 4 34 -1 34 -8 34 -24 
34 -84 34 -70 35 -36 34 -26 34 -15 34 -7 34 -7 35 12 
34 14 34 21 34 33 34 44 34 35 35 51 34 22 34 -22 
34 -88 34 -32 34 -21 292 1047 52 MP stroke
c9
35 -39 34 71 34 23 34 -8 34 -54 35 -18 34 32 34 40 
34 10 34 2 34 -3 35 -4 34 -2 34 0 34 6 34 7 
34 6 35 5 34 4 34 1 34 -1 34 -4 35 -8 34 -21 
34 -89 34 -49 34 -20 34 -15 35 3 34 3 34 11 34 8 
34 1 34 -11 35 -19 34 -17 34 -16 34 -14 34 0 35 0 
34 5 34 30 34 30 34 93 34 75 35 -46 34 -91 34 -28 
34 3 34 19 34 118 292 900 52 MP stroke
c10
35 -70 34 -22 34 9 34 -33 34 -207 35 -33 34 72 34 110 
34 125 34 50 34 30 35 14 34 4 34 -1 34 -4 34 -1 
34 3 35 10 34 11 34 9 34 1 34 -9 35 -17 34 -42 
34 -80 34 -255 34 -94 34 -43 35 -30 34 -16 34 -9 34 -3 
34 0 34 2 35 5 34 5 34 5 34 6 34 6 35 10 
34 20 34 48 34 120 34 226 34 17 35 -205 34 -166 34 -71 
34 -8 34 37 34 107 292 1092 52 MP stroke
c11
35 -17 34 0 34 12 34 12 34 8 35 3 34 -4 34 -21 
34 -39 34 -12 34 -12 35 -74 34 -19 34 -11 34 -12 34 -12 
34 -7 35 0 34 7 34 33 34 98 34 59 35 16 34 9 
34 6 34 4 34 1 34 -1 35 -4 34 -10 34 -15 34 -18 
34 -19 34 -43 35 -84 34 -29 34 -15 34 -5 34 3 35 4 
34 4 34 -1 34 -5 34 -9 34 -7 35 -5 34 -2 34 5 
34 12 34 24 34 86 292 953 52 MP stroke
c12
35 -84 34 -16 34 13 34 29 34 56 35 -56 34 -34 34 -17 
34 -9 34 -2 34 5 35 9 34 20 34 28 34 32 34 20 
34 87 35 32 34 16 34 2 34 -5 34 -15 35 -40 34 -92 
34 -12 34 -28 34 -19 34 -3 35 25 34 56 34 -57 34 -23 
34 7 34 39 35 106 34 37 34 27 34 21 34 19 35 16 
34 15 34 9 34 9 34 5 34 3 35 2 34 -6 34 -7 
34 -11 34 -23 34 -23 292 785 52 MP stroke
c13
35 -84 34 66 34 59 34 31 34 28 35 6 34 6 34 -25 
34 -26 34 -58 34 -81 35 -7 34 -126 34 -26 34 10 34 37 
34 49 35 32 34 96 34 48 34 29 34 18 35 11 34 0 
34 -7 34 -21 34 -31 34 -54 35 -56 34 35 34 12 34 -97 
34 -90 34 -20 35 -14 34 -16 34 -21 34 -18 34 -15 35 -8 
34 -4 34 5 34 8 34 13 34 14 35 15 34 5 34 -7 
34 -17 34 -36 34 -36 292 1180 52 MP stroke
0.25 sg
35 75 34 11 34 -15 34 -59 34 3 35 -48 34 -7 34 21 
34 22 34 -40 34 -18 35 -9 34 4 34 7 34 16 34 42 
34 69 35 21 34 8 34 -4 34 -16 34 -55 35 66 34 37 
34 16 34 4 34 -8 34 -43 35 -73 34 -78 34 -42 34 -17 
34 3 34 3 35 28 34 29 34 38 34 -21 34 -29 35 -8 
34 7 34 30 34 91 34 51 34 12 35 5 34 -6 34 -13 
34 -20 34 -32 34 1 292 900 52 MP stroke
c8
35 18 34 19 34 21 34 23 34 39 35 21 34 8 34 -2 
34 -28 34 -43 34 -5 35 2 34 5 34 26 34 39 34 2 
34 -48 35 -47 34 -13 34 4 34 15 34 67 35 13 34 -10 
34 37 34 22 34 11 34 8 35 -8 34 -9 34 -21 34 -29 
34 -7 34 26 35 7 34 -16 34 -49 34 -23 34 55 35 26 
34 -8 34 -46 34 -49 34 -34 34 -11 35 -10 34 -3 34 10 
34 10 34 48 34 73 292 905 52 MP stroke
c9
35 145 34 73 34 21 34 17 34 -21 35 -22 34 -45 34 -59 
34 -112 34 -37 34 -146 35 -23 34 25 34 47 34 -26 34 -10 
34 143 35 101 34 2 34 -28 34 -25 34 43 35 49 34 29 
34 20 34 -14 34 -21 34 -45 35 -46 34 -3 34 25 34 -16 
34 -191 34 -81 35 2 34 36 34 57 34 -33 34 -39 35 -7 
34 20 34 28 34 -15 34 -45 34 -39 35 -32 34 -13 34 -10 
34 23 34 35 34 122 292 1004 52 MP stroke
c10
35 -76 34 74 34 22 34 6 34 -9 35 -80 34 -97 34 -30 
34 -30 34 -1 34 1 35 3 34 20 34 20 34 33 34 38 
34 62 35 39 34 9 34 -21 34 -84 34 0 35 109 34 33 
34 27 34 -5 34 -6 34 -26 35 -38 34 -97 34 -32 34 -10 
34 -3 34 3 35 9 34 20 34 67 34 34 34 -38 35 -71 
34 -14 34 19 34 53 34 -1 34 73 35 33 34 8 34 8 
34 -24 34 -40 34 -110 292 988 52 MP stroke
c11
35 -58 34 94 34 10 34 -70 34 -148 35 -52 34 -11 34 17 
34 24 34 26 34 13 35 15 34 115 34 79 34 42 34 33 
34 19 35 17 34 7 34 6 34 -1 34 -2 35 -6 34 -10 
34 -12 34 -17 34 -18 34 -20 35 -19 34 -17 34 -13 34 -32 
34 -136 34 -90 35 -34 34 2 34 16 34 39 34 25 35 -31 
34 -45 34 -43 34 -20 34 -19 34 8 35 15 34 31 34 46 
34 78 34 105 34 -60 292 967 52 MP stroke
c12
35 -64 34 -40 34 -31 34 -25 34 -17 35 -12 34 6 34 18 
34 38 34 85 34 -44 35 -71 34 -42 34 -22 34 -1 34 10 
34 28 35 33 34 34 34 4 34 -13 34 -2 35 30 34 98 
34 -37 34 -44 34 -8 34 -3 35 -2 34 31 34 187 34 76 
34 43 34 37 35 27 34 27 34 21 34 21 34 21 35 20 
34 19 34 20 34 20 34 20 34 20 35 20 34 21 34 21 
34 22 34 22 34 21 292 300 52 MP stroke
c13
35 30 34 15 34 -3 34 -9 34 -4 35 8 34 24 34 19 
34 -20 34 27 34 -55 35 -72 34 -55 34 -19 34 -19 34 13 
34 27 35 43 34 79 34 43 34 -55 34 20 35 130 34 40 
34 0 34 -18 34 -94 34 -43 35 30 34 -17 34 -37 34 27 
34 138 34 81 35 40 34 24 34 20 34 17 34 14 35 14 
34 14 34 15 34 14 34 18 34 18 35 18 34 20 34 23 
34 23 34 22 34 23 292 452 52 MP stroke
0.25 sg
35 16 34 -27 34 -17 34 -13 34 -12 35 -9 34 -7 34 -6 
34 -3 34 -1 34 -1 35 4 34 5 34 10 34 11 34 20 
34 33 35 21 34 -24 34 77 34 35 34 14 35 -18 34 -54 
34 -84 34 -20 34 -9 34 -1 35 6 34 10 34 20 34 27 
34 5 34 -20 35 7 34 64 34 15 34 -53 34 46 35 7 
34 9 34 20 34 26 34 28 34 29 35 29 34 28 34 27 
34 27 34 27 34 28 292 617 52 MP stroke
c8
35 14 34 -98 34 -33 34 -14 34 -7 35 13 34 21 34 30 
34 11 34 -21 34 -6 35 42 34 102 34 44 34 3 34 -2 
34 -15 35 -12 34 1 34 15 34 20 34 16 35 10 34 5 
34 -5 34 -6 34 -16 34 -15 35 -15 34 -6 34 1 34 3 
34 -11 34 -43 35 -53 34 81 34 -9 34 -96 34 -53 35 -1 
34 23 34 42 34 -8 34 67 34 13 35 -86 34 -55 34 -31 
34 -25 34 -18 34 -17 292 1121 52 MP stroke
c9
35 -27 34 9 34 47 34 -9 34 -65 35 -29 34 -16 34 -5 
34 2 34 8 34 14 35 21 34 27 34 58 34 40 34 24 
34 11 35 8 34 -2 34 -7 34 -13 34 -19 35 -25 34 -17 
34 -10 34 -30 34 10 34 -62 35 -27 34 -17 34 0 34 7 
34 17 34 26 35 35 34 -16 34 -7 34 52 34 61 35 34 
34 13 34 12 34 4 34 1 34 1 35 -8 34 -7 34 -15 
34 -20 34 -43 34 -83 292 980 52 MP stroke
c10
35 70 34 10 34 -16 34 -40 34 -18 35 -20 34 -16 34 -12 
34 -6 34 -5 34 0 35 3 34 9 34 14 34 41 34 61 
34 5 35 -52 34 65 34 18 34 7 34 -4 35 -20 34 -46 
34 -37 34 -4 34 2 34 41 35 26 34 -6 34 -50 34 25 
34 65 34 35 35 28 34 12 34 12 34 13 34 -3 35 -5 
34 -5 34 -9 34 -23 34 -23 34 -48 35 -81 34 -54 34 -20 
34 -9 34 7 34 7 292 1031 52 MP stroke
c11
35 -94 34 -9 34 24 34 49 34 -67 35 -27 34 -16 34 -8 
34 2 34 6 34 20 35 28 34 38 34 59 34 88 34 43 
34 34 35 12 34 11 34 -9 34 -23 34 -27 35 -61 34 -74 
34 75 34 32 34 4 34 -9 35 -47 34 -119 34 -63 34 -34 
34 -14 34 -13 35 1 34 1 34 10 34 12 34 19 35 23 
34 32 34 74 34 65 34 22 34 12 35 6 34 1 34 -6 
34 -18 34 -33 34 -56 292 940 52 MP stroke
c12
35 -72 34 10 34 -9 34 -67 34 -14 35 0 34 16 34 52 
34 59 34 37 34 19 35 18 34 9 34 3 34 4 34 -4 
34 -4 35 -5 34 -7 34 -6 34 -5 34 -4 35 -4 34 -4 
34 -6 34 -10 34 -18 34 -33 35 -87 34 -41 34 -17 34 -10 
34 -2 34 7 35 14 34 25 34 25 34 -15 34 -25 35 -9 
34 3 34 17 34 49 34 -27 34 -22 35 -10 34 -3 34 3 
34 9 34 15 34 34 292 953 52 MP stroke
c13
35 95 34 17 34 -1 34 -22 34 -89 35 -24 34 27 34 67 
34 -28 34 -87 34 -20 35 -20 34 15 34 15 34 57 34 57 
34 -64 35 -25 34 9 34 63 34 27 34 5 35 21 34 23 
34 18 34 9 34 2 34 -2 35 -22 34 -29 34 -50 34 64 
34 40 34 17 35 10 34 10 34 -18 34 -23 34 -44 35 -93 
34 -50 34 0 34 29 34 31 34 -43 35 -19 34 1 34 9 
34 25 34 32 34 18 292 929 52 MP stroke
0.25 sg
35 -73 34 -11 34 12 34 53 34 40 35 -6 34 -54 34 -34 
34 -6 34 8 34 35 35 49 34 -5 34 -46 34 55 34 30 
34 10 35 -8 34 -23 34 -72 34 -15 34 55 35 44 34 15 
34 7 34 -9 34 -14 34 -52 35 -64 34 -29 34 -11 34 -2 
34 9 34 31 35 62 34 45 34 -15 34 -69 34 -36 35 -23 
34 20 34 31 34 73 34 37 34 -10 35 -56 34 -50 34 1 
34 37 34 43 34 -46 292 948 52 MP stroke
c8
35 -22 34 3 34 25 34 70 34 38 35 12 34 0 34 -8 
34 -30 34 -75 34 -13 35 9 34 47 34 16 34 24 34 19 
34 12 35 9 34 5 34 2 34 0 34 -3 35 -5 34 -8 
34 -10 34 -11 34 -6 34 3 35 6 34 3 34 -22 34 -80 
34 -56 34 -11 35 -12 34 26 34 35 34 87 34 35 35 -11 
34 -81 34 25 34 18 34 -51 34 -5 35 -14 34 -22 34 -26 
34 -27 34 -27 34 -26 292 1113 52 MP stroke
c9
35 -124 34 -9 34 87 34 75 34 27 35 -1 34 -15 34 -31 
34 -68 34 28 34 0 35 52 34 35 34 25 34 13 34 10 
34 4 35 0 34 -1 34 -4 34 -6 34 -8 35 -9 34 -13 
34 -17 34 -22 34 -45 34 -83 35 -9 34 -18 34 -18 34 -16 
34 -12 34 -6 35 -3 34 1 34 9 34 13 34 14 35 9 
34 -6 34 -13 34 -11 34 -6 34 -2 35 0 34 4 34 6 
34 8 34 10 34 10 292 1007 52 MP stroke
c10
35 45 34 22 34 2 34 0 34 -16 35 -17 34 -51 34 -20 
34 60 34 33 34 19 35 3 34 4 34 -26 34 -38 34 -64 
34 -57 35 -23 34 -23 34 -21 34 3 34 2 35 2 34 3 
34 22 34 21 34 22 34 66 35 50 34 8 34 -3 34 -9 
34 -14 34 -19 35 -21 34 -25 34 -14 34 -9 34 -2 35 -1 
34 5 34 11 34 19 34 58 34 13 35 -11 34 -12 34 23 
34 3 34 -19 34 -65 292 977 52 MP stroke
c11
35 129 34 26 34 4 34 -9 34 -31 35 -41 34 -46 34 24 
34 13 34 -74 34 -89 35 47 34 102 34 44 34 11 34 -5 
34 -10 35 1 34 24 34 24 34 19 34 9 35 -4 34 -15 
34 -31 34 -36 34 -25 34 3 35 -15 34 -131 34 -26 34 31 
34 -4 34 -2 35 14 34 -90 34 -66 34 -54 34 -40 35 -40 
34 -26 34 -19 34 -20 34 -16 34 1 35 1 34 2 34 11 
34 36 34 36 34 36 292 1228 52 MP stroke
c12
35 -8 34 -8 34 -7 34 -5 34 -3 35 -1 34 1 34 -2 
34 -9 34 -14 34 0 35 22 34 20 34 9 34 -3 34 -9 
34 -7 35 2 34 8 34 10 34 9 34 3 35 -4 34 -16 
34 -32 34 -47 34 -75 34 -3 35 -49 34 -40 34 -6 34 10 
34 1 34 -29 35 -39 34 -39 34 -26 34 -22 34 -10 35 -2 
34 1 34 10 34 11 34 15 34 16 35 11 34 9 34 -10 
34 -14 34 -33 34 -33 292 1233 52 MP stroke
c13
35 76 34 7 34 -55 34 -12 34 7 35 -4 34 -19 34 -18 
34 -11 34 -8 34 -1 35 -1 34 6 34 6 34 14 34 18 
34 46 35 60 34 33 34 16 34 15 34 11 35 1 34 1 
34 -2 34 -18 34 -17 34 -36 35 -59 34 0 34 45 34 8 
34 -7 34 -15 35 -27 34 14 34 -45 34 -30 34 -12 35 -4 
34 6 34 35 34 62 34 3 34 -62 35 -42 34 -12 34 -5 
34 30 34 62 34 87 292 841 52 MP stroke
0.25 sg
35 -112 34 -13 34 89 34 36 34 -3 35 -31 34 -88 34 -19 
34 2 34 30 34 73 35 19 34 11 34 8 34 10 34 11 
34 13 35 14 34 10 34 10 34 4 34 2 35 -2 34 -9 
34 -11 34 -18 34 -20 34 -21 35 -14 34 -15 34 -76 34 -34 
34 14 34 49 35 -79 34 -26 34 -18 34 11 34 18 35 41 
34 31 34 -39 34 -21 34 -12 34 -7 35 -5 34 0 34 1 
34 4 34 7 34 10 292 1025 52 MP stroke
c8
35 25 34 -10 34 -7 34 -37 34 -27 35 -6 34 19 34 65 
34 -12 34 -46 34 -4 35 37 34 44 34 16 34 10 34 3 
34 -2 35 -5 34 -9 34 -2 34 4 34 16 35 13 34 13 
34 8 34 2 34 1 34 -13 35 -18 34 -38 34 -72 34 -15 
34 43 34 43 35 9 34 -11 34 -71 34 -39 34 -21 35 -7 
34 -5 34 2 34 2 34 6 34 7 35 5 34 4 34 -4 
34 -7 34 -16 34 -16 292 1052 52 MP stroke
c9
35 -154 34 123 34 39 34 15 34 -31 35 -75 34 -106 34 -1 
34 -26 34 32 34 115 35 41 34 30 34 23 34 18 34 15 
34 9 35 6 34 0 34 -3 34 -7 34 -10 35 -12 34 -14 
34 -13 34 -14 34 -18 34 -28 35 -72 34 -113 34 -54 34 -30 
34 -9 34 1 35 5 34 9 34 6 34 1 34 -4 35 -5 
34 -4 34 -3 34 -1 34 1 34 3 35 2 34 3 34 3 
34 0 34 -2 34 -3 292 1103 52 MP stroke
c10
35 101 34 40 34 21 34 -5 34 -16 35 -26 34 -39 34 -42 
34 -34 34 -22 34 -59 35 -188 34 -38 34 -10 34 9 34 21 
34 31 35 136 34 119 34 56 34 31 34 15 35 5 34 -4 
34 -3 34 3 34 9 34 10 35 4 34 -4 34 -29 34 -52 
34 -111 34 -228 35 -68 34 -26 34 -12 34 -14 34 -16 35 -28 
34 -25 34 -23 34 -11 34 -2 34 17 35 30 34 54 34 69 
34 85 34 -23 34 -140 292 1212 52 MP stroke
c11
35 18 34 18 34 -9 34 -11 34 -31 35 -39 34 -75 34 -54 
34 -108 34 -40 34 -18 35 -5 34 16 34 48 34 139 34 -13 
34 45 35 50 34 38 34 31 34 20 34 18 35 6 34 5 
34 -7 34 -10 34 -17 34 -24 35 -30 34 -36 34 -45 34 -128 
34 -76 34 -25 35 -5 34 14 34 34 34 24 34 -28 35 -40 
34 -29 34 -22 34 -2 34 1 34 17 35 19 34 29 34 32 
34 34 34 28 34 -5 292 985 52 MP stroke
c12
35 -19 34 -60 34 -33 34 -21 34 -19 35 -6 34 -5 34 4 
34 9 34 16 34 23 35 31 34 17 34 -2 34 18 34 58 
34 15 35 -11 34 -21 34 23 34 24 34 6 35 -13 34 -54 
34 -54 34 65 34 -59 34 -67 35 -25 34 -19 34 -5 34 13 
34 12 34 40 35 56 34 -21 34 -31 34 -12 34 18 35 79 
34 92 34 33 34 33 34 20 34 13 35 14 34 13 34 -3 
34 -3 34 -3 34 -3 292 724 52 MP stroke
c13
35 -113 34 -18 34 0 34 16 34 50 35 90 34 15 34 -48 
34 -55 34 -9 34 -3 35 6 34 28 34 99 34 46 34 41 
34 24 35 23 34 19 34 3 34 3 34 3 35 -12 34 -23 
34 -23 34 -40 34 -62 34 -97 35 78 34 38 34 12 34 -8 
34 -20 34 -65 35 -89 34 -36 34 -17 34 8 34 14 35 38 
34 38 34 -35 34 -18 34 7 34 35 35 74 34 -17 34 -70 
34 -20 34 -5 34 15 292 996 52 MP stroke
0.25 sg
35 62 34 26 34 9 34 4 34 -8 35 -8 34 -22 34 -35 
34 -40 34 33 34 22 35 -54 34 -25 34 -14 34 4 34 5 
34 19 35 30 34 -15 34 -6 34 5 34 2 35 -9 34 -8 
34 -3 34 7 34 20 34 36 35 7 34 5 34 4 34 3 
34 0 34 -3 35 -4 34 -3 34 1 34 1 34 -2 35 -13 
34 -1 34 3 34 -49 34 -24 34 -16 35 -5 34 -4 34 5 
34 13 34 29 34 62 292 905 52 MP stroke
c8
35 -17 34 -3 34 5 34 25 34 48 35 18 34 10 34 -5 
34 -22 34 -59 34 -28 35 7 34 47 34 37 34 -35 34 -50 
34 -18 35 1 34 14 34 18 34 -1 34 -17 35 -4 34 16 
34 51 34 -17 34 -47 34 -16 35 6 34 20 34 51 34 14 
34 -5 34 -12 35 -13 34 48 34 24 34 17 34 11 35 7 
34 6 34 2 34 0 34 0 34 -5 35 -6 34 -6 34 -16 
34 -16 34 -47 34 -73 292 991 52 MP stroke
c9
35 -25 34 41 34 21 34 0 34 -26 35 -95 34 4 34 -21 
34 -28 34 -15 34 -2 35 17 34 85 34 83 34 45 34 27 
34 24 35 8 34 7 34 -1 34 -14 34 -14 35 -31 34 -36 
34 -66 34 -20 34 59 34 5 35 -52 34 -126 34 -49 34 -28 
34 -7 34 -3 35 10 34 9 34 9 34 6 34 -8 35 -8 
34 -12 34 -12 34 -2 34 -1 34 10 35 19 34 33 34 53 
34 126 34 24 34 -53 292 903 52 MP stroke
c10
35 -85 34 -3 34 -46 34 -28 34 -18 35 -14 34 -1 34 3 
34 16 34 25 34 34 35 26 34 50 34 69 34 25 34 12 
34 4 35 2 34 1 34 1 34 -1 34 -5 35 -15 34 -35 
34 -104 34 -9 34 17 34 -21 35 -28 34 -24 34 -20 34 -10 
34 -3 34 5 35 30 34 85 34 115 34 59 34 32 35 29 
34 23 34 10 34 11 34 9 34 -9 35 -8 34 -9 34 -39 
34 -47 34 -90 34 -160 292 1020 52 MP stroke
c11
35 -44 34 -2 34 27 34 32 34 24 35 13 34 2 34 -21 
34 -40 34 -65 34 -167 35 16 34 133 34 -22 34 -1 34 104 
34 66 35 45 34 26 34 12 34 2 34 -9 35 -16 34 -30 
34 -36 34 -52 34 -65 34 -92 35 -193 34 -71 34 -38 34 -22 
34 -6 34 -6 35 -4 34 -9 34 -9 34 -9 34 -6 35 0 
34 6 34 14 34 17 34 19 34 12 35 -4 34 -16 34 -44 
34 -51 34 -65 34 -64 292 1436 52 MP stroke
c12
35 23 34 17 34 4 34 1 34 -7 35 -8 34 -18 34 -27 
34 -64 34 -24 34 -15 35 -13 34 -9 34 -6 34 1 34 6 
34 16 35 32 34 45 34 5 34 5 34 25 35 21 34 14 
34 0 34 -10 34 -27 34 -62 35 47 34 -75 34 -43 34 -23 
34 -10 34 -1 35 0 34 11 34 11 34 11 34 12 35 0 
34 -3 34 -7 34 -2 34 2 34 18 35 43 34 47 34 -63 
34 1 34 90 34 86 292 799 52 MP stroke
c13
35 116 34 36 34 -68 34 -70 34 -39 35 -17 34 -13 34 6 
34 7 34 19 34 25 35 41 34 39 34 -27 34 -30 34 -26 
34 -18 35 -15 34 -4 34 -5 34 12 34 12 35 24 34 30 
34 24 34 -8 34 19 34 75 35 29 34 15 34 6 34 -3 
34 -8 34 -24 35 -43 34 21 34 20 34 -8 34 -36 35 -16 
34 20 34 56 34 33 34 25 34 20 35 13 34 14 34 9 
34 5 34 4 34 4 292 727 52 MP stroke
0.25 sg
35 53 34 25 34 9 34 -9 34 -14 35 -32 34 -46 34 -66 
34 -67 34 40 34 45 35 40 34 -2 34 9 34 27 34 24 
34 14 35 2 34 -3 34 -9 34 -4 34 3 35 11 34 11 
34 6 34 -4 34 -26 34 -53 35 -120 34 -36 34 -19 34 -24 
34 -20 34 -18 35 -5 34 1 34 13 34 21 34 23 35 15 
34 -16 34 -29 34 -27 34 -24 34 -16 35 -13 34 -6 34 3 
34 4 34 32 34 32 292 1089 52 MP stroke
c8
35 43 34 7 34 2 34 4 34 5 35 2 34 -8 34 -44 
34 -35 34 -4 34 9 35 18 34 9 34 -6 34 -7 34 41 
34 26 35 6 34 4 34 2 34 6 34 10 35 11 34 8 
34 7 34 5 34 -3 34 -3 35 -15 34 -24 34 -61 34 -41 
34 9 34 28 35 -35 34 -11 34 2 34 9 34 4 35 -12 
34 -15 34 -16 34 -10 34 -9 34 -6 35 2 34 1 34 13 
34 23 34 47 34 76 292 879 52 MP stroke
c9
35 -84 34 -12 34 -10 34 10 34 11 35 29 34 66 34 36 
34 -19 34 16 34 25 35 13 34 3 34 -14 34 -27 34 -1 
34 30 35 22 34 12 34 9 34 5 34 4 35 1 34 -1 
34 -3 34 -6 34 -9 34 -16 35 -25 34 -80 34 -6 34 70 
34 12 34 -18 35 -66 34 -35 34 -25 34 -18 34 -15 35 -8 
34 -8 34 -1 34 1 34 3 34 8 35 9 34 15 34 16 
34 25 34 36 34 -12 292 977 52 MP stroke
c10
35 -78 34 -15 34 -9 34 3 34 8 35 18 34 38 34 65 
34 24 34 7 34 -11 35 -51 34 -44 34 66 34 44 34 16 
34 -20 35 -54 34 14 34 58 34 20 34 15 35 1 34 -18 
34 -23 34 -71 34 -26 34 72 35 29 34 3 34 -5 34 -30 
34 -53 34 14 35 -18 34 -59 34 -21 34 -17 34 -3 35 -2 
34 6 34 7 34 9 34 10 34 6 35 4 34 2 34 1 
34 6 34 14 34 58 292 919 52 MP stroke
c11
35 -42 34 -15 34 -1 34 9 34 17 35 23 34 17 34 -27 
34 -43 34 -33 34 -20 35 -5 34 0 34 8 34 3 34 -1 
34 -17 35 -17 34 -17 34 -9 34 -1 34 13 35 30 34 53 
34 96 34 129 34 56 34 42 35 32 34 10 34 -2 34 -19 
34 -33 34 -33 35 -7 34 29 34 35 34 17 34 2 35 -14 
34 -33 34 -35 34 -13 34 18 34 16 35 -3 34 -26 34 -44 
34 -6 34 -13 34 5 292 881 52 MP stroke
c12
35 93 34 8 34 -68 34 -45 34 -14 35 -11 34 6 34 7 
34 17 34 13 34 2 35 -17 34 -17 34 -16 34 -5 34 -6 
34 11 35 14 34 28 34 43 34 -15 34 -17 35 14 34 66 
34 -10 34 50 34 13 34 -6 35 -29 34 -29 34 53 34 20 
34 1 34 -9 35 -30 34 -30 34 35 34 15 34 0 35 -16 
34 -29 34 24 34 30 34 13 34 10 35 -11 34 -15 34 -41 
34 -74 34 -9 34 71 292 913 52 MP stroke
c13
35 -46 34 -16 34 -92 34 -24 34 6 35 29 34 43 34 0 
34 92 34 42 34 23 35 18 34 1 34 1 34 -4 34 -3 
34 3 35 8 34 16 34 14 34 13 34 13 35 0 34 -2 
34 -9 34 -29 34 -31 34 -80 35 -116 34 -30 34 -4 34 0 
34 -3 34 -4 35 -2 34 3 34 2 34 -4 34 -12 35 -20 
34 -14 34 -13 34 6 34 9 34 49 35 117 34 35 34 -123 
34 -44 34 5 34 94 292 943 52 MP stroke
0.25 sg
35 90 34 61 34 10 34 8 34 -28 35 -28 34 -62 34 -93 
34 -52 34 -69 34 96 35 15 34 30 34 43 34 37 34 15 
34 4 35 -13 34 -26 34 -29 34 -18 34 11 35 18 34 6 
34 -24 34 -54 34 -130 34 -82 35 -35 34 -10 34 7 34 20 
34 21 34 2 35 -9 34 -4 34 13 34 19 34 -6 35 -47 
34 -47 34 -43 34 -32 34 -29 34 -13 35 -13 34 1 34 13 
34 13 34 63 34 68 292 1113 52 MP stroke
c8
35 -133 34 -14 34 66 34 32 34 6 35 -19 34 -63 34 -189 
34 -63 34 -15 34 18 35 91 34 139 34 17 34 30 34 36 
34 35 35 29 34 24 34 9 34 4 34 -8 35 -16 34 -19 
34 -19 34 -11 34 -8 34 -15 35 -44 34 -192 34 -71 34 -42 
34 -37 34 -36 35 -28 34 -24 34 -7 34 -2 34 20 35 30 
34 50 34 57 34 37 34 -26 34 -47 35 -43 34 -31 34 -16 
34 -8 34 19 34 27 292 1183 52 MP stroke
c9
35 -28 34 27 34 11 34 4 34 0 35 -8 34 -19 34 -58 
34 -14 34 4 34 16 35 35 34 21 34 28 34 13 34 11 
34 2 35 2 34 -2 34 -4 34 -5 34 -6 35 -6 34 -4 
34 -5 34 -8 34 -15 34 -33 35 44 34 11 34 -7 34 -54 
34 -54 34 -22 35 -16 34 0 34 -1 34 6 34 11 35 11 
34 15 34 8 34 1 34 -6 34 -2 35 4 34 16 34 52 
34 -50 34 -47 34 -47 292 1063 52 MP stroke
c10
35 136 34 21 34 -8 34 -27 34 -85 35 -89 34 34 34 -31 
34 -21 34 7 34 16 35 -8 34 -12 34 4 34 28 34 73 
34 15 35 19 34 18 34 17 34 10 34 2 35 -6 34 -16 
34 -21 34 -12 34 -26 34 -42 35 145 34 67 34 58 34 18 
34 18 34 17 35 -31 34 -32 34 -32 34 -151 34 -168 35 -123 
34 -50 34 -51 34 -46 34 -7 34 -7 35 -8 34 -7 34 28 
34 51 34 51 34 50 292 1159 52 MP stroke
c11
35 -107 34 -4 34 86 34 6 34 -75 35 -26 34 5 34 36 
34 -47 34 53 34 95 35 62 34 22 34 22 34 5 34 -10 
34 -11 35 -26 34 -36 34 -40 34 -17 34 29 35 39 34 19 
34 19 34 2 34 -5 34 -9 35 -23 34 -27 34 -44 34 -79 
34 -49 34 -26 35 -8 34 1 34 11 34 27 34 22 35 -14 
34 -12 34 11 34 40 34 -44 34 -35 35 -23 34 -14 34 -4 
34 4 34 23 34 40 292 1004 52 MP stroke
c12
35 8 34 3 34 0 34 -2 34 -4 35 -3 34 -3 34 -4 
34 -24 34 -65 34 -24 35 -13 34 5 34 11 34 21 34 30 
34 -12 35 -17 34 -7 34 6 34 45 34 36 35 -14 34 13 
34 27 34 19 34 17 34 10 35 9 34 -1 34 -2 34 -11 
34 -21 34 -40 35 -60 34 16 34 -41 34 -21 34 -16 35 -10 
34 -9 34 -4 34 -5 34 0 34 1 35 3 34 7 34 10 
34 17 34 39 34 82 292 887 52 MP stroke
c13
35 -139 34 -30 34 -11 34 0 34 6 35 8 34 9 34 8 
34 13 34 35 34 179 35 59 34 56 34 60 34 50 34 46 
34 24 35 22 34 3 34 -4 34 -9 34 -16 35 -16 34 -11 
34 -6 34 9 34 11 34 16 35 14 34 4 34 5 34 -17 
34 -19 34 -36 35 -42 34 -62 34 -77 34 -157 34 -103 35 -28 
34 -1 34 31 34 82 34 -55 34 -64 35 -53 34 -49 34 -44 
34 -44 34 -40 34 -41 292 1359 52 MP stroke
0.25 sg
35 126 34 15 34 15 34 -15 34 -14 35 -42 34 -80 34 50 
34 6 34 -79 34 32 35 38 34 -21 34 5 34 6 34 -9 
34 38 35 30 34 14 34 2 34 -31 34 -82 35 61 34 59 
34 19 34 9 34 -30 34 -61 35 -133 34 -3 34 53 34 -49 
34 -36 34 -21 35 -3 34 2 34 11 34 10 34 9 35 -6 
34 -11 34 -14 34 -13 34 -12 34 -9 35 -3 34 -4 34 10 
34 11 34 33 34 48 292 1004 52 MP stroke
c8
35 64 34 2 34 -27 34 7 34 20 35 -45 34 -65 34 -21 
34 4 34 19 34 27 35 -10 34 -30 34 -18 34 -12 34 -5 
34 -2 35 3 34 4 34 8 34 10 34 11 35 14 34 14 
34 10 34 4 34 12 34 54 35 12 34 -18 34 -9 34 9 
34 -66 34 -22 35 10 34 64 34 59 34 25 34 26 35 13 
34 13 34 11 34 4 34 4 34 4 35 -4 34 -6 34 -6 
34 -15 34 -27 34 -26 292 844 52 MP stroke
c9
35 23 34 10 34 5 34 -3 34 -6 35 -7 34 -10 34 -6 
34 1 34 3 34 0 35 -9 34 -26 34 -22 34 -2 34 31 
34 21 35 10 34 -1 34 -6 34 -5 34 2 35 6 34 -2 
34 -19 34 -33 34 23 34 -94 35 -69 34 -24 34 -20 34 -5 
34 13 34 14 35 37 34 43 34 19 34 -47 34 -44 35 -30 
34 -18 34 -18 34 -3 34 7 34 7 35 16 34 31 34 31 
34 73 34 34 34 -123 292 1065 52 MP stroke
c10
35 -31 34 -31 34 -20 34 -2 34 -3 35 -1 34 14 34 14 
34 14 34 33 34 33 35 70 34 79 34 -7 34 -95 34 -31 
34 -10 35 12 34 27 34 42 34 -41 34 5 35 102 34 77 
34 21 34 20 34 -10 34 -21 35 -46 34 -90 34 -43 34 73 
34 -69 34 16 35 -15 34 -9 34 83 34 -7 34 -58 35 101 
34 54 34 27 34 18 34 -2 34 -1 35 -16 34 -23 34 -34 
34 -53 34 15 34 83 292 796 52 MP stroke
c11
35 31 34 10 34 -2 34 -14 34 -27 35 -40 34 -55 34 -107 
34 -34 34 -12 34 4 35 20 34 38 34 4 34 -13 34 126 
34 79 35 37 34 24 34 16 34 4 34 0 35 -4 34 -5 
34 0 34 4 34 12 34 10 35 9 34 0 34 -10 34 -28 
34 -48 34 -112 35 -74 34 -50 34 -42 34 -23 34 -15 35 -13 
34 -13 34 -13 34 -11 34 -10 34 -6 35 -4 34 0 34 5 
34 10 34 20 34 26 292 1103 52 MP stroke
c12
35 -45 34 -2 34 16 34 64 34 20 35 4 34 -9 34 -36 
34 -62 34 -26 34 -16 35 -8 34 -7 34 9 34 8 34 17 
34 26 35 55 34 24 34 25 34 17 34 15 35 9 34 8 
34 6 34 2 34 1 34 0 35 -4 34 -3 34 -8 34 -10 
34 -12 34 -21 35 -35 34 -40 34 45 34 22 34 -1 35 -30 
34 -57 34 -23 34 -2 34 3 34 9 35 13 34 8 34 -2 
34 1 34 17 34 -9 292 961 52 MP stroke
c13
35 -65 34 -26 34 -11 34 11 34 19 35 57 34 14 34 -53 
34 -46 34 -16 34 -17 35 -3 34 0 34 0 34 6 34 11 
34 10 35 19 34 21 34 32 34 19 34 -37 35 0 34 39 
34 -3 34 -22 34 -25 34 -9 35 -2 34 2 34 7 34 18 
34 -9 34 -20 35 -9 34 4 34 47 34 65 34 17 35 17 
34 10 34 0 34 0 34 -1 34 -12 35 -11 34 -15 34 -24 
34 -35 34 34 34 43 292 849 52 MP stroke
0.25 sg
35 -38 34 20 34 -3 34 -96 34 -39 35 -33 34 -19 34 -11 
34 -10 34 -7 34 9 35 10 34 9 34 22 34 29 34 35 
34 56 35 34 34 44 34 12 34 -7 34 -28 35 -39 34 55 
34 19 34 0 34 -12 34 -23 35 -44 34 -45 34 -17 34 11 
34 76 34 49 35 14 34 -30 34 -69 34 -55 34 -25 35 4 
34 17 34 36 34 6 34 8 34 69 35 36 34 13 34 11 
34 -9 34 -10 34 -81 292 927 52 MP stroke
c8
35 123 34 -69 34 -60 34 -32 34 -8 35 4 34 12 34 15 
34 6 34 -2 34 -4 35 -4 34 -1 34 -1 34 -2 34 -4 
34 -1 35 9 34 37 34 172 34 36 34 35 35 37 34 -53 
34 2 34 79 34 39 34 24 35 16 34 11 34 8 34 7 
34 3 34 1 35 -2 34 -5 34 -8 34 -9 34 -5 35 0 
34 9 34 10 34 7 34 -4 34 -15 35 -54 34 -124 34 -201 
34 -66 34 -13 34 32 292 1116 52 MP stroke
c9
35 -56 34 -59 34 -119 34 -9 34 116 35 81 34 60 34 44 
34 34 34 23 34 12 35 4 34 -7 34 -15 34 -30 34 -40 
34 -81 35 -217 34 -82 34 -31 34 -8 34 7 35 12 34 -1 
34 -22 34 -26 34 -24 34 -8 35 8 34 21 34 34 34 14 
34 -24 34 -46 35 -49 34 -36 34 -26 34 -15 34 3 35 5 
34 28 34 28 34 46 34 52 34 69 35 189 34 165 34 109 
34 85 34 80 34 81 292 369 52 MP stroke
c10
35 60 34 18 34 6 34 -19 34 -28 35 -57 34 2 34 -25 
34 -36 34 -37 34 12 35 98 34 23 34 -6 34 -11 34 6 
34 13 35 10 34 5 34 2 34 1 34 0 35 -1 34 -5 
34 -15 34 -32 34 -6 34 17 35 -92 34 -89 34 -35 34 -26 
34 -3 34 -4 35 11 34 11 34 12 34 11 34 0 35 -5 
34 -13 34 -13 34 -12 34 -10 34 -8 35 0 34 -1 34 13 
34 20 34 42 34 86 292 983 52 MP stroke
c11
35 1 34 11 34 13 34 12 34 9 35 1 34 -8 34 -18 
34 -38 34 -79 34 -132 35 -55 34 -21 34 10 34 45 34 99 
34 108 35 45 34 26 34 17 34 5 34 -1 35 -7 34 -12 
34 -8 34 -3 34 3 34 5 35 -5 34 -20 34 -45 34 -147 
34 -79 34 -34 35 -22 34 -19 34 -19 34 -20 34 -22 35 -15 
34 -16 34 -3 34 -2 34 12 34 19 35 30 34 38 34 51 
34 47 34 -21 34 -80 292 1132 52 MP stroke
c12
35 -21 34 74 34 -28 34 -31 34 -1 35 27 34 -106 34 -51 
34 -27 34 -23 34 -12 35 -11 34 -1 34 -2 34 7 34 9 
34 14 35 18 34 24 34 27 34 35 34 35 35 3 34 -14 
34 21 34 99 34 115 34 95 35 56 34 57 34 56 34 40 
34 29 34 29 35 29 34 29 34 23 34 5 34 5 35 4 
34 5 34 5 34 5 34 -30 34 -31 35 -31 34 -30 34 -31 
34 -96 34 -186 34 -187 292 921 52 MP stroke
c13
35 -65 34 -13 34 7 34 19 34 35 35 11 34 35 34 15 
34 -66 34 4 34 -6 35 -42 34 -22 34 2 34 9 34 16 
34 15 35 -3 34 -10 34 -5 34 8 34 16 35 10 34 -6 
34 1 34 61 34 58 34 62 35 55 34 38 34 38 34 38 
34 21 34 21 35 20 34 20 34 20 34 5 34 5 35 4 
34 4 34 5 34 3 34 -19 34 -19 35 -18 34 -19 34 -18 
34 -77 34 -100 34 -101 292 881 52 MP stroke
0.25 sg
35 -34 34 -23 34 -3 34 0 34 -63 35 -43 34 1 34 85 
34 -61 34 84 34 58 35 27 34 21 34 9 34 6 34 -3 
34 -5 35 -12 34 -15 34 -24 34 -30 34 -28 35 10 34 26 
34 20 34 12 34 -5 34 -26 35 -94 34 -106 34 -75 34 -27 
34 -24 34 -23 35 7 34 6 34 6 34 26 34 28 35 32 
34 42 34 31 34 6 34 -13 34 -13 35 -5 34 5 34 9 
34 14 34 19 34 19 292 977 52 MP stroke
c8
35 -72 34 -1 34 -27 34 0 34 49 35 9 34 -10 34 -43 
34 35 34 24 34 8 35 1 34 1 34 1 34 3 34 4 
34 3 35 2 34 0 34 -4 34 -9 34 -16 35 -29 34 -58 
34 -34 34 -37 34 -33 34 -28 35 -25 34 -20 34 -19 34 -16 
34 -12 34 -11 35 -12 34 -6 34 -4 34 -5 34 -4 35 0 
34 3 34 3 34 3 34 8 34 14 35 15 34 14 34 33 
34 39 34 55 34 136 292 900 52 MP stroke
c9
35 -68 34 1 34 39 34 107 34 -52 35 -89 34 -15 34 14 
34 32 34 94 34 116 35 74 34 52 34 51 34 20 34 18 
34 18 35 7 34 -15 34 -15 34 -15 34 -34 35 -44 34 -44 
34 -66 34 -68 34 -36 34 -44 35 -116 34 -41 34 -28 34 -24 
34 -17 34 -17 35 -13 34 -13 34 -8 34 -2 34 -2 35 13 
34 18 34 30 34 61 34 129 34 -25 35 -76 34 17 34 119 
34 26 34 28 34 100 292 764 52 MP stroke
c10
35 33 34 10 34 2 34 -5 34 -13 35 -44 34 -35 34 -5 
34 14 34 19 34 -26 35 -7 34 11 34 25 34 -18 34 46 
34 45 35 21 34 8 34 4 34 -1 34 -4 35 -6 34 -8 
34 -7 34 -6 34 -3 34 0 35 3 34 5 34 5 34 2 
34 -3 34 -9 35 -32 34 -63 34 -28 34 -1 34 7 35 10 
34 2 34 -11 34 -12 34 -3 34 4 35 13 34 43 34 -21 
34 -19 34 -7 34 1 292 988 52 MP stroke
c11
35 90 34 -146 34 -51 34 -25 34 13 35 23 34 36 34 17 
34 -42 34 -45 34 -40 35 -22 34 -21 34 8 34 8 34 23 
34 27 35 25 34 20 34 -4 34 -12 34 -14 35 -1 34 15 
34 35 34 88 34 126 34 35 35 26 34 -13 34 -130 34 119 
34 -33 34 -136 35 138 34 48 34 -14 34 -15 34 31 35 34 
34 23 34 8 34 1 34 -1 34 -1 35 7 34 13 34 26 
34 30 34 40 34 39 292 601 52 MP stroke
c12
35 -40 34 -14 34 -5 34 -2 34 4 35 9 34 16 34 58 
34 35 34 5 34 -23 35 -77 34 -30 34 -16 34 9 34 15 
34 59 35 33 34 -56 34 -31 34 -3 34 6 35 14 34 25 
34 41 34 17 34 -1 34 -12 35 13 34 32 34 25 34 18 
34 18 34 8 35 4 34 3 34 3 34 -19 34 -18 35 -18 
34 -64 34 -74 34 -3 34 49 34 -4 35 -43 34 -2 34 20 
34 9 34 -4 34 67 292 889 52 MP stroke
c13
35 -111 34 -30 34 18 34 62 34 -77 35 -22 34 8 34 30 
34 59 34 29 34 18 35 3 34 -2 34 0 34 8 34 13 
34 14 35 9 34 7 34 0 34 -1 34 -8 35 -9 34 -13 
34 -17 34 -19 34 -15 34 5 35 -21 34 -67 34 -15 34 -2 
34 10 34 25 35 -7 34 -51 34 -34 34 -30 34 -21 35 -9 
34 -10 34 -4 34 12 34 13 34 16 35 42 34 46 34 106 
34 48 34 -2 34 -108 292 961 52 MP stroke
0.25 sg
35 112 34 -37 34 -181 34 -51 34 -5 35 10 34 13 34 -6 
34 -30 34 -35 34 -29 35 -21 34 -12 34 -1 34 1 34 10 
34 10 35 9 34 8 34 -2 34 -1 34 -3 35 0 34 10 
34 21 34 40 34 74 34 127 35 74 34 24 34 -28 34 -128 
34 79 34 -103 35 79 34 137 34 62 34 40 34 21 35 16 
34 0 34 1 34 -7 34 -11 34 -11 35 -13 34 -13 34 -6 
34 -5 34 13 34 12 292 668 52 MP stroke
c8
35 87 34 11 34 5 34 -23 34 -41 35 -95 34 -14 34 77 
34 4 34 -79 34 -24 35 -8 34 0 34 6 34 10 34 7 
34 1 35 9 34 67 34 51 34 28 34 15 35 9 34 0 
34 -6 34 -15 34 -22 34 -21 35 4 34 25 34 25 34 9 
34 7 34 -19 35 -29 34 -76 34 -63 34 -11 34 -10 35 -18 
34 -13 34 -12 34 2 34 4 34 35 35 86 34 8 34 -81 
34 -23 34 1 34 62 292 961 52 MP stroke
c9
35 -43 34 30 34 1 34 -39 34 -27 35 0 34 -5 34 -10 
34 -6 34 8 34 54 35 41 34 14 34 -3 34 -14 34 -25 
34 -2 35 23 34 13 34 9 34 5 34 0 35 -2 34 -11 
34 -15 34 -18 34 7 34 18 35 6 34 -3 34 -27 34 -60 
34 -21 34 -5 35 5 34 5 34 3 34 -4 34 -7 35 -3 
34 0 34 9 34 15 34 17 34 -13 35 -16 34 -10 34 -7 
34 2 34 8 34 26 292 964 52 MP stroke
c10
35 -20 34 -14 34 -9 34 -13 34 -81 35 -56 34 -25 34 -9 
34 3 34 16 34 38 35 94 34 13 34 70 34 47 34 28 
34 19 35 5 34 3 34 -8 34 -8 34 -14 35 -14 34 -13 
34 -13 34 -12 34 -12 34 -13 35 -16 34 -17 34 -14 34 -32 
34 -117 34 -47 35 -22 34 -5 34 4 34 9 34 9 35 1 
34 -5 34 -9 34 -6 34 -4 34 6 35 11 34 17 34 23 
34 21 34 4 34 -29 292 1041 52 MP stroke
c11
35 -85 34 -41 34 61 34 7 34 -82 35 -41 34 -24 34 -8 
34 0 34 21 34 41 35 91 34 20 34 -22 34 2 34 24 
34 13 35 4 34 1 34 4 34 8 34 14 35 13 34 10 
34 10 34 -2 34 -1 34 -14 35 -23 34 -45 34 -67 34 61 
34 5 34 -40 35 -70 34 -29 34 -11 34 -1 34 8 35 18 
34 20 34 6 34 -19 34 -22 34 -11 35 -9 34 8 34 9 
34 28 34 52 34 -50 292 999 52 MP stroke
c12
35 92 34 35 34 17 34 -9 34 -18 35 -31 34 -46 34 -52 
34 -30 34 -110 34 86 35 117 34 17 34 -65 34 -212 34 -28 
34 64 35 169 34 44 34 22 34 13 34 8 35 4 34 0 
34 -2 34 -4 34 -4 34 -10 35 -15 34 -27 34 -52 34 -169 
34 -84 34 -47 35 -35 34 -23 34 -20 34 -15 34 -13 35 -8 
34 -6 34 3 34 3 34 20 34 21 35 50 34 65 34 107 
34 -80 34 -138 34 -134 292 1345 52 MP stroke
c13
35 -54 34 -26 34 8 34 12 34 -4 35 -48 34 -201 34 -62 
34 -30 34 -16 34 -5 35 8 34 20 34 41 34 82 34 151 
34 78 35 59 34 40 34 29 34 19 34 11 35 5 34 -1 
34 -7 34 -11 34 -17 34 -22 35 -24 34 -28 34 -27 34 -25 
34 -22 34 -22 35 -67 34 -212 34 -78 34 -38 34 11 35 26 
34 53 34 56 34 -14 34 -41 34 -24 35 13 34 38 34 55 
34 -22 34 -101 34 -113 292 1271 52 MP stroke
0.25 sg
35 -56 34 19 34 28 34 6 34 -20 35 -48 34 -2 34 46 
34 20 34 9 34 10 35 18 34 19 34 15 34 9 34 4 
34 -3 35 -9 34 -13 34 -20 34 -25 34 -19 35 -5 34 -2 
34 -18 34 -97 34 -89 34 -43 35 -37 34 -35 34 -34 34 -29 
34 -27 34 -21 35 -17 34 -17 34 -7 34 -6 34 -5 35 2 
34 1 34 5 34 8 34 8 34 12 35 13 34 14 34 17 
34 17 34 19 34 19 292 1183 52 MP stroke
c8
35 -4 34 -5 34 -15 34 -21 34 -46 35 -46 34 41 34 -50 
34 -16 34 -2 34 12 35 51 34 38 34 -26 34 -52 34 70 
34 47 35 29 34 7 34 6 34 0 34 -6 35 -7 34 -13 
34 -14 34 -19 34 -24 34 -48 35 -31 34 -15 34 -1 34 16 
34 18 34 -42 35 -38 34 -27 34 -27 34 -12 34 -9 35 -10 
34 -6 34 9 34 10 34 9 34 18 35 29 34 29 34 65 
34 53 34 -17 34 39 292 884 52 MP stroke
c9
35 -27 34 -3 34 3 34 2 34 -7 35 -15 34 -15 34 -12 
34 -6 34 -4 34 3 35 9 34 13 34 21 34 25 34 -7 
34 -18 35 -11 34 -7 34 -4 34 0 34 1 35 7 34 9 
34 13 34 19 34 47 34 24 35 14 34 7 34 5 34 -1 
34 -10 34 -26 35 -62 34 0 34 62 34 33 34 10 35 4 
34 -4 34 -12 34 -21 34 -62 34 -12 35 41 34 31 34 52 
34 38 34 39 34 38 292 724 52 MP stroke
c10
35 -102 34 -20 34 59 34 -14 34 -51 35 32 34 51 34 -12 
34 23 34 18 34 11 35 8 34 6 34 7 34 8 34 7 
34 5 35 5 34 0 34 -3 34 -8 34 -15 35 -25 34 -50 
34 -61 34 -7 34 12 34 9 35 -24 34 -20 34 -10 34 3 
34 10 34 30 35 76 34 18 34 -26 34 -80 34 -43 35 -19 
34 -18 34 -6 34 -7 34 -3 34 2 35 2 34 9 34 12 
34 19 34 31 34 87 292 921 52 MP stroke
c11
35 -66 34 -54 34 -9 34 12 34 -7 35 -5 34 66 34 46 
34 14 34 -21 34 -41 35 -6 34 41 34 33 34 12 34 -16 
34 -38 35 -23 34 24 34 29 34 4 34 -49 35 -168 34 -99 
34 -66 34 -32 34 -19 34 -13 35 -22 34 -26 34 -37 34 -36 
34 -35 34 -34 35 -23 34 -20 34 -20 34 -4 34 -1 35 -1 
34 13 34 15 34 15 34 30 34 31 35 38 34 51 34 61 
34 82 34 194 34 90 292 825 52 MP stroke
c12
35 -34 34 6 34 -78 34 -39 34 -17 35 3 34 35 34 81 
34 131 34 55 34 36 35 27 34 26 34 25 34 24 34 20 
34 16 35 7 34 3 34 -8 34 -15 34 -19 35 -22 34 -9 
34 1 34 19 34 24 34 25 35 11 34 10 34 -10 34 -17 
34 -34 34 -43 35 -69 34 -102 34 -126 34 -36 34 -22 35 -14 
34 -11 34 -10 34 -11 34 -16 34 -19 35 -26 34 -29 34 -32 
34 -35 34 -37 34 -37 292 1356 52 MP stroke
c13
35 113 34 30 34 8 34 -4 34 -22 35 -30 34 -35 34 -26 
34 -11 34 -103 34 -86 35 -21 34 -12 34 -13 34 -10 34 3 
34 25 35 74 34 113 34 67 34 51 34 31 35 14 34 7 
34 -2 34 -1 34 0 34 6 35 8 34 4 34 -1 34 -16 
34 -38 34 -76 35 -133 34 -92 34 -68 34 -43 34 -20 35 -10 
34 -2 34 5 34 9 34 12 34 15 35 18 34 19 34 20 
34 20 34 15 34 4 292 1057 52 MP stroke
0.25 sg
35 25 34 12 34 2 34 -6 34 -13 35 -19 34 -23 34 -25 
34 -33 34 -125 34 -18 35 23 34 -9 34 -20 34 17 34 107 
34 75 35 44 34 30 34 13 34 5 34 -6 35 -11 34 -12 
34 -5 34 9 34 12 34 13 35 -5 34 -16 34 -52 34 -157 
34 -32 34 -43 35 -57 34 -48 34 -30 34 -22 34 -6 35 -5 
34 9 34 9 34 18 34 18 34 21 35 23 34 23 34 22 
34 17 34 5 34 -13 292 1055 52 MP stroke
c8
35 137 34 25 34 22 34 -5 34 -5 35 -22 34 -26 34 -44 
34 -28 34 24 34 -30 35 -87 34 -4 34 40 34 -37 34 -33 
34 -13 35 12 34 33 34 42 34 33 34 75 35 30 34 10 
34 3 34 -9 34 -9 34 -9 35 1 34 4 34 5 34 -7 
34 -23 34 -86 35 -61 34 79 34 21 34 -89 34 2 35 3 
34 -71 34 -38 34 -34 34 -20 34 -11 35 -12 34 3 34 15 
34 16 34 64 34 111 292 959 52 MP stroke
c9
35 66 34 76 34 49 34 11 34 -3 35 -18 34 -65 34 -29 
34 -9 34 3 34 17 35 58 34 11 34 -71 34 -17 34 6 
34 19 35 -8 34 -23 34 -14 34 -7 34 11 35 22 34 44 
34 -25 34 52 34 -66 34 -19 35 9 34 57 34 58 34 19 
34 6 34 1 35 -4 34 -8 34 -10 34 -12 34 -3 35 14 
34 16 34 16 34 11 34 12 34 5 35 4 34 1 34 -6 
34 -6 34 -26 34 -30 292 876 52 MP stroke
c10
35 -13 34 25 34 -11 34 -65 34 -15 35 -3 34 3 34 5 
34 0 34 -11 34 -10 35 -4 34 7 34 23 34 58 34 12 
34 21 35 18 34 12 34 7 34 -5 34 -17 35 -57 34 -39 
34 -8 34 -36 34 -30 34 -25 35 -16 34 -8 34 -7 34 6 
34 14 34 13 35 46 34 66 34 83 34 53 34 20 35 20 
34 15 34 6 34 6 34 6 34 -6 35 -6 34 -7 34 -21 
34 -29 34 -43 34 -109 292 964 52 MP stroke
c11
35 45 34 23 34 9 34 -13 34 -22 35 -35 34 -65 34 -173 
34 -57 34 -24 34 2 35 36 34 89 34 -30 34 135 34 49 
34 51 35 47 34 38 34 27 34 15 34 6 35 -9 34 -13 
34 -26 34 -28 34 -29 34 -19 35 -14 34 -13 34 -36 34 -160 
34 -30 34 -132 35 -81 34 -39 34 -29 34 12 34 12 35 44 
34 47 34 57 34 22 34 -23 34 -38 35 -36 34 -21 34 -12 
34 8 34 37 34 70 292 1095 52 MP stroke
c12
35 -18 34 -27 34 -15 34 -3 34 9 35 27 34 10 34 60 
34 16 34 -3 34 -23 35 -28 34 44 34 20 34 7 34 5 
34 -14 35 -46 34 -88 34 -22 34 -17 34 8 35 8 34 35 
34 64 34 -11 34 -36 34 -23 35 -16 34 -13 34 -4 34 -4 
34 7 34 10 35 26 34 70 34 62 34 26 34 27 35 12 
34 12 34 11 34 6 34 -1 34 0 35 0 34 -12 34 -18 
34 -19 34 -52 34 -90 292 953 52 MP stroke
c13
35 -31 34 6 34 45 34 -2 34 48 35 11 34 -14 34 -25 
34 21 34 39 34 34 35 16 34 13 34 3 34 -11 34 -11 
34 -28 35 -26 34 -21 34 18 34 25 34 27 35 14 34 8 
34 3 34 -22 34 -21 34 -59 35 -67 34 -27 34 -66 34 -31 
34 -7 34 -3 35 7 34 7 34 7 34 1 34 -4 35 -11 
34 -11 34 -11 34 -11 34 -8 34 -7 35 -6 34 0 34 1 
34 5 34 13 34 12 292 1084 52 MP stroke
0.25 sg
35 71 34 29 34 11 34 -2 34 -20 35 -28 34 -36 34 -41 
34 -44 34 -104 34 -144 35 -17 34 41 34 162 34 90 34 66 
34 50 35 37 34 12 34 -4 34 -19 34 -35 35 -28 34 -5 
34 18 34 22 34 1 34 -40 35 -94 34 -242 34 -94 34 -75 
34 -55 34 -47 35 -27 34 -20 34 -1 34 3 34 16 35 16 
34 21 34 19 34 14 34 9 34 6 35 2 34 4 34 3 
34 10 34 15 34 23 292 1199 52 MP stroke
c8
35 6 34 49 34 20 34 -4 34 -36 35 -81 34 -22 34 32 
34 49 34 -37 34 71 35 17 34 -10 34 -33 34 16 34 19 
34 -3 35 -14 34 1 34 25 34 24 34 12 35 11 34 -5 
34 -5 34 -18 34 -25 34 -47 35 -50 34 -18 34 -18 34 -18 
34 -19 34 -16 35 -14 34 -13 34 -8 34 -9 34 -6 35 -1 
34 -2 34 0 34 5 34 5 34 6 35 13 34 12 34 19 
34 28 34 56 34 103 292 865 52 MP stroke
c9
35 2 34 -8 34 -20 34 -39 34 -118 35 -66 34 -26 34 -12 
34 -7 34 -5 34 -5 35 -5 34 0 34 10 34 29 34 81 
34 121 35 27 34 13 34 9 34 6 34 5 35 3 34 2 
34 -2 34 -7 34 -13 34 -23 35 -43 34 -146 34 -71 34 -48 
34 -24 34 -21 35 0 34 -1 34 15 34 15 34 27 35 30 
34 39 34 69 34 150 34 54 34 27 35 13 34 -6 34 -15 
34 -31 34 -97 34 -182 292 1079 52 MP stroke
c10
35 -15 34 -7 34 -2 34 -5 34 -19 35 -59 34 -189 34 -7 
34 99 34 -85 34 7 35 136 34 59 34 49 34 48 34 44 
34 37 35 30 34 18 34 10 34 0 34 -16 35 -19 34 -34 
34 -36 34 -38 34 -21 34 -13 35 -29 34 -149 34 -121 34 -22 
34 1 34 0 35 -17 34 -23 34 -18 34 -14 34 -3 35 0 
34 2 34 2 34 -3 34 -5 34 -6 35 -5 34 0 34 10 
34 17 34 47 34 124 292 988 52 MP stroke
c11
35 102 34 27 34 8 34 -10 34 -27 35 -34 34 -31 34 -2 
34 25 34 17 34 -11 35 -69 34 -35 34 38 34 12 34 27 
34 29 35 13 34 -8 34 -26 34 -34 34 -6 35 14 34 -28 
34 -56 34 -123 34 -48 34 0 35 -20 34 -43 34 -45 34 -30 
34 -24 34 -11 35 -8 34 -2 34 -3 34 -3 34 -5 35 -10 
34 -10 34 -11 34 -10 34 -4 34 -4 35 4 34 12 34 17 
34 41 34 59 34 124 292 1047 52 MP stroke
c12
35 80 34 12 34 -16 34 -40 34 -54 35 42 34 -90 34 -32 
34 -7 34 -4 34 11 35 11 34 16 34 9 34 5 34 9 
34 52 35 57 34 24 34 14 34 6 34 3 35 -3 34 -6 
34 -11 34 -18 34 -24 34 -17 35 35 34 25 34 9 34 -1 
34 -28 34 -81 35 62 34 -54 34 -82 34 -33 34 -13 35 -2 
34 4 34 15 34 17 34 20 34 10 35 -1 34 -6 34 -5 
34 8 34 39 34 107 292 863 52 MP stroke
c13
35 47 34 38 34 3 34 4 34 -13 35 -19 34 -31 34 -49 
34 -79 34 -25 34 -62 35 -31 34 -21 34 -8 34 -8 34 4 
34 4 35 7 34 11 34 10 34 12 34 11 35 11 34 12 
34 12 34 12 34 17 34 27 35 72 34 21 34 2 34 -17 
34 -30 34 -8 35 -71 34 -17 34 -4 34 10 34 57 35 76 
34 27 34 17 34 11 34 6 34 3 35 -3 34 -4 34 -13 
34 -18 34 -34 34 -115 292 991 52 MP stroke
0.25 sg
35 93 34 20 34 -14 34 -39 34 -6 35 35 34 -37 34 -78 
34 -22 34 18 34 76 35 -63 34 -5 34 61 34 29 34 -64 
34 94 35 32 34 21 34 4 34 2 34 -7 35 -8 34 -9 
34 -5 34 3 34 5 34 8 35 4 34 3 34 -4 34 -8 
34 -16 34 -23 35 -59 34 -60 34 -13 34 2 34 12 35 13 
34 -5 34 -13 34 -13 34 -10 34 -9 35 -4 34 -2 34 2 
34 7 34 12 34 32 292 977 52 MP stroke
c8
35 17 34 4 34 -5 34 -5 34 0 35 12 34 37 34 43 
34 -57 34 -26 34 -4 35 5 34 4 34 -1 34 -4 34 -2 
34 2 35 14 34 39 34 135 34 38 34 14 35 4 34 8 
34 18 34 25 34 28 34 25 35 23 34 19 34 17 34 13 
34 9 34 9 35 0 34 1 34 -6 34 -11 34 -11 35 -20 
34 -20 34 -26 34 -27 34 -30 34 -35 35 -57 34 -158 34 -35 
34 9 34 44 34 9 292 991 52 MP stroke
c9
35 50 34 7 34 -11 34 -33 34 -41 35 -3 34 6 34 -1 
34 -19 34 -15 34 -14 35 -6 34 -3 34 0 34 13 34 14 
34 37 35 2 34 -27 34 -11 34 8 34 20 35 19 34 -29 
34 -7 34 18 34 57 34 34 35 25 34 4 34 3 34 -1 
34 -6 34 -7 35 -11 34 -11 34 -8 34 -6 34 -4 35 -8 
34 -23 34 -29 34 1 34 16 34 29 35 19 34 10 34 7 
34 5 34 -1 34 -2 292 873 52 MP stroke
c10
35 -80 34 -75 34 -39 34 -7 34 -146 35 -29 34 29 34 110 
34 43 34 54 34 42 35 35 34 29 34 26 34 22 34 20 
34 11 35 11 34 -2 34 -4 34 -16 34 -25 35 -33 34 -42 
34 -47 34 -32 34 -12 34 -119 35 -122 34 -28 34 -7 34 3 
34 -8 34 -25 35 -31 34 -29 34 -26 34 -8 34 -9 35 16 
34 21 34 38 34 48 34 60 34 32 35 -26 34 -36 34 -27 
34 -11 34 5 34 22 292 1103 52 MP stroke
c11
35 9 34 0 34 -17 34 -31 34 -45 35 -66 34 -104 34 -206 
34 -95 34 -28 34 28 35 94 34 190 34 85 34 39 34 36 
34 40 35 45 34 37 34 33 34 16 34 10 35 -8 34 -14 
34 -28 34 -33 34 -39 34 -42 35 -53 34 -125 34 -234 34 -44 
34 -5 34 -12 35 -38 34 -58 34 -54 34 -48 34 -27 35 -26 
34 7 34 7 34 27 34 34 34 46 35 53 34 60 34 61 
34 53 34 10 34 -44 292 1103 52 MP stroke
c12
35 -8 34 0 34 -5 34 -12 34 -18 35 -21 34 -20 34 -14 
34 -9 34 4 34 12 35 50 34 102 34 50 34 -17 34 -91 
34 -63 35 5 34 71 34 67 34 -17 34 6 35 38 34 21 
34 12 34 -16 34 -27 34 -40 35 36 34 44 34 31 34 19 
34 18 34 -3 35 -4 34 -8 34 -19 34 -20 34 -32 35 -33 
34 -35 34 -67 34 -4 34 16 34 -27 35 -28 34 -20 34 -6 
34 1 34 17 34 82 292 943 52 MP stroke
c13
35 101 34 -59 34 -278 34 -129 34 -9 35 63 34 78 34 -77 
34 -23 34 214 34 112 35 -13 34 106 34 68 34 31 34 3 
34 -27 35 -41 34 -48 34 -71 34 -291 34 -127 35 -60 34 4 
34 21 34 32 34 13 34 -40 35 -51 34 -55 34 -30 34 -21 
34 15 34 32 35 60 34 75 34 83 34 14 34 -25 35 24 
34 240 34 186 34 62 34 40 34 28 35 25 34 25 34 29 
34 32 34 39 34 39 292 385 52 MP stroke
0.25 sg
35 73 34 70 34 11 34 11 34 11 35 11 34 -4 34 -5 
34 -5 34 -5 34 -11 35 -18 34 -17 34 -21 34 -39 34 -56 
34 37 35 -49 34 -42 34 -16 34 -9 34 4 35 5 34 21 
34 28 34 14 34 -15 34 -2 35 14 34 46 34 13 34 1 
34 -9 34 -32 35 44 34 18 34 7 34 -11 34 -27 35 -54 
34 39 34 -49 34 -16 34 8 34 32 35 -21 34 -20 34 -12 
34 0 34 8 34 26 292 964 52 MP stroke
c8
35 -5 34 -9 34 -13 34 -8 34 14 35 22 34 12 34 -8 
34 -54 34 -92 34 -35 35 -9 34 -2 34 11 34 15 34 18 
34 7 35 -1 34 3 34 51 34 87 34 27 35 -5 34 -15 
34 -42 34 -1 34 31 34 14 35 5 34 -8 34 -22 34 -50 
34 66 34 32 35 11 34 -6 34 -25 34 -89 34 -58 35 8 
34 35 34 -22 34 -16 34 -8 34 -7 35 -9 34 -12 34 -15 
34 -17 34 -19 34 -19 292 1097 52 MP stroke
c9
35 1 34 -2 34 -8 34 -14 34 -16 35 -18 34 -5 34 19 
34 21 34 13 34 6 35 -11 34 -20 34 -27 34 -8 34 22 
34 18 35 7 34 1 34 -4 34 -9 34 -14 35 -19 34 -19 
34 3 34 -16 34 -84 34 -21 35 5 34 25 34 47 34 -44 
34 -25 34 -15 35 -5 34 0 34 7 34 10 34 6 35 -7 
34 -14 34 -15 34 -8 34 -6 34 9 35 12 34 21 34 29 
34 11 34 -37 34 -50 292 1068 52 MP stroke
c10
35 41 34 15 34 0 34 -15 34 -66 35 -15 34 -3 34 -14 
34 -20 34 -16 34 -8 35 -2 34 11 34 18 34 35 34 9 
34 -28 35 -3 34 57 34 79 34 38 34 16 35 12 34 4 
34 3 34 -2 34 -3 34 -5 35 -7 34 -7 34 -7 34 -7 
34 -7 34 -3 35 -3 34 -1 34 -2 34 -4 34 -11 35 -19 
34 -49 34 -54 34 -5 34 12 34 10 35 -18 34 -18 34 -11 
34 -5 34 1 34 10 292 1007 52 MP stroke
c11
35 -5 34 -9 34 -14 34 -21 34 -72 35 -53 34 -18 34 3 
34 30 34 114 34 49 35 6 34 -16 34 -30 34 -15 34 32 
34 34 35 28 34 17 34 10 34 5 34 -3 35 -6 34 -13 
34 -16 34 -21 34 -27 34 -23 35 -24 34 -126 34 -58 34 -34 
34 -18 34 -10 35 -4 34 1 34 2 34 2 34 2 35 -3 
34 -3 34 -2 34 0 34 6 34 14 35 25 34 49 34 134 
34 79 34 -50 34 -185 292 1076 52 MP stroke
c12
35 -7 34 -16 34 -18 34 2 34 12 35 -5 34 -25 34 -24 
34 -16 34 -10 34 -3 35 5 34 14 34 28 34 45 34 -21 
34 -22 35 -10 34 -2 34 8 34 30 34 76 35 24 34 6 
34 -8 34 -33 34 14 34 40 35 22 34 14 34 4 34 3 
34 -2 34 -2 35 1 34 1 34 8 34 9 34 9 35 10 
34 9 34 6 34 2 34 2 34 -2 35 -12 34 -13 34 -31 
34 -61 34 -98 34 -112 292 1084 52 MP stroke
c13
35 28 34 -5 34 -31 34 -56 34 -8 35 -151 34 -30 34 49 
34 169 34 52 34 25 35 24 34 21 34 20 34 10 34 8 
34 0 35 -3 34 -5 34 -3 34 -2 34 5 35 2 34 1 
34 -14 34 -25 34 -60 34 -107 35 -64 34 -119 34 -35 34 -6 
34 16 34 11 35 -4 34 -25 34 -30 34 -25 34 -14 35 -4 
34 14 34 20 34 36 34 39 34 33 35 7 34 -13 34 -16 
34 -9 34 5 34 37 292 1057 52 MP stroke
0.25 sg
35 34 34 10 34 5 34 1 34 -14 35 -51 34 -29 34 -10 
34 -8 34 5 34 9 35 22 34 45 34 21 34 20 34 6 
34 -10 35 -29 34 23 34 23 34 12 34 0 35 -5 34 -14 
34 -15 34 -2 34 16 34 17 35 8 34 4 34 -4 34 -15 
34 -36 34 -53 35 4 34 15 34 -23 34 -8 34 -4 35 -4 
34 -3 34 -6 34 -5 34 -4 34 -4 35 -1 34 0 34 3 
34 7 34 15 34 51 292 932 52 MP stroke
c8
35 38 34 21 34 9 34 1 34 -5 35 -12 34 -22 34 -41 
34 -158 34 -78 34 -20 35 11 34 28 34 23 34 9 34 63 
34 135 35 72 34 38 34 -3 34 -15 34 -27 35 -27 34 3 
34 14 34 -4 34 -45 34 -176 35 -56 34 -21 34 -21 34 -26 
34 -28 34 -30 35 -28 34 -28 34 -7 34 -7 34 34 35 40 
34 194 34 259 34 90 34 86 34 12 35 11 34 -12 34 -102 
34 -107 34 -285 34 -285 292 1313 52 MP stroke
c9
35 41 34 11 34 8 34 -2 34 -2 35 -7 34 -10 34 -26 
34 7 34 -12 34 16 35 -11 34 14 34 17 34 5 34 -3 
34 -11 35 -23 34 25 34 0 34 -38 34 -30 35 -4 34 -3 
34 13 34 24 34 41 34 22 35 9 34 10 34 -10 34 -14 
34 -22 34 -41 35 -26 34 -18 34 -17 34 -8 34 -1 35 -1 
34 -1 34 0 34 7 34 8 34 7 35 10 34 15 34 15 
34 19 34 2 34 32 292 911 52 MP stroke
c10
35 -68 34 -37 34 -12 34 -1 34 25 35 123 34 91 34 23 
34 -33 34 -82 34 -111 35 -54 34 2 34 16 34 41 34 51 
34 -32 35 14 34 93 34 -66 34 17 34 113 35 78 34 43 
34 24 34 24 34 12 34 -15 35 -15 34 -15 34 -46 34 -55 
34 -96 34 -70 35 -38 34 -27 34 -6 34 15 34 81 35 90 
34 25 34 5 34 -14 34 -39 34 -33 35 42 34 26 34 6 
34 -19 34 -132 34 -151 292 1127 52 MP stroke
c11
35 73 34 17 34 1 34 -9 34 -16 35 -22 34 -25 34 -84 
34 -35 34 -18 34 -10 35 10 34 17 34 43 34 33 34 -52 
34 -29 35 -21 34 -10 34 -8 34 0 34 5 35 12 34 26 
34 49 34 91 34 31 34 8 35 1 34 -3 34 -2 34 -1 
34 2 34 5 35 7 34 9 34 8 34 9 34 4 35 2 
34 -10 34 -18 34 -46 34 -100 34 -8 35 17 34 24 34 -11 
34 -10 34 6 34 76 292 897 52 MP stroke
c12
35 -52 34 -14 34 31 34 35 34 28 35 25 34 12 34 10 
34 -4 34 -8 34 -19 35 -25 34 -42 34 -66 34 -131 34 -32 
34 -10 35 0 34 9 34 16 34 24 34 19 35 66 34 69 
34 14 34 -5 34 -8 34 7 35 12 34 4 34 -12 34 -35 
34 -119 34 -58 35 -36 34 -24 34 -18 34 -14 34 -5 35 -4 
34 2 34 3 34 6 34 7 34 9 35 10 34 11 34 15 
34 20 34 28 34 54 292 975 52 MP stroke
c13
35 7 34 8 34 -7 34 -8 34 -20 35 -27 34 -67 34 -34 
34 14 34 -42 34 -14 35 4 34 24 34 27 34 -32 34 11 
34 82 35 37 34 2 34 -10 34 -16 34 -6 35 13 34 11 
34 4 34 -5 34 -16 34 -32 35 -33 34 -33 34 -36 34 -32 
34 -23 34 -20 35 -17 34 -8 34 -8 34 -7 34 5 35 5 
34 6 34 13 34 17 34 17 34 27 35 29 34 38 34 72 
34 38 34 29 34 29 292 804 52 MP stroke
0.25 sg
35 -7 34 -56 34 -40 34 -17 34 -14 35 -4 34 -3 34 6 
34 7 34 12 34 13 35 8 34 -8 34 -13 34 -14 34 -7 
34 -3 35 2 34 17 34 26 34 61 34 2 35 4 34 -50 
34 14 34 45 34 -51 34 -5 35 10 34 -32 34 -4 34 44 
34 65 34 25 35 3 34 -4 34 -18 34 -22 34 1 35 24 
34 25 34 13 34 9 34 6 34 -7 35 -7 34 -19 34 -27 
34 -70 34 -10 34 80 292 879 52 MP stroke
c8
35 -42 34 -23 34 11 34 126 34 -28 35 -150 34 -46 34 -19 
34 4 34 20 34 33 35 38 34 5 34 -17 34 7 34 114 
34 121 35 45 34 -13 34 -27 34 -68 34 -21 35 -36 34 -86 
34 -13 34 -10 34 -18 34 -11 35 2 34 24 34 88 34 -77 
34 -27 34 35 35 185 34 63 34 50 34 30 34 30 35 17 
34 14 34 13 34 6 34 -1 34 -1 35 -3 34 -20 34 -20 
34 -23 34 -63 34 -63 292 801 52 MP stroke
c9
35 11 34 10 34 11 34 -4 34 -9 35 -10 34 -18 34 -29 
34 -37 34 -94 34 -58 35 -20 34 11 34 24 34 62 34 -43 
34 20 35 -20 34 -31 34 -19 34 -17 34 -10 35 -10 34 -2 
34 -2 34 2 34 6 34 7 35 13 34 13 34 14 34 12 
34 6 34 6 35 20 34 67 34 20 34 2 34 -1 35 1 
34 5 34 3 34 -3 34 -20 34 -24 35 29 34 4 34 -17 
34 -16 34 12 34 -71 292 977 52 MP stroke
c10
35 -10 34 -40 34 -36 34 -21 34 -18 35 -12 34 -11 34 -4 
34 -3 34 1 34 7 35 7 34 16 34 19 34 34 34 62 
34 7 35 -10 34 0 34 22 34 18 34 15 35 10 34 8 
34 3 34 -2 34 -5 34 -15 35 -22 34 -41 34 23 34 18 
34 6 34 -6 35 -22 34 -63 34 -35 34 -13 34 -1 35 6 
34 22 34 48 34 35 34 -18 34 -53 35 -15 34 -5 34 0 
34 6 34 16 34 61 292 911 52 MP stroke
c11
35 57 34 53 34 11 34 11 34 -4 35 -13 34 -17 34 -31 
34 -34 34 -49 34 -55 35 -44 34 -86 34 -103 34 -22 34 25 
34 94 35 -33 34 82 34 91 34 43 34 29 35 17 34 11 
34 2 34 -6 34 -14 34 -33 35 -47 34 -54 34 15 34 -86 
34 -156 34 -49 35 -30 34 9 34 19 34 37 34 28 35 -7 
34 -37 34 -42 34 -32 34 -11 34 -8 35 36 34 39 34 112 
34 176 34 -85 34 -247 292 1191 52 MP stroke
c12
35 -403 34 -129 34 93 34 256 34 22 35 -32 34 -36 34 9 
34 38 34 25 34 3 35 -12 34 -3 34 17 34 22 34 16 
34 9 35 9 34 16 34 24 34 17 34 9 35 -29 34 -82 
34 -216 34 152 34 -287 34 -177 35 -81 34 29 34 49 34 142 
34 78 34 -160 35 -96 34 -72 34 -3 34 5 34 40 35 52 
34 59 34 34 34 -7 34 -41 34 -43 35 -36 34 -23 34 -6 
34 14 34 55 34 93 292 1180 52 MP stroke
c13
35 -27 34 -23 34 -15 34 -10 34 -15 35 -92 34 -43 34 -9 
34 18 34 57 34 52 35 34 34 38 34 30 34 23 34 20 
34 11 35 10 34 -3 34 -2 34 -18 34 -21 35 -31 34 -26 
34 -1 34 17 34 10 34 -11 35 -81 34 -117 34 -13 34 8 
34 -3 34 -22 35 -28 34 -19 34 -16 34 -6 34 -3 35 3 
34 4 34 7 34 6 34 6 34 7 35 6 34 7 34 9 
34 12 34 17 34 30 292 1009 52 MP stroke
0.25 sg
35 2 34 -27 34 -34 34 -30 34 -24 35 -21 34 -15 34 -12 
34 -10 34 -9 34 -9 35 -9 34 -8 34 -4 34 -4 34 6 
34 7 35 21 34 23 34 40 34 48 34 60 35 131 34 121 
34 28 34 -13 34 -46 34 -52 35 -60 34 -51 34 108 34 90 
34 54 34 46 35 43 34 37 34 34 34 26 34 25 35 11 
34 10 34 6 34 -9 34 -10 34 -18 35 -28 34 -29 34 -49 
34 -53 34 -81 34 -172 292 951 52 MP stroke
c8
35 -24 34 -10 34 -2 34 -28 34 -28 35 -18 34 -3 34 21 
34 51 34 99 34 -2 35 -4 34 -53 34 102 34 42 34 25 
34 0 35 -3 34 -13 34 -8 34 -2 34 20 35 22 34 23 
34 22 34 13 34 9 34 9 35 -8 34 -11 34 -11 34 -30 
34 -30 34 -44 35 -53 34 -43 34 -7 34 -98 34 -50 35 -35 
34 -29 34 -24 34 -14 34 -14 34 -10 35 -1 34 0 34 0 
34 20 34 22 34 21 292 1140 52 MP stroke
c9
35 -34 34 -30 34 -25 34 -19 34 -13 35 -13 34 -25 34 -127 
34 -77 34 14 34 78 35 105 34 36 34 30 34 29 34 33 
34 33 35 27 34 23 34 9 34 4 34 -15 35 -22 34 -38 
34 -43 34 -43 34 -18 34 -18 35 -159 34 -135 34 -52 34 -34 
34 -23 34 -7 35 -3 34 12 34 15 34 25 34 25 35 23 
34 7 34 -3 34 -7 34 -3 34 10 35 17 34 22 34 16 
34 -11 34 -40 34 -57 292 1185 52 MP stroke
c10
35 121 34 -3 34 -112 34 5 34 -2 35 -55 34 -16 34 0 
34 13 34 13 34 0 35 -9 34 -5 34 4 34 31 34 86 
34 51 35 26 34 5 34 -7 34 -17 34 -31 35 -102 34 -24 
34 33 34 118 34 51 34 13 35 0 34 1 34 7 34 20 
34 25 34 23 35 23 34 20 34 9 34 10 34 7 35 -9 
34 -10 34 -10 34 -32 34 -32 34 -62 35 -106 34 -123 34 -79 
34 -38 34 -36 34 -35 292 1233 52 MP stroke
c11
35 -10 34 -11 34 -10 34 -10 34 -11 35 -15 34 -17 34 -18 
34 -21 34 -35 34 -51 35 -38 34 -18 34 -5 34 3 34 11 
34 25 35 42 34 -29 34 -6 34 -1 34 -8 35 -14 34 -12 
34 -10 34 -4 34 -4 34 4 35 6 34 13 34 19 34 46 
34 5 34 -39 35 48 34 19 34 0 34 -22 34 -51 35 20 
34 -17 34 -14 34 -4 34 -1 34 0 35 -1 34 0 34 2 
34 8 34 34 34 53 292 881 52 MP stroke
c12
35 -63 34 -61 34 -35 34 -1 34 13 35 36 34 29 34 -32 
34 -22 34 3 34 28 35 25 34 -5 34 -43 34 -34 34 -17 
34 -16 35 -6 34 -4 34 -5 34 5 34 7 35 7 34 18 
34 19 34 36 34 -10 34 -3 35 9 34 37 34 17 34 10 
34 7 34 5 35 2 34 2 34 -3 34 -3 34 -14 35 -36 
34 -47 34 -14 34 5 34 12 34 28 35 -23 34 -14 34 -2 
34 11 34 52 34 63 292 855 52 MP stroke
c13
35 -125 34 -123 34 -48 34 -16 34 1 35 17 34 34 34 60 
34 157 34 58 34 27 35 2 34 -9 34 -12 34 -6 34 7 
34 14 35 10 34 3 34 -6 34 -24 34 -54 35 -188 34 -51 
34 -7 34 5 34 -5 34 -28 35 -33 34 -29 34 -24 34 -14 
34 -8 34 -1 35 8 34 14 34 28 34 42 34 66 35 139 
34 130 34 77 34 59 34 39 34 33 35 3 34 3 34 -24 
34 -56 34 -98 34 -263 292 1017 52 MP stroke
0.25 sg
35 -21 34 -19 34 -37 34 -26 34 -12 35 -7 34 3 34 7 
34 11 34 16 34 13 35 -12 34 -34 34 -21 34 -10 34 -3 
34 3 35 21 34 38 34 73 34 32 34 12 35 -1 34 -5 
34 -14 34 -23 34 -54 34 38 35 29 34 6 34 -2 34 -13 
34 -51 34 -46 35 -20 34 -9 34 4 34 10 34 27 35 46 
34 49 34 28 34 16 34 16 34 4 35 4 34 3 34 -14 
34 -15 34 -37 34 -80 292 956 52 MP stroke
c8
35 -8 34 -8 34 -8 34 -18 34 -17 35 -25 34 -31 34 -72 
34 45 34 1 34 -82 35 -30 34 9 34 32 34 -1 34 -30 
34 -9 35 6 34 22 34 37 34 61 34 26 35 7 34 -8 
34 -24 34 -39 34 51 34 31 35 13 34 2 34 -14 34 -32 
34 -72 34 -34 35 -6 34 -19 34 -19 34 -18 34 -8 35 -7 
34 7 34 6 34 17 34 17 34 18 35 1 34 -9 34 -9 
34 -2 34 10 34 53 292 943 52 MP stroke
c9
35 81 34 13 34 -17 34 -45 34 -33 35 34 34 -92 34 -27 
34 -9 34 1 34 15 35 18 34 17 34 -7 34 -15 34 -5 
34 8 35 32 34 15 34 14 34 71 34 18 35 7 34 1 
34 -3 34 -4 34 -3 34 -1 35 4 34 9 34 10 34 9 
34 7 34 3 35 0 34 -7 34 -10 34 -18 34 -29 35 -69 
34 54 34 -28 34 -80 34 -42 34 -17 35 -18 34 -4 34 1 
34 2 34 35 34 34 292 1015 52 MP stroke
c10
35 98 34 50 34 15 34 15 34 -7 35 -10 34 -13 34 -32 
34 -46 34 -34 34 57 35 19 34 -20 34 -66 34 -31 34 49 
34 -23 35 38 34 -60 34 -23 34 2 34 23 35 56 34 -30 
34 59 34 39 34 14 34 15 35 -1 34 -5 34 -11 34 -22 
34 -31 34 -56 35 -7 34 -65 34 -40 34 -24 34 -20 35 -20 
34 -11 34 -7 34 -8 34 -7 34 2 35 8 34 7 34 7 
34 29 34 44 34 44 292 1004 52 MP stroke
c11
35 82 34 68 34 3 34 3 34 -39 35 -42 34 -86 34 -135 
34 -44 34 -201 34 -20 35 66 34 36 34 -4 34 209 34 57 
34 13 35 10 34 22 34 44 34 39 34 38 35 15 34 9 
34 -17 34 -33 34 -54 34 -69 35 -69 34 19 34 31 34 -31 
34 -251 34 -133 35 -18 34 15 34 36 34 27 34 -25 35 -39 
34 -13 34 19 34 62 34 146 34 -152 35 -93 34 -70 34 -63 
34 -48 34 -43 34 -43 292 1463 52 MP stroke
c12
35 115 34 64 34 16 34 -9 34 -32 35 -57 34 -82 34 -153 
34 -186 34 -87 34 -5 35 46 34 87 34 142 34 85 34 35 
34 39 35 51 34 51 34 40 34 27 34 8 35 -8 34 -36 
34 -52 34 -73 34 -77 34 -1 35 2 34 -172 34 -177 34 -40 
34 -12 34 -23 35 -36 34 -52 34 -45 34 -43 34 -25 35 -13 
34 -7 34 30 34 30 34 59 34 67 35 86 34 62 34 1 
34 -24 34 11 34 194 292 911 52 MP stroke
gr

c12

end %%Color Dict

eplot
%%EndObject

epage
end

showpage

%%Trailer
%%EOF
