%!PS-Adobe-3.0 EPSF-3.0
%%Creator: MATLAB, The Mathworks, Inc. Version 7.10.0.499 (R2010a). Operating System: Microsoft Windows 7.
%%Title: C:\Users\wwu\Desktop\warping\Gervini_code\comp_toy_smr.eps
%%CreationDate: 04/12/2011  16:33:28
%%DocumentNeededFonts: Helvetica
%%DocumentProcessColors: Cyan Magenta Yellow Black
%%LanguageLevel: 2
%%Pages: 1
%%BoundingBox:   212   320   399   470
%%EndComments

%%BeginProlog
% MathWorks dictionary
/MathWorks 160 dict begin
% definition operators
/bdef {bind def} bind def
/ldef {load def} bind def
/xdef {exch def} bdef
/xstore {exch store} bdef
% operator abbreviations
/c  /clip ldef
/cc /concat ldef
/cp /closepath ldef
/gr /grestore ldef
/gs /gsave ldef
/mt /moveto ldef
/np /newpath ldef
/cm /currentmatrix ldef
/sm /setmatrix ldef
/rm /rmoveto ldef
/rl /rlineto ldef
/s {show newpath} bdef
/sc {setcmykcolor} bdef
/sr /setrgbcolor ldef
/sg /setgray ldef
/w /setlinewidth ldef
/j /setlinejoin ldef
/cap /setlinecap ldef
/rc {rectclip} bdef
/rf {rectfill} bdef
% page state control
/pgsv () def
/bpage {/pgsv save def} bdef
/epage {pgsv restore} bdef
/bplot /gsave ldef
/eplot {stroke grestore} bdef
% orientation switch
/portraitMode 0 def /landscapeMode 1 def /rotateMode 2 def
% coordinate system mappings
/dpi2point 0 def
% font control
/FontSize 0 def
/FMS {/FontSize xstore findfont [FontSize 0 0 FontSize neg 0 0]
  makefont setfont} bdef
/ISOLatin1Encoding where {pop /WindowsLatin1Encoding 256 array bdef
ISOLatin1Encoding WindowsLatin1Encoding copy pop
/.notdef/.notdef/quotesinglbase/florin/quotedblbase/ellipsis/dagger
/daggerdbl/circumflex/perthousand/Scaron/guilsinglleft/OE/.notdef/.notdef
/.notdef/.notdef/quoteleft/quoteright/quotedblleft/quotedblright/bullet
/endash/emdash/tilde/trademark/scaron/guilsinglright/oe/.notdef/.notdef
/Ydieresis WindowsLatin1Encoding 128 32 getinterval astore pop}
{/WindowsLatin1Encoding StandardEncoding bdef} ifelse
/reencode {exch dup where {pop load} {pop StandardEncoding} ifelse
  exch dup 3 1 roll findfont dup length dict begin
  { 1 index /FID ne {def}{pop pop} ifelse } forall
  /Encoding exch def currentdict end definefont pop} bdef
/isroman {findfont /CharStrings get /Agrave known} bdef
/FMSR {3 1 roll 1 index dup isroman {reencode} {pop pop} ifelse
  exch FMS} bdef
/csm {1 dpi2point div -1 dpi2point div scale neg translate
 dup landscapeMode eq {pop -90 rotate}
  {rotateMode eq {90 rotate} if} ifelse} bdef
% line types: solid, dotted, dashed, dotdash
/SO { [] 0 setdash } bdef
/DO { [.5 dpi2point mul 4 dpi2point mul] 0 setdash } bdef
/DA { [6 dpi2point mul] 0 setdash } bdef
/DD { [.5 dpi2point mul 4 dpi2point mul 6 dpi2point mul 4
  dpi2point mul] 0 setdash } bdef
% macros for lines and objects
/L {lineto stroke} bdef
/MP {3 1 roll moveto 1 sub {rlineto} repeat} bdef
/AP {{rlineto} repeat} bdef
/PDlw -1 def
/W {/PDlw currentlinewidth def setlinewidth} def
/PP {closepath eofill} bdef
/DP {closepath stroke} bdef
/MR {4 -2 roll moveto dup  0 exch rlineto exch 0 rlineto
  neg 0 exch rlineto closepath} bdef
/FR {MR stroke} bdef
/PR {MR fill} bdef
/L1i {{currentfile picstr readhexstring pop} image} bdef
/tMatrix matrix def
/MakeOval {newpath tMatrix currentmatrix pop translate scale
0 0 1 0 360 arc tMatrix setmatrix} bdef
/FO {MakeOval stroke} bdef
/PO {MakeOval fill} bdef
/PD {currentlinewidth 2 div 0 360 arc fill
   PDlw -1 eq not {PDlw w /PDlw -1 def} if} def
/FA {newpath tMatrix currentmatrix pop translate scale
  0 0 1 5 -2 roll arc tMatrix setmatrix stroke} bdef
/PA {newpath tMatrix currentmatrix pop	translate 0 0 moveto scale
  0 0 1 5 -2 roll arc closepath tMatrix setmatrix fill} bdef
/FAn {newpath tMatrix currentmatrix pop translate scale
  0 0 1 5 -2 roll arcn tMatrix setmatrix stroke} bdef
/PAn {newpath tMatrix currentmatrix pop translate 0 0 moveto scale
  0 0 1 5 -2 roll arcn closepath tMatrix setmatrix fill} bdef
/vradius 0 def /hradius 0 def /lry 0 def
/lrx 0 def /uly 0 def /ulx 0 def /rad 0 def
/MRR {/vradius xdef /hradius xdef /lry xdef /lrx xdef /uly xdef
  /ulx xdef newpath tMatrix currentmatrix pop ulx hradius add uly
  vradius add translate hradius vradius scale 0 0 1 180 270 arc 
  tMatrix setmatrix lrx hradius sub uly vradius add translate
  hradius vradius scale 0 0 1 270 360 arc tMatrix setmatrix
  lrx hradius sub lry vradius sub translate hradius vradius scale
  0 0 1 0 90 arc tMatrix setmatrix ulx hradius add lry vradius sub
  translate hradius vradius scale 0 0 1 90 180 arc tMatrix setmatrix
  closepath} bdef
/FRR {MRR stroke } bdef
/PRR {MRR fill } bdef
/MlrRR {/lry xdef /lrx xdef /uly xdef /ulx xdef /rad lry uly sub 2 div def
  newpath tMatrix currentmatrix pop ulx rad add uly rad add translate
  rad rad scale 0 0 1 90 270 arc tMatrix setmatrix lrx rad sub lry rad
  sub translate rad rad scale 0 0 1 270 90 arc tMatrix setmatrix
  closepath} bdef
/FlrRR {MlrRR stroke } bdef
/PlrRR {MlrRR fill } bdef
/MtbRR {/lry xdef /lrx xdef /uly xdef /ulx xdef /rad lrx ulx sub 2 div def
  newpath tMatrix currentmatrix pop ulx rad add uly rad add translate
  rad rad scale 0 0 1 180 360 arc tMatrix setmatrix lrx rad sub lry rad
  sub translate rad rad scale 0 0 1 0 180 arc tMatrix setmatrix
  closepath} bdef
/FtbRR {MtbRR stroke } bdef
/PtbRR {MtbRR fill } bdef
/stri 6 array def /dtri 6 array def
/smat 6 array def /dmat 6 array def
/tmat1 6 array def /tmat2 6 array def /dif 3 array def
/asub {/ind2 exch def /ind1 exch def dup dup
  ind1 get exch ind2 get sub exch } bdef
/tri_to_matrix {
  2 0 asub 3 1 asub 4 0 asub 5 1 asub
  dup 0 get exch 1 get 7 -1 roll astore } bdef
/compute_transform {
  dmat dtri tri_to_matrix tmat1 invertmatrix 
  smat stri tri_to_matrix tmat2 concatmatrix } bdef
/ds {stri astore pop} bdef
/dt {dtri astore pop} bdef
/db {2 copy /cols xdef /rows xdef mul dup 3 mul string
  currentfile 
  3 index 0 eq {/ASCIIHexDecode filter}
  {/ASCII85Decode filter 3 index 2 eq {/RunLengthDecode filter} if }
  ifelse exch readstring pop
  dup 0 3 index getinterval /rbmap xdef
  dup 2 index dup getinterval /gbmap xdef
  1 index dup 2 mul exch getinterval /bbmap xdef pop pop}bdef
/it {gs np dtri aload pop moveto lineto lineto cp c
  cols rows 8 compute_transform 
  rbmap gbmap bbmap true 3 colorimage gr}bdef
/il {newpath moveto lineto stroke}bdef
currentdict end def
%%EndProlog

%%BeginSetup
MathWorks begin

0 cap

end
%%EndSetup

%%Page: 1 1
%%BeginPageSetup
%%PageBoundingBox:   212   320   399   470
MathWorks begin
bpage
%%EndPageSetup

%%BeginObject: obj1
bplot

/dpi2point 12 def
portraitMode 2544 5640 csm

    0     0  2249  1800 rc
85 dict begin %Colortable dictionary
/c0 { 0.000000 0.000000 0.000000 sr} bdef
/c1 { 1.000000 1.000000 1.000000 sr} bdef
/c2 { 0.900000 0.000000 0.000000 sr} bdef
/c3 { 0.000000 0.820000 0.000000 sr} bdef
/c4 { 0.000000 0.000000 0.800000 sr} bdef
/c5 { 0.910000 0.820000 0.320000 sr} bdef
/c6 { 1.000000 0.260000 0.820000 sr} bdef
/c7 { 0.000000 0.820000 0.820000 sr} bdef
c0
1 j
1 sg
   0    0 2250 1801 rf
6 w
0 1467 1743 0 0 -1467 292 1602 4 MP
PP
-1743 0 0 1467 1743 0 0 -1467 292 1602 5 MP stroke
4 w
DO
SO
6 w
0 sg
 292  135 mt 2035  135 L
 292 1602 mt 2035 1602 L
2035 1602 mt 2035  135 L
 292 1602 mt  292  135 L
 292 1602 mt 2035 1602 L
 292 1602 mt  292  135 L
 292 1602 mt  292 1584 L
 292  135 mt  292  152 L
%%IncludeResource: font Helvetica
/Helvetica /WindowsLatin1Encoding 120 FMSR

 259 1747 mt 
(0) s
1163 1602 mt 1163 1584 L
1163  135 mt 1163  152 L
1080 1747 mt 
(0.5) s
2035 1602 mt 2035 1584 L
2035  135 mt 2035  152 L
2002 1747 mt 
(1) s
 292 1602 mt  309 1602 L
2035 1602 mt 2017 1602 L
 191 1646 mt 
(0) s
 292 1276 mt  309 1276 L
2035 1276 mt 2017 1276 L
 191 1320 mt 
(2) s
 292  950 mt  309  950 L
2035  950 mt 2017  950 L
 191  994 mt 
(4) s
 292  624 mt  309  624 L
2035  624 mt 2017  624 L
 191  668 mt 
(6) s
 292  298 mt  309  298 L
2035  298 mt 2017  298 L
 191  342 mt 
(8) s
 292  135 mt 2035  135 L
 292 1602 mt 2035 1602 L
2035 1602 mt 2035  135 L
 292 1602 mt  292  135 L
gs 292 135 1744 1468 rc
/c8 { 0.000000 0.000000 1.000000 sr} bdef
c8
18 0 17 0 18 0 17 0 18 0 17 0 18 0 17 0 
17 0 18 0 17 0 18 0 17 0 18 0 17 0 17 0 
18 0 17 0 18 0 17 0 18 0 17 0 17 0 18 0 
17 0 18 0 17 0 18 0 17 0 17 0 18 0 17 0 
18 0 17 0 18 0 17 0 17 0 18 0 17 0 18 1 
17 0 18 0 17 0 17 0 18 0 17 0 18 0 17 0 
18 0 17 0 17 0 18 0 17 0 18 2 17 5 18 11 
17 17 17 25 18 27 17 28 18 21 17 12 18 2 17 12 
17 25 18 50 17 77 18 117 17 171 18 225 17 258 17 226 
18 86 17 -147 18 -355 17 -382 18 -256 17 -139 17 -65 18 -29 
17 -13 18 -5 17 -3 18 -1 17 0 17 0 18 0 17 0 
18 0 17 0 18 0 17 0 17 0 18 -1 17 0 18 0 
17 -1 18 0 17 0 17 0 292 1601 101 MP stroke
/c9 { 0.000000 0.500000 0.000000 sr} bdef
c9
18 0 17 0 18 0 17 0 18 0 17 0 18 0 17 0 
17 0 18 0 17 0 18 0 17 0 18 0 17 0 17 0 
18 0 17 0 18 0 17 0 18 0 17 0 17 0 18 0 
17 0 18 0 17 0 18 0 17 0 17 0 18 0 17 0 
18 0 17 0 18 0 17 1 17 0 18 0 17 0 18 0 
17 0 18 0 17 0 17 0 18 0 17 0 18 0 17 0 
18 0 17 0 17 0 18 0 17 3 18 7 17 18 18 36 
17 53 17 69 18 80 17 77 18 61 17 44 18 23 17 42 
17 76 18 107 17 145 18 174 17 179 18 144 17 41 17 -112 
18 -276 17 -357 18 -318 17 -190 18 -80 17 -30 17 -10 18 -4 
17 -2 18 0 17 0 18 0 17 0 17 0 18 0 17 0 
18 0 17 0 18 0 17 0 17 0 18 0 17 0 18 0 
17 0 18 0 17 0 17 0 292 1601 101 MP stroke
/c10 { 1.000000 0.000000 0.000000 sr} bdef
c10
18 0 17 0 18 0 17 0 18 0 17 0 18 0 17 0 
17 0 18 0 17 0 18 0 17 0 18 0 17 0 17 0 
18 0 17 0 18 0 17 0 18 0 17 0 17 0 18 0 
17 0 18 0 17 0 18 0 17 0 17 0 18 1 17 0 
18 0 17 0 18 0 17 0 17 0 18 0 17 0 18 0 
17 0 18 0 17 0 17 0 18 0 17 0 18 0 17 0 
18 0 17 0 17 0 18 1 17 3 18 9 17 20 18 36 
17 55 17 78 18 91 17 98 18 97 17 87 18 74 17 96 
17 122 18 144 17 150 18 130 17 73 18 -20 17 -153 17 -258 
18 -308 17 -278 18 -193 17 -97 18 -37 17 -14 17 -4 18 -2 
17 0 18 0 17 0 18 0 17 0 17 0 18 0 17 0 
18 0 17 0 18 0 17 0 17 0 18 0 17 0 18 0 
17 0 18 0 17 0 17 0 292 1601 101 MP stroke
/c11 { 0.000000 0.750000 0.750000 sr} bdef
c11
18 0 17 0 18 0 17 0 18 0 17 0 18 0 17 0 
17 0 18 0 17 0 18 0 17 0 18 0 17 0 17 0 
18 0 17 0 18 0 17 0 18 1 17 0 17 0 18 0 
17 0 18 0 17 0 18 0 17 0 17 0 18 0 17 0 
18 0 17 0 18 0 17 0 17 0 18 0 17 0 18 0 
17 0 18 0 17 0 17 0 18 0 17 0 18 0 17 0 
18 0 17 0 17 0 18 0 17 0 18 0 17 1 18 3 
17 12 17 34 18 86 17 176 18 290 17 364 18 303 17 87 
17 -128 18 -249 17 -269 18 -224 17 -163 18 -109 17 -70 17 -44 
18 -27 17 -15 18 -9 17 -6 18 -6 17 -6 17 -6 18 -4 
17 -5 18 -3 17 -3 18 -3 17 -2 17 -2 18 -1 17 -1 
18 -1 17 0 18 0 17 0 17 0 18 0 17 0 18 0 
17 0 18 0 17 0 17 0 292 1601 101 MP stroke
/c12 { 0.750000 0.000000 0.750000 sr} bdef
c12
18 0 17 0 18 0 17 0 18 0 17 0 18 0 17 0 
17 0 18 0 17 0 18 0 17 0 18 0 17 0 17 0 
18 0 17 0 18 1 17 0 18 0 17 0 17 0 18 0 
17 0 18 0 17 0 18 0 17 0 17 0 18 0 17 0 
18 0 17 0 18 0 17 0 17 0 18 0 17 0 18 0 
17 0 18 0 17 0 17 0 18 0 17 0 18 0 17 0 
18 0 17 0 17 0 18 0 17 0 18 0 17 1 18 4 
17 13 17 37 18 88 17 181 18 295 17 366 18 290 17 63 
17 -150 18 -256 17 -263 18 -210 17 -151 18 -99 17 -63 17 -39 
18 -23 17 -13 18 -4 17 -3 18 -5 17 -6 17 -9 18 -6 
17 -9 18 -7 17 -6 18 -5 17 -4 17 -3 18 -2 17 -1 
18 -1 17 0 18 0 17 0 17 0 18 0 17 0 18 0 
17 0 18 0 17 0 17 0 292 1601 101 MP stroke
/c13 { 0.750000 0.750000 0.000000 sr} bdef
c13
18 0 17 0 18 0 17 0 18 0 17 0 18 0 17 0 
17 0 18 0 17 0 18 0 17 0 18 0 17 0 17 0 
18 0 17 0 18 1 17 0 18 0 17 0 17 0 18 0 
17 0 18 0 17 0 18 0 17 0 17 0 18 0 17 0 
18 0 17 0 18 0 17 0 17 0 18 0 17 0 18 0 
17 0 18 0 17 0 17 0 18 0 17 0 18 0 17 0 
18 0 17 0 17 0 18 0 17 0 18 0 17 2 18 5 
17 15 17 40 18 94 17 184 18 292 17 357 18 279 17 61 
17 -143 18 -243 17 -252 18 -206 17 -147 18 -100 17 -66 17 -39 
18 -23 17 -11 18 -3 17 -1 18 -4 17 -9 17 -12 18 -11 
17 -14 18 -12 17 -10 18 -9 17 -6 17 -4 18 -2 17 -2 
18 0 17 0 18 0 17 0 17 0 18 0 17 0 18 0 
17 0 18 0 17 0 17 0 292 1601 101 MP stroke
0.25 sg
18 0 17 0 18 0 17 0 18 0 17 0 18 0 17 0 
17 0 18 0 17 0 18 0 17 0 18 0 17 0 17 0 
18 0 17 0 18 1 17 0 18 0 17 0 17 0 18 0 
17 0 18 0 17 0 18 0 17 0 17 0 18 0 17 0 
18 0 17 0 18 0 17 0 17 0 18 0 17 0 18 0 
17 0 18 0 17 0 17 0 18 0 17 0 18 0 17 0 
18 0 17 0 17 0 18 0 17 0 18 0 17 0 18 2 
17 6 17 18 18 49 17 119 18 233 17 351 18 366 17 177 
17 -61 18 -219 17 -259 18 -228 17 -171 18 -116 17 -72 17 -45 
18 -28 17 -12 18 -2 17 0 18 -5 17 -10 17 -14 18 -15 
17 -16 18 -14 17 -12 18 -9 17 -7 17 -3 18 -2 17 -1 
18 0 17 0 18 0 17 0 17 0 18 0 17 0 18 0 
17 0 18 0 17 0 17 0 292 1601 101 MP stroke
c8
18 0 17 0 18 0 17 0 18 0 17 0 18 0 17 0 
17 0 18 0 17 0 18 0 17 0 18 0 17 1 17 0 
18 0 17 0 18 0 17 0 18 0 17 0 17 0 18 0 
17 0 18 0 17 0 18 0 17 0 17 0 18 0 17 0 
18 0 17 0 18 0 17 0 17 0 18 0 17 0 18 0 
17 0 18 0 17 0 17 0 18 0 17 0 18 0 17 0 
18 0 17 0 17 0 18 0 17 0 18 0 17 0 18 2 
17 5 17 16 18 45 17 110 18 239 17 378 18 387 17 139 
17 -151 18 -293 17 -289 18 -221 17 -139 18 -85 17 -49 17 -28 
18 -15 17 -7 18 -1 17 -1 18 -2 17 -4 17 -6 18 -7 
17 -7 18 -5 17 -5 18 -3 17 -2 17 -1 18 0 17 0 
18 0 17 0 18 0 17 0 17 0 18 0 17 0 18 0 
17 0 18 0 17 0 17 0 292 1601 101 MP stroke
c9
18 0 17 0 18 0 17 0 18 0 17 0 18 0 17 0 
17 0 18 0 17 0 18 0 17 1 18 0 17 0 17 0 
18 0 17 0 18 0 17 0 18 0 17 0 17 0 18 0 
17 0 18 0 17 0 18 0 17 0 17 0 18 0 17 0 
18 0 17 0 18 0 17 0 17 0 18 0 17 0 18 0 
17 0 18 0 17 0 17 0 18 0 17 0 18 0 17 0 
18 0 17 0 17 0 18 0 17 0 18 1 17 2 18 5 
17 13 17 32 18 70 17 149 18 264 17 364 18 326 17 82 
17 -154 18 -267 17 -267 18 -207 17 -144 18 -90 17 -54 17 -31 
18 -19 17 -8 18 -1 17 0 18 -4 17 -7 17 -11 18 -10 
17 -11 18 -9 17 -6 18 -4 17 -3 17 -1 18 0 17 0 
18 0 17 0 18 0 17 0 17 0 18 0 17 0 18 0 
17 0 18 0 17 0 17 0 292 1601 101 MP stroke
c10
18 0 17 0 18 0 17 0 18 0 17 0 18 0 17 0 
17 1 18 0 17 0 18 0 17 0 18 0 17 0 17 0 
18 0 17 0 18 0 17 0 18 0 17 0 17 0 18 0 
17 0 18 0 17 0 18 0 17 0 17 0 18 0 17 0 
18 0 17 0 18 0 17 0 17 0 18 0 17 0 18 0 
17 0 18 0 17 0 17 0 18 0 17 0 18 0 17 0 
18 0 17 0 17 0 18 0 17 0 18 1 17 2 18 5 
17 14 17 34 18 79 17 163 18 280 17 372 18 299 17 42 
17 -193 18 -290 17 -265 18 -196 17 -127 18 -79 17 -46 17 -27 
18 -14 17 -8 18 -2 17 0 18 -3 17 -6 17 -8 18 -7 
17 -7 18 -6 17 -4 18 -2 17 -1 17 0 18 0 17 0 
18 0 17 0 18 0 17 0 17 0 18 0 17 0 18 0 
17 0 18 0 17 0 17 0 292 1601 101 MP stroke
c11
18 0 17 0 18 0 17 0 18 0 17 0 18 0 17 0 
17 1 18 0 17 0 18 0 17 0 18 0 17 0 17 0 
18 0 17 0 18 0 17 0 18 0 17 0 17 0 18 0 
17 0 18 0 17 0 18 0 17 0 17 0 18 0 17 0 
18 0 17 0 18 0 17 0 17 0 18 0 17 0 18 0 
17 0 18 0 17 0 17 0 18 0 17 0 18 0 17 0 
18 0 17 0 17 0 18 1 17 0 18 2 17 4 18 7 
17 19 17 39 18 88 17 167 18 274 17 354 18 286 17 49 
17 -169 18 -265 17 -256 18 -197 17 -137 18 -87 17 -51 17 -31 
18 -18 17 -9 18 0 17 0 18 -5 17 -9 17 -13 18 -12 
17 -11 18 -9 17 -6 18 -3 17 -2 17 0 18 0 17 0 
18 0 17 0 18 0 17 0 17 0 18 0 17 0 18 0 
17 0 18 0 17 0 17 0 292 1601 101 MP stroke
c12
18 0 17 0 18 0 17 0 18 0 17 0 18 1 17 0 
17 0 18 0 17 0 18 0 17 0 18 0 17 0 17 0 
18 0 17 0 18 0 17 0 18 0 17 0 17 0 18 0 
17 0 18 0 17 0 18 0 17 0 17 0 18 0 17 1 
18 0 17 0 18 0 17 0 17 0 18 0 17 0 18 0 
17 0 18 0 17 0 17 0 18 0 17 0 18 0 17 0 
18 0 17 0 17 0 18 0 17 1 18 1 17 4 18 6 
17 16 17 34 18 73 17 145 18 253 17 348 18 323 17 92 
17 -143 18 -267 17 -275 18 -217 17 -150 18 -93 17 -56 17 -33 
18 -20 17 -10 18 -6 17 -5 18 -5 17 -5 17 -4 18 -4 
17 -2 18 -1 17 -1 18 0 17 0 17 0 18 0 17 0 
18 0 17 0 18 0 17 0 17 0 18 0 17 0 18 0 
17 0 18 0 17 0 17 -1 292 1602 101 MP stroke
c13
18 0 17 0 18 0 17 0 18 0 17 0 18 0 17 0 
17 0 18 0 17 0 18 1 17 0 18 0 17 0 17 0 
18 0 17 0 18 0 17 0 18 0 17 0 17 0 18 0 
17 0 18 0 17 0 18 0 17 0 17 0 18 0 17 0 
18 0 17 0 18 0 17 1 17 2 18 4 17 6 18 9 
17 12 18 12 17 14 17 11 18 8 17 0 18 0 17 0 
18 0 17 0 17 0 18 0 17 0 18 9 17 25 18 47 
17 75 17 119 18 182 17 242 18 271 17 207 18 23 17 -197 
17 -307 18 -296 17 -220 18 -132 17 -71 18 -34 17 -14 17 -5 
18 -2 17 -1 18 0 17 0 18 0 17 0 17 0 18 0 
17 0 18 0 17 0 18 0 17 0 17 0 18 0 17 0 
18 0 17 0 18 0 17 0 17 0 18 0 17 0 18 0 
17 -1 18 0 17 0 17 0 292 1602 101 MP stroke
0.25 sg
18 0 17 0 18 0 17 0 18 0 17 0 18 0 17 0 
17 0 18 1 17 0 18 0 17 0 18 0 17 0 17 0 
18 0 17 0 18 0 17 0 18 0 17 0 17 0 18 0 
17 0 18 0 17 0 18 0 17 0 17 0 18 0 17 0 
18 1 17 1 18 3 17 7 17 12 18 22 17 34 18 45 
17 52 18 60 17 59 17 51 18 44 17 15 18 0 17 0 
18 0 17 0 17 0 18 0 17 0 18 26 17 69 18 103 
17 138 17 168 18 182 17 145 18 60 17 -92 18 -248 17 -301 
17 -262 18 -183 17 -110 18 -58 17 -26 18 -11 17 -4 17 -2 
18 0 17 0 18 0 17 0 18 0 17 0 17 0 18 0 
17 0 18 0 17 0 18 0 17 0 17 0 18 0 17 0 
18 0 17 0 18 0 17 0 17 0 18 0 17 -1 18 0 
17 0 18 0 17 0 17 0 292 1602 101 MP stroke
c8
18 0 17 0 18 0 17 0 18 0 17 0 18 0 17 1 
17 0 18 0 17 0 18 0 17 0 18 0 17 0 17 0 
18 0 17 0 18 0 17 0 18 0 17 0 17 0 18 0 
17 0 18 0 17 0 18 0 17 0 17 0 18 1 17 3 
18 8 17 18 18 39 17 81 17 142 18 214 17 246 18 225 
17 168 18 101 17 42 17 4 18 -14 17 -3 18 0 17 0 
18 0 17 0 17 0 18 0 17 0 18 0 17 0 18 -24 
17 -43 17 -79 18 -115 17 -154 18 -184 17 -196 18 -174 17 -131 
17 -80 18 -49 17 -25 18 -12 17 -6 18 -2 17 -1 17 0 
18 0 17 0 18 0 17 0 18 0 17 0 17 0 18 0 
17 0 18 0 17 0 18 0 17 0 17 0 18 0 17 0 
18 0 17 0 18 0 17 0 17 -1 18 0 17 0 18 0 
17 0 18 0 17 0 17 0 292 1602 101 MP stroke
c9
18 0 17 0 18 0 17 0 18 0 17 1 18 0 17 0 
17 0 18 0 17 0 18 0 17 0 18 0 17 0 17 0 
18 0 17 0 18 0 17 0 18 0 17 0 17 0 18 0 
17 0 18 0 17 0 18 0 17 1 17 2 18 6 17 15 
18 39 17 84 18 160 17 256 17 326 18 293 17 115 18 -74 
17 -185 18 -216 17 -194 17 -151 18 -109 17 -70 18 -47 17 -11 
18 0 17 0 17 0 18 0 17 0 18 0 17 -10 18 -22 
17 -30 17 -28 18 -32 17 -28 18 -26 17 -22 18 -17 17 -10 
17 -7 18 -4 17 -2 18 -2 17 0 18 0 17 0 17 0 
18 0 17 0 18 0 17 0 18 0 17 0 17 0 18 0 
17 0 18 0 17 0 18 0 17 0 17 0 18 0 17 0 
18 0 17 0 18 -1 17 0 17 0 18 0 17 0 18 0 
17 0 18 0 17 0 17 0 292 1602 101 MP stroke
c10
18 0 17 0 18 0 17 1 18 0 17 0 18 0 17 0 
17 0 18 0 17 0 18 0 17 0 18 0 17 0 17 0 
18 0 17 0 18 0 17 0 18 0 17 0 17 0 18 0 
17 0 18 0 17 0 18 1 17 3 17 9 18 20 17 48 
18 98 17 182 18 281 17 335 17 261 18 43 17 -193 18 -291 
17 -266 18 -195 17 -127 17 -77 18 -44 17 -26 18 -14 17 -5 
18 0 17 0 17 0 18 0 17 0 18 0 17 0 18 -4 
17 -5 17 -7 18 -6 17 -6 18 -4 17 -4 18 -3 17 -2 
17 -1 18 -1 17 0 18 0 17 0 18 0 17 0 17 0 
18 0 17 0 18 0 17 0 18 0 17 0 17 0 18 0 
17 0 18 0 17 0 18 0 17 0 17 0 18 0 17 -1 
18 0 17 0 18 0 17 0 17 0 18 0 17 0 18 0 
17 0 18 0 17 0 17 0 292 1602 101 MP stroke
c11
18 1 17 0 18 0 17 0 18 0 17 0 18 0 17 0 
17 0 18 0 17 0 18 0 17 0 18 0 17 0 17 0 
18 0 17 0 18 0 17 0 18 1 17 2 17 2 18 4 
17 4 18 9 17 14 18 24 17 42 17 72 18 121 17 178 
18 243 17 274 18 230 17 79 17 -141 18 -313 17 -322 18 -234 
17 -140 18 -77 17 -36 17 -18 18 -9 17 -4 18 -2 17 -1 
18 -1 17 0 17 0 18 0 17 0 18 0 17 0 18 0 
17 0 17 0 18 0 17 0 18 0 17 0 18 0 17 0 
17 0 18 0 17 0 18 -1 17 0 18 0 17 0 17 0 
18 0 17 0 18 0 17 0 18 0 17 0 17 0 18 0 
17 0 18 0 17 0 18 0 17 0 17 0 18 0 17 -1 
18 0 17 0 18 0 17 0 17 0 18 0 17 0 18 0 
17 0 18 0 17 0 17 0 292 1602 101 MP stroke
c12
18 0 17 0 18 0 17 0 18 0 17 0 18 0 17 0 
17 0 18 0 17 0 18 0 17 0 18 0 17 0 17 0 
18 0 17 0 18 0 17 1 18 0 17 2 17 3 18 5 
17 8 18 12 17 20 18 35 17 58 17 92 18 138 17 196 
18 240 17 249 18 188 17 51 17 -131 18 -279 17 -299 18 -238 
17 -157 18 -91 17 -50 17 -27 18 -13 17 -6 18 -3 17 -2 
18 -1 17 0 17 -1 18 0 17 0 18 0 17 0 18 0 
17 0 17 0 18 0 17 0 18 0 17 0 18 0 17 0 
17 0 18 0 17 0 18 0 17 0 18 0 17 0 17 0 
18 0 17 0 18 0 17 0 18 0 17 0 17 0 18 0 
17 0 18 0 17 0 18 0 17 0 17 0 18 0 17 0 
18 -1 17 0 18 0 17 0 17 0 18 0 17 0 18 0 
17 0 18 0 17 0 17 0 292 1602 101 MP stroke
c13
18 0 17 0 18 0 17 0 18 0 17 0 18 0 17 0 
17 0 18 0 17 0 18 0 17 0 18 0 17 0 17 0 
18 0 17 0 18 0 17 0 18 0 17 0 17 2 18 2 
17 4 18 9 17 16 18 31 17 55 17 96 18 147 17 212 
18 257 17 261 18 179 17 24 17 -161 18 -293 17 -298 18 -228 
17 -148 18 -82 17 -44 17 -21 18 -11 17 -5 18 -2 17 -1 
18 -1 17 0 17 0 18 0 17 0 18 0 17 0 18 0 
17 0 17 0 18 0 17 0 18 0 17 0 18 0 17 0 
17 0 18 0 17 0 18 0 17 0 18 0 17 0 17 0 
18 0 17 0 18 0 17 0 18 0 17 0 17 0 18 0 
17 0 18 0 17 0 18 0 17 0 17 0 18 -1 17 0 
18 0 17 0 18 0 17 0 17 0 18 0 17 0 18 0 
17 0 18 0 17 0 17 0 292 1602 101 MP stroke
0.25 sg
18 0 17 0 18 0 17 0 18 0 17 0 18 0 17 0 
17 0 18 0 17 0 18 0 17 0 18 0 17 0 17 0 
18 0 17 0 18 0 17 0 18 0 17 0 17 0 18 0 
17 2 18 4 17 9 18 22 17 44 17 86 18 148 17 220 
18 279 17 282 18 189 17 11 17 -187 18 -311 17 -304 18 -221 
17 -134 18 -74 17 -36 17 -16 18 -8 17 -3 18 -1 17 -1 
18 0 17 0 17 0 18 0 17 0 18 0 17 0 18 0 
17 0 17 0 18 0 17 0 18 0 17 0 18 0 17 0 
17 0 18 0 17 0 18 0 17 0 18 0 17 0 17 0 
18 0 17 0 18 0 17 0 18 0 17 0 17 0 18 0 
17 0 18 0 17 0 18 -1 17 0 17 0 18 0 17 0 
18 0 17 0 18 0 17 0 17 0 18 0 17 0 18 0 
17 0 18 0 17 0 17 0 292 1602 101 MP stroke
c8
18 0 17 0 18 0 17 0 18 0 17 0 18 0 17 0 
17 0 18 0 17 0 18 0 17 0 18 0 17 0 17 0 
18 0 17 0 18 0 17 0 18 0 17 0 17 0 18 1 
17 4 18 8 17 21 18 43 17 90 17 162 18 247 17 310 
18 289 17 144 18 -93 17 -308 17 -373 18 -293 17 -154 18 -65 
17 -23 18 -7 17 -3 17 0 18 0 17 0 18 0 17 0 
18 0 17 0 17 0 18 0 17 0 18 0 17 0 18 0 
17 0 17 0 18 0 17 0 18 0 17 0 18 0 17 0 
17 0 18 0 17 0 18 0 17 0 18 0 17 0 17 0 
18 0 17 0 18 0 17 0 18 0 17 0 17 0 18 0 
17 -1 18 0 17 0 18 0 17 0 17 0 18 0 17 0 
18 0 17 0 18 0 17 0 17 0 18 0 17 0 18 0 
17 0 18 0 17 0 17 0 292 1602 101 MP stroke
c9
18 0 17 0 18 0 17 0 18 0 17 0 18 0 17 0 
17 0 18 0 17 0 18 0 17 0 18 0 17 0 17 0 
18 0 17 0 18 0 17 0 18 1 17 2 17 3 18 8 
17 19 18 33 17 60 18 98 17 142 17 194 18 227 17 230 
18 194 17 105 18 -5 17 -127 17 -210 18 -250 17 -236 18 -186 
17 -134 18 -82 17 -46 17 -23 18 -11 17 -4 18 -2 17 0 
18 0 17 0 17 0 18 0 17 0 18 0 17 0 18 0 
17 0 17 0 18 0 17 0 18 0 17 0 18 0 17 0 
17 0 18 0 17 0 18 0 17 0 18 0 17 0 17 0 
18 0 17 0 18 0 17 0 18 0 17 -1 17 0 18 0 
17 0 18 0 17 0 18 0 17 0 17 0 18 0 17 0 
18 0 17 0 18 0 17 0 17 0 18 0 17 0 18 0 
17 0 18 0 17 0 17 0 292 1602 101 MP stroke
c10
18 0 17 0 18 0 17 0 18 0 17 0 18 0 17 0 
17 0 18 0 17 0 18 0 17 0 18 0 17 0 17 0 
18 0 17 0 18 0 17 0 18 0 17 1 17 2 18 7 
17 15 18 33 17 59 18 105 17 148 17 200 18 227 17 225 
18 185 17 112 18 11 17 -77 17 -152 18 -197 17 -214 18 -205 
17 -171 18 -132 17 -83 17 -53 18 -26 17 -13 18 -5 17 -2 
18 0 17 0 17 0 18 0 17 0 18 0 17 0 18 0 
17 0 17 0 18 0 17 0 18 0 17 0 18 0 17 0 
17 0 18 0 17 0 18 0 17 0 18 0 17 0 17 0 
18 0 17 0 18 0 17 0 18 -1 17 0 17 0 18 0 
17 0 18 0 17 0 18 0 17 0 17 0 18 0 17 0 
18 0 17 0 18 0 17 0 17 0 18 0 17 0 18 0 
17 0 18 0 17 0 17 0 292 1602 101 MP stroke
c11
18 0 17 0 18 0 17 0 18 0 17 0 18 0 17 0 
17 0 18 0 17 0 18 0 17 0 18 0 17 0 17 0 
18 0 17 0 18 0 17 0 18 0 17 1 17 4 18 8 
17 21 18 44 17 85 18 133 17 185 17 225 18 236 17 207 
18 140 17 59 18 -34 17 -113 17 -160 18 -184 17 -197 18 -187 
17 -161 18 -127 17 -83 17 -54 18 -27 17 -14 18 -5 17 -2 
18 0 17 0 17 0 18 0 17 0 18 0 17 0 18 0 
17 0 17 0 18 0 17 0 18 0 17 0 18 0 17 0 
17 0 18 0 17 0 18 0 17 0 18 0 17 0 17 0 
18 0 17 0 18 0 17 -1 18 0 17 0 17 0 18 0 
17 0 18 0 17 0 18 0 17 0 17 0 18 0 17 0 
18 0 17 0 18 0 17 0 17 0 18 0 17 0 18 0 
17 0 18 0 17 0 17 0 292 1602 101 MP stroke
c12
18 0 17 0 18 0 17 0 18 0 17 0 18 0 17 0 
17 0 18 0 17 0 18 0 17 0 18 0 17 0 17 0 
18 0 17 0 18 0 17 0 18 0 17 0 17 2 18 5 
17 16 18 40 17 82 18 143 17 211 17 261 18 264 17 213 
18 109 17 -6 18 -119 17 -189 17 -216 18 -211 17 -189 18 -155 
17 -109 18 -74 17 -41 17 -22 18 -9 17 -5 18 -1 17 0 
18 0 17 0 17 0 18 0 17 0 18 0 17 0 18 0 
17 0 17 0 18 0 17 0 18 0 17 0 18 0 17 0 
17 0 18 0 17 0 18 0 17 0 18 0 17 0 17 0 
18 0 17 0 18 -1 17 0 18 0 17 0 17 0 18 0 
17 0 18 0 17 0 18 0 17 0 17 0 18 0 17 0 
18 0 17 0 18 0 17 0 17 0 18 0 17 0 18 0 
17 0 18 0 17 0 17 0 292 1602 101 MP stroke
c13
18 0 17 0 18 0 17 0 18 0 17 0 18 0 17 0 
17 0 18 0 17 0 18 0 17 0 18 0 17 0 17 0 
18 0 17 0 18 0 17 1 18 1 17 5 17 12 18 26 
17 64 18 119 17 183 18 237 17 259 17 235 18 159 17 68 
18 -28 17 -112 18 -156 17 -174 17 -171 18 -155 17 -149 18 -135 
17 -109 18 -77 17 -52 17 -29 18 -14 17 -6 18 -2 17 0 
18 0 17 0 17 0 18 0 17 0 18 0 17 0 18 0 
17 0 17 0 18 0 17 0 18 0 17 0 18 0 17 0 
17 0 18 0 17 0 18 0 17 0 18 0 17 0 17 0 
18 -1 17 0 18 0 17 0 18 0 17 0 17 0 18 0 
17 0 18 0 17 0 18 0 17 0 17 0 18 0 17 0 
18 0 17 0 18 0 17 0 17 0 18 0 17 0 18 0 
17 0 18 0 17 0 17 0 292 1602 101 MP stroke
0.25 sg
18 0 17 0 18 0 17 0 18 0 17 0 18 0 17 0 
17 0 18 0 17 0 18 0 17 0 18 0 17 0 17 1 
18 1 17 2 18 5 17 9 18 19 17 36 17 68 18 117 
17 188 18 245 17 261 18 228 17 148 17 59 18 -45 17 -114 
18 -156 17 -171 18 -164 17 -147 17 -123 18 -103 17 -98 18 -86 
17 -69 18 -50 17 -33 17 -16 18 -8 17 -3 18 -1 17 0 
18 0 17 0 17 0 18 0 17 0 18 0 17 0 18 0 
17 0 17 0 18 0 17 0 18 0 17 0 18 0 17 0 
17 0 18 0 17 0 18 0 17 -1 18 0 17 0 17 0 
18 0 17 0 18 0 17 0 18 0 17 0 17 0 18 0 
17 0 18 0 17 0 18 0 17 0 17 0 18 0 17 0 
18 0 17 0 18 0 17 0 17 0 18 0 17 0 18 0 
17 0 18 0 17 0 17 0 292 1602 101 MP stroke
c8
18 0 17 0 18 0 17 0 18 0 17 0 18 0 17 0 
17 1 18 0 17 1 18 1 17 2 18 3 17 5 17 8 
18 14 17 23 18 37 17 60 18 91 17 134 17 187 18 230 
17 250 18 210 17 121 18 10 17 -76 17 -141 18 -177 17 -179 
18 -166 17 -142 18 -116 17 -88 17 -68 18 -55 17 -51 18 -45 
17 -35 18 -24 17 -14 17 -7 18 -3 17 -1 18 0 17 0 
18 0 17 0 17 0 18 0 17 0 18 0 17 0 18 0 
17 0 17 0 18 -1 17 0 18 0 17 0 18 0 17 0 
17 0 18 0 17 0 18 0 17 0 18 0 17 0 17 0 
18 0 17 0 18 0 17 0 18 0 17 0 17 0 18 0 
17 0 18 0 17 0 18 0 17 0 17 0 18 0 17 0 
18 0 17 0 18 0 17 0 17 0 18 0 17 0 18 0 
17 0 18 0 17 0 17 0 292 1602 101 MP stroke
gr

c8

end %%Color Dict

eplot
%%EndObject

epage
end

showpage

%%Trailer
%%EOF
