%!PS-Adobe-3.0 EPSF-3.0
%%Creator: MATLAB, The Mathworks, Inc. Version 7.10.0.499 (R2010a). Operating System: Microsoft Windows 7.
%%Title: C:\Users\wwu\Desktop\warping\Gervini_code\comp_wave_smr.eps
%%CreationDate: 04/12/2011  16:33:03
%%DocumentNeededFonts: Helvetica
%%DocumentProcessColors: Cyan Magenta Yellow Black
%%LanguageLevel: 2
%%Pages: 1
%%BoundingBox:   212   320   399   470
%%EndComments

%%BeginProlog
% MathWorks dictionary
/MathWorks 160 dict begin
% definition operators
/bdef {bind def} bind def
/ldef {load def} bind def
/xdef {exch def} bdef
/xstore {exch store} bdef
% operator abbreviations
/c  /clip ldef
/cc /concat ldef
/cp /closepath ldef
/gr /grestore ldef
/gs /gsave ldef
/mt /moveto ldef
/np /newpath ldef
/cm /currentmatrix ldef
/sm /setmatrix ldef
/rm /rmoveto ldef
/rl /rlineto ldef
/s {show newpath} bdef
/sc {setcmykcolor} bdef
/sr /setrgbcolor ldef
/sg /setgray ldef
/w /setlinewidth ldef
/j /setlinejoin ldef
/cap /setlinecap ldef
/rc {rectclip} bdef
/rf {rectfill} bdef
% page state control
/pgsv () def
/bpage {/pgsv save def} bdef
/epage {pgsv restore} bdef
/bplot /gsave ldef
/eplot {stroke grestore} bdef
% orientation switch
/portraitMode 0 def /landscapeMode 1 def /rotateMode 2 def
% coordinate system mappings
/dpi2point 0 def
% font control
/FontSize 0 def
/FMS {/FontSize xstore findfont [FontSize 0 0 FontSize neg 0 0]
  makefont setfont} bdef
/ISOLatin1Encoding where {pop /WindowsLatin1Encoding 256 array bdef
ISOLatin1Encoding WindowsLatin1Encoding copy pop
/.notdef/.notdef/quotesinglbase/florin/quotedblbase/ellipsis/dagger
/daggerdbl/circumflex/perthousand/Scaron/guilsinglleft/OE/.notdef/.notdef
/.notdef/.notdef/quoteleft/quoteright/quotedblleft/quotedblright/bullet
/endash/emdash/tilde/trademark/scaron/guilsinglright/oe/.notdef/.notdef
/Ydieresis WindowsLatin1Encoding 128 32 getinterval astore pop}
{/WindowsLatin1Encoding StandardEncoding bdef} ifelse
/reencode {exch dup where {pop load} {pop StandardEncoding} ifelse
  exch dup 3 1 roll findfont dup length dict begin
  { 1 index /FID ne {def}{pop pop} ifelse } forall
  /Encoding exch def currentdict end definefont pop} bdef
/isroman {findfont /CharStrings get /Agrave known} bdef
/FMSR {3 1 roll 1 index dup isroman {reencode} {pop pop} ifelse
  exch FMS} bdef
/csm {1 dpi2point div -1 dpi2point div scale neg translate
 dup landscapeMode eq {pop -90 rotate}
  {rotateMode eq {90 rotate} if} ifelse} bdef
% line types: solid, dotted, dashed, dotdash
/SO { [] 0 setdash } bdef
/DO { [.5 dpi2point mul 4 dpi2point mul] 0 setdash } bdef
/DA { [6 dpi2point mul] 0 setdash } bdef
/DD { [.5 dpi2point mul 4 dpi2point mul 6 dpi2point mul 4
  dpi2point mul] 0 setdash } bdef
% macros for lines and objects
/L {lineto stroke} bdef
/MP {3 1 roll moveto 1 sub {rlineto} repeat} bdef
/AP {{rlineto} repeat} bdef
/PDlw -1 def
/W {/PDlw currentlinewidth def setlinewidth} def
/PP {closepath eofill} bdef
/DP {closepath stroke} bdef
/MR {4 -2 roll moveto dup  0 exch rlineto exch 0 rlineto
  neg 0 exch rlineto closepath} bdef
/FR {MR stroke} bdef
/PR {MR fill} bdef
/L1i {{currentfile picstr readhexstring pop} image} bdef
/tMatrix matrix def
/MakeOval {newpath tMatrix currentmatrix pop translate scale
0 0 1 0 360 arc tMatrix setmatrix} bdef
/FO {MakeOval stroke} bdef
/PO {MakeOval fill} bdef
/PD {currentlinewidth 2 div 0 360 arc fill
   PDlw -1 eq not {PDlw w /PDlw -1 def} if} def
/FA {newpath tMatrix currentmatrix pop translate scale
  0 0 1 5 -2 roll arc tMatrix setmatrix stroke} bdef
/PA {newpath tMatrix currentmatrix pop	translate 0 0 moveto scale
  0 0 1 5 -2 roll arc closepath tMatrix setmatrix fill} bdef
/FAn {newpath tMatrix currentmatrix pop translate scale
  0 0 1 5 -2 roll arcn tMatrix setmatrix stroke} bdef
/PAn {newpath tMatrix currentmatrix pop translate 0 0 moveto scale
  0 0 1 5 -2 roll arcn closepath tMatrix setmatrix fill} bdef
/vradius 0 def /hradius 0 def /lry 0 def
/lrx 0 def /uly 0 def /ulx 0 def /rad 0 def
/MRR {/vradius xdef /hradius xdef /lry xdef /lrx xdef /uly xdef
  /ulx xdef newpath tMatrix currentmatrix pop ulx hradius add uly
  vradius add translate hradius vradius scale 0 0 1 180 270 arc 
  tMatrix setmatrix lrx hradius sub uly vradius add translate
  hradius vradius scale 0 0 1 270 360 arc tMatrix setmatrix
  lrx hradius sub lry vradius sub translate hradius vradius scale
  0 0 1 0 90 arc tMatrix setmatrix ulx hradius add lry vradius sub
  translate hradius vradius scale 0 0 1 90 180 arc tMatrix setmatrix
  closepath} bdef
/FRR {MRR stroke } bdef
/PRR {MRR fill } bdef
/MlrRR {/lry xdef /lrx xdef /uly xdef /ulx xdef /rad lry uly sub 2 div def
  newpath tMatrix currentmatrix pop ulx rad add uly rad add translate
  rad rad scale 0 0 1 90 270 arc tMatrix setmatrix lrx rad sub lry rad
  sub translate rad rad scale 0 0 1 270 90 arc tMatrix setmatrix
  closepath} bdef
/FlrRR {MlrRR stroke } bdef
/PlrRR {MlrRR fill } bdef
/MtbRR {/lry xdef /lrx xdef /uly xdef /ulx xdef /rad lrx ulx sub 2 div def
  newpath tMatrix currentmatrix pop ulx rad add uly rad add translate
  rad rad scale 0 0 1 180 360 arc tMatrix setmatrix lrx rad sub lry rad
  sub translate rad rad scale 0 0 1 0 180 arc tMatrix setmatrix
  closepath} bdef
/FtbRR {MtbRR stroke } bdef
/PtbRR {MtbRR fill } bdef
/stri 6 array def /dtri 6 array def
/smat 6 array def /dmat 6 array def
/tmat1 6 array def /tmat2 6 array def /dif 3 array def
/asub {/ind2 exch def /ind1 exch def dup dup
  ind1 get exch ind2 get sub exch } bdef
/tri_to_matrix {
  2 0 asub 3 1 asub 4 0 asub 5 1 asub
  dup 0 get exch 1 get 7 -1 roll astore } bdef
/compute_transform {
  dmat dtri tri_to_matrix tmat1 invertmatrix 
  smat stri tri_to_matrix tmat2 concatmatrix } bdef
/ds {stri astore pop} bdef
/dt {dtri astore pop} bdef
/db {2 copy /cols xdef /rows xdef mul dup 3 mul string
  currentfile 
  3 index 0 eq {/ASCIIHexDecode filter}
  {/ASCII85Decode filter 3 index 2 eq {/RunLengthDecode filter} if }
  ifelse exch readstring pop
  dup 0 3 index getinterval /rbmap xdef
  dup 2 index dup getinterval /gbmap xdef
  1 index dup 2 mul exch getinterval /bbmap xdef pop pop}bdef
/it {gs np dtri aload pop moveto lineto lineto cp c
  cols rows 8 compute_transform 
  rbmap gbmap bbmap true 3 colorimage gr}bdef
/il {newpath moveto lineto stroke}bdef
currentdict end def
%%EndProlog

%%BeginSetup
MathWorks begin

0 cap

end
%%EndSetup

%%Page: 1 1
%%BeginPageSetup
%%PageBoundingBox:   212   320   399   470
MathWorks begin
bpage
%%EndPageSetup

%%BeginObject: obj1
bplot

/dpi2point 12 def
portraitMode 2544 5640 csm

    0     0  2249  1800 rc
85 dict begin %Colortable dictionary
/c0 { 0.000000 0.000000 0.000000 sr} bdef
/c1 { 1.000000 1.000000 1.000000 sr} bdef
/c2 { 0.900000 0.000000 0.000000 sr} bdef
/c3 { 0.000000 0.820000 0.000000 sr} bdef
/c4 { 0.000000 0.000000 0.800000 sr} bdef
/c5 { 0.910000 0.820000 0.320000 sr} bdef
/c6 { 1.000000 0.260000 0.820000 sr} bdef
/c7 { 0.000000 0.820000 0.820000 sr} bdef
c0
1 j
1 sg
   0    0 2250 1801 rf
6 w
0 1467 1743 0 0 -1467 292 1602 4 MP
PP
-1743 0 0 1467 1743 0 0 -1467 292 1602 5 MP stroke
4 w
DO
SO
6 w
0 sg
 292  135 mt 2035  135 L
 292 1602 mt 2035 1602 L
2035 1602 mt 2035  135 L
 292 1602 mt  292  135 L
 292 1602 mt 2035 1602 L
 292 1602 mt  292  135 L
 292 1602 mt  292 1584 L
 292  135 mt  292  152 L
%%IncludeResource: font Helvetica
/Helvetica /WindowsLatin1Encoding 120 FMSR

 259 1747 mt 
(0) s
 679 1602 mt  679 1584 L
 679  135 mt  679  152 L
 646 1747 mt 
(2) s
1066 1602 mt 1066 1584 L
1066  135 mt 1066  152 L
1033 1747 mt 
(4) s
1454 1602 mt 1454 1584 L
1454  135 mt 1454  152 L
1421 1747 mt 
(6) s
1841 1602 mt 1841 1584 L
1841  135 mt 1841  152 L
1808 1747 mt 
(8) s
 292 1479 mt  309 1479 L
2035 1479 mt 2017 1479 L
 121 1523 mt 
(-1) s
 292 1174 mt  309 1174 L
2035 1174 mt 2017 1174 L
  21 1218 mt 
(-0.5) s
 292  868 mt  309  868 L
2035  868 mt 2017  868 L
 191  912 mt 
(0) s
 292  562 mt  309  562 L
2035  562 mt 2017  562 L
  91  606 mt 
(0.5) s
 292  257 mt  309  257 L
2035  257 mt 2017  257 L
 191  301 mt 
(1) s
 292  135 mt 2035  135 L
 292 1602 mt 2035 1602 L
2035 1602 mt 2035  135 L
 292 1602 mt  292  135 L
gs 292 135 1744 1468 rc
/c8 { 0.000000 0.000000 1.000000 sr} bdef
c8
10 66 10 64 10 61 9 57 10 52 10 47 9 40 10 33 
10 27 9 20 10 14 10 7 9 3 10 -3 10 -8 9 -10 
10 -14 10 -16 9 -17 10 -19 10 -19 10 -18 9 -18 10 -21 
10 -22 9 -25 10 -28 10 -30 9 -33 10 -37 10 -39 9 -42 
10 -45 10 -47 9 -49 10 -52 10 -52 9 -53 10 -53 10 -51 
10 -49 9 -45 10 -41 10 -33 9 -25 10 -16 10 -4 9 8 
10 18 10 31 9 41 10 50 10 61 9 69 10 74 10 80 
9 84 10 85 10 84 9 82 10 77 10 70 10 63 9 54 
10 42 10 29 9 17 10 3 10 -10 9 -23 10 -36 10 -47 
9 -58 10 -67 10 -74 9 -79 10 -82 10 -84 9 -84 10 -82 
10 -79 10 -74 9 -67 10 -60 10 -52 9 -43 10 -34 10 -26 
9 -15 10 -5 10 4 9 12 10 22 10 35 9 46 10 57 
10 68 9 77 10 86 10 94 10 100 9 102 10 102 10 99 
9 91 10 80 10 64 9 46 10 23 10 -2 9 -28 10 -56 
10 -84 9 -104 10 -115 10 -120 9 -121 10 -115 10 -106 9 -94 
10 -81 10 -63 10 -49 9 -36 10 -23 10 -8 9 -3 10 10 
10 12 9 20 10 19 10 24 9 23 10 19 10 19 9 23 
10 29 10 37 9 50 10 57 10 72 10 83 9 94 10 103 
10 109 9 109 10 102 10 86 9 59 10 22 10 -26 9 -85 
10 -136 10 -183 9 -211 10 -209 10 -172 9 -89 10 11 10 100 
10 161 9 190 10 186 10 158 9 116 10 70 10 25 9 -11 
10 -38 10 -56 9 -69 10 -67 10 -65 9 -57 10 -48 10 -37 
9 -26 10 -11 10 0 9 0 292 868 181 MP stroke
/c9 { 0.000000 0.500000 0.000000 sr} bdef
c9
10 89 10 86 10 79 9 69 10 59 10 46 9 34 10 20 
10 8 9 -3 10 -13 10 -22 9 -29 10 -34 10 -38 9 -40 
10 -41 10 -40 9 -40 10 -37 10 -34 10 -32 9 -28 10 -30 
10 -30 9 -32 10 -34 10 -34 9 -36 10 -36 10 -37 9 -38 
10 -37 10 -36 9 -36 10 -35 10 -32 9 -29 10 -27 10 -23 
10 -18 9 -13 10 -8 10 0 9 6 10 14 10 22 9 28 
10 36 10 42 9 48 10 54 10 58 9 62 10 66 10 67 
9 69 10 68 10 68 9 66 10 63 10 58 10 54 9 48 
10 41 10 34 9 25 10 17 10 8 9 -2 10 -11 10 -20 
9 -30 10 -39 10 -48 9 -55 10 -63 10 -68 9 -74 10 -78 
10 -80 10 -81 9 -81 10 -79 10 -74 9 -70 10 -62 10 -54 
9 -45 10 -34 10 -23 9 -10 10 2 10 16 9 29 10 43 
10 55 9 66 10 77 10 86 10 92 9 97 10 99 10 99 
9 95 10 89 10 80 9 69 10 54 10 39 9 20 10 1 
10 -18 9 -37 10 -54 10 -68 9 -79 10 -88 10 -93 9 -96 
10 -96 10 -94 10 -88 9 -82 10 -74 10 -66 9 -55 10 -44 
10 -34 9 -26 10 -12 10 -5 9 4 10 13 10 16 9 29 
10 37 10 49 9 65 10 77 10 93 10 105 9 117 10 123 
10 123 9 117 10 100 10 76 9 34 10 -10 10 -59 9 -116 
10 -159 10 -193 9 -203 10 -187 10 -134 9 -55 10 35 10 107 
10 161 9 180 10 174 10 151 9 115 10 70 10 32 9 -3 
10 -29 10 -47 9 -60 10 -64 10 -61 9 -59 10 -49 10 -42 
9 -33 10 -22 10 -13 9 -3 292 868 181 MP stroke
/c10 { 1.000000 0.000000 0.000000 sr} bdef
c10
10 88 10 84 10 77 9 70 10 58 10 48 9 34 10 22 
10 9 9 -3 10 -12 10 -23 9 -31 10 -38 10 -42 9 -47 
10 -49 10 -50 9 -50 10 -50 10 -48 10 -46 9 -44 10 -43 
10 -43 9 -42 10 -42 10 -40 9 -39 10 -37 10 -35 9 -33 
10 -29 10 -27 9 -24 10 -21 10 -16 9 -13 10 -10 10 -4 
10 -1 9 2 10 8 10 11 9 15 10 20 10 25 9 28 
10 33 10 37 9 42 10 45 10 49 9 53 10 55 10 58 
9 60 10 61 10 61 9 61 10 60 10 58 10 55 9 52 
10 46 10 41 9 33 10 26 10 18 9 8 10 -1 10 -11 
9 -22 10 -32 10 -42 9 -51 10 -61 10 -69 9 -76 10 -81 
10 -86 10 -88 9 -88 10 -87 10 -83 9 -77 10 -69 10 -59 
9 -47 10 -33 10 -17 9 0 10 15 10 31 9 46 10 59 
10 71 9 80 10 89 10 93 10 97 9 96 10 95 10 90 
9 83 10 75 10 64 9 52 10 39 10 25 9 10 10 -4 
10 -18 9 -32 10 -44 10 -56 9 -67 10 -74 10 -79 9 -85 
10 -86 10 -87 10 -86 9 -83 10 -78 10 -72 9 -66 10 -57 
10 -47 9 -37 10 -28 10 -19 9 -5 10 3 10 11 9 23 
10 37 10 51 9 66 10 82 10 99 10 112 9 124 10 129 
10 129 9 117 10 100 10 68 9 29 10 -19 10 -71 9 -123 
10 -164 10 -194 9 -198 10 -176 10 -126 9 -49 10 36 10 106 
10 151 9 174 10 169 10 150 9 116 10 78 10 42 9 9 
10 -21 10 -39 9 -54 10 -61 10 -60 9 -58 10 -53 10 -45 
9 -38 10 -29 10 -21 9 -11 292 868 181 MP stroke
/c11 { 0.000000 0.750000 0.750000 sr} bdef
c11
10 81 10 79 10 75 9 67 10 59 10 49 9 38 10 25 
10 14 9 2 10 -9 10 -19 9 -30 10 -39 10 -46 9 -53 
10 -57 10 -61 9 -63 10 -64 10 -64 10 -62 9 -61 10 -57 
10 -55 9 -51 10 -46 10 -41 9 -36 10 -32 10 -26 9 -21 
10 -17 10 -12 9 -6 10 -4 10 2 9 4 10 7 10 12 
10 12 9 16 10 16 10 19 9 19 10 22 10 24 9 26 
10 29 10 32 9 36 10 37 10 41 9 43 10 46 10 48 
9 50 10 51 10 53 9 54 10 53 10 53 10 52 9 50 
10 46 10 43 9 38 10 33 10 27 9 18 10 9 10 1 
9 -10 10 -19 10 -31 9 -42 10 -53 10 -64 9 -73 10 -82 
10 -89 10 -95 9 -97 10 -97 10 -95 9 -89 10 -79 10 -67 
9 -52 10 -34 10 -14 9 9 10 28 10 45 9 62 10 75 
10 86 9 94 10 99 10 100 10 98 9 95 10 89 10 80 
9 71 10 60 10 48 9 37 10 24 10 12 9 0 10 -11 
10 -21 9 -31 10 -39 10 -49 9 -57 10 -65 10 -69 9 -75 
10 -78 10 -81 10 -81 9 -80 10 -78 10 -75 9 -70 10 -63 
10 -55 9 -47 10 -37 10 -29 9 -16 10 -4 10 7 9 18 
10 33 10 49 9 67 10 85 10 102 10 118 9 129 10 134 
10 133 9 119 10 100 10 64 9 23 10 -25 10 -79 9 -129 
10 -169 10 -193 9 -195 10 -170 10 -118 9 -44 10 39 10 104 
10 147 9 168 10 166 10 147 9 118 10 82 10 48 9 13 
10 -13 10 -32 9 -48 10 -55 10 -59 9 -58 10 -54 10 -49 
9 -42 10 -34 10 -26 9 -19 292 868 181 MP stroke
/c12 { 0.750000 0.000000 0.750000 sr} bdef
c12
10 77 10 76 10 72 9 67 10 59 10 51 9 39 10 29 
10 16 9 3 10 -10 10 -22 9 -34 10 -45 10 -55 9 -64 
10 -71 10 -75 9 -79 10 -80 10 -80 10 -77 9 -72 10 -64 
10 -55 9 -45 10 -37 10 -26 9 -20 10 -13 10 -6 9 -1 
10 2 10 7 9 7 10 10 10 11 9 9 10 10 10 9 
10 8 9 6 10 4 10 2 9 0 10 2 10 8 9 17 
10 25 10 36 9 47 10 63 10 78 9 96 10 110 10 122 
9 127 10 121 10 101 9 67 10 14 10 -50 10 -122 9 -190 
10 -236 10 -246 9 -207 10 -117 10 9 9 121 10 199 10 238 
9 233 10 194 10 135 9 66 10 -3 10 -60 9 -104 10 -133 
10 -145 10 -146 9 -136 10 -121 10 -102 9 -83 10 -62 10 -46 
9 -30 10 -18 10 -13 9 -5 10 4 10 11 9 19 10 29 
10 40 9 50 10 60 10 68 10 78 9 85 10 91 10 94 
9 96 10 95 10 90 9 83 10 71 10 58 9 39 10 20 
10 -2 9 -22 10 -39 10 -53 9 -61 10 -67 10 -70 9 -70 
10 -68 10 -64 10 -59 9 -54 10 -49 10 -42 9 -37 10 -30 
10 -26 9 -21 10 -15 10 -10 9 -6 10 0 10 0 9 0 
10 0 10 -3 9 -9 10 -12 10 -15 10 -18 9 -20 10 -24 
10 -23 9 -25 10 -25 10 -24 9 -21 10 -18 10 -13 9 -5 
10 3 10 12 9 23 10 35 10 48 9 62 10 72 10 79 
10 85 9 87 10 89 10 86 9 82 10 74 10 65 9 53 
10 40 10 26 9 10 10 -5 10 -20 9 -35 10 -50 10 -61 
9 -71 10 -79 10 -83 9 -85 292 868 181 MP stroke
/c13 { 0.750000 0.750000 0.000000 sr} bdef
c13
10 49 10 50 10 52 9 53 10 53 10 50 9 47 10 44 
10 38 9 27 10 19 10 7 9 -6 10 -19 10 -34 9 -49 
10 -64 10 -78 9 -89 10 -99 10 -104 10 -105 9 -103 10 -96 
10 -80 9 -62 10 -37 10 -4 9 30 10 65 10 101 9 130 
10 151 10 163 9 160 10 142 10 108 9 60 10 3 10 -58 
10 -117 9 -166 10 -198 10 -208 9 -191 10 -144 10 -79 9 -12 
10 50 10 100 9 134 10 152 10 158 9 151 10 135 10 114 
9 89 10 65 10 42 9 18 10 1 10 -14 10 -26 9 -34 
10 -38 10 -39 9 -40 10 -39 10 -41 9 -45 10 -47 10 -51 
9 -53 10 -55 10 -57 9 -58 10 -59 10 -59 9 -59 10 -57 
10 -55 10 -53 9 -48 10 -46 10 -40 9 -33 10 -28 10 -21 
9 -13 10 -3 10 4 9 13 10 22 10 31 9 42 10 51 
10 59 9 67 10 74 10 80 10 83 9 87 10 87 10 86 
9 82 10 77 10 70 9 59 10 48 10 35 9 21 10 4 
10 -13 9 -28 10 -42 10 -55 9 -65 10 -73 10 -80 9 -84 
10 -85 10 -85 10 -83 9 -78 10 -73 10 -66 9 -58 10 -50 
10 -40 9 -31 10 -21 10 -11 9 -2 10 7 10 16 9 23 
10 29 10 33 9 35 10 38 10 38 10 38 9 38 10 37 
10 34 9 33 10 30 10 27 9 25 10 22 10 19 9 16 
10 13 10 11 9 7 10 5 10 1 9 1 10 5 10 12 
10 18 9 25 10 30 10 36 9 41 10 45 10 46 9 47 
10 46 10 42 9 34 10 22 10 8 9 -9 10 -30 10 -52 
9 -73 10 -94 10 -111 9 -121 292 868 181 MP stroke
0.25 sg
10 21 10 25 10 31 9 36 10 39 10 45 9 46 10 49 
10 47 9 46 10 42 10 32 9 21 10 8 10 -9 9 -30 
10 -53 10 -76 9 -97 10 -116 10 -129 10 -134 9 -129 10 -112 
10 -86 9 -48 10 -8 10 34 9 80 10 115 10 146 9 163 
10 166 10 157 9 127 10 90 10 39 9 -16 10 -68 10 -121 
10 -159 9 -182 10 -188 10 -174 9 -142 10 -94 10 -36 9 19 
10 63 10 101 9 125 10 138 10 141 9 136 10 124 10 107 
9 90 10 69 10 50 9 32 10 15 10 1 10 -9 9 -18 
10 -23 10 -29 9 -30 10 -32 10 -36 9 -40 10 -45 10 -49 
9 -54 10 -57 10 -60 9 -63 10 -66 10 -67 9 -68 10 -67 
10 -66 10 -64 9 -59 10 -54 10 -48 9 -40 10 -33 10 -23 
9 -11 10 1 10 12 9 23 10 35 10 45 9 55 10 64 
10 70 9 77 10 81 10 84 10 84 9 84 10 82 10 77 
9 71 10 64 10 56 9 46 10 34 10 24 9 12 10 -1 
10 -13 9 -24 10 -37 10 -47 9 -58 10 -67 10 -75 9 -81 
10 -85 10 -87 10 -87 9 -86 10 -80 10 -75 9 -66 10 -56 
10 -44 9 -31 10 -19 10 -2 9 12 10 25 10 40 9 51 
10 58 10 62 9 64 10 64 10 62 10 59 9 55 10 51 
10 46 9 41 10 37 10 32 9 28 10 23 10 20 9 16 
10 13 10 11 9 7 10 4 10 2 9 0 10 3 10 6 
10 10 9 13 10 15 10 18 9 17 10 18 10 18 9 15 
10 11 10 5 9 -1 10 -11 10 -20 9 -31 10 -44 10 -56 
9 -68 10 -79 10 -87 9 -93 292 868 181 MP stroke
c8
10 0 10 0 10 0 9 10 10 23 10 31 9 38 10 46 
10 52 9 57 10 59 10 56 9 52 10 42 10 21 9 -3 
10 -32 10 -65 9 -99 10 -133 10 -155 10 -165 9 -156 10 -122 
10 -79 9 -17 10 34 10 89 9 132 10 159 10 173 9 170 
10 149 10 116 9 75 10 20 10 -27 9 -74 10 -115 10 -144 
10 -162 9 -166 10 -158 10 -135 9 -107 10 -65 10 -25 9 10 
10 45 10 73 9 92 10 104 10 110 9 111 10 108 10 101 
9 92 10 81 10 71 9 58 10 46 10 38 10 28 9 19 
10 14 10 5 9 4 10 -2 10 -4 9 -8 10 -14 10 -18 
9 -26 10 -32 10 -37 9 -48 10 -54 10 -60 9 -69 10 -76 
10 -80 10 -85 9 -87 10 -88 10 -87 9 -82 10 -75 10 -65 
9 -53 10 -38 10 -20 9 -3 10 14 10 30 9 45 10 57 
10 67 9 75 10 82 10 85 10 87 9 87 10 84 10 81 
9 75 10 69 10 61 9 53 10 44 10 34 9 26 10 17 
10 7 9 -1 10 -11 10 -22 9 -34 10 -45 10 -57 9 -68 
10 -79 10 -87 10 -94 9 -97 10 -99 10 -96 9 -90 10 -80 
10 -68 9 -51 10 -32 10 -11 9 11 10 34 10 55 9 72 
10 81 10 86 9 86 10 83 10 77 10 72 9 63 10 56 
10 48 9 41 10 34 10 28 9 23 10 18 10 14 9 11 
10 8 10 6 9 4 10 3 10 1 9 0 10 2 10 2 
10 3 9 3 10 3 10 3 9 2 10 0 10 -2 9 -5 
10 -9 10 -13 9 -18 10 -24 10 -31 9 -37 10 -44 10 -51 
9 -57 10 -62 10 -67 9 -70 292 868 181 MP stroke
c9
10 0 10 0 10 0 9 0 10 0 10 13 9 37 10 48 
10 56 9 63 10 68 10 68 9 60 10 47 10 27 9 -6 
10 -46 10 -91 9 -132 10 -166 10 -183 10 -177 9 -139 10 -78 
10 -3 9 55 10 99 10 130 9 145 10 146 10 136 9 118 
10 97 10 74 9 54 10 37 10 16 9 5 10 -5 10 -12 
10 -17 9 -15 10 -20 10 -17 9 -13 10 -11 10 -16 9 -20 
10 -22 10 -25 9 -28 10 -35 10 -37 9 -41 10 -48 10 -51 
9 -55 10 -59 10 -62 9 -66 10 -66 10 -68 10 -66 9 -66 
10 -59 10 -56 9 -46 10 -37 10 -27 9 -14 10 5 10 21 
9 39 10 58 10 77 9 95 10 110 10 121 9 128 10 128 
10 123 10 110 9 92 10 66 10 33 9 1 10 -34 10 -73 
9 -103 10 -130 10 -145 9 -147 10 -140 10 -126 9 -108 10 -84 
10 -61 9 -39 10 -17 10 3 10 22 9 37 10 48 10 57 
9 64 10 68 10 70 9 70 10 69 10 66 9 63 10 59 
10 56 9 60 10 64 10 65 9 64 10 59 10 52 9 38 
10 24 10 3 10 -20 9 -45 10 -71 10 -95 9 -117 10 -132 
10 -140 9 -140 10 -128 10 -108 9 -79 10 -41 10 -1 9 39 
10 70 10 89 9 100 10 103 10 100 10 93 9 83 10 74 
10 63 9 51 10 42 10 34 9 26 10 19 10 14 9 11 
10 6 10 5 9 3 10 1 10 1 9 1 10 0 10 1 
10 -1 9 0 10 -2 10 -2 9 -5 10 -6 10 -9 9 -12 
10 -15 10 -19 9 -23 10 -28 10 -32 9 -36 10 -41 10 -46 
9 -49 10 -53 10 -55 9 -57 292 868 181 MP stroke
gr

c9

end %%Color Dict

eplot
%%EndObject

epage
end

showpage

%%Trailer
%%EOF
