%!PS-Adobe-3.0 EPSF-3.0
%%Creator: MATLAB, The Mathworks, Inc. Version 7.10.0.499 (R2010a). Operating System: Microsoft Windows 7.
%%Title: C:\Users\wwu\Desktop\warping\Gervini_code\comp_simu_smr.eps
%%CreationDate: 04/12/2011  16:35:03
%%DocumentNeededFonts: Helvetica
%%DocumentProcessColors: Cyan Magenta Yellow Black
%%LanguageLevel: 2
%%Pages: 1
%%BoundingBox:   212   320   399   470
%%EndComments

%%BeginProlog
% MathWorks dictionary
/MathWorks 160 dict begin
% definition operators
/bdef {bind def} bind def
/ldef {load def} bind def
/xdef {exch def} bdef
/xstore {exch store} bdef
% operator abbreviations
/c  /clip ldef
/cc /concat ldef
/cp /closepath ldef
/gr /grestore ldef
/gs /gsave ldef
/mt /moveto ldef
/np /newpath ldef
/cm /currentmatrix ldef
/sm /setmatrix ldef
/rm /rmoveto ldef
/rl /rlineto ldef
/s {show newpath} bdef
/sc {setcmykcolor} bdef
/sr /setrgbcolor ldef
/sg /setgray ldef
/w /setlinewidth ldef
/j /setlinejoin ldef
/cap /setlinecap ldef
/rc {rectclip} bdef
/rf {rectfill} bdef
% page state control
/pgsv () def
/bpage {/pgsv save def} bdef
/epage {pgsv restore} bdef
/bplot /gsave ldef
/eplot {stroke grestore} bdef
% orientation switch
/portraitMode 0 def /landscapeMode 1 def /rotateMode 2 def
% coordinate system mappings
/dpi2point 0 def
% font control
/FontSize 0 def
/FMS {/FontSize xstore findfont [FontSize 0 0 FontSize neg 0 0]
  makefont setfont} bdef
/ISOLatin1Encoding where {pop /WindowsLatin1Encoding 256 array bdef
ISOLatin1Encoding WindowsLatin1Encoding copy pop
/.notdef/.notdef/quotesinglbase/florin/quotedblbase/ellipsis/dagger
/daggerdbl/circumflex/perthousand/Scaron/guilsinglleft/OE/.notdef/.notdef
/.notdef/.notdef/quoteleft/quoteright/quotedblleft/quotedblright/bullet
/endash/emdash/tilde/trademark/scaron/guilsinglright/oe/.notdef/.notdef
/Ydieresis WindowsLatin1Encoding 128 32 getinterval astore pop}
{/WindowsLatin1Encoding StandardEncoding bdef} ifelse
/reencode {exch dup where {pop load} {pop StandardEncoding} ifelse
  exch dup 3 1 roll findfont dup length dict begin
  { 1 index /FID ne {def}{pop pop} ifelse } forall
  /Encoding exch def currentdict end definefont pop} bdef
/isroman {findfont /CharStrings get /Agrave known} bdef
/FMSR {3 1 roll 1 index dup isroman {reencode} {pop pop} ifelse
  exch FMS} bdef
/csm {1 dpi2point div -1 dpi2point div scale neg translate
 dup landscapeMode eq {pop -90 rotate}
  {rotateMode eq {90 rotate} if} ifelse} bdef
% line types: solid, dotted, dashed, dotdash
/SO { [] 0 setdash } bdef
/DO { [.5 dpi2point mul 4 dpi2point mul] 0 setdash } bdef
/DA { [6 dpi2point mul] 0 setdash } bdef
/DD { [.5 dpi2point mul 4 dpi2point mul 6 dpi2point mul 4
  dpi2point mul] 0 setdash } bdef
% macros for lines and objects
/L {lineto stroke} bdef
/MP {3 1 roll moveto 1 sub {rlineto} repeat} bdef
/AP {{rlineto} repeat} bdef
/PDlw -1 def
/W {/PDlw currentlinewidth def setlinewidth} def
/PP {closepath eofill} bdef
/DP {closepath stroke} bdef
/MR {4 -2 roll moveto dup  0 exch rlineto exch 0 rlineto
  neg 0 exch rlineto closepath} bdef
/FR {MR stroke} bdef
/PR {MR fill} bdef
/L1i {{currentfile picstr readhexstring pop} image} bdef
/tMatrix matrix def
/MakeOval {newpath tMatrix currentmatrix pop translate scale
0 0 1 0 360 arc tMatrix setmatrix} bdef
/FO {MakeOval stroke} bdef
/PO {MakeOval fill} bdef
/PD {currentlinewidth 2 div 0 360 arc fill
   PDlw -1 eq not {PDlw w /PDlw -1 def} if} def
/FA {newpath tMatrix currentmatrix pop translate scale
  0 0 1 5 -2 roll arc tMatrix setmatrix stroke} bdef
/PA {newpath tMatrix currentmatrix pop	translate 0 0 moveto scale
  0 0 1 5 -2 roll arc closepath tMatrix setmatrix fill} bdef
/FAn {newpath tMatrix currentmatrix pop translate scale
  0 0 1 5 -2 roll arcn tMatrix setmatrix stroke} bdef
/PAn {newpath tMatrix currentmatrix pop translate 0 0 moveto scale
  0 0 1 5 -2 roll arcn closepath tMatrix setmatrix fill} bdef
/vradius 0 def /hradius 0 def /lry 0 def
/lrx 0 def /uly 0 def /ulx 0 def /rad 0 def
/MRR {/vradius xdef /hradius xdef /lry xdef /lrx xdef /uly xdef
  /ulx xdef newpath tMatrix currentmatrix pop ulx hradius add uly
  vradius add translate hradius vradius scale 0 0 1 180 270 arc 
  tMatrix setmatrix lrx hradius sub uly vradius add translate
  hradius vradius scale 0 0 1 270 360 arc tMatrix setmatrix
  lrx hradius sub lry vradius sub translate hradius vradius scale
  0 0 1 0 90 arc tMatrix setmatrix ulx hradius add lry vradius sub
  translate hradius vradius scale 0 0 1 90 180 arc tMatrix setmatrix
  closepath} bdef
/FRR {MRR stroke } bdef
/PRR {MRR fill } bdef
/MlrRR {/lry xdef /lrx xdef /uly xdef /ulx xdef /rad lry uly sub 2 div def
  newpath tMatrix currentmatrix pop ulx rad add uly rad add translate
  rad rad scale 0 0 1 90 270 arc tMatrix setmatrix lrx rad sub lry rad
  sub translate rad rad scale 0 0 1 270 90 arc tMatrix setmatrix
  closepath} bdef
/FlrRR {MlrRR stroke } bdef
/PlrRR {MlrRR fill } bdef
/MtbRR {/lry xdef /lrx xdef /uly xdef /ulx xdef /rad lrx ulx sub 2 div def
  newpath tMatrix currentmatrix pop ulx rad add uly rad add translate
  rad rad scale 0 0 1 180 360 arc tMatrix setmatrix lrx rad sub lry rad
  sub translate rad rad scale 0 0 1 0 180 arc tMatrix setmatrix
  closepath} bdef
/FtbRR {MtbRR stroke } bdef
/PtbRR {MtbRR fill } bdef
/stri 6 array def /dtri 6 array def
/smat 6 array def /dmat 6 array def
/tmat1 6 array def /tmat2 6 array def /dif 3 array def
/asub {/ind2 exch def /ind1 exch def dup dup
  ind1 get exch ind2 get sub exch } bdef
/tri_to_matrix {
  2 0 asub 3 1 asub 4 0 asub 5 1 asub
  dup 0 get exch 1 get 7 -1 roll astore } bdef
/compute_transform {
  dmat dtri tri_to_matrix tmat1 invertmatrix 
  smat stri tri_to_matrix tmat2 concatmatrix } bdef
/ds {stri astore pop} bdef
/dt {dtri astore pop} bdef
/db {2 copy /cols xdef /rows xdef mul dup 3 mul string
  currentfile 
  3 index 0 eq {/ASCIIHexDecode filter}
  {/ASCII85Decode filter 3 index 2 eq {/RunLengthDecode filter} if }
  ifelse exch readstring pop
  dup 0 3 index getinterval /rbmap xdef
  dup 2 index dup getinterval /gbmap xdef
  1 index dup 2 mul exch getinterval /bbmap xdef pop pop}bdef
/it {gs np dtri aload pop moveto lineto lineto cp c
  cols rows 8 compute_transform 
  rbmap gbmap bbmap true 3 colorimage gr}bdef
/il {newpath moveto lineto stroke}bdef
currentdict end def
%%EndProlog

%%BeginSetup
MathWorks begin

0 cap

end
%%EndSetup

%%Page: 1 1
%%BeginPageSetup
%%PageBoundingBox:   212   320   399   470
MathWorks begin
bpage
%%EndPageSetup

%%BeginObject: obj1
bplot

/dpi2point 12 def
portraitMode 2544 5640 csm

    0     0  2249  1800 rc
85 dict begin %Colortable dictionary
/c0 { 0.000000 0.000000 0.000000 sr} bdef
/c1 { 1.000000 1.000000 1.000000 sr} bdef
/c2 { 0.900000 0.000000 0.000000 sr} bdef
/c3 { 0.000000 0.820000 0.000000 sr} bdef
/c4 { 0.000000 0.000000 0.800000 sr} bdef
/c5 { 0.910000 0.820000 0.320000 sr} bdef
/c6 { 1.000000 0.260000 0.820000 sr} bdef
/c7 { 0.000000 0.820000 0.820000 sr} bdef
c0
1 j
1 sg
   0    0 2250 1801 rf
6 w
0 1467 1743 0 0 -1467 292 1602 4 MP
PP
-1743 0 0 1467 1743 0 0 -1467 292 1602 5 MP stroke
4 w
DO
SO
6 w
0 sg
 292  135 mt 2035  135 L
 292 1602 mt 2035 1602 L
2035 1602 mt 2035  135 L
 292 1602 mt  292  135 L
 292 1602 mt 2035 1602 L
 292 1602 mt  292  135 L
 582 1602 mt  582 1584 L
 582  135 mt  582  152 L
%%IncludeResource: font Helvetica
/Helvetica /WindowsLatin1Encoding 120 FMSR

 479 1747 mt 
(-2) s
1163 1602 mt 1163 1584 L
1163  135 mt 1163  152 L
1130 1747 mt 
(0) s
1744 1602 mt 1744 1584 L
1744  135 mt 1744  152 L
1711 1747 mt 
(2) s
 292 1602 mt  309 1602 L
2035 1602 mt 2017 1602 L
 191 1646 mt 
(0) s
 292 1113 mt  309 1113 L
2035 1113 mt 2017 1113 L
  91 1157 mt 
(0.5) s
 292  624 mt  309  624 L
2035  624 mt 2017  624 L
 191  668 mt 
(1) s
 292  135 mt  309  135 L
2035  135 mt 2017  135 L
  91  179 mt 
(1.5) s
 292  135 mt 2035  135 L
 292 1602 mt 2035 1602 L
2035 1602 mt 2035  135 L
 292 1602 mt  292  135 L
gs 292 135 1744 1468 rc
/c8 { 0.000000 0.000000 1.000000 sr} bdef
c8
18 30 17 31 18 34 17 35 18 38 17 40 18 42 17 43 
17 44 18 45 17 46 18 44 17 44 18 38 17 33 17 28 
18 23 17 18 18 14 17 10 18 8 17 6 17 3 18 3 
17 2 18 1 17 1 18 2 17 1 17 1 18 0 17 -2 
18 -5 17 -8 18 -13 17 -17 17 -23 18 -29 17 -32 18 -34 
17 -36 18 -35 17 -34 17 -31 18 -28 17 -23 18 -18 17 -12 
18 -6 17 1 17 7 18 13 17 18 18 23 17 26 18 28 
17 30 17 31 18 30 17 28 18 26 17 24 18 19 17 16 
17 11 18 7 17 4 18 3 17 -1 18 0 17 -2 17 -2 
18 -1 17 0 18 0 17 0 18 -1 17 -1 17 -3 18 -3 
17 -5 18 -8 17 -9 18 -14 17 -17 17 -22 18 -28 17 -34 
18 -37 17 -40 18 -43 17 -45 17 -47 18 -47 17 -47 18 -47 
17 -47 18 -45 17 -43 17 -41 292 1280 101 MP stroke
/c9 { 0.000000 0.500000 0.000000 sr} bdef
c9
18 27 17 28 18 29 17 31 18 32 17 34 18 34 17 36 
17 37 18 38 17 39 18 39 17 39 18 39 17 40 17 38 
18 38 17 36 18 34 17 31 18 27 17 23 17 18 18 12 
17 6 18 -1 17 -7 18 -13 17 -17 17 -21 18 -25 17 -26 
18 -27 17 -27 18 -27 17 -25 17 -25 18 -23 17 -22 18 -20 
17 -19 18 -17 17 -16 17 -14 18 -11 17 -10 18 -8 17 -6 
18 -4 17 -2 17 0 18 1 17 4 18 6 17 9 18 11 
17 14 17 18 18 20 17 23 18 25 17 29 18 30 17 30 
17 31 18 30 17 28 18 26 17 23 18 20 17 16 17 12 
18 6 17 2 18 -4 17 -10 18 -14 17 -18 17 -23 18 -25 
17 -30 18 -31 17 -34 18 -34 17 -36 17 -36 18 -35 17 -36 
18 -36 17 -36 18 -37 17 -37 17 -37 18 -36 17 -36 18 -35 
17 -34 18 -33 17 -32 17 -31 292 1230 101 MP stroke
/c10 { 1.000000 0.000000 0.000000 sr} bdef
c10
18 26 17 26 18 27 17 29 18 30 17 30 18 32 17 32 
17 34 18 33 17 35 18 35 17 35 18 38 17 40 17 42 
18 43 17 44 18 44 17 43 18 39 17 35 17 28 18 19 
17 8 18 -4 17 -15 18 -24 17 -30 17 -33 18 -35 17 -35 
18 -34 17 -31 18 -28 17 -24 17 -21 18 -17 17 -17 18 -17 
17 -17 18 -16 17 -16 17 -14 18 -14 17 -12 18 -10 17 -8 
18 -5 17 -3 17 -1 18 3 17 6 18 9 17 12 18 15 
17 18 17 20 18 22 17 25 18 25 17 27 18 26 17 25 
17 24 18 21 17 19 18 16 17 13 18 9 17 7 17 5 
18 1 17 -1 18 -3 17 -5 18 -8 17 -9 17 -13 18 -15 
17 -18 18 -21 17 -23 18 -26 17 -29 17 -32 18 -34 17 -36 
18 -39 17 -39 18 -39 17 -41 17 -40 18 -41 17 -40 18 -39 
17 -39 18 -37 17 -36 17 -35 292 1254 101 MP stroke
/c11 { 0.000000 0.750000 0.750000 sr} bdef
c11
18 29 17 30 18 32 17 33 18 35 17 36 18 37 17 38 
17 39 18 40 17 40 18 40 17 40 18 38 17 37 17 36 
18 33 17 30 18 27 17 25 18 20 17 17 17 13 18 9 
17 5 18 1 17 -3 18 -7 17 -11 17 -14 18 -17 17 -20 
18 -22 17 -23 18 -25 17 -26 17 -26 18 -26 17 -24 18 -23 
17 -21 18 -19 17 -17 17 -14 18 -12 17 -9 18 -8 17 -5 
18 -3 17 -2 17 1 18 1 17 4 18 6 17 9 18 10 
17 14 17 17 18 19 17 23 18 25 17 28 18 30 17 31 
17 32 18 33 17 32 18 31 17 28 18 26 17 21 17 17 
18 10 17 4 18 -3 17 -11 18 -18 17 -23 17 -28 18 -33 
17 -35 18 -37 17 -38 18 -38 17 -39 17 -38 18 -36 17 -35 
18 -35 17 -35 18 -35 17 -35 17 -34 18 -35 17 -33 18 -33 
17 -32 18 -31 17 -31 17 -29 292 1218 101 MP stroke
/c12 { 0.750000 0.000000 0.750000 sr} bdef
c12
18 32 17 34 18 36 17 39 18 40 17 42 18 43 17 44 
17 44 18 45 17 44 18 42 17 40 18 34 17 28 17 22 
18 18 17 13 18 10 17 8 18 5 17 3 17 2 18 1 
17 0 18 0 17 1 18 1 17 2 17 2 18 2 17 0 
18 -1 17 -4 18 -7 17 -12 17 -18 18 -23 17 -27 18 -31 
17 -33 18 -34 17 -34 17 -32 18 -30 17 -26 18 -20 17 -15 
18 -7 17 0 17 8 18 14 17 21 18 24 17 29 18 30 
17 32 17 31 18 30 17 28 18 25 17 22 18 19 17 15 
17 11 18 9 17 6 18 3 17 2 18 0 17 -1 17 -1 
18 -1 17 -1 18 -1 17 0 18 -2 17 -2 17 -3 18 -5 
17 -7 18 -9 17 -11 18 -16 17 -19 17 -24 18 -29 17 -34 
18 -38 17 -41 18 -42 17 -44 17 -45 18 -46 17 -46 18 -45 
17 -44 18 -43 17 -42 17 -39 292 1280 101 MP stroke
/c13 { 0.750000 0.750000 0.000000 sr} bdef
c13
18 30 17 30 18 33 17 33 18 35 17 36 18 37 17 38 
17 39 18 39 17 39 18 39 17 39 18 37 17 37 17 35 
18 33 17 30 18 28 17 25 18 22 17 18 17 14 18 9 
17 5 18 1 17 -4 18 -8 17 -11 17 -15 18 -18 17 -20 
18 -22 17 -23 18 -24 17 -25 17 -25 18 -24 17 -24 18 -23 
17 -22 18 -20 17 -18 17 -16 18 -14 17 -12 18 -9 17 -7 
18 -4 17 -2 17 1 18 3 17 5 18 8 17 11 18 14 
17 17 17 19 18 22 17 24 18 26 17 27 18 29 17 29 
17 28 18 29 17 27 18 25 17 23 18 19 17 17 17 11 
18 8 17 2 18 -3 17 -8 18 -14 17 -18 17 -22 18 -26 
17 -29 18 -32 17 -33 18 -34 17 -36 17 -36 18 -36 17 -36 
18 -36 17 -37 18 -37 17 -37 17 -36 18 -37 17 -35 18 -35 
17 -35 18 -33 17 -32 17 -31 292 1231 101 MP stroke
0.25 sg
18 33 17 36 18 38 17 39 18 42 17 43 18 44 17 44 
17 45 18 44 17 43 18 42 17 38 18 33 17 26 17 22 
18 16 17 13 18 9 17 7 18 4 17 3 17 2 18 1 
17 0 18 0 17 0 18 2 17 2 17 1 18 1 17 1 
18 -2 17 -4 18 -9 17 -12 17 -18 18 -23 17 -27 18 -29 
17 -30 18 -31 17 -29 17 -28 18 -25 17 -22 18 -17 17 -12 
18 -8 17 -1 17 4 18 8 17 15 18 18 17 22 18 24 
17 27 17 29 18 29 17 29 18 29 17 28 18 26 17 25 
17 22 18 20 17 17 18 15 17 11 18 9 17 6 17 3 
18 1 17 -1 18 -4 17 -6 18 -8 17 -11 17 -13 18 -15 
17 -19 18 -22 17 -24 18 -26 17 -30 17 -32 18 -34 17 -36 
18 -38 17 -38 18 -40 17 -39 17 -40 18 -40 17 -39 18 -38 
17 -37 18 -36 17 -35 17 -34 292 1254 101 MP stroke
c8
18 35 17 37 18 38 17 41 18 42 17 44 18 44 17 46 
17 45 18 44 17 44 18 41 17 38 18 33 17 27 17 21 
18 17 17 12 18 10 17 7 18 4 17 3 17 2 18 1 
17 0 18 0 17 1 18 1 17 3 17 1 18 2 17 0 
18 -2 17 -4 18 -9 17 -14 17 -19 18 -25 17 -28 18 -31 
17 -31 18 -32 17 -30 17 -28 18 -24 17 -21 18 -17 17 -11 
18 -7 17 -1 17 5 18 8 17 14 18 17 17 21 18 24 
17 26 17 27 18 28 17 29 18 28 17 28 18 26 17 25 
17 22 18 21 17 18 18 15 17 13 18 10 17 7 17 5 
18 2 17 -1 18 -3 17 -6 18 -8 17 -11 17 -13 18 -17 
17 -19 18 -21 17 -25 18 -28 17 -30 17 -32 18 -35 17 -37 
18 -37 17 -39 18 -40 17 -40 17 -40 18 -39 17 -39 18 -39 
17 -37 18 -36 17 -35 17 -34 292 1251 101 MP stroke
c9
18 29 17 30 18 32 17 33 18 33 17 34 18 35 17 35 
17 36 18 36 17 36 18 35 17 36 18 36 17 37 17 38 
18 37 17 36 18 35 17 33 18 29 17 25 17 20 18 13 
17 7 18 -2 17 -7 18 -15 17 -18 17 -22 18 -25 17 -26 
18 -27 17 -26 18 -26 17 -25 17 -23 18 -21 17 -21 18 -20 
17 -20 18 -18 17 -17 17 -15 18 -14 17 -11 18 -9 17 -7 
18 -5 17 -2 17 1 18 3 17 6 18 9 17 11 18 15 
17 17 17 19 18 21 17 23 18 24 17 26 18 26 17 27 
17 26 18 26 17 24 18 23 17 20 18 18 17 14 17 11 
18 6 17 3 18 -3 17 -6 18 -12 17 -15 17 -20 18 -23 
17 -26 18 -28 17 -31 18 -33 17 -34 17 -36 18 -36 17 -36 
18 -37 17 -38 18 -38 17 -38 17 -38 18 -37 17 -37 18 -36 
17 -35 18 -34 17 -33 17 -31 292 1237 101 MP stroke
c10
18 28 17 29 18 29 17 30 18 31 17 31 18 32 17 32 
17 32 18 32 17 32 18 32 17 32 18 35 17 39 17 41 
18 43 17 44 18 45 17 44 18 40 17 37 17 29 18 19 
17 9 18 -3 17 -15 18 -24 17 -29 17 -33 18 -35 17 -35 
18 -35 17 -32 18 -29 17 -26 17 -23 18 -20 17 -18 18 -16 
17 -14 18 -12 17 -11 17 -9 18 -7 17 -6 18 -4 17 -3 
18 -2 17 -1 17 0 18 1 17 2 18 5 17 5 18 8 
17 10 17 12 18 15 17 18 18 20 17 23 18 25 17 28 
17 30 18 30 17 32 18 31 17 31 18 28 17 25 17 20 
18 15 17 7 18 0 17 -10 18 -17 17 -24 17 -29 18 -34 
17 -37 18 -39 17 -40 18 -40 17 -39 17 -38 18 -37 17 -35 
18 -35 17 -35 18 -35 17 -35 17 -34 18 -34 17 -33 18 -32 
17 -32 18 -30 17 -30 17 -29 292 1217 101 MP stroke
c11
18 31 17 33 18 34 17 35 18 35 17 37 18 37 17 37 
17 38 18 38 17 37 18 36 17 36 18 36 17 35 17 35 
18 33 17 31 18 28 17 26 18 23 17 18 17 15 18 10 
17 4 18 0 17 -6 18 -9 17 -13 17 -16 18 -18 17 -19 
18 -20 17 -21 18 -21 17 -20 17 -20 18 -19 17 -21 18 -23 
17 -24 18 -25 17 -26 17 -25 18 -24 17 -23 18 -18 17 -14 
18 -8 17 -1 17 6 18 13 17 19 18 22 17 26 18 27 
17 27 17 28 18 26 17 24 18 22 17 20 18 17 17 15 
17 11 18 9 17 7 18 5 17 3 18 2 17 1 17 0 
18 -1 17 0 18 -1 17 -1 18 -2 17 -3 17 -3 18 -6 
17 -8 18 -10 17 -13 18 -18 17 -21 17 -26 18 -31 17 -36 
18 -39 17 -41 18 -44 17 -44 17 -45 18 -45 17 -45 18 -44 
17 -43 18 -41 17 -40 17 -38 292 1277 101 MP stroke
c12
18 31 17 32 18 32 17 34 18 34 17 35 18 35 17 36 
17 35 18 36 17 35 18 35 17 34 18 35 17 37 17 36 
18 36 17 36 18 34 17 32 18 28 17 24 17 19 18 13 
17 6 18 -1 17 -8 18 -13 17 -18 17 -21 18 -23 17 -25 
18 -25 17 -25 18 -24 17 -23 17 -22 18 -21 17 -20 18 -21 
17 -21 18 -20 17 -20 17 -18 18 -17 17 -15 18 -12 17 -9 
18 -6 17 -2 17 2 18 6 17 10 18 12 17 16 18 18 
17 21 17 22 18 23 17 24 18 24 17 25 18 24 17 23 
17 22 18 20 17 18 18 17 17 14 18 12 17 9 17 6 
18 4 17 1 18 -1 17 -5 18 -7 17 -10 17 -13 18 -16 
17 -20 18 -22 17 -25 18 -28 17 -31 17 -34 18 -35 17 -38 
18 -38 17 -40 18 -40 17 -40 17 -41 18 -40 17 -39 18 -38 
17 -37 18 -36 17 -35 17 -33 292 1251 101 MP stroke
c13
18 31 17 31 18 33 17 33 18 34 17 34 18 35 17 35 
17 35 18 34 17 34 18 34 17 34 18 35 17 36 17 37 
18 37 17 37 18 36 17 34 18 31 17 26 17 21 18 15 
17 7 18 -1 17 -7 18 -15 17 -19 17 -23 18 -26 17 -27 
18 -28 17 -28 18 -27 17 -26 17 -25 18 -22 17 -21 18 -19 
17 -17 18 -15 17 -13 17 -11 18 -9 17 -8 18 -5 17 -4 
18 -2 17 -2 17 1 18 1 17 3 18 6 17 6 18 9 
17 12 17 14 18 16 17 19 18 22 17 24 18 26 17 28 
17 31 18 32 17 34 18 33 17 32 18 30 17 27 17 21 
18 16 17 8 18 -2 17 -10 18 -20 17 -26 17 -32 18 -35 
17 -39 18 -41 17 -41 18 -41 17 -40 17 -39 18 -37 17 -34 
18 -35 17 -35 18 -34 17 -35 17 -33 18 -34 17 -32 18 -32 
17 -30 18 -30 17 -29 17 -28 292 1212 101 MP stroke
0.25 sg
18 30 17 32 18 32 17 32 18 33 17 34 18 33 17 34 
17 34 18 33 17 33 18 33 17 32 18 34 17 37 17 38 
18 40 17 39 18 40 17 37 18 34 17 29 17 23 18 15 
17 6 18 -3 17 -12 18 -18 17 -23 17 -26 18 -27 17 -28 
18 -27 17 -26 18 -24 17 -23 17 -20 18 -18 17 -18 18 -20 
17 -20 18 -21 17 -20 17 -20 18 -18 17 -17 18 -13 17 -11 
18 -6 17 -2 17 3 18 8 17 12 18 16 17 18 18 21 
17 22 17 23 18 24 17 23 18 24 17 22 18 20 17 20 
17 17 18 16 17 13 18 11 17 9 18 8 17 5 17 4 
18 2 17 0 18 -1 17 -2 18 -4 17 -6 17 -8 18 -11 
17 -13 18 -17 17 -20 18 -24 17 -27 17 -31 18 -35 17 -38 
18 -40 17 -41 18 -42 17 -43 17 -42 18 -42 17 -42 18 -40 
17 -40 18 -37 17 -37 17 -34 292 1263 101 MP stroke
c8
18 37 17 39 18 41 17 42 18 43 17 44 18 44 17 44 
17 43 18 42 17 40 18 38 17 36 18 29 17 25 17 20 
18 16 17 12 18 10 17 7 18 5 17 4 17 2 18 1 
17 0 18 0 17 2 18 2 17 4 17 4 18 3 17 2 
18 0 17 -4 18 -8 17 -14 17 -20 18 -26 17 -29 18 -31 
17 -30 18 -30 17 -27 17 -24 18 -21 17 -17 18 -13 17 -9 
18 -5 17 -1 17 3 18 6 17 10 18 13 17 16 18 19 
17 21 17 24 18 25 17 26 18 27 17 28 18 28 17 29 
17 29 18 29 17 27 18 27 17 25 18 21 17 18 17 13 
18 9 17 3 18 -4 17 -9 18 -16 17 -20 17 -25 18 -29 
17 -31 18 -33 17 -36 18 -36 17 -37 17 -37 18 -37 17 -37 
18 -36 17 -37 18 -36 17 -36 17 -36 18 -35 17 -35 18 -33 
17 -32 18 -32 17 -30 17 -29 292 1226 101 MP stroke
c9
18 35 17 37 18 38 17 39 18 40 17 40 18 40 17 41 
17 40 18 39 17 38 18 37 17 35 18 33 17 30 17 28 
18 26 17 22 18 20 17 17 18 15 17 12 17 9 18 8 
17 5 18 3 17 1 18 -1 17 -4 17 -7 18 -9 17 -11 
18 -15 17 -17 18 -21 17 -22 17 -25 18 -26 17 -26 18 -26 
17 -26 18 -24 17 -22 17 -20 18 -18 17 -15 18 -11 17 -8 
18 -5 17 -2 17 3 18 5 17 9 18 12 17 15 18 18 
17 20 17 22 18 23 17 25 18 26 17 26 18 26 17 26 
17 27 18 26 17 25 18 23 17 21 18 19 17 15 17 12 
18 7 17 3 18 -2 17 -7 18 -11 17 -17 17 -20 18 -24 
17 -27 18 -30 17 -32 18 -34 17 -36 17 -36 18 -37 17 -38 
18 -38 17 -38 18 -39 17 -38 17 -37 18 -37 17 -36 18 -35 
17 -34 18 -32 17 -32 17 -30 292 1234 101 MP stroke
c10
18 32 17 32 18 33 17 34 18 34 17 33 18 34 17 34 
17 33 18 33 17 32 18 32 17 31 18 33 17 36 17 37 
18 39 17 39 18 39 17 37 18 34 17 29 17 24 18 16 
17 9 18 -2 17 -9 18 -16 17 -22 17 -26 18 -28 17 -29 
18 -30 17 -29 18 -29 17 -26 17 -24 18 -22 17 -21 18 -17 
17 -16 18 -13 17 -11 17 -9 18 -8 17 -6 18 -4 17 -3 
18 -2 17 -1 17 0 18 1 17 3 18 3 17 6 18 7 
17 9 17 12 18 15 17 18 18 20 17 23 18 25 17 29 
17 32 18 34 17 35 18 37 17 35 18 34 17 30 17 25 
18 18 17 8 18 -1 17 -12 18 -22 17 -29 17 -35 18 -39 
17 -41 18 -43 17 -43 18 -43 17 -41 17 -39 18 -37 17 -35 
18 -35 17 -34 18 -34 17 -34 17 -33 18 -32 17 -32 18 -30 
17 -30 18 -28 17 -28 17 -26 292 1205 101 MP stroke
c11
18 36 17 37 18 38 17 38 18 39 17 40 18 40 17 39 
17 39 18 38 17 37 18 35 17 35 18 32 17 31 17 29 
18 27 17 25 18 22 17 19 18 17 17 13 17 11 18 9 
17 4 18 2 17 0 18 -4 17 -6 17 -9 18 -11 17 -13 
18 -16 17 -17 18 -19 17 -20 17 -21 18 -22 17 -24 18 -25 
17 -26 18 -27 17 -26 17 -26 18 -24 17 -21 18 -17 17 -12 
18 -8 17 0 17 6 18 11 17 17 18 20 17 23 18 25 
17 26 17 26 18 26 17 25 18 24 17 22 18 20 17 18 
17 16 18 14 17 12 18 11 17 8 18 6 17 5 17 3 
18 2 17 0 18 0 17 -2 18 -3 17 -5 17 -7 18 -9 
17 -13 18 -15 17 -20 18 -23 17 -28 17 -31 18 -36 17 -39 
18 -41 17 -43 18 -43 17 -43 17 -43 18 -43 17 -42 18 -40 
17 -39 18 -37 17 -35 17 -33 292 1264 101 MP stroke
c12
18 31 17 31 18 31 17 31 18 31 17 31 18 31 17 30 
17 30 18 29 17 28 18 27 17 28 18 32 17 36 17 41 
18 45 17 48 18 49 17 48 18 45 17 40 17 33 18 21 
17 9 18 -6 17 -18 18 -26 17 -32 17 -36 18 -36 17 -36 
18 -34 17 -31 18 -29 17 -25 17 -22 18 -19 17 -18 18 -16 
17 -14 18 -13 17 -12 17 -10 18 -8 17 -7 18 -6 17 -3 
18 -3 17 -1 17 0 18 2 17 3 18 5 17 7 18 10 
17 12 17 14 18 16 17 19 18 20 17 23 18 25 17 26 
17 28 18 28 17 28 18 28 17 26 18 24 17 20 17 17 
18 11 17 6 18 -1 17 -7 18 -14 17 -19 17 -24 18 -28 
17 -31 18 -34 17 -36 18 -37 17 -38 17 -38 18 -38 17 -38 
18 -38 17 -37 18 -38 17 -37 17 -36 18 -36 17 -34 18 -34 
17 -32 18 -31 17 -29 17 -29 292 1227 101 MP stroke
c13
18 33 17 33 18 34 17 34 18 34 17 34 18 34 17 33 
17 33 18 32 17 31 18 30 17 30 18 32 17 35 17 38 
18 38 17 40 18 39 17 37 18 35 17 30 17 24 18 16 
17 9 18 -3 17 -11 18 -17 17 -22 17 -25 18 -28 17 -28 
18 -29 17 -27 18 -27 17 -24 17 -22 18 -21 17 -20 18 -19 
17 -18 18 -16 17 -16 17 -13 18 -12 17 -11 18 -8 17 -6 
18 -4 17 -2 17 1 18 3 17 6 18 7 17 11 18 13 
17 15 17 17 18 20 17 22 18 23 17 24 18 25 17 27 
17 26 18 27 17 26 18 24 17 23 18 20 17 17 17 14 
18 9 17 4 18 -1 17 -6 18 -12 17 -16 17 -21 18 -25 
17 -28 18 -31 17 -33 18 -36 17 -36 17 -38 18 -39 17 -38 
18 -39 17 -39 18 -39 17 -38 17 -37 18 -37 17 -35 18 -34 
17 -33 18 -31 17 -31 17 -28 292 1232 101 MP stroke
0.25 sg
18 41 17 42 18 44 17 45 18 45 17 46 18 45 17 45 
17 43 18 41 17 39 18 37 17 32 18 28 17 23 17 19 
18 15 17 11 18 9 17 7 18 5 17 3 17 2 18 1 
17 0 18 1 17 1 18 3 17 4 17 3 18 4 17 1 
18 -1 17 -4 18 -9 17 -14 17 -21 18 -26 17 -29 18 -31 
17 -31 18 -30 17 -28 17 -26 18 -22 17 -18 18 -14 17 -10 
18 -5 17 -1 17 4 18 7 17 11 18 15 17 18 18 20 
17 23 17 24 18 26 17 27 18 27 17 27 18 27 17 27 
17 27 18 26 17 24 18 23 17 20 18 18 17 14 17 11 
18 7 17 2 18 -2 17 -6 18 -11 17 -15 17 -20 18 -23 
17 -26 18 -30 17 -32 18 -34 17 -36 17 -38 18 -38 17 -40 
18 -39 17 -40 18 -39 17 -39 17 -38 18 -36 17 -36 18 -34 
17 -33 18 -32 17 -30 17 -29 292 1234 101 MP stroke
gr

0.25 sg

end %%Color Dict

eplot
%%EndObject

epage
end

showpage

%%Trailer
%%EOF
