%!PS-Adobe-3.0 EPSF-3.0
%%Creator: MATLAB, The Mathworks, Inc. Version 7.10.0.499 (R2010a). Operating System: Microsoft Windows 7.
%%Title: C:\Users\wwu\Desktop\warping\Gervini_code\comp_neural_smr.eps
%%CreationDate: 04/12/2011  16:34:43
%%DocumentNeededFonts: Helvetica
%%DocumentProcessColors: Cyan Magenta Yellow Black
%%LanguageLevel: 2
%%Pages: 1
%%BoundingBox:   212   320   399   470
%%EndComments

%%BeginProlog
% MathWorks dictionary
/MathWorks 160 dict begin
% definition operators
/bdef {bind def} bind def
/ldef {load def} bind def
/xdef {exch def} bdef
/xstore {exch store} bdef
% operator abbreviations
/c  /clip ldef
/cc /concat ldef
/cp /closepath ldef
/gr /grestore ldef
/gs /gsave ldef
/mt /moveto ldef
/np /newpath ldef
/cm /currentmatrix ldef
/sm /setmatrix ldef
/rm /rmoveto ldef
/rl /rlineto ldef
/s {show newpath} bdef
/sc {setcmykcolor} bdef
/sr /setrgbcolor ldef
/sg /setgray ldef
/w /setlinewidth ldef
/j /setlinejoin ldef
/cap /setlinecap ldef
/rc {rectclip} bdef
/rf {rectfill} bdef
% page state control
/pgsv () def
/bpage {/pgsv save def} bdef
/epage {pgsv restore} bdef
/bplot /gsave ldef
/eplot {stroke grestore} bdef
% orientation switch
/portraitMode 0 def /landscapeMode 1 def /rotateMode 2 def
% coordinate system mappings
/dpi2point 0 def
% font control
/FontSize 0 def
/FMS {/FontSize xstore findfont [FontSize 0 0 FontSize neg 0 0]
  makefont setfont} bdef
/ISOLatin1Encoding where {pop /WindowsLatin1Encoding 256 array bdef
ISOLatin1Encoding WindowsLatin1Encoding copy pop
/.notdef/.notdef/quotesinglbase/florin/quotedblbase/ellipsis/dagger
/daggerdbl/circumflex/perthousand/Scaron/guilsinglleft/OE/.notdef/.notdef
/.notdef/.notdef/quoteleft/quoteright/quotedblleft/quotedblright/bullet
/endash/emdash/tilde/trademark/scaron/guilsinglright/oe/.notdef/.notdef
/Ydieresis WindowsLatin1Encoding 128 32 getinterval astore pop}
{/WindowsLatin1Encoding StandardEncoding bdef} ifelse
/reencode {exch dup where {pop load} {pop StandardEncoding} ifelse
  exch dup 3 1 roll findfont dup length dict begin
  { 1 index /FID ne {def}{pop pop} ifelse } forall
  /Encoding exch def currentdict end definefont pop} bdef
/isroman {findfont /CharStrings get /Agrave known} bdef
/FMSR {3 1 roll 1 index dup isroman {reencode} {pop pop} ifelse
  exch FMS} bdef
/csm {1 dpi2point div -1 dpi2point div scale neg translate
 dup landscapeMode eq {pop -90 rotate}
  {rotateMode eq {90 rotate} if} ifelse} bdef
% line types: solid, dotted, dashed, dotdash
/SO { [] 0 setdash } bdef
/DO { [.5 dpi2point mul 4 dpi2point mul] 0 setdash } bdef
/DA { [6 dpi2point mul] 0 setdash } bdef
/DD { [.5 dpi2point mul 4 dpi2point mul 6 dpi2point mul 4
  dpi2point mul] 0 setdash } bdef
% macros for lines and objects
/L {lineto stroke} bdef
/MP {3 1 roll moveto 1 sub {rlineto} repeat} bdef
/AP {{rlineto} repeat} bdef
/PDlw -1 def
/W {/PDlw currentlinewidth def setlinewidth} def
/PP {closepath eofill} bdef
/DP {closepath stroke} bdef
/MR {4 -2 roll moveto dup  0 exch rlineto exch 0 rlineto
  neg 0 exch rlineto closepath} bdef
/FR {MR stroke} bdef
/PR {MR fill} bdef
/L1i {{currentfile picstr readhexstring pop} image} bdef
/tMatrix matrix def
/MakeOval {newpath tMatrix currentmatrix pop translate scale
0 0 1 0 360 arc tMatrix setmatrix} bdef
/FO {MakeOval stroke} bdef
/PO {MakeOval fill} bdef
/PD {currentlinewidth 2 div 0 360 arc fill
   PDlw -1 eq not {PDlw w /PDlw -1 def} if} def
/FA {newpath tMatrix currentmatrix pop translate scale
  0 0 1 5 -2 roll arc tMatrix setmatrix stroke} bdef
/PA {newpath tMatrix currentmatrix pop	translate 0 0 moveto scale
  0 0 1 5 -2 roll arc closepath tMatrix setmatrix fill} bdef
/FAn {newpath tMatrix currentmatrix pop translate scale
  0 0 1 5 -2 roll arcn tMatrix setmatrix stroke} bdef
/PAn {newpath tMatrix currentmatrix pop translate 0 0 moveto scale
  0 0 1 5 -2 roll arcn closepath tMatrix setmatrix fill} bdef
/vradius 0 def /hradius 0 def /lry 0 def
/lrx 0 def /uly 0 def /ulx 0 def /rad 0 def
/MRR {/vradius xdef /hradius xdef /lry xdef /lrx xdef /uly xdef
  /ulx xdef newpath tMatrix currentmatrix pop ulx hradius add uly
  vradius add translate hradius vradius scale 0 0 1 180 270 arc 
  tMatrix setmatrix lrx hradius sub uly vradius add translate
  hradius vradius scale 0 0 1 270 360 arc tMatrix setmatrix
  lrx hradius sub lry vradius sub translate hradius vradius scale
  0 0 1 0 90 arc tMatrix setmatrix ulx hradius add lry vradius sub
  translate hradius vradius scale 0 0 1 90 180 arc tMatrix setmatrix
  closepath} bdef
/FRR {MRR stroke } bdef
/PRR {MRR fill } bdef
/MlrRR {/lry xdef /lrx xdef /uly xdef /ulx xdef /rad lry uly sub 2 div def
  newpath tMatrix currentmatrix pop ulx rad add uly rad add translate
  rad rad scale 0 0 1 90 270 arc tMatrix setmatrix lrx rad sub lry rad
  sub translate rad rad scale 0 0 1 270 90 arc tMatrix setmatrix
  closepath} bdef
/FlrRR {MlrRR stroke } bdef
/PlrRR {MlrRR fill } bdef
/MtbRR {/lry xdef /lrx xdef /uly xdef /ulx xdef /rad lrx ulx sub 2 div def
  newpath tMatrix currentmatrix pop ulx rad add uly rad add translate
  rad rad scale 0 0 1 180 360 arc tMatrix setmatrix lrx rad sub lry rad
  sub translate rad rad scale 0 0 1 0 180 arc tMatrix setmatrix
  closepath} bdef
/FtbRR {MtbRR stroke } bdef
/PtbRR {MtbRR fill } bdef
/stri 6 array def /dtri 6 array def
/smat 6 array def /dmat 6 array def
/tmat1 6 array def /tmat2 6 array def /dif 3 array def
/asub {/ind2 exch def /ind1 exch def dup dup
  ind1 get exch ind2 get sub exch } bdef
/tri_to_matrix {
  2 0 asub 3 1 asub 4 0 asub 5 1 asub
  dup 0 get exch 1 get 7 -1 roll astore } bdef
/compute_transform {
  dmat dtri tri_to_matrix tmat1 invertmatrix 
  smat stri tri_to_matrix tmat2 concatmatrix } bdef
/ds {stri astore pop} bdef
/dt {dtri astore pop} bdef
/db {2 copy /cols xdef /rows xdef mul dup 3 mul string
  currentfile 
  3 index 0 eq {/ASCIIHexDecode filter}
  {/ASCII85Decode filter 3 index 2 eq {/RunLengthDecode filter} if }
  ifelse exch readstring pop
  dup 0 3 index getinterval /rbmap xdef
  dup 2 index dup getinterval /gbmap xdef
  1 index dup 2 mul exch getinterval /bbmap xdef pop pop}bdef
/it {gs np dtri aload pop moveto lineto lineto cp c
  cols rows 8 compute_transform 
  rbmap gbmap bbmap true 3 colorimage gr}bdef
/il {newpath moveto lineto stroke}bdef
currentdict end def
%%EndProlog

%%BeginSetup
MathWorks begin

0 cap

end
%%EndSetup

%%Page: 1 1
%%BeginPageSetup
%%PageBoundingBox:   212   320   399   470
MathWorks begin
bpage
%%EndPageSetup

%%BeginObject: obj1
bplot

/dpi2point 12 def
portraitMode 2544 5640 csm

    0     0  2249  1800 rc
85 dict begin %Colortable dictionary
/c0 { 0.000000 0.000000 0.000000 sr} bdef
/c1 { 1.000000 1.000000 1.000000 sr} bdef
/c2 { 0.900000 0.000000 0.000000 sr} bdef
/c3 { 0.000000 0.820000 0.000000 sr} bdef
/c4 { 0.000000 0.000000 0.800000 sr} bdef
/c5 { 0.910000 0.820000 0.320000 sr} bdef
/c6 { 1.000000 0.260000 0.820000 sr} bdef
/c7 { 0.000000 0.820000 0.820000 sr} bdef
c0
1 j
1 sg
   0    0 2250 1801 rf
6 w
0 1467 1743 0 0 -1467 292 1602 4 MP
PP
-1743 0 0 1467 1743 0 0 -1467 292 1602 5 MP stroke
4 w
DO
SO
6 w
0 sg
 292  135 mt 2035  135 L
 292 1602 mt 2035 1602 L
2035 1602 mt 2035  135 L
 292 1602 mt  292  135 L
 292 1602 mt 2035 1602 L
 292 1602 mt  292  135 L
 635 1602 mt  635 1584 L
 635  135 mt  635  152 L
%%IncludeResource: font Helvetica
/Helvetica /WindowsLatin1Encoding 120 FMSR

 552 1747 mt 
(0.5) s
 985 1602 mt  985 1584 L
 985  135 mt  985  152 L
 952 1747 mt 
(1) s
1335 1602 mt 1335 1584 L
1335  135 mt 1335  152 L
1252 1747 mt 
(1.5) s
1685 1602 mt 1685 1584 L
1685  135 mt 1685  152 L
1652 1747 mt 
(2) s
2035 1602 mt 2035 1584 L
2035  135 mt 2035  152 L
1952 1747 mt 
(2.5) s
 292 1602 mt  309 1602 L
2035 1602 mt 2017 1602 L
 191 1646 mt 
(0) s
 292 1113 mt  309 1113 L
2035 1113 mt 2017 1113 L
  91 1157 mt 
(0.5) s
 292  624 mt  309  624 L
2035  624 mt 2017  624 L
 191  668 mt 
(1) s
 292  135 mt  309  135 L
2035  135 mt 2017  135 L
  91  179 mt 
(1.5) s
 292  135 mt 2035  135 L
 292 1602 mt 2035 1602 L
2035 1602 mt 2035  135 L
 292 1602 mt  292  135 L
gs 292 135 1744 1468 rc
/c8 { 0.000000 0.000000 1.000000 sr} bdef
c8
7 0 7 0 7 0 7 0 7 0 7 0 7 0 7 0 
7 0 7 0 7 0 7 0 7 0 7 0 7 0 7 0 
7 0 7 0 7 0 7 0 7 0 7 0 7 0 7 0 
7 0 7 0 7 0 7 0 7 0 7 0 7 0 7 0 
7 0 7 0 7 0 7 1 7 3 7 4 7 5 7 7 
7 11 7 19 7 27 7 36 7 47 7 55 7 59 7 56 
8 42 6 18 7 -15 7 -45 7 -65 7 -74 7 -68 7 -52 
7 -35 7 -20 7 -10 7 -6 7 0 7 0 7 0 7 0 
7 0 7 0 7 0 7 6 7 9 7 20 7 37 7 55 
7 75 7 86 7 78 7 58 7 34 7 14 7 2 7 0 
7 1 7 -4 7 -15 7 -21 7 -23 7 -12 7 10 7 43 
7 66 7 77 7 70 7 48 7 16 7 -22 7 -57 7 -83 
7 -99 7 -103 7 -96 7 -83 7 -64 7 -47 7 -32 7 -21 
7 -11 7 -3 7 0 7 7 7 13 7 21 7 31 7 42 
7 52 7 59 7 59 7 52 7 34 7 11 7 -14 7 -36 
7 -52 7 -60 7 -58 7 -52 7 -40 7 -30 7 -20 7 -12 
7 -7 7 0 7 2 7 8 7 14 7 20 7 29 7 38 
7 45 7 50 7 53 7 51 7 44 7 35 7 21 7 10 
7 1 7 -3 7 -6 7 -5 7 0 7 2 7 5 7 6 
7 2 7 -3 7 -9 7 -18 7 -28 7 -35 7 -44 7 -51 
7 -50 7 -47 7 -42 7 -35 7 -26 7 -18 7 -12 7 -6 
7 -5 7 -2 7 1 7 5 7 7 7 18 7 33 7 59 
7 90 7 123 7 150 7 148 7 113 7 61 7 -7 7 -48 
7 -69 7 -79 7 -78 7 -59 7 -26 7 14 7 39 7 48 
7 35 7 14 7 -8 7 -26 7 -47 7 -61 7 -69 7 -70 
7 -65 7 -58 7 -46 7 -37 7 -28 7 -20 7 -14 7 -12 
7 -4 7 -4 7 -2 7 -1 7 -1 7 -1 7 1 7 0 
7 0 7 0 7 0 7 0 7 1 7 1 7 1 7 3 
7 5 7 9 7 14 7 24 7 32 7 43 7 59 7 78 
7 93 7 108 7 117 7 120 7 121 7 116 7 100 7 54 
7 -29 7 -108 7 -151 7 -134 7 -82 7 -42 7 -25 7 -35 
7 -81 292 1171 250 MP stroke
/c9 { 0.000000 0.500000 0.000000 sr} bdef
c9
7 0 7 0 7 0 7 0 7 0 7 0 7 0 7 0 
7 0 7 0 7 0 7 0 7 0 7 0 7 0 7 0 
7 0 7 0 7 0 7 0 7 0 7 0 7 0 7 0 
7 0 7 0 7 0 7 0 7 0 7 0 7 0 7 0 
7 0 7 0 7 0 7 0 7 0 7 0 7 0 7 0 
7 0 7 0 7 0 7 0 7 0 7 2 7 3 7 3 
8 3 6 5 7 5 7 7 7 6 7 8 7 7 7 7 
7 7 7 6 7 4 7 3 7 1 7 0 7 0 7 0 
7 2 7 3 7 4 7 7 7 9 7 11 7 12 7 17 
7 21 7 23 7 28 7 31 7 35 7 37 7 39 7 38 
7 38 7 32 7 28 7 25 7 18 7 14 7 13 7 13 
7 18 7 17 7 18 7 18 7 19 7 17 7 12 7 5 
7 -9 7 -32 7 -54 7 -72 7 -89 7 -87 7 -73 7 -43 
7 -8 7 35 7 79 7 108 7 122 7 120 7 108 7 76 
7 36 7 -9 7 -51 7 -94 7 -117 7 -119 7 -101 7 -65 
7 -23 7 12 7 27 7 20 7 -1 7 -31 7 -55 7 -67 
7 -68 7 -53 7 -36 7 -12 7 10 7 37 7 63 7 89 
7 112 7 118 7 109 7 86 7 47 7 5 7 -37 7 -68 
7 -83 7 -83 7 -67 7 -39 7 -6 7 27 7 55 7 73 
7 80 7 70 7 53 7 26 7 -3 7 -29 7 -55 7 -76 
7 -87 7 -89 7 -84 7 -76 7 -62 7 -48 7 -34 7 -23 
7 -13 7 3 7 10 7 18 7 27 7 33 7 37 7 40 
7 40 7 38 7 35 7 25 7 18 7 13 7 1 7 -3 
7 -7 7 -11 7 -11 7 -9 7 -7 7 -3 7 4 7 9 
7 12 7 13 7 10 7 3 7 -7 7 -19 7 -33 7 -47 
7 -52 7 -53 7 -51 7 -44 7 -36 7 -26 7 -18 7 -11 
7 -6 7 -5 7 -1 7 0 7 0 7 0 7 0 7 0 
7 0 7 0 7 0 7 0 7 0 7 0 7 0 7 0 
7 0 7 0 7 0 7 0 7 0 7 3 7 7 7 16 
7 29 7 54 7 80 7 99 7 98 7 78 7 47 7 20 
7 -4 7 -27 7 -61 7 -93 7 -109 7 -101 7 -68 7 -40 
7 -19 292 1593 250 MP stroke
/c10 { 1.000000 0.000000 0.000000 sr} bdef
c10
7 0 7 0 7 0 7 0 7 0 7 0 7 0 7 0 
7 0 7 0 7 0 7 0 7 0 7 0 7 0 7 0 
7 0 7 0 7 0 7 0 7 0 7 0 7 0 7 0 
7 0 7 0 7 0 7 0 7 0 7 0 7 0 7 0 
7 0 7 0 7 0 7 0 7 0 7 0 7 0 7 0 
7 0 7 0 7 0 7 0 7 4 7 5 7 9 7 16 
8 25 6 36 7 45 7 53 7 56 7 53 7 44 7 30 
7 12 7 -4 7 -18 7 -28 7 -37 7 -40 7 -38 7 -37 
7 -31 7 -25 7 -20 7 -6 7 4 7 16 7 28 7 47 
7 58 7 70 7 79 7 87 7 84 7 78 7 65 7 37 
7 14 7 -11 7 -35 7 -57 7 -70 7 -71 7 -62 7 -48 
7 -25 7 7 7 32 7 53 7 66 7 72 7 66 7 45 
7 19 7 -8 7 -35 7 -60 7 -75 7 -88 7 -85 7 -76 
7 -61 7 -42 7 -22 7 -3 7 19 7 30 7 36 7 37 
7 35 7 25 7 10 7 -6 7 -21 7 -33 7 -42 7 -48 
7 -48 7 -44 7 -38 7 -32 7 -25 7 -19 7 -12 7 -8 
7 -6 7 -2 7 1 7 5 7 8 7 14 7 20 7 31 
7 41 7 51 7 57 7 59 7 52 7 35 7 11 7 -11 
7 -35 7 -46 7 -45 7 -32 7 -9 7 16 7 40 7 51 
7 45 7 23 7 -5 7 -37 7 -61 7 -68 7 -63 7 -52 
7 -39 7 -25 7 -17 7 -9 7 -5 7 -4 7 -2 7 0 
7 0 7 1 7 4 7 3 7 6 7 7 7 10 7 13 
7 16 7 19 7 22 7 23 7 26 7 26 7 26 7 25 
7 23 7 21 7 20 7 19 7 21 7 19 7 17 7 14 
7 7 7 -2 7 -10 7 -24 7 -34 7 -42 7 -48 7 -51 
7 -48 7 -41 7 -28 7 -19 7 -6 7 9 7 24 7 42 
7 62 7 75 7 74 7 55 7 11 7 -36 7 -75 7 -91 
7 -79 7 -56 7 -29 7 -13 7 -7 7 -1 7 0 7 0 
7 0 7 5 7 8 7 14 7 24 7 38 7 51 7 61 
7 67 7 62 7 53 7 40 7 26 7 15 7 7 7 2 
7 1 7 0 7 0 7 -1 7 -2 7 -5 7 -5 7 -9 
7 -9 292 1159 250 MP stroke
/c11 { 0.000000 0.750000 0.750000 sr} bdef
c11
7 0 7 0 7 0 7 0 7 0 7 0 7 0 7 0 
7 0 7 0 7 0 7 0 7 0 7 0 7 0 7 0 
7 0 7 0 7 0 7 0 7 0 7 0 7 0 7 0 
7 0 7 0 7 0 7 0 7 0 7 0 7 0 7 0 
7 0 7 0 7 2 7 4 7 3 7 6 7 10 7 14 
7 20 7 29 7 38 7 49 7 55 7 57 7 55 7 42 
8 23 6 2 7 -10 7 -13 7 -1 7 23 7 52 7 75 
7 78 7 60 7 19 7 -37 7 -76 7 -107 7 -105 7 -74 
7 -21 7 19 7 42 7 43 7 18 7 -23 7 -54 7 -72 
7 -74 7 -56 7 -38 7 -10 7 19 7 47 7 75 7 101 
7 122 7 124 7 110 7 83 7 49 7 17 7 -6 7 -22 
7 -23 7 -14 7 1 7 17 7 30 7 39 7 37 7 27 
7 6 7 -27 7 -62 7 -94 7 -116 7 -126 7 -122 7 -105 
7 -81 7 -56 7 -30 7 -8 7 14 7 30 7 46 7 57 
7 63 7 57 7 45 7 29 7 11 7 -2 7 -7 7 -6 
7 0 7 6 7 8 7 5 7 -8 7 -20 7 -29 7 -29 
7 -21 7 0 7 25 7 49 7 69 7 75 7 73 7 56 
7 28 7 1 7 -23 7 -42 7 -42 7 -36 7 -20 7 -3 
7 14 7 24 7 24 7 31 7 29 7 31 7 32 7 39 
7 42 7 42 7 34 7 23 7 3 7 -20 7 -34 7 -48 
7 -55 7 -59 7 -64 7 -66 7 -73 7 -77 7 -81 7 -74 
7 -63 7 -48 7 -29 7 -2 7 19 7 40 7 61 7 75 
7 84 7 89 7 81 7 71 7 47 7 28 7 5 7 -12 
7 -20 7 -20 7 -14 7 -1 7 16 7 31 7 41 7 38 
7 25 7 -7 7 -37 7 -66 7 -84 7 -83 7 -63 7 -36 
7 -10 7 10 7 7 7 -6 7 -18 7 -27 7 -16 7 1 
7 19 7 22 7 5 7 -29 7 -65 7 -81 7 -81 7 -67 
7 -43 7 -24 7 -11 7 -6 7 -1 7 0 7 0 7 0 
7 2 7 5 7 7 7 12 7 17 7 25 7 31 7 35 
7 40 7 40 7 39 7 35 7 28 7 25 7 16 7 14 
7 9 7 4 7 2 7 3 7 1 7 1 7 0 7 0 
7 0 292 1211 250 MP stroke
/c12 { 0.750000 0.000000 0.750000 sr} bdef
c12
7 0 7 0 7 0 7 0 7 0 7 0 7 0 7 0 
7 0 7 0 7 0 7 0 7 0 7 0 7 0 7 0 
7 0 7 0 7 0 7 0 7 0 7 0 7 0 7 0 
7 0 7 0 7 0 7 0 7 0 7 0 7 0 7 0 
7 0 7 0 7 0 7 0 7 0 7 0 7 0 7 0 
7 4 7 3 7 6 7 8 7 12 7 18 7 26 7 33 
8 40 6 46 7 50 7 50 7 43 7 31 7 16 7 -1 
7 -20 7 -34 7 -46 7 -52 7 -53 7 -47 7 -40 7 -31 
7 -23 7 -15 7 -11 7 -6 7 -4 7 -1 7 4 7 6 
7 10 7 16 7 25 7 35 7 46 7 55 7 60 7 56 
7 47 7 29 7 6 7 -14 7 -27 7 -28 7 -20 7 -2 
7 17 7 29 7 29 7 16 7 -6 7 -33 7 -53 7 -64 
7 -66 7 -57 7 -44 7 -31 7 -20 7 -8 7 -1 7 5 
7 17 7 29 7 41 7 55 7 69 7 71 7 66 7 52 
7 33 7 18 7 11 7 9 7 16 7 23 7 27 7 24 
7 15 7 3 7 -12 7 -36 7 -51 7 -67 7 -76 7 -77 
7 -72 7 -60 7 -49 7 -35 7 -21 7 -11 7 -4 7 2 
7 8 7 14 7 23 7 27 7 31 7 35 7 36 7 37 
7 34 7 31 7 27 7 21 7 16 7 12 7 5 7 5 
7 -5 7 -4 7 -3 7 -10 7 -10 7 -12 7 -18 7 -21 
7 -25 7 -30 7 -31 7 -34 7 -33 7 -33 7 -30 7 -25 
7 -21 7 -16 7 -8 7 -3 7 2 7 9 7 20 7 32 
7 45 7 59 7 68 7 66 7 50 7 20 7 -24 7 -55 
7 -72 7 -62 7 -30 7 27 7 78 7 128 7 143 7 125 
7 72 7 -12 7 -82 7 -133 7 -146 7 -129 7 -95 7 -62 
7 -34 7 -13 7 1 7 13 7 30 7 50 7 69 7 80 
7 75 7 48 7 5 7 -36 7 -68 7 -79 7 -73 7 -54 
7 -36 7 -17 7 -2 7 8 7 25 7 44 7 59 7 71 
7 72 7 57 7 29 7 -3 7 -31 7 -54 7 -56 7 -43 
7 -17 7 11 7 42 7 70 7 87 7 94 7 84 7 68 
7 40 7 8 7 -24 7 -52 7 -72 7 -83 7 -87 7 -83 
7 -74 292 1392 250 MP stroke
/c13 { 0.750000 0.750000 0.000000 sr} bdef
c13
7 0 7 0 7 0 7 0 7 0 7 0 7 0 7 0 
7 0 7 0 7 0 7 0 7 0 7 0 7 0 7 0 
7 0 7 0 7 0 7 0 7 0 7 0 7 0 7 0 
7 0 7 0 7 0 7 0 7 0 7 0 7 0 7 0 
7 0 7 0 7 0 7 0 7 0 7 0 7 0 7 0 
7 0 7 0 7 0 7 0 7 0 7 0 7 0 7 0 
8 0 6 0 7 2 7 2 7 2 7 2 7 3 7 2 
7 3 7 1 7 2 7 2 7 0 7 0 7 0 7 0 
7 1 7 1 7 1 7 2 7 3 7 3 7 6 7 7 
7 7 7 11 7 13 7 15 7 20 7 24 7 28 7 33 
7 36 7 38 7 39 7 36 7 30 7 18 7 5 7 -8 
7 -21 7 -26 7 -24 7 -13 7 4 7 21 7 30 7 26 
7 11 7 -11 7 -37 7 -53 7 -59 7 -57 7 -43 7 -20 
7 5 7 34 7 63 7 88 7 103 7 112 7 100 7 70 
7 30 7 -16 7 -60 7 -92 7 -110 7 -112 7 -101 7 -80 
7 -59 7 -40 7 -25 7 -15 7 -4 7 0 7 8 7 20 
7 33 7 50 7 71 7 93 7 113 7 121 7 115 7 97 
7 68 7 41 7 20 7 14 7 25 7 44 7 64 7 73 
7 71 7 50 7 19 7 -10 7 -39 7 -58 7 -68 7 -79 
7 -85 7 -97 7 -103 7 -101 7 -89 7 -64 7 -37 7 -7 
7 8 7 13 7 7 7 0 7 -15 7 -27 7 -34 7 -31 
7 -24 7 -17 7 -8 7 6 7 14 7 20 7 25 7 25 
7 24 7 22 7 20 7 16 7 13 7 10 7 6 7 5 
7 4 7 3 7 2 7 2 7 1 7 1 7 1 7 0 
7 0 7 0 7 0 7 -1 7 -1 7 -5 7 -8 7 -13 
7 -23 7 -30 7 -40 7 -47 7 -54 7 -55 7 -51 7 -44 
7 -36 7 -26 7 -18 7 -11 7 -6 7 -5 7 2 7 5 
7 9 7 18 7 34 7 57 7 78 7 100 7 110 7 103 
7 78 7 43 7 -5 7 -49 7 -86 7 -111 7 -110 7 -91 
7 -59 7 -12 7 37 7 88 7 126 7 154 7 163 7 146 
7 115 7 77 7 35 7 1 7 -25 7 -47 7 -68 7 -100 
7 -127 292 913 250 MP stroke
0.25 sg
7 0 7 0 7 0 7 0 7 0 7 0 7 0 7 0 
7 0 7 0 7 0 7 0 7 0 7 0 7 0 7 0 
7 0 7 0 7 0 7 0 7 0 7 0 7 0 7 0 
7 0 7 0 7 0 7 0 7 0 7 0 7 0 7 0 
7 0 7 0 7 0 7 0 7 0 7 0 7 0 7 0 
7 0 7 0 7 0 7 0 7 0 7 0 7 0 7 0 
8 0 6 4 7 4 7 4 7 6 7 8 7 8 7 10 
7 8 7 9 7 7 7 6 7 3 7 1 7 0 7 0 
7 1 7 2 7 4 7 5 7 7 7 9 7 10 7 11 
7 14 7 16 7 18 7 22 7 25 7 26 7 31 7 33 
7 35 7 38 7 36 7 38 7 33 7 32 7 27 7 19 
7 13 7 6 7 -5 7 -16 7 -26 7 -37 7 -47 7 -55 
7 -57 7 -57 7 -53 7 -44 7 -33 7 -21 7 0 7 14 
7 26 7 36 7 43 7 48 7 42 7 36 7 27 7 15 
7 6 7 -2 7 -6 7 -5 7 -2 7 2 7 5 7 6 
7 2 7 -6 7 -15 7 -26 7 -36 7 -45 7 -51 7 -49 
7 -46 7 -41 7 -35 7 -27 7 -19 7 -13 7 -9 7 -6 
7 -4 7 -3 7 0 7 0 7 0 7 0 7 0 7 0 
7 0 7 0 7 0 7 0 7 0 7 0 7 2 7 4 
7 5 7 9 7 14 7 23 7 33 7 47 7 58 7 65 
7 63 7 47 7 21 7 -21 7 -54 7 -74 7 -78 7 -67 
7 -47 7 -28 7 -13 7 -7 7 -2 7 0 7 3 7 9 
7 27 7 59 7 113 7 169 7 187 7 133 7 9 7 -126 
7 -188 7 -144 7 -12 7 144 7 259 7 275 7 202 7 79 
7 -38 7 -127 7 -162 7 -153 7 -111 7 -72 7 -39 7 -36 
7 -45 7 -64 7 -68 7 -67 7 -59 7 -45 7 -30 7 -21 
7 -11 7 -1 7 3 7 8 7 11 7 13 7 12 7 13 
7 10 7 9 7 9 7 10 7 10 7 10 7 11 7 11 
7 12 7 12 7 12 7 12 7 12 7 13 7 13 7 12 
7 12 7 12 7 11 7 12 7 11 7 8 7 8 7 8 
7 8 7 4 7 3 7 3 7 3 7 -2 7 -3 7 -3 
7 -3 292 1223 250 MP stroke
c8
7 0 7 0 7 0 7 0 7 0 7 0 7 0 7 0 
7 0 7 0 7 0 7 0 7 0 7 0 7 0 7 0 
7 0 7 0 7 0 7 0 7 0 7 0 7 0 7 0 
7 0 7 0 7 0 7 0 7 0 7 0 7 0 7 0 
7 0 7 0 7 0 7 0 7 0 7 0 7 0 7 0 
7 0 7 0 7 2 7 3 7 4 7 6 7 10 7 14 
8 20 6 28 7 36 7 44 7 49 7 51 7 48 7 40 
7 26 7 8 7 -11 7 -31 7 -46 7 -50 7 -51 7 -44 
7 -31 7 -15 7 2 7 21 7 37 7 50 7 53 7 54 
7 46 7 27 7 9 7 -8 7 -17 7 -17 7 -5 7 10 
7 24 7 34 7 36 7 31 7 21 7 11 7 3 7 -5 
7 -17 7 -31 7 -48 7 -65 7 -73 7 -75 7 -69 7 -54 
7 -35 7 -20 7 1 7 18 7 39 7 64 7 91 7 120 
7 134 7 131 7 111 7 77 7 33 7 -9 7 -43 7 -62 
7 -75 7 -81 7 -89 7 -93 7 -93 7 -87 7 -75 7 -58 
7 -41 7 -19 7 -7 7 7 7 22 7 43 7 68 7 93 
7 113 7 121 7 113 7 83 7 33 7 -20 7 -70 7 -106 
7 -124 7 -118 7 -99 7 -76 7 -50 7 -30 7 -17 7 -7 
7 -6 7 0 7 0 7 0 7 0 7 2 7 5 7 9 
7 21 7 37 7 60 7 86 7 110 7 123 7 117 7 94 
7 53 7 6 7 -45 7 -80 7 -100 7 -106 7 -99 7 -84 
7 -66 7 -45 7 -30 7 -15 7 -4 7 11 7 20 7 27 
7 33 7 40 7 44 7 42 7 39 7 33 7 24 7 18 
7 8 7 -1 7 -7 7 -18 7 -23 7 -33 7 -39 7 -43 
7 -46 7 -42 7 -38 7 -32 7 -24 7 -18 7 -11 7 -6 
7 -5 7 -2 7 0 7 0 7 0 7 0 7 0 7 0 
7 0 7 0 7 0 7 2 7 7 7 16 7 34 7 63 
7 92 7 100 7 66 7 1 7 -57 7 -87 7 -84 7 -66 
7 -41 7 -24 7 -12 7 -6 7 -4 7 0 7 0 7 0 
7 0 7 0 7 0 7 0 7 0 7 0 7 0 7 0 
7 0 7 0 7 0 7 0 7 0 7 0 7 0 7 0 
7 0 292 1602 250 MP stroke
c9
7 0 7 0 7 0 7 0 7 0 7 0 7 0 7 0 
7 0 7 0 7 0 7 0 7 0 7 0 7 0 7 0 
7 0 7 0 7 0 7 0 7 0 7 0 7 0 7 0 
7 0 7 0 7 0 7 0 7 0 7 0 7 0 7 0 
7 0 7 2 7 5 7 7 7 14 7 23 7 41 7 59 
7 76 7 80 7 62 7 19 7 -36 7 -81 7 -97 7 -82 
8 -52 6 -26 7 -11 7 3 7 16 7 43 7 87 7 122 
7 100 7 1 7 -105 7 -133 7 -89 7 -36 7 -12 7 0 
7 0 7 0 7 0 7 0 7 0 7 0 7 0 7 0 
7 0 7 3 7 9 7 23 7 49 7 80 7 117 7 136 
7 133 7 105 7 60 7 8 7 -39 7 -72 7 -83 7 -86 
7 -77 7 -62 7 -49 7 -33 7 -20 7 -12 7 -3 7 2 
7 9 7 13 7 17 7 20 7 22 7 24 7 22 7 22 
7 18 7 13 7 11 7 6 7 4 7 -6 7 -5 7 -14 
7 -15 7 -20 7 -22 7 -22 7 -25 7 -25 7 -24 7 -24 
7 -23 7 -21 7 -21 7 -17 7 -17 7 -14 7 -13 7 -11 
7 -8 7 -7 7 -5 7 -4 7 0 7 0 7 3 7 5 
7 8 7 9 7 15 7 17 7 23 7 24 7 29 7 31 
7 34 7 34 7 35 7 30 7 27 7 22 7 11 7 6 
7 -8 7 -17 7 -24 7 -34 7 -39 7 -44 7 -46 7 -43 
7 -39 7 -31 7 -25 7 -17 7 -11 7 -6 7 -5 7 -1 
7 0 7 0 7 0 7 0 7 0 7 4 7 7 7 16 
7 33 7 64 7 97 7 126 7 133 7 107 7 52 7 -22 
7 -98 7 -144 7 -148 7 -106 7 -53 7 5 7 52 7 84 
7 93 7 67 7 19 7 -33 7 -67 7 -80 7 -71 7 -54 
7 -36 7 -22 7 -12 7 -6 7 -5 7 -2 7 0 7 0 
7 0 7 0 7 0 7 0 7 0 7 2 7 2 7 2 
7 1 7 2 7 2 7 4 7 4 7 6 7 6 7 7 
7 10 7 12 7 13 7 18 7 20 7 26 7 29 7 35 
7 40 7 44 7 50 7 54 7 58 7 58 7 59 7 54 
7 53 7 37 7 30 7 14 7 -4 7 -15 7 -40 7 -50 
7 -62 292 1021 250 MP stroke
c10
7 0 7 0 7 0 7 0 7 0 7 0 7 0 7 0 
7 0 7 0 7 0 7 0 7 0 7 0 7 0 7 0 
7 0 7 0 7 0 7 0 7 0 7 0 7 0 7 0 
7 0 7 0 7 0 7 0 7 0 7 0 7 0 7 0 
7 0 7 0 7 0 7 0 7 0 7 0 7 0 7 0 
7 0 7 0 7 0 7 0 7 0 7 0 7 0 7 0 
8 0 6 0 7 0 7 0 7 0 7 0 7 0 7 0 
7 0 7 0 7 0 7 0 7 0 7 0 7 0 7 0 
7 6 7 7 7 13 7 24 7 37 7 54 7 68 7 75 
7 71 7 57 7 37 7 18 7 6 7 1 7 0 7 -4 
7 -15 7 -31 7 -51 7 -62 7 -67 7 -59 7 -34 7 -6 
7 24 7 56 7 83 7 99 7 100 7 90 7 63 7 27 
7 -15 7 -58 7 -86 7 -102 7 -105 7 -96 7 -75 7 -51 
7 -28 7 -5 7 19 7 39 7 58 7 73 7 77 7 70 
7 58 7 40 7 28 7 15 7 14 7 13 7 16 7 23 
7 32 7 45 7 52 7 48 7 29 7 -1 7 -52 7 -86 
7 -101 7 -91 7 -41 7 17 7 69 7 99 7 93 7 51 
7 -10 7 -64 7 -88 7 -78 7 -49 7 -24 7 -17 7 -32 
7 -57 7 -60 7 -33 7 3 7 43 7 55 7 30 7 -11 
7 -54 7 -67 7 -45 7 7 7 50 7 66 7 47 7 0 
7 -38 7 -71 7 -77 7 -69 7 -51 7 -34 7 -20 7 -12 
7 -6 7 -1 7 3 7 7 7 11 7 16 7 21 7 26 
7 31 7 34 7 35 7 35 7 33 7 30 7 25 7 22 
7 17 7 12 7 10 7 7 7 4 7 4 7 1 7 -4 
7 -4 7 -7 7 -13 7 -12 7 -17 7 -20 7 -20 7 -23 
7 -24 7 -24 7 -25 7 -24 7 -23 7 -24 7 -19 7 -20 
7 -15 7 -16 7 -11 7 -11 7 -8 7 -7 7 -4 7 -5 
7 -2 7 -2 7 0 7 1 7 4 7 6 7 10 7 15 
7 23 7 33 7 46 7 57 7 65 7 63 7 47 7 19 
7 -19 7 -44 7 -49 7 -23 7 25 7 70 7 94 7 84 
7 50 7 1 7 -54 7 -107 7 -139 7 -130 7 -90 7 -43 
7 -15 292 1597 250 MP stroke
gr

c10

end %%Color Dict

eplot
%%EndObject

epage
end

showpage

%%Trailer
%%EOF
