%!PS-Adobe-3.0 EPSF-3.0
%%Creator: MATLAB, The Mathworks, Inc. Version 7.10.0.499 (R2010a). Operating System: Microsoft Windows 7.
%%Title: C:\Users\wwu\Desktop\warping\Gervini_code\comp_gene_smr.eps
%%CreationDate: 04/12/2011  22:49:10
%%DocumentNeededFonts: Helvetica
%%DocumentProcessColors: Cyan Magenta Yellow Black
%%LanguageLevel: 2
%%Pages: 1
%%BoundingBox:   212   320   399   470
%%EndComments

%%BeginProlog
% MathWorks dictionary
/MathWorks 160 dict begin
% definition operators
/bdef {bind def} bind def
/ldef {load def} bind def
/xdef {exch def} bdef
/xstore {exch store} bdef
% operator abbreviations
/c  /clip ldef
/cc /concat ldef
/cp /closepath ldef
/gr /grestore ldef
/gs /gsave ldef
/mt /moveto ldef
/np /newpath ldef
/cm /currentmatrix ldef
/sm /setmatrix ldef
/rm /rmoveto ldef
/rl /rlineto ldef
/s {show newpath} bdef
/sc {setcmykcolor} bdef
/sr /setrgbcolor ldef
/sg /setgray ldef
/w /setlinewidth ldef
/j /setlinejoin ldef
/cap /setlinecap ldef
/rc {rectclip} bdef
/rf {rectfill} bdef
% page state control
/pgsv () def
/bpage {/pgsv save def} bdef
/epage {pgsv restore} bdef
/bplot /gsave ldef
/eplot {stroke grestore} bdef
% orientation switch
/portraitMode 0 def /landscapeMode 1 def /rotateMode 2 def
% coordinate system mappings
/dpi2point 0 def
% font control
/FontSize 0 def
/FMS {/FontSize xstore findfont [FontSize 0 0 FontSize neg 0 0]
  makefont setfont} bdef
/ISOLatin1Encoding where {pop /WindowsLatin1Encoding 256 array bdef
ISOLatin1Encoding WindowsLatin1Encoding copy pop
/.notdef/.notdef/quotesinglbase/florin/quotedblbase/ellipsis/dagger
/daggerdbl/circumflex/perthousand/Scaron/guilsinglleft/OE/.notdef/.notdef
/.notdef/.notdef/quoteleft/quoteright/quotedblleft/quotedblright/bullet
/endash/emdash/tilde/trademark/scaron/guilsinglright/oe/.notdef/.notdef
/Ydieresis WindowsLatin1Encoding 128 32 getinterval astore pop}
{/WindowsLatin1Encoding StandardEncoding bdef} ifelse
/reencode {exch dup where {pop load} {pop StandardEncoding} ifelse
  exch dup 3 1 roll findfont dup length dict begin
  { 1 index /FID ne {def}{pop pop} ifelse } forall
  /Encoding exch def currentdict end definefont pop} bdef
/isroman {findfont /CharStrings get /Agrave known} bdef
/FMSR {3 1 roll 1 index dup isroman {reencode} {pop pop} ifelse
  exch FMS} bdef
/csm {1 dpi2point div -1 dpi2point div scale neg translate
 dup landscapeMode eq {pop -90 rotate}
  {rotateMode eq {90 rotate} if} ifelse} bdef
% line types: solid, dotted, dashed, dotdash
/SO { [] 0 setdash } bdef
/DO { [.5 dpi2point mul 4 dpi2point mul] 0 setdash } bdef
/DA { [6 dpi2point mul] 0 setdash } bdef
/DD { [.5 dpi2point mul 4 dpi2point mul 6 dpi2point mul 4
  dpi2point mul] 0 setdash } bdef
% macros for lines and objects
/L {lineto stroke} bdef
/MP {3 1 roll moveto 1 sub {rlineto} repeat} bdef
/AP {{rlineto} repeat} bdef
/PDlw -1 def
/W {/PDlw currentlinewidth def setlinewidth} def
/PP {closepath eofill} bdef
/DP {closepath stroke} bdef
/MR {4 -2 roll moveto dup  0 exch rlineto exch 0 rlineto
  neg 0 exch rlineto closepath} bdef
/FR {MR stroke} bdef
/PR {MR fill} bdef
/L1i {{currentfile picstr readhexstring pop} image} bdef
/tMatrix matrix def
/MakeOval {newpath tMatrix currentmatrix pop translate scale
0 0 1 0 360 arc tMatrix setmatrix} bdef
/FO {MakeOval stroke} bdef
/PO {MakeOval fill} bdef
/PD {currentlinewidth 2 div 0 360 arc fill
   PDlw -1 eq not {PDlw w /PDlw -1 def} if} def
/FA {newpath tMatrix currentmatrix pop translate scale
  0 0 1 5 -2 roll arc tMatrix setmatrix stroke} bdef
/PA {newpath tMatrix currentmatrix pop	translate 0 0 moveto scale
  0 0 1 5 -2 roll arc closepath tMatrix setmatrix fill} bdef
/FAn {newpath tMatrix currentmatrix pop translate scale
  0 0 1 5 -2 roll arcn tMatrix setmatrix stroke} bdef
/PAn {newpath tMatrix currentmatrix pop translate 0 0 moveto scale
  0 0 1 5 -2 roll arcn closepath tMatrix setmatrix fill} bdef
/vradius 0 def /hradius 0 def /lry 0 def
/lrx 0 def /uly 0 def /ulx 0 def /rad 0 def
/MRR {/vradius xdef /hradius xdef /lry xdef /lrx xdef /uly xdef
  /ulx xdef newpath tMatrix currentmatrix pop ulx hradius add uly
  vradius add translate hradius vradius scale 0 0 1 180 270 arc 
  tMatrix setmatrix lrx hradius sub uly vradius add translate
  hradius vradius scale 0 0 1 270 360 arc tMatrix setmatrix
  lrx hradius sub lry vradius sub translate hradius vradius scale
  0 0 1 0 90 arc tMatrix setmatrix ulx hradius add lry vradius sub
  translate hradius vradius scale 0 0 1 90 180 arc tMatrix setmatrix
  closepath} bdef
/FRR {MRR stroke } bdef
/PRR {MRR fill } bdef
/MlrRR {/lry xdef /lrx xdef /uly xdef /ulx xdef /rad lry uly sub 2 div def
  newpath tMatrix currentmatrix pop ulx rad add uly rad add translate
  rad rad scale 0 0 1 90 270 arc tMatrix setmatrix lrx rad sub lry rad
  sub translate rad rad scale 0 0 1 270 90 arc tMatrix setmatrix
  closepath} bdef
/FlrRR {MlrRR stroke } bdef
/PlrRR {MlrRR fill } bdef
/MtbRR {/lry xdef /lrx xdef /uly xdef /ulx xdef /rad lrx ulx sub 2 div def
  newpath tMatrix currentmatrix pop ulx rad add uly rad add translate
  rad rad scale 0 0 1 180 360 arc tMatrix setmatrix lrx rad sub lry rad
  sub translate rad rad scale 0 0 1 0 180 arc tMatrix setmatrix
  closepath} bdef
/FtbRR {MtbRR stroke } bdef
/PtbRR {MtbRR fill } bdef
/stri 6 array def /dtri 6 array def
/smat 6 array def /dmat 6 array def
/tmat1 6 array def /tmat2 6 array def /dif 3 array def
/asub {/ind2 exch def /ind1 exch def dup dup
  ind1 get exch ind2 get sub exch } bdef
/tri_to_matrix {
  2 0 asub 3 1 asub 4 0 asub 5 1 asub
  dup 0 get exch 1 get 7 -1 roll astore } bdef
/compute_transform {
  dmat dtri tri_to_matrix tmat1 invertmatrix 
  smat stri tri_to_matrix tmat2 concatmatrix } bdef
/ds {stri astore pop} bdef
/dt {dtri astore pop} bdef
/db {2 copy /cols xdef /rows xdef mul dup 3 mul string
  currentfile 
  3 index 0 eq {/ASCIIHexDecode filter}
  {/ASCII85Decode filter 3 index 2 eq {/RunLengthDecode filter} if }
  ifelse exch readstring pop
  dup 0 3 index getinterval /rbmap xdef
  dup 2 index dup getinterval /gbmap xdef
  1 index dup 2 mul exch getinterval /bbmap xdef pop pop}bdef
/it {gs np dtri aload pop moveto lineto lineto cp c
  cols rows 8 compute_transform 
  rbmap gbmap bbmap true 3 colorimage gr}bdef
/il {newpath moveto lineto stroke}bdef
currentdict end def
%%EndProlog

%%BeginSetup
MathWorks begin

0 cap

end
%%EndSetup

%%Page: 1 1
%%BeginPageSetup
%%PageBoundingBox:   212   320   399   470
MathWorks begin
bpage
%%EndPageSetup

%%BeginObject: obj1
bplot

/dpi2point 12 def
portraitMode 2544 5640 csm

    0     0  2249  1800 rc
85 dict begin %Colortable dictionary
/c0 { 0.000000 0.000000 0.000000 sr} bdef
/c1 { 1.000000 1.000000 1.000000 sr} bdef
/c2 { 0.900000 0.000000 0.000000 sr} bdef
/c3 { 0.000000 0.820000 0.000000 sr} bdef
/c4 { 0.000000 0.000000 0.800000 sr} bdef
/c5 { 0.910000 0.820000 0.320000 sr} bdef
/c6 { 1.000000 0.260000 0.820000 sr} bdef
/c7 { 0.000000 0.820000 0.820000 sr} bdef
c0
1 j
1 sg
   0    0 2250 1801 rf
6 w
0 1467 1743 0 0 -1467 292 1602 4 MP
PP
-1743 0 0 1467 1743 0 0 -1467 292 1602 5 MP stroke
4 w
DO
SO
6 w
0 sg
 292  135 mt 2035  135 L
 292 1602 mt 2035 1602 L
2035 1602 mt 2035  135 L
 292 1602 mt  292  135 L
 292 1602 mt 2035 1602 L
 292 1602 mt  292  135 L
 292 1602 mt  292 1584 L
 292  135 mt  292  152 L
%%IncludeResource: font Helvetica
/Helvetica /WindowsLatin1Encoding 120 FMSR

 259 1747 mt 
(0) s
1024 1602 mt 1024 1584 L
1024  135 mt 1024  152 L
 958 1747 mt 
(50) s
1756 1602 mt 1756 1584 L
1756  135 mt 1756  152 L
1656 1747 mt 
(100) s
 292 1468 mt  309 1468 L
2035 1468 mt 2017 1468 L
 121 1512 mt 
(-2) s
 292 1201 mt  309 1201 L
2035 1201 mt 2017 1201 L
 121 1245 mt 
(-1) s
 292  935 mt  309  935 L
2035  935 mt 2017  935 L
 191  979 mt 
(0) s
 292  668 mt  309  668 L
2035  668 mt 2017  668 L
 191  712 mt 
(1) s
 292  401 mt  309  401 L
2035  401 mt 2017  401 L
 191  445 mt 
(2) s
 292  135 mt  309  135 L
2035  135 mt 2017  135 L
 191  179 mt 
(3) s
 292  135 mt 2035  135 L
 292 1602 mt 2035 1602 L
2035 1602 mt 2035  135 L
 292 1602 mt  292  135 L
gs 292 135 1744 1468 rc
/c8 { 0.000000 0.000000 1.000000 sr} bdef
c8
35 -18 34 -21 34 -24 34 -27 34 -28 35 -29 34 -26 34 -20 
34 -13 34 -8 34 -7 35 -7 34 -4 34 4 34 17 34 28 
34 34 35 28 34 15 34 -4 34 -13 34 -4 35 9 34 18 
34 23 34 16 34 -3 34 -23 35 -29 34 -23 34 -13 34 2 
34 5 34 3 35 -8 34 -32 34 -42 34 -45 34 -31 35 9 
34 33 34 35 34 15 34 -3 34 12 35 56 34 50 34 -31 
34 -118 34 -91 34 74 292 1031 52 MP stroke
/c9 { 0.000000 0.500000 0.000000 sr} bdef
c9
35 -3 34 -5 34 -7 34 -15 34 -21 35 -32 34 -38 34 -40 
34 -25 34 -5 34 -24 35 -51 34 19 34 42 34 9 34 31 
34 47 35 33 34 10 34 0 34 16 34 30 35 42 34 33 
34 16 34 2 34 -6 34 -26 35 -52 34 -57 34 -34 34 -7 
34 12 34 19 35 -8 34 -68 34 -92 34 -46 34 14 35 -1 
34 -67 34 -41 34 62 34 149 34 144 35 66 34 -19 34 -58 
34 -37 34 48 34 201 292 657 52 MP stroke
/c10 { 1.000000 0.000000 0.000000 sr} bdef
c10
35 -110 34 24 34 64 34 31 34 -37 35 -67 34 -65 34 -44 
34 -25 34 1 34 1 35 5 34 1 34 6 34 15 34 26 
34 43 35 34 34 -15 34 -54 34 9 34 95 35 91 34 -7 
34 -52 34 9 34 58 34 31 35 -8 34 -28 34 -22 34 -12 
34 -25 34 -57 35 -75 34 -27 34 -9 34 -111 34 -49 35 25 
34 -22 34 35 34 88 34 76 34 39 35 14 34 -9 34 -24 
34 -36 34 -45 34 -50 292 1057 52 MP stroke
/c11 { 0.000000 0.750000 0.750000 sr} bdef
c11
35 0 34 -2 34 -22 34 -37 34 -41 35 -37 34 -23 34 -13 
34 -15 34 -29 34 -54 35 -50 34 -5 34 44 34 57 34 44 
34 35 35 40 34 49 34 62 34 78 34 67 35 21 34 -7 
34 35 34 84 34 44 34 -28 35 -74 34 -88 34 -78 34 -56 
34 -46 34 -56 35 -73 34 -73 34 -54 34 -25 34 -1 35 18 
34 27 34 24 34 23 34 25 34 29 35 16 34 -21 34 -67 
34 -94 34 -84 34 -39 292 1295 52 MP stroke
/c12 { 0.750000 0.000000 0.750000 sr} bdef
c12
35 0 34 -3 34 -54 34 -90 34 -85 35 -49 34 22 34 67 
34 73 34 5 34 -94 35 -116 34 -19 34 55 34 55 34 42 
34 33 35 25 34 17 34 18 34 32 34 45 35 38 34 0 
34 -16 34 66 34 59 34 -65 35 -94 34 -53 34 -18 34 -5 
34 -8 34 -14 35 -35 34 -56 34 -68 34 -66 34 -51 35 -22 
34 13 34 43 34 68 34 83 34 79 35 58 34 13 34 -39 
34 -85 34 -71 34 22 292 1020 52 MP stroke
/c13 { 0.750000 0.750000 0.000000 sr} bdef
c13
35 115 34 -25 34 -64 34 -26 34 50 35 60 34 25 34 -12 
34 -24 34 -20 34 -9 35 -3 34 -2 34 0 34 1 34 1 
34 0 35 0 34 0 34 1 34 1 34 0 35 -15 34 -28 
34 5 34 41 34 2 34 3 35 17 34 12 34 3 34 2 
34 -1 34 -8 35 -7 34 49 34 69 34 -126 34 128 35 -32 
34 -30 34 48 34 -79 34 -108 34 -65 35 -29 34 13 34 37 
34 51 34 35 34 19 292 953 52 MP stroke
0.25 sg
35 -65 34 23 34 56 34 45 34 6 35 -27 34 -48 34 -57 
34 -51 34 -36 34 -17 35 -9 34 6 34 9 34 35 34 67 
34 90 35 57 34 -38 34 -72 34 -29 34 15 35 44 34 39 
34 16 34 -8 34 -20 34 -26 35 -3 34 27 34 -5 34 -64 
34 -16 34 27 35 -3 34 -41 34 -31 34 -15 34 -4 35 -15 
34 -27 34 -16 34 -3 34 46 34 82 35 47 34 -37 34 -90 
34 -95 34 -41 34 77 292 1084 52 MP stroke
c8
35 341 34 -62 34 -201 34 -170 34 -64 35 53 34 132 34 106 
34 26 34 9 34 -27 35 0 34 0 34 0 34 -52 34 -129 
34 -172 35 38 34 253 34 37 34 -124 34 -30 35 155 34 177 
34 81 34 -21 34 -51 34 -72 35 -66 34 -34 34 -7 34 15 
34 -3 34 -52 35 -113 34 -150 34 -144 34 -123 34 -123 35 -87 
34 23 34 127 34 173 34 168 34 133 35 86 34 32 34 -26 
34 -102 34 -153 34 -183 292 1255 52 MP stroke
c9
35 -67 34 -45 34 -37 34 -39 34 -53 35 -67 34 -56 34 -18 
34 8 34 15 34 10 35 1 34 0 34 0 34 20 34 36 
34 44 35 13 34 7 34 86 34 124 34 63 35 21 34 22 
34 17 34 -3 34 -27 34 -48 35 -60 34 -58 34 -49 34 -38 
34 -39 34 -44 35 -61 34 -102 34 -173 34 -161 34 -3 35 104 
34 20 34 -42 34 23 34 105 34 103 35 37 34 -48 34 -100 
34 -103 34 -53 34 53 292 1295 52 MP stroke
c10
35 -183 34 3 34 84 34 60 34 -12 35 -58 34 -50 34 -19 
34 -3 34 0 34 1 35 0 34 0 34 0 34 2 34 1 
34 -1 35 11 34 55 34 75 34 11 34 -29 35 -40 34 -29 
34 -7 34 7 34 8 34 3 35 -3 34 -4 34 -4 34 -5 
34 -8 34 -13 35 -21 34 -31 34 -42 34 -49 34 -48 35 -28 
34 1 34 18 34 13 34 1 34 -3 35 2 34 12 34 21 
34 30 34 46 34 43 292 951 52 MP stroke
c11
35 72 34 -1 34 -12 34 3 34 -7 35 -38 34 -49 34 -42 
34 -29 34 -16 34 -3 35 3 34 8 34 15 34 20 34 14 
34 4 35 23 34 40 34 -3 34 -4 34 9 35 13 34 8 
34 4 34 0 34 1 34 3 35 -5 34 -25 34 -51 34 -21 
34 42 34 20 35 -25 34 -31 34 -18 34 -5 34 0 35 -5 
34 -11 34 -14 34 -2 34 7 34 6 35 -17 34 -40 34 -44 
34 -22 34 28 34 106 292 988 52 MP stroke
c12
35 -33 34 -21 34 3 34 27 34 28 35 14 34 -27 34 -87 
34 -126 34 -121 34 -73 35 17 34 63 34 75 34 70 34 46 
34 19 35 10 34 5 34 4 34 14 34 36 35 72 34 76 
34 19 34 -11 34 72 34 107 35 33 34 -66 34 -85 34 -72 
34 -75 34 -82 35 -50 34 -46 34 -137 34 -144 34 43 35 63 
34 13 34 27 34 39 34 27 34 12 35 5 34 4 34 6 
34 12 34 18 34 22 292 964 52 MP stroke
c13
35 0 34 -2 34 -32 34 -52 34 -54 35 -43 34 -16 34 2 
34 4 34 -25 34 -65 35 -63 34 -2 34 47 34 50 34 42 
34 42 35 40 34 36 34 36 34 47 34 53 35 48 34 40 
34 39 34 38 34 31 34 13 35 -20 34 -48 34 -62 34 -66 
34 -69 34 -80 35 -91 34 -102 34 -87 34 -42 34 27 35 60 
34 44 34 -2 34 -19 34 -3 34 26 35 23 34 -22 34 -69 
34 -75 34 -21 34 95 292 1137 52 MP stroke
0.25 sg
35 -75 34 57 34 51 34 -24 34 -69 35 -39 34 -1 34 11 
34 6 34 -4 34 -8 35 -4 34 -1 34 6 34 8 34 10 
34 4 35 -10 34 -15 34 -1 34 32 34 53 35 45 34 17 
34 -11 34 -21 34 -15 34 -1 35 8 34 7 34 6 34 -1 
34 -6 34 -17 35 -39 34 -67 34 -80 34 -59 34 7 35 41 
34 21 34 -5 34 5 34 48 34 72 35 50 34 -17 34 -70 
34 -73 34 -24 34 83 292 972 52 MP stroke
c8
35 -115 34 -8 34 43 34 45 34 6 35 -36 34 -52 34 -43 
34 -29 34 -16 34 -11 35 -7 34 -4 34 -7 34 -10 34 -3 
34 40 35 96 34 78 34 -12 34 -43 34 -1 35 28 34 20 
34 10 34 2 34 1 34 -4 35 -4 34 -6 34 -9 34 -8 
34 -12 34 -20 35 -27 34 -40 34 -51 34 -54 34 -35 35 8 
34 49 34 58 34 31 34 3 34 -1 35 28 34 37 34 9 
34 -38 34 -63 34 -61 292 1047 52 MP stroke
c9
35 -42 34 21 34 44 34 30 34 -5 35 -28 34 -27 34 -13 
34 -4 34 -1 34 -1 35 0 34 0 34 1 34 0 34 0 
34 0 35 19 34 46 34 19 34 -7 34 -2 35 6 34 9 
34 7 34 4 34 2 34 1 35 -1 34 -1 34 -5 34 -4 
34 -12 34 -19 35 -33 34 -53 34 -55 34 -22 34 19 35 2 
34 -46 34 -28 34 43 34 95 34 78 35 14 34 -45 34 -68 
34 -50 34 15 34 126 292 900 52 MP stroke
c10
35 -53 34 -30 34 -9 34 4 34 3 35 -13 34 -47 34 -79 
34 -76 34 -43 34 -16 35 19 34 25 34 38 34 37 34 35 
34 11 35 -5 34 -23 34 -15 34 16 34 61 35 91 34 75 
34 42 34 -3 34 1 34 21 35 10 34 -15 34 -32 34 -34 
34 -46 34 -57 35 -78 34 -89 34 -90 34 -79 34 -51 35 -23 
34 -4 34 6 34 11 34 13 34 32 35 112 34 207 34 101 
34 -183 34 -263 34 128 292 1092 52 MP stroke
c11
35 -18 34 22 34 14 34 -22 34 -43 35 -34 34 -13 34 0 
34 7 34 6 34 4 35 0 34 0 34 2 34 13 34 11 
34 -35 35 -67 34 -41 34 33 34 132 34 44 35 11 34 2 
34 0 34 0 34 0 34 0 35 -2 34 -4 34 -11 34 -18 
34 -20 34 -14 35 -14 34 -27 34 -49 34 -51 34 -29 35 -1 
34 7 34 -1 34 -11 34 -11 34 -5 35 7 34 21 34 24 
34 34 34 25 34 16 292 953 52 MP stroke
c12
35 -80 34 -20 34 19 34 36 34 34 35 12 34 -20 34 -39 
34 -37 34 -20 34 -5 35 8 34 17 34 25 34 27 34 19 
34 6 35 10 34 33 34 52 34 40 34 14 35 -11 34 -33 
34 -41 34 -37 34 -24 34 -9 35 -7 34 -17 34 -26 34 -9 
34 31 34 33 35 13 34 3 34 -6 34 -1 34 0 35 -3 
34 -9 34 -22 34 -26 34 -10 34 31 35 63 34 61 34 59 
34 65 34 33 34 -69 292 785 52 MP stroke
c13
35 -63 34 139 34 5 34 -125 34 -53 35 12 34 -14 34 -48 
34 -49 34 -33 34 -8 35 -1 34 6 34 12 34 20 34 27 
34 22 35 10 34 -9 34 1 34 43 34 67 35 61 34 39 
34 21 34 10 34 1 34 -9 35 -38 34 -52 34 -51 34 -15 
34 26 34 19 35 -52 34 -85 34 -59 34 -23 34 -34 35 -39 
34 -11 34 18 34 24 34 14 34 -3 35 -16 34 -33 34 -26 
34 -16 34 0 34 0 292 1180 52 MP stroke
0.25 sg
35 56 34 26 34 1 34 -17 34 -26 35 -21 34 -4 34 20 
34 9 34 -56 34 -23 35 56 34 -42 34 -42 34 24 34 43 
34 35 35 20 34 7 34 0 34 4 34 7 35 11 34 10 
34 7 34 -9 34 -26 34 -28 35 -16 34 14 34 48 34 55 
34 10 34 -47 35 -70 34 -74 34 -48 34 -24 34 4 35 23 
34 39 34 35 34 -10 34 -36 34 -14 35 63 34 93 34 44 
34 -31 34 -47 34 6 292 900 52 MP stroke
c8
35 53 34 31 34 17 34 11 34 14 35 15 34 8 34 -5 
34 -16 34 -22 34 -17 35 -11 34 -6 34 -1 34 2 34 4 
34 8 35 19 34 34 34 6 34 -58 34 -45 35 9 34 42 
34 34 34 13 34 -8 34 -21 35 1 34 45 34 45 34 -29 
34 -48 34 -1 35 19 34 13 34 3 34 0 34 0 35 0 
34 3 34 1 34 -21 34 -37 34 -32 35 26 34 51 34 -11 
34 -88 34 -53 34 139 292 905 52 MP stroke
c9
35 226 34 -4 34 -119 34 -129 34 -57 35 18 34 31 34 -20 
34 -80 34 -75 34 13 35 50 34 -2 34 -29 34 21 34 58 
34 53 35 30 34 6 34 1 34 19 34 31 35 33 34 -5 
34 -38 34 7 34 72 34 52 35 -43 34 -67 34 -25 34 18 
34 3 34 -48 35 -81 34 -82 34 -49 34 -22 34 4 35 22 
34 37 34 33 34 -8 34 -41 34 -35 35 22 34 33 34 -27 
34 -86 34 -32 34 170 292 1004 52 MP stroke
c10
35 0 34 -1 34 -20 34 -32 34 -25 35 -3 34 30 34 35 
34 25 34 15 34 4 35 -4 34 -2 34 -9 34 -77 34 -130 
34 5 35 102 34 74 34 -67 34 44 34 95 35 -100 34 -73 
34 -22 34 -8 34 -3 34 -2 35 3 34 12 34 24 34 42 
34 41 34 12 35 -21 34 -34 34 -35 34 -19 34 -16 35 3 
34 13 34 32 34 27 34 3 34 -21 35 -14 34 29 34 63 
34 49 34 -19 34 -145 292 988 52 MP stroke
c11
35 -35 34 -45 34 -21 34 -5 34 34 35 51 34 51 34 17 
34 -62 34 -126 34 -85 35 13 34 45 34 14 34 13 34 27 
34 26 35 17 34 3 34 0 34 15 34 35 35 53 34 67 
34 62 34 12 34 -28 34 -42 35 -32 34 -18 34 -8 34 -9 
34 -9 34 -30 35 -61 34 -99 34 -87 34 27 34 55 35 -79 
34 -79 34 46 34 103 34 77 34 36 35 14 34 5 34 0 
34 -8 34 -19 34 -33 292 967 52 MP stroke
c12
35 -20 34 -32 34 -40 34 -41 34 -38 35 -17 34 15 34 39 
34 41 34 28 34 15 35 1 34 0 34 0 34 9 34 22 
34 18 35 9 34 -23 34 -68 34 -91 34 -55 35 37 34 64 
34 12 34 -12 34 39 34 68 35 33 34 3 34 11 34 8 
34 -25 34 -39 35 -30 34 -15 34 -6 34 -3 34 0 35 -2 
34 -2 34 -2 34 -1 34 -5 34 5 35 56 34 119 34 140 
34 118 34 119 34 181 292 300 52 MP stroke
c13
35 41 34 0 34 -11 34 2 34 24 35 21 34 2 34 -9 
34 -9 34 1 34 1 35 0 34 0 34 0 34 1 34 8 
34 21 35 25 34 -6 34 -90 34 -121 34 -12 35 124 34 112 
34 -37 34 -69 34 42 34 91 35 52 34 4 34 -15 34 -33 
34 -47 34 -41 35 -18 34 -2 34 10 34 4 34 3 35 7 
34 16 34 17 34 9 34 -34 34 -50 35 11 34 110 34 133 
34 85 34 75 34 163 292 452 52 MP stroke
0.25 sg
35 36 34 -16 34 -36 34 -36 34 -24 35 -2 34 16 34 22 
34 21 34 17 34 7 35 0 34 0 34 0 34 0 34 0 
34 9 35 10 34 13 34 7 34 0 34 -19 35 -25 34 9 
34 63 34 54 34 -54 34 -95 35 -36 34 18 34 42 34 13 
34 -24 34 0 35 31 34 32 34 14 34 6 34 4 35 1 
34 -5 34 -12 34 -22 34 -20 34 5 35 25 34 20 34 6 
34 18 34 79 34 180 292 617 52 MP stroke
c8
35 0 34 0 34 8 34 14 34 5 35 -13 34 -39 34 -47 
34 -42 34 -20 34 9 35 30 34 28 34 4 34 -17 34 -11 
34 25 35 64 34 68 34 35 34 -11 34 -21 35 19 34 42 
34 0 34 -40 34 -14 34 -2 35 -48 34 -61 34 11 34 67 
34 13 34 -54 35 -62 34 -40 34 -5 34 0 34 7 35 14 
34 19 34 23 34 4 34 -7 34 -3 35 31 34 43 34 5 
34 -58 34 -89 34 -84 292 1121 52 MP stroke
c9
35 -9 34 -11 34 -5 34 -1 34 4 35 10 34 15 34 17 
34 14 34 -9 34 -48 35 -61 34 -2 34 41 34 27 34 17 
34 15 35 9 34 2 34 0 34 8 34 20 35 30 34 29 
34 -3 34 -44 34 -27 34 -4 35 -12 34 -22 34 -13 34 6 
34 19 34 16 35 -2 34 -35 34 -45 34 -35 34 -12 35 18 
34 38 34 29 34 -4 34 -18 34 9 35 54 34 73 34 39 
34 -11 34 -61 34 -102 292 980 52 MP stroke
c10
35 40 34 27 34 13 34 -1 34 -12 35 -18 34 -16 34 -7 
34 -6 34 -21 34 -37 35 -14 34 51 34 76 34 -2 34 -35 
34 -6 35 18 34 16 34 13 34 15 34 14 35 11 34 -5 
34 -21 34 -31 34 -29 34 -18 35 -7 34 0 34 19 34 37 
34 12 34 -24 35 -32 34 1 34 47 34 64 34 49 35 28 
34 -14 34 -47 34 -61 34 -64 34 -57 35 -28 34 -6 34 7 
34 4 34 1 34 0 292 1031 52 MP stroke
c11
35 0 34 -1 34 -22 34 -35 34 -33 35 -17 34 14 34 35 
34 38 34 6 34 -40 35 -59 34 -33 34 16 34 44 34 34 
34 9 35 12 34 33 34 62 34 70 34 50 35 -15 34 -83 
34 -83 34 2 34 65 34 46 35 -10 34 -34 34 -36 34 -35 
34 -34 34 -36 35 -40 34 -35 34 -28 34 -16 34 2 35 23 
34 34 34 39 34 40 34 40 34 39 35 36 34 23 34 -4 
34 -49 34 -57 34 -1 292 940 52 MP stroke
c12
35 -42 34 -37 34 -20 34 -1 34 10 35 17 34 13 34 -3 
34 -21 34 -31 34 -26 35 -12 34 4 34 17 34 21 34 13 
34 7 35 -1 34 -1 34 -1 34 5 34 19 35 45 34 58 
34 30 34 -15 34 -17 34 -10 35 -15 34 -22 34 -20 34 -16 
34 -13 34 -17 35 -20 34 -23 34 -23 34 -25 34 -18 35 -10 
34 6 34 27 34 30 34 0 34 -34 35 0 34 56 34 4 
34 -52 34 -1 34 53 292 953 52 MP stroke
c13
35 44 34 52 34 15 34 0 34 -27 35 -47 34 -47 34 -17 
34 50 34 52 34 -46 35 -100 34 44 34 93 34 -39 34 -54 
34 9 35 43 34 33 34 9 34 2 34 3 35 14 34 27 
34 29 34 6 34 -27 34 -45 35 -33 34 14 34 61 34 54 
34 -17 34 -84 35 -87 34 -27 34 29 34 37 34 -1 35 -33 
34 -31 34 0 34 25 34 29 34 17 35 2 34 -6 34 -7 
34 -3 34 6 34 19 292 929 52 MP stroke
0.25 sg
35 -11 34 -21 34 -30 34 -15 34 -7 35 18 34 35 34 34 
34 19 34 -6 34 -27 35 -33 34 -27 34 -7 34 19 34 42 
34 31 35 -34 34 1 34 76 34 -69 34 -55 35 45 34 54 
34 23 34 4 34 -14 34 -28 35 -43 34 -53 34 -39 34 12 
34 60 34 54 35 20 34 5 34 -7 34 0 34 0 35 -3 
34 -14 34 -32 34 -56 34 -37 34 54 35 88 34 -4 34 -85 
34 4 34 62 34 -40 292 948 52 MP stroke
c8
35 -23 34 31 34 54 34 49 34 18 35 -17 34 -35 34 -34 
34 -22 34 -13 34 -8 35 0 34 0 34 1 34 7 34 8 
34 14 35 14 34 12 34 6 34 5 34 14 35 25 34 27 
34 10 34 -8 34 -22 34 -14 35 10 34 -20 34 -105 34 -43 
34 95 34 74 35 -2 34 -22 34 -14 34 0 34 0 35 -1 
34 -15 34 -21 34 -21 34 8 34 35 35 15 34 -25 34 -29 
34 -9 34 -25 34 -117 292 1113 52 MP stroke
c9
35 -138 34 46 34 97 34 51 34 -19 35 -45 34 -36 34 -19 
34 -8 34 0 34 -1 35 0 34 0 34 0 34 0 34 6 
34 10 35 16 34 11 34 -10 34 -3 34 32 35 60 34 46 
34 13 34 -14 34 -24 34 -33 35 -40 34 -39 34 -30 34 -18 
34 -11 34 -4 35 -5 34 -14 34 -22 34 -24 34 -14 35 9 
34 22 34 16 34 -5 34 -15 34 -13 35 -5 34 1 34 6 
34 10 34 11 34 10 292 1007 52 MP stroke
c10
35 68 34 -25 34 -55 34 -28 34 31 35 62 34 29 34 -42 
34 -82 34 -76 34 -49 35 6 34 24 34 56 34 75 34 37 
34 -14 35 -25 34 -5 34 -4 34 -4 34 0 35 2 34 0 
34 0 34 0 34 0 34 0 35 0 34 0 34 0 34 0 
34 -1 34 -2 35 -2 34 -4 34 -8 34 -9 34 -12 35 -14 
34 -12 34 -4 34 9 34 24 34 39 35 31 34 -7 34 -27 
34 19 34 23 34 -85 292 977 52 MP stroke
c11
35 163 34 -48 34 -70 34 -3 34 27 35 -23 34 -61 34 -51 
34 -27 34 -1 34 0 35 5 34 1 34 3 34 9 34 16 
34 21 35 7 34 3 34 34 34 63 34 42 35 -4 34 -11 
34 15 34 37 34 26 34 -20 35 -53 34 -37 34 -1 34 -4 
34 -44 34 -56 35 -37 34 -22 34 -6 34 0 34 0 35 0 
34 -1 34 8 34 17 34 16 34 -10 35 -12 34 23 34 -5 
34 -169 34 -189 34 112 292 1228 52 MP stroke
c12
35 -15 34 -10 34 -5 34 -2 34 1 35 -2 34 -7 34 -10 
34 -6 34 -3 34 0 35 0 34 0 34 0 34 0 34 8 
34 18 35 23 34 1 34 -15 34 5 34 15 35 11 34 -5 
34 -26 34 -33 34 -29 34 -15 35 -8 34 -12 34 -21 34 -23 
34 -17 34 0 35 13 34 1 34 -36 34 -47 34 -13 35 15 
34 -15 34 -58 34 -63 34 -33 34 4 35 23 34 26 34 15 
34 -7 34 -31 34 -49 292 1233 52 MP stroke
c13
35 13 34 21 34 30 34 14 34 9 35 -6 34 -21 34 -28 
34 -16 34 4 34 4 35 -28 34 -33 34 4 34 25 34 30 
34 32 35 34 34 30 34 28 34 26 34 15 35 -13 34 -54 
34 -66 34 -20 34 35 34 34 35 -1 34 -22 34 -18 34 0 
34 10 34 1 35 -8 34 -11 34 -7 34 -2 34 0 35 -3 
34 -8 34 -14 34 -20 34 -16 34 5 35 50 34 51 34 -11 
34 -77 34 -26 34 171 292 841 52 MP stroke
0.25 sg
35 -111 34 -17 34 36 34 52 34 36 35 1 34 -29 34 -39 
34 -34 34 -23 34 -13 35 -3 34 10 34 12 34 16 34 13 
34 12 35 9 34 7 34 7 34 13 34 15 35 15 34 13 
34 19 34 39 34 21 34 -43 35 -44 34 -17 34 -44 34 -64 
34 -1 34 46 35 26 34 -13 34 -26 34 -27 34 -20 35 -23 
34 -23 34 0 34 28 34 50 34 36 35 -10 34 -38 34 -35 
34 -20 34 0 34 20 292 1025 52 MP stroke
c8
35 20 34 3 34 -6 34 -9 34 -5 35 3 34 4 34 -4 
34 -15 34 -20 34 -19 35 -9 34 -6 34 9 34 30 34 42 
34 -1 35 -38 34 -19 34 41 34 51 34 19 35 -11 34 -9 
34 1 34 1 34 7 34 14 35 20 34 14 34 -24 34 -71 
34 -53 34 -5 35 15 34 17 34 11 34 2 34 0 35 5 
34 10 34 17 34 13 34 1 34 -30 35 -57 34 -52 34 -11 
34 14 34 8 34 -41 292 1052 52 MP stroke
c9
35 -172 34 63 34 107 34 9 34 -81 35 -84 34 -31 34 3 
34 6 34 -6 34 -11 35 -12 34 -5 34 -4 34 8 34 9 
34 15 35 17 34 17 34 21 34 27 34 33 35 37 34 41 
34 41 34 26 34 -10 34 -27 35 -26 34 -24 34 -32 34 -42 
34 -42 34 -19 35 11 34 -17 34 -98 34 -71 34 14 35 4 
34 -11 34 -3 34 5 34 4 34 3 35 0 34 -2 34 -2 
34 -1 34 0 34 0 292 1103 52 MP stroke
c10
35 162 34 -46 34 -85 34 -42 34 -28 35 -52 34 -67 34 -67 
34 -50 34 -30 34 -12 35 5 34 15 34 18 34 18 34 21 
34 27 35 35 34 37 34 40 34 42 34 44 35 41 34 37 
34 25 34 14 34 3 34 -5 35 -1 34 10 34 14 34 -2 
34 -42 34 -92 35 -128 34 -138 34 -95 34 -35 34 -47 35 -64 
34 14 34 86 34 95 34 59 34 9 35 -22 34 -75 34 -54 
34 -24 34 0 34 0 292 1212 52 MP stroke
c11
35 33 34 -41 34 -76 34 -80 34 -52 35 -8 34 24 34 20 
34 -15 34 -49 34 -60 35 -41 34 -5 34 38 34 64 34 61 
34 36 35 7 34 -9 34 -9 34 -5 34 14 35 33 34 46 
34 53 34 46 34 21 34 -8 35 -24 34 -30 34 -28 34 -24 
34 -26 34 -37 35 -54 34 -90 34 -79 34 45 34 2 35 -91 
34 15 34 58 34 43 34 24 34 13 35 5 34 0 34 -1 
34 -4 34 -2 34 -1 292 985 52 MP stroke
c12
35 0 34 0 34 -3 34 -4 34 -5 35 -5 34 -7 34 -10 
34 -23 34 -41 34 -51 35 -7 34 54 34 38 34 -2 34 9 
34 20 35 0 34 -10 34 15 34 34 34 23 35 -7 34 -17 
34 -7 34 6 34 18 34 21 35 8 34 -14 34 -35 34 -46 
34 -27 34 15 35 42 34 15 34 -80 34 -89 34 17 35 85 
34 21 34 -43 34 -35 34 21 34 60 35 72 34 68 34 54 
34 32 34 2 34 -6 292 724 52 MP stroke
c13
35 -3 34 -19 34 -36 34 -53 34 -18 35 1 34 35 34 61 
34 58 34 13 34 -42 35 -46 34 -20 34 -6 34 3 34 10 
34 13 35 8 34 3 34 0 34 11 34 23 35 55 34 97 
34 69 34 -102 34 -140 34 -3 35 56 34 44 34 12 34 5 
34 2 34 -11 35 -27 34 -54 34 -78 34 -61 34 27 35 58 
34 4 34 -37 34 -5 34 34 34 44 35 29 34 2 34 -25 
34 -45 34 -36 34 10 292 996 52 MP stroke
0.25 sg
35 83 34 18 34 -23 34 -41 34 -36 35 -11 34 19 34 27 
34 4 34 -31 34 -40 35 -17 34 17 34 29 34 12 34 -13 
34 -10 35 6 34 -2 34 -14 34 2 34 18 35 19 34 12 
34 7 34 3 34 4 34 3 35 5 34 5 34 1 34 -4 
34 -5 34 -1 35 1 34 1 34 0 34 0 34 0 35 0 
34 -1 34 -1 34 -7 34 -10 34 -6 35 7 34 7 34 -24 
34 -53 34 -19 34 105 292 905 52 MP stroke
c8
35 -17 34 -2 34 9 34 18 34 24 35 28 34 21 34 -1 
34 -34 34 -50 34 -29 35 26 34 49 34 19 34 -18 34 -27 
34 -19 35 -8 34 -1 34 0 34 -10 34 -18 35 1 34 22 
34 14 34 -23 34 12 34 51 35 -3 34 -55 34 -15 34 41 
34 35 34 9 35 -1 34 -3 34 -2 34 -1 34 0 35 -1 
34 -2 34 -4 34 -7 34 -12 34 -10 35 16 34 50 34 50 
34 10 34 -48 34 -119 292 991 52 MP stroke
c9
35 -49 34 24 34 44 34 18 34 -30 35 -56 34 -44 34 -5 
34 23 34 20 34 -5 35 -21 34 -33 34 -28 34 -3 34 25 
34 33 35 21 34 8 34 0 34 10 34 20 35 32 34 46 
34 51 34 40 34 1 34 -47 35 -73 34 -65 34 -32 34 9 
34 48 34 51 35 -23 34 -111 34 -113 34 -15 34 26 35 -10 
34 -27 34 10 34 54 34 71 34 64 35 45 34 15 34 4 
34 -24 34 -17 34 -12 292 903 52 MP stroke
c10
35 0 34 -1 34 -15 34 -25 34 -25 35 -18 34 -2 34 12 
34 11 34 -13 34 -52 35 -58 34 10 34 64 34 21 34 7 
34 19 35 19 34 10 34 4 34 13 34 24 35 29 34 24 
34 11 34 3 34 -1 34 -19 35 -45 34 -56 34 -38 34 -13 
34 5 34 10 35 6 34 -3 34 -12 34 -23 34 -32 35 -29 
34 -4 34 37 34 70 34 88 34 88 35 72 34 40 34 -5 
34 -58 34 -115 34 -174 292 1020 52 MP stroke
c11
35 -47 34 59 34 39 34 -33 34 -81 35 -78 34 -57 34 -31 
34 -14 34 -4 34 -2 35 0 34 0 34 0 34 1 34 4 
34 4 35 3 34 60 34 87 34 -34 34 -22 35 87 34 97 
34 63 34 30 34 8 34 -4 35 -22 34 -42 34 -53 34 -57 
34 -53 34 -47 35 -52 34 -76 34 -97 34 -87 34 -35 35 -12 
34 -14 34 -18 34 -3 34 19 34 28 35 18 34 0 34 -22 
34 -51 34 -82 34 -86 292 1436 52 MP stroke
c12
35 18 34 21 34 5 34 -2 34 -14 35 -25 34 -32 34 -30 
34 -22 34 -17 34 -16 35 -19 34 -13 34 7 34 35 34 41 
34 19 35 -3 34 1 34 5 34 0 34 8 35 24 34 25 
34 8 34 -10 34 -25 34 -30 35 -25 34 -14 34 1 34 8 
34 16 34 20 35 8 34 -35 34 -66 34 -51 34 9 35 29 
34 5 34 -12 34 9 34 42 34 46 35 19 34 -20 34 -35 
34 -16 34 41 34 139 292 799 52 MP stroke
c13
35 138 34 -8 34 -79 34 -77 34 -24 35 31 34 48 34 34 
34 16 34 3 34 2 35 0 34 0 34 0 34 1 34 -2 
34 -4 35 -6 34 -16 34 -36 34 -46 34 -15 35 43 34 50 
34 4 34 -6 34 32 34 54 35 41 34 16 34 -7 34 -24 
34 -30 34 -25 35 -4 34 19 34 25 34 8 34 -17 35 -25 
34 -13 34 4 34 6 34 -9 34 -20 35 -11 34 20 34 53 
34 68 34 61 34 28 292 727 52 MP stroke
0.25 sg
35 80 34 -13 34 -59 34 -57 34 -27 35 -4 34 -4 34 -18 
34 -21 34 -18 34 -6 35 -5 34 5 34 8 34 16 34 26 
34 15 35 -21 34 -13 34 51 34 41 34 1 35 2 34 24 
34 30 34 17 34 2 34 -9 35 -7 34 10 34 19 34 -3 
34 -54 34 -73 35 -60 34 -32 34 -15 34 -15 34 -19 35 -24 
34 -23 34 -8 34 20 34 32 34 22 35 -12 34 -38 34 -46 
34 -32 34 5 34 65 292 1089 52 MP stroke
c8
35 35 34 13 34 4 34 4 34 6 35 -4 34 -20 34 -27 
34 -22 34 -15 34 -1 35 -1 34 4 34 7 34 15 34 10 
34 -1 35 -3 34 -8 34 47 34 28 34 11 35 25 34 13 
34 1 34 0 34 0 34 0 35 -1 34 -3 34 -9 34 -33 
34 -40 34 -30 35 -17 34 -12 34 -3 34 1 34 0 35 0 
34 2 34 10 34 21 34 15 34 -19 35 -32 34 -1 34 11 
34 -43 34 -23 34 159 292 879 52 MP stroke
c9
35 0 34 -2 34 -21 34 -36 34 -31 35 -16 34 16 34 31 
34 31 34 28 34 17 35 13 34 8 34 4 34 5 34 -6 
34 -12 35 -6 34 11 34 31 34 20 34 -30 35 -24 34 28 
34 43 34 22 34 -4 34 -27 35 -59 34 -55 34 4 34 50 
34 27 34 -14 35 -27 34 -31 34 -38 34 -44 34 -32 35 -6 
34 18 34 30 34 33 34 30 34 22 35 12 34 4 34 -7 
34 -12 34 -17 34 -13 292 977 52 MP stroke
c10
35 -83 34 -17 34 26 34 45 34 47 35 33 34 10 34 -12 
34 -23 34 -19 34 -11 35 -2 34 0 34 -4 34 -24 34 -13 
34 55 35 74 34 -93 34 63 34 47 34 -109 35 -14 34 65 
34 42 34 -4 34 -19 34 -32 35 -32 34 -9 34 8 34 11 
34 -3 34 -13 35 0 34 21 34 4 34 -60 34 -62 35 0 
34 21 34 14 34 3 34 2 34 7 35 12 34 14 34 19 
34 14 34 9 34 2 292 919 52 MP stroke
c11
35 0 34 -1 34 -10 34 -16 34 -17 35 -13 34 -2 34 13 
34 27 34 25 34 -30 35 -90 34 5 34 -51 34 23 34 117 
34 83 35 35 34 11 34 2 34 8 34 13 35 20 34 28 
34 46 34 51 34 17 34 -44 35 -52 34 12 34 60 34 -8 
34 -63 34 -14 35 18 34 14 34 7 34 -5 34 -2 35 -6 
34 -11 34 -21 34 -25 34 -17 34 -1 35 5 34 -14 34 -34 
34 -32 34 2 34 68 292 881 52 MP stroke
c12
35 5 34 18 34 33 34 38 34 14 35 -8 34 -35 34 -54 
34 -43 34 10 34 31 35 -31 34 -24 34 71 34 25 34 -30 
34 -4 35 34 34 31 34 9 34 -12 34 -17 35 -5 34 26 
34 36 34 24 34 -9 34 -41 35 -34 34 24 34 59 34 6 
34 -46 34 -19 35 12 34 18 34 11 34 1 34 0 35 3 
34 7 34 5 34 -12 34 -25 34 -16 35 30 34 42 34 -11 
34 -77 34 -56 34 74 292 913 52 MP stroke
c13
35 -8 34 -16 34 -23 34 -17 34 -10 35 8 34 16 34 14 
34 -9 34 -54 34 -63 35 -10 34 47 34 26 34 -2 34 -2 
34 4 35 10 34 7 34 10 34 18 34 31 35 44 34 43 
34 13 34 -5 34 26 34 34 35 3 34 -18 34 -24 34 -9 
34 -18 34 -57 35 -83 34 -73 34 -17 34 -3 34 -4 35 -1 
34 -41 34 -9 34 85 34 93 34 33 35 -24 34 -55 34 -57 
34 -34 34 14 34 84 292 943 52 MP stroke
0.25 sg
35 162 34 -67 34 -146 34 -97 34 9 35 46 34 14 34 -22 
34 -31 34 -18 34 -7 35 0 34 0 34 0 34 -10 34 0 
34 25 35 52 34 34 34 17 34 64 34 52 35 -22 34 -49 
34 -13 34 19 34 12 34 -18 35 -39 34 -43 34 -31 34 -16 
34 -10 34 -18 35 -36 34 -54 34 -50 34 -17 34 19 35 26 
34 4 34 -11 34 -1 34 18 34 14 35 -20 34 -65 34 -82 
34 -57 34 14 34 137 292 1113 52 MP stroke
c8
35 -183 34 25 34 76 34 40 34 -21 35 -64 34 -80 34 -77 
34 -59 34 -35 34 -14 35 11 34 20 34 32 34 36 34 37 
34 31 35 29 34 20 34 15 34 14 34 9 35 6 34 16 
34 33 34 50 34 51 34 24 35 -21 34 -34 34 -21 34 -11 
34 -27 34 -67 35 -89 34 -79 34 -56 34 -50 34 -58 35 -53 
34 -14 34 45 34 77 34 61 34 10 35 -32 34 -51 34 -49 
34 -31 34 -1 34 39 292 1183 52 MP stroke
c9
35 -38 34 5 34 24 34 20 34 4 35 -13 34 -23 34 -25 
34 -21 34 -11 34 -7 35 2 34 1 34 2 34 10 34 15 
34 17 35 9 34 -6 34 -11 34 21 34 41 35 28 34 2 
34 -9 34 -10 34 -7 34 -7 35 -11 34 -21 34 -23 34 -3 
34 32 34 27 35 -14 34 -56 34 -58 34 -25 34 10 35 25 
34 15 34 -1 34 -6 34 6 34 20 35 26 34 20 34 -1 
34 -24 34 -49 34 -70 292 1063 52 MP stroke
c10
35 106 34 46 34 -6 34 -44 34 -64 35 -61 34 -29 34 12 
34 28 34 4 34 -30 35 -32 34 5 34 16 34 -1 34 -14 
34 -4 35 14 34 23 34 24 34 18 34 14 35 10 34 6 
34 5 34 5 34 8 34 12 35 16 34 18 34 14 34 -6 
34 -21 34 -17 35 -8 34 -2 34 -1 34 0 34 0 35 -1 
34 -1 34 -4 34 -17 34 -40 34 -38 35 71 34 195 34 56 
34 -283 34 -364 34 148 292 1159 52 MP stroke
c11
35 -6 34 -19 34 -33 34 -40 34 -18 35 0 34 25 34 42 
34 35 34 -18 34 -55 35 -33 34 18 34 30 34 -21 34 -29 
34 5 35 9 34 9 34 0 34 22 34 43 35 78 34 76 
34 -10 34 -98 34 -10 34 68 35 29 34 -32 34 -52 34 -41 
34 -27 34 -17 35 -17 34 -18 34 -19 34 -15 34 -15 35 -12 
34 -6 34 14 34 28 34 23 34 -9 35 -18 34 21 34 34 
34 -48 34 -72 34 63 292 1004 52 MP stroke
c12
35 9 34 2 34 -3 34 -4 34 -4 35 -2 34 -7 34 -21 
34 -42 34 -41 34 -15 35 19 34 32 34 16 34 -7 34 -18 
34 -14 35 16 34 44 34 27 34 -6 34 -10 35 -1 34 7 
34 10 34 8 34 12 34 17 35 22 34 18 34 1 34 -34 
34 -58 34 -38 35 4 34 20 34 1 34 -25 34 -35 35 -31 
34 -19 34 -7 34 7 34 17 34 26 35 31 34 31 34 26 
34 17 34 4 34 0 292 887 52 MP stroke
c13
35 0 34 -1 34 -21 34 -34 34 -40 35 -39 34 -28 34 -14 
34 -4 34 4 34 8 35 8 34 8 34 8 34 14 34 36 
34 61 35 67 34 55 34 43 34 64 34 101 35 84 34 13 
34 -40 34 -10 34 35 34 16 35 -59 34 -95 34 -93 34 -76 
34 -61 34 -52 35 -42 34 -31 34 -21 34 -12 34 0 35 10 
34 22 34 32 34 36 34 23 34 0 35 -22 34 -38 34 -52 
34 -71 34 -95 34 -121 292 1359 52 MP stroke
0.25 sg
35 148 34 -47 34 -91 34 -23 34 45 35 36 34 -19 34 -40 
34 -27 34 -15 34 -6 35 0 34 0 34 0 34 5 34 14 
34 42 35 30 34 -21 34 -7 34 19 34 -7 35 -2 34 31 
34 39 34 12 34 -27 34 -56 35 -43 34 21 34 80 34 59 
34 -46 34 -113 35 -67 34 17 34 43 34 3 34 -47 35 -52 
34 -19 34 12 34 15 34 -1 34 -18 35 -24 34 -17 34 -7 
34 18 34 37 34 47 292 1004 52 MP stroke
c8
35 38 34 25 34 8 34 -11 34 -21 35 -21 34 -9 34 11 
34 19 34 19 34 6 35 2 34 0 34 -8 34 -7 34 -5 
34 -3 35 -1 34 0 34 -5 34 -26 34 -48 35 -26 34 40 
34 -9 34 -59 34 21 34 36 35 17 34 3 34 8 34 15 
34 21 34 22 35 12 34 -8 34 -21 34 -23 34 -11 35 14 
34 25 34 14 34 -18 34 -44 34 -34 35 11 34 51 34 76 
34 69 34 22 34 -80 292 844 52 MP stroke
c9
35 37 34 -10 34 -18 34 -2 34 4 35 -10 34 -21 34 -19 
34 -12 34 -2 34 -1 35 0 34 0 34 0 34 -1 34 3 
34 5 35 2 34 -5 34 2 34 18 34 27 35 16 34 -3 
34 -7 34 -3 34 4 34 5 35 -2 34 -14 34 -28 34 -28 
34 -8 34 29 35 24 34 -47 34 -117 34 -45 34 85 35 37 
34 -78 34 -76 34 6 34 65 34 74 35 51 34 25 34 -12 
34 -42 34 -57 34 -43 292 1065 52 MP stroke
c10
35 -87 34 76 34 114 34 64 34 0 35 -37 34 -50 34 -36 
34 -13 34 -6 34 4 35 0 34 0 34 0 34 11 34 26 
34 34 35 -11 34 -19 34 153 34 50 34 -123 35 -70 34 24 
34 37 34 17 34 -8 34 -30 35 -26 34 -9 34 10 34 11 
34 -4 34 -12 35 -11 34 -2 34 0 34 0 34 0 35 1 
34 16 34 23 34 37 34 21 34 -37 35 -43 34 63 34 128 
34 -32 34 -109 34 119 292 796 52 MP stroke
c11
35 41 34 -12 34 -39 34 -44 34 -31 35 -19 34 -18 34 -30 
34 -43 34 -39 34 -16 35 11 34 35 34 27 34 -6 34 -14 
34 17 35 51 34 65 34 61 34 47 34 29 35 16 34 0 
34 -2 34 -4 34 -3 34 1 35 19 34 18 34 -30 34 -117 
34 -118 34 -25 35 21 34 -6 34 -42 34 -46 34 -29 35 -21 
34 -21 34 -20 34 -15 34 -6 34 2 35 13 34 18 34 16 
34 10 34 2 34 0 292 1103 52 MP stroke
c12
35 0 34 -1 34 -11 34 -18 34 -15 35 -4 34 16 34 34 
34 39 34 17 34 -39 35 -89 34 -20 34 76 34 23 34 -8 
34 -2 35 6 34 5 34 3 34 9 34 13 35 21 34 26 
34 24 34 11 34 -15 34 -38 35 -49 34 -29 34 6 34 36 
34 23 34 -20 35 -40 34 -30 34 -17 34 -5 34 -1 35 -1 
34 -1 34 7 34 12 34 12 34 3 35 -2 34 6 34 17 
34 16 34 1 34 -31 292 961 52 MP stroke
c13
35 0 34 -1 34 -22 34 -35 34 -31 35 -13 34 21 34 40 
34 36 34 -7 34 -62 35 -62 34 16 34 48 34 29 34 16 
34 9 35 -8 34 -26 34 -5 34 23 34 20 35 0 34 -9 
34 -7 34 -2 34 0 34 3 35 0 34 -3 34 -7 34 -11 
34 -10 34 -10 35 -5 34 -2 34 2 34 6 34 11 35 9 
34 2 34 -12 34 -20 34 -6 34 35 35 70 34 52 34 -15 
34 -53 34 -27 34 74 292 849 52 MP stroke
0.25 sg
35 -3 34 -7 34 -12 34 -14 34 -2 35 6 34 10 34 6 
34 -4 34 -23 34 -32 35 -37 34 -33 34 -51 34 -39 34 47 
34 107 35 14 34 43 34 36 34 -78 34 40 35 50 34 -12 
34 -26 34 -18 34 -13 34 -10 35 -16 34 -26 34 -19 34 23 
34 68 34 50 35 -27 34 -84 34 -60 34 17 34 46 35 21 
34 -12 34 -14 34 11 34 34 34 42 35 34 34 19 34 -7 
34 -17 34 -40 34 -34 292 927 52 MP stroke
c8
35 123 34 -34 34 -83 34 -50 34 5 35 20 34 10 34 -1 
34 -4 34 -2 34 -2 35 0 34 0 34 0 34 -1 34 -1 
34 -1 35 -7 34 19 34 130 34 124 34 -20 35 -35 34 29 
34 53 34 25 34 -9 34 -19 35 -24 34 -19 34 -9 34 -5 
34 -11 34 5 35 43 34 86 34 65 34 32 34 -7 35 -19 
34 25 34 -39 34 -134 34 -136 34 -92 35 -54 34 -26 34 10 
34 14 34 9 34 4 292 1116 52 MP stroke
c9
35 -41 34 -35 34 -29 34 -24 34 -20 35 -20 34 -24 34 -28 
34 -22 34 -12 34 0 35 12 34 18 34 17 34 15 34 11 
34 4 35 5 34 1 34 1 34 5 34 14 35 37 34 74 
34 108 34 63 34 -38 34 -90 35 -85 34 -57 34 -10 34 0 
34 0 34 -50 35 -88 34 -79 34 -5 34 -12 34 -45 35 62 
34 -155 34 -20 34 111 34 100 34 80 35 83 34 95 34 104 
34 109 34 126 34 113 292 369 52 MP stroke
c10
35 80 34 -28 34 -69 34 -45 34 5 35 33 34 14 34 -17 
34 -32 34 -23 34 -9 35 -1 34 7 34 6 34 3 34 -13 
34 -24 35 -6 34 52 34 65 34 20 34 -11 35 -6 34 5 
34 11 34 10 34 6 34 3 35 1 34 1 34 -5 34 -21 
34 -32 34 -15 35 23 34 1 34 -80 34 -117 34 -45 35 27 
34 17 34 -17 34 -28 34 -16 34 4 35 30 34 45 34 45 
34 28 34 8 34 0 292 983 52 MP stroke
c11
35 13 34 29 34 -1 34 -46 34 -69 35 -53 34 -32 34 -30 
34 -38 34 -41 34 -30 35 -10 34 23 34 36 34 39 34 34 
34 17 35 5 34 9 34 20 34 33 34 40 35 40 34 32 
34 21 34 10 34 -3 34 -12 35 -12 34 -3 34 5 34 -2 
34 -29 34 -61 35 -81 34 -81 34 -64 34 -44 34 -50 35 -50 
34 7 34 59 34 67 34 46 34 15 35 -10 34 -41 34 -33 
34 -18 34 0 34 0 292 1132 52 MP stroke
c12
35 -16 34 -7 34 2 34 8 34 15 35 19 34 21 34 17 
34 -1 34 -30 34 -37 35 -12 34 21 34 26 34 13 34 3 
34 -4 35 -2 34 -1 34 0 34 -6 34 -13 35 -21 34 -17 
34 12 34 31 34 -29 34 -92 35 -81 34 -30 34 15 34 51 
34 55 34 38 35 16 34 -3 34 -8 34 -6 34 -2 35 3 
34 13 34 19 34 18 34 7 34 8 35 60 34 168 34 236 
34 155 34 -89 34 -513 292 921 52 MP stroke
c13
35 -76 34 20 34 43 34 20 34 -4 35 -9 34 1 34 6 
34 10 34 10 34 9 35 7 34 6 34 2 34 1 34 -2 
34 -2 35 -5 34 -4 34 -5 34 -13 34 -18 35 -19 34 -4 
34 21 34 15 34 -45 34 -51 35 12 34 28 34 -9 34 -6 
34 20 34 11 35 -3 34 -4 34 0 34 0 34 0 35 0 
34 1 34 7 34 15 34 25 34 18 35 3 34 37 34 132 
34 180 34 37 34 -346 292 881 52 MP stroke
0.25 sg
35 -39 34 -18 34 -4 34 2 34 0 35 -9 34 -17 34 -22 
34 -23 34 -21 34 -14 35 -4 34 1 34 16 34 24 34 30 
34 17 35 -13 34 -30 34 -18 34 15 34 46 35 63 34 53 
34 26 34 -1 34 -24 34 -39 35 -37 34 -14 34 17 34 32 
34 22 34 -16 35 -60 34 -99 34 -91 34 -64 34 -42 35 0 
34 28 34 60 34 63 34 26 34 -7 35 -20 34 -6 34 10 
34 18 34 21 34 16 292 977 52 MP stroke
c8
35 -75 34 -31 34 -2 34 15 34 16 35 6 34 -9 34 -16 
34 -15 34 -9 34 -7 35 -1 34 0 34 1 34 9 34 24 
34 35 35 17 34 -27 34 -43 34 7 34 43 35 28 34 7 
34 0 34 1 34 2 34 4 35 4 34 3 34 -1 34 -10 
34 -21 34 -27 35 -25 34 -18 34 -13 34 -19 34 -53 35 -76 
34 -69 34 -40 34 -7 34 24 34 47 35 68 34 70 34 61 
34 39 34 11 34 0 292 900 52 MP stroke
c9
35 -65 34 -3 34 33 34 48 34 42 35 23 34 0 34 -20 
34 -27 34 -24 34 -17 35 -8 34 -1 34 -1 34 -8 34 -12 
34 -13 35 -15 34 -9 34 0 34 20 34 27 35 25 34 84 
34 224 34 95 34 -159 34 -121 35 -34 34 -2 34 0 34 0 
34 0 34 -2 35 -6 34 -61 34 -112 34 -102 34 -22 35 225 
34 42 34 -129 34 37 34 88 34 36 35 -3 34 -17 34 -12 
34 11 34 47 34 95 292 764 52 MP stroke
c10
35 22 34 14 34 8 34 -1 34 -9 35 -16 34 -24 34 -30 
34 -20 34 13 34 23 35 -23 34 -9 34 28 34 -3 34 -13 
34 5 35 19 34 9 34 6 34 13 34 20 35 22 34 24 
34 8 34 -9 34 -15 34 -10 35 -3 34 4 34 9 34 3 
34 -13 34 -35 35 -43 34 -33 34 -12 34 5 34 11 35 6 
34 -9 34 -16 34 -6 34 18 34 32 35 25 34 2 34 -16 
34 -24 34 -20 34 -1 292 988 52 MP stroke
c11
35 0 34 2 34 29 34 48 34 38 35 5 34 -52 34 -101 
34 -89 34 31 34 27 35 -136 34 65 34 13 34 7 34 102 
34 80 35 28 34 9 34 2 34 6 34 6 35 8 34 10 
34 21 34 26 34 1 34 -48 35 -68 34 -18 34 57 34 59 
34 -19 34 -75 35 -59 34 -11 34 27 34 49 34 42 35 44 
34 17 34 -2 34 -17 34 -7 34 26 35 42 34 26 34 1 
34 2 34 39 34 113 292 601 52 MP stroke
c12
35 0 34 -1 34 -9 34 -15 34 -17 35 -14 34 -6 34 10 
34 33 34 57 34 27 35 -91 34 -36 34 99 34 -40 34 -51 
34 26 35 25 34 9 34 19 34 21 34 7 35 -8 34 -7 
34 -4 34 4 34 7 34 20 35 37 34 45 34 12 34 -71 
34 -89 34 -37 35 14 34 32 34 19 34 7 34 -6 35 -13 
34 -23 34 -22 34 -8 34 13 34 24 35 14 34 -5 34 -16 
34 -9 34 15 34 58 292 889 52 MP stroke
c13
35 0 34 -2 34 -28 34 -45 34 -43 35 -25 34 9 34 30 
34 32 34 12 34 -27 35 -48 34 -23 34 21 34 39 34 26 
34 7 35 3 34 14 34 21 34 14 34 -1 35 -1 34 14 
34 25 34 12 34 -11 34 -24 35 -24 34 -16 34 -6 34 3 
34 0 34 -16 35 -38 34 -37 34 -13 34 25 34 16 35 -71 
34 -85 34 8 34 84 34 93 34 60 35 22 34 -2 34 -42 
34 -36 34 -22 34 -8 292 961 52 MP stroke
0.25 sg
35 9 34 25 34 39 34 35 34 7 35 -33 34 -70 34 -103 
34 -70 34 20 34 -34 35 -98 34 34 34 -4 34 75 34 109 
34 52 35 16 34 2 34 0 34 1 34 2 35 5 34 11 
34 36 34 47 34 19 34 -44 35 -77 34 -40 34 26 34 46 
34 9 34 -23 35 -23 34 -6 34 2 34 5 34 -3 35 -9 
34 -25 34 -27 34 -2 34 53 34 111 35 122 34 71 34 5 
34 -33 34 -27 34 21 292 668 52 MP stroke
c8
35 93 34 4 34 -47 34 -65 34 -49 35 -8 34 34 34 49 
34 9 34 -53 34 -51 35 -17 34 17 34 8 34 7 34 22 
34 27 35 18 34 6 34 1 34 6 34 13 35 18 34 24 
34 23 34 14 34 -9 34 -30 35 -26 34 10 34 41 34 17 
34 -51 34 -67 35 -45 34 -22 34 -7 34 -6 34 -5 35 -12 
34 -16 34 -16 34 3 34 35 34 61 35 53 34 2 34 -47 
34 -55 34 -21 34 62 292 961 52 MP stroke
c9
35 -39 34 -13 34 6 34 15 34 15 35 5 34 -12 34 -23 
34 -20 34 -10 34 -2 35 -1 34 -4 34 -10 34 -4 34 25 
34 53 35 37 34 -22 34 -31 34 7 34 22 35 20 34 10 
34 -1 34 -10 34 -14 34 -17 35 -8 34 12 34 20 34 5 
34 -27 34 -35 35 -25 34 -15 34 -8 34 0 34 0 35 -2 
34 -3 34 -2 34 6 34 7 34 -7 35 -8 34 15 34 25 
34 -15 34 -29 34 35 292 964 52 MP stroke
c10
35 -19 34 -12 34 -7 34 -7 34 -8 35 -13 34 -22 34 -30 
34 -35 34 -34 34 -28 35 -13 34 9 34 26 34 35 34 36 
34 27 35 15 34 2 34 -7 34 -9 34 11 35 47 34 70 
34 63 34 11 34 -24 34 -31 35 -22 34 -19 34 -19 34 -18 
34 -16 34 -11 35 -29 34 -76 34 -88 34 -21 34 23 35 -13 
34 -13 34 17 34 28 34 24 34 13 35 0 34 -9 34 -11 
34 -7 34 -2 34 0 292 1041 52 MP stroke
c11
35 -13 34 -23 34 -34 34 -28 34 -24 35 -6 34 11 34 21 
34 23 34 15 34 -1 35 -27 34 -57 34 -59 34 -12 34 53 
34 74 35 41 34 -4 34 -19 34 3 34 24 35 19 34 5 
34 7 34 26 34 25 34 -16 35 -59 34 -58 34 -18 34 20 
34 33 34 16 35 -23 34 -59 34 -62 34 0 34 42 35 -20 
34 -35 34 9 34 42 34 41 34 21 35 0 34 -11 34 -28 
34 -20 34 -11 34 -2 292 999 52 MP stroke
c12
35 133 34 -13 34 -75 34 -64 34 -21 35 -17 34 -38 34 -47 
34 -34 34 -6 34 1 35 0 34 0 34 1 34 16 34 86 
34 129 35 -44 34 -222 34 13 34 120 34 93 35 47 34 20 
34 7 34 2 34 0 34 -2 35 -3 34 -6 34 -10 34 -19 
34 -33 34 -49 35 -66 34 -83 34 -87 34 -77 34 -56 35 -33 
34 -7 34 34 34 76 34 88 34 64 35 24 34 -15 34 -67 
34 -93 34 -110 34 -87 292 1345 52 MP stroke
c13
35 -63 34 -16 34 8 34 11 34 -4 35 -34 34 -66 34 -85 
34 -79 34 -59 34 -32 35 -3 34 32 34 62 34 61 34 42 
34 22 35 14 34 5 34 4 34 9 34 17 35 29 34 56 
34 81 34 73 34 31 34 -9 35 -39 34 -49 34 -42 34 -29 
34 -22 34 -24 35 -57 34 -121 34 -155 34 -44 34 82 35 54 
34 -32 34 -40 34 9 34 42 34 39 35 16 34 -7 34 -42 
34 -62 34 -74 34 -57 292 1271 52 MP stroke
0.25 sg
35 -56 34 10 34 31 34 14 34 -17 35 -28 34 -25 34 -17 
34 -11 34 -4 34 -2 35 0 34 0 34 0 34 -2 34 0 
34 6 35 16 34 34 34 35 34 15 34 12 35 25 34 26 
34 13 34 -1 34 -15 34 -24 35 -28 34 -19 34 -5 34 -1 
34 -8 34 -22 35 -42 34 -55 34 -62 34 -63 34 -83 35 -86 
34 -50 34 -10 34 15 34 27 34 28 35 25 34 19 34 13 
34 6 34 0 34 0 292 1183 52 MP stroke
c8
35 -6 34 -11 34 -19 34 -28 34 -30 35 -26 34 -15 34 5 
34 21 34 17 34 -14 35 -36 34 -22 34 9 34 32 34 39 
34 21 35 -9 34 -31 34 -30 34 -7 34 35 35 58 34 50 
34 17 34 -13 34 -23 34 -22 35 -17 34 -13 34 -8 34 -6 
34 -8 34 -10 35 -12 34 -18 34 -27 34 12 34 15 35 -110 
34 -46 34 88 34 88 34 32 34 3 35 -8 34 -7 34 0 
34 5 34 17 34 15 292 884 52 MP stroke
c9
35 0 34 0 34 -6 34 -10 34 -9 35 -5 34 1 34 4 
34 -4 34 -27 34 -27 35 35 34 36 34 -27 34 -20 34 2 
34 16 35 17 34 12 34 10 34 10 34 12 35 13 34 14 
34 15 34 13 34 9 34 1 35 -13 34 -34 34 -42 34 -22 
34 25 34 45 35 38 34 15 34 -5 34 -14 34 -21 35 -27 
34 -28 34 -18 34 1 34 17 34 20 35 5 34 -10 34 -8 
34 16 34 64 34 135 292 724 52 MP stroke
c10
35 0 34 -2 34 -25 34 -40 34 -38 35 -22 34 9 34 27 
34 29 34 13 34 -12 35 -31 34 -26 34 -4 34 19 34 26 
34 22 35 7 34 1 34 -5 34 -6 34 6 35 20 34 23 
34 19 34 23 34 6 34 -33 35 -50 34 -40 34 -24 34 -14 
34 -4 34 -1 35 4 34 5 34 6 34 4 34 1 35 -6 
34 -14 34 -22 34 -14 34 15 34 42 35 58 34 24 34 -78 
34 -106 34 -3 34 147 292 921 52 MP stroke
c11
35 -86 34 -39 34 -7 34 6 34 7 35 2 34 -4 34 -8 
34 -6 34 -3 34 -1 35 0 34 0 34 0 34 6 34 14 
34 47 35 58 34 -11 34 -55 34 50 34 47 35 -37 34 -38 
34 13 34 33 34 6 34 -39 35 -59 34 -55 34 -44 34 -13 
34 -6 34 -3 35 -30 34 -83 34 -80 34 -44 34 -113 35 -123 
34 7 34 92 34 121 34 117 34 94 35 71 34 49 34 34 
34 11 34 7 34 5 292 825 52 MP stroke
c12
35 0 34 -1 34 -10 34 -17 34 -13 35 0 34 19 34 32 
34 27 34 -8 34 -60 35 -88 34 -43 34 65 34 90 34 42 
34 16 35 12 34 15 34 15 34 21 34 26 35 29 34 32 
34 38 34 48 34 37 34 -19 35 -49 34 34 34 51 34 -120 
34 -134 34 -71 35 -46 34 -30 34 -17 34 -8 34 -4 35 -5 
34 -8 34 -11 34 -11 34 -11 34 -10 35 -13 34 -19 34 -29 
34 -44 34 -62 34 -80 292 1356 52 MP stroke
c13
35 143 34 -8 34 -58 34 -39 34 -11 35 -17 34 -44 34 -63 
34 -53 34 -29 34 -14 35 -15 34 -14 34 7 34 39 34 57 
34 49 35 29 34 13 34 10 34 16 34 32 35 39 34 40 
34 31 34 16 34 7 34 -3 35 0 34 13 34 8 34 -32 
34 -96 34 -105 35 -40 34 17 34 -33 34 -111 34 -87 35 -14 
34 24 34 31 34 29 34 22 34 16 35 10 34 2 34 1 
34 1 34 0 34 0 292 1057 52 MP stroke
0.25 sg
35 38 34 -10 34 -33 34 -32 34 -24 35 -27 34 -39 34 -47 
34 -38 34 -11 34 12 35 13 34 -3 34 -15 34 -12 34 5 
34 20 35 29 34 32 34 34 34 36 34 38 35 39 34 32 
34 18 34 6 34 -7 34 -17 35 -8 34 10 34 18 34 -2 
34 -54 34 -102 35 -83 34 -17 34 -16 34 -97 34 -87 35 3 
34 43 34 43 34 32 34 20 34 12 35 1 34 -3 34 -5 
34 -3 34 -1 34 0 292 1055 52 MP stroke
c8
35 161 34 13 34 -60 34 -53 34 -7 35 21 34 5 34 -50 
34 -66 34 0 34 39 35 -56 34 -21 34 65 34 7 34 0 
34 38 35 46 34 30 34 17 34 17 34 3 35 2 34 -1 
34 -6 34 -7 34 -6 34 -8 35 3 34 5 34 2 34 -20 
34 -51 34 -47 35 -31 34 -12 34 -7 34 0 34 0 35 -6 
34 3 34 19 34 43 34 42 34 -14 35 -72 34 -9 34 51 
34 -91 34 -138 34 204 292 959 52 MP stroke
c9
35 67 34 62 34 46 34 22 34 5 35 -12 34 -25 34 -33 
34 -31 34 -21 34 2 35 25 34 39 34 23 34 -5 34 -22 
34 -20 35 -11 34 -2 34 -1 34 -9 34 -14 35 -4 34 15 
34 12 34 -38 34 -12 34 46 35 31 34 -14 34 -16 34 11 
34 30 34 12 35 -46 34 -45 34 53 34 79 34 21 35 -20 
34 -15 34 15 34 31 34 24 34 9 35 -9 34 -15 34 -22 
34 -15 34 -8 34 0 292 876 52 MP stroke
c10
35 -13 34 -10 34 -3 34 5 34 14 35 15 34 5 34 -16 
34 -37 34 -33 34 -10 35 8 34 -7 34 -17 34 32 34 44 
34 12 35 3 34 7 34 12 34 13 34 12 35 8 34 5 
34 1 34 0 34 0 34 2 35 4 34 1 34 -5 34 -22 
34 -31 34 -29 35 -20 34 -8 34 -2 34 2 34 2 35 -5 
34 -12 34 -36 34 -46 34 -31 34 24 35 83 34 111 34 89 
34 44 34 -52 34 -169 292 964 52 MP stroke
c11
35 62 34 15 34 -22 34 -47 34 -62 35 -65 34 -60 34 -52 
34 -43 34 -31 34 -12 35 17 34 45 34 49 34 23 34 -14 
34 -23 35 -2 34 31 34 47 34 40 34 33 35 38 34 54 
34 64 34 50 34 16 34 -28 35 -49 34 -40 34 -19 34 -22 
34 -58 34 -95 35 -63 34 30 34 1 34 -178 34 -132 35 82 
34 103 34 -2 34 -50 34 -48 34 -25 35 10 34 34 34 40 
34 25 34 7 34 0 292 1095 52 MP stroke
c12
35 0 34 0 34 -3 34 -3 34 -4 35 -1 34 0 34 1 
34 -3 34 -11 34 -20 35 -17 34 4 34 27 34 23 34 -3 
34 -8 35 23 34 43 34 10 34 -32 34 -34 35 2 34 29 
34 34 34 20 34 -10 34 -54 35 -76 34 -43 34 28 34 57 
34 36 34 1 35 -15 34 -14 34 -14 34 -22 34 -28 35 -17 
34 4 34 28 34 48 34 58 34 58 35 45 34 24 34 -1 
34 -42 34 -67 34 -82 292 953 52 MP stroke
c13
35 1 34 0 34 1 34 -3 34 -6 35 -8 34 -9 34 -6 
34 -1 34 4 34 6 35 5 34 3 34 -6 34 -8 34 4 
34 30 35 9 34 -32 34 39 34 57 34 -29 35 -16 34 50 
34 56 34 26 34 -22 34 -52 35 -24 34 50 34 45 34 -86 
34 -96 34 18 35 24 34 -56 34 -72 34 -34 34 4 35 13 
34 -1 34 -14 34 -21 34 -19 34 -12 35 1 34 9 34 11 
34 8 34 2 34 0 292 1084 52 MP stroke
0.25 sg
35 112 34 -26 34 -68 34 -56 34 -45 35 -49 34 -51 34 -48 
34 -39 34 -29 34 -19 35 -6 34 -4 34 8 34 12 34 24 
34 31 35 34 34 35 34 38 34 44 34 50 35 58 34 61 
34 48 34 19 34 -14 34 -37 35 -36 34 -3 34 26 34 12 
34 -52 34 -117 35 -121 34 -96 34 -107 34 -132 34 -68 35 25 
34 47 34 24 34 8 34 5 34 5 35 10 34 14 34 12 
34 8 34 2 34 0 292 1199 52 MP stroke
c8
35 -11 34 -7 34 3 34 18 34 32 35 31 34 6 34 -28 
34 -42 34 -40 34 -19 35 -14 34 5 34 10 34 27 34 38 
34 9 35 -39 34 1 34 68 34 12 34 -35 35 -7 34 18 
34 16 34 4 34 -6 34 -13 35 -1 34 27 34 36 34 7 
34 -33 34 -47 35 -34 34 -23 34 -19 34 -25 34 -41 35 -42 
34 -20 34 5 34 24 34 36 34 44 35 44 34 39 34 30 
34 19 34 4 34 0 292 865 52 MP stroke
c9
35 2 34 -2 34 -11 34 -21 34 -30 35 -37 34 -45 34 -48 
34 -46 34 -37 34 -17 35 -10 34 -7 34 32 34 67 34 59 
34 39 35 15 34 3 34 0 34 11 34 16 35 19 34 16 
34 12 34 10 34 6 34 0 35 -8 34 -13 34 -15 34 -16 
34 -17 34 -24 35 -36 34 -52 34 -77 34 -89 34 -50 35 15 
34 50 34 58 34 60 34 68 34 74 35 67 34 39 34 -2 
34 -55 34 -107 34 -160 292 1079 52 MP stroke
c10
35 -17 34 -5 34 -2 34 -6 34 -21 35 -46 34 -76 34 -85 
34 -53 34 12 34 57 35 38 34 -26 34 -48 34 -16 34 29 
34 48 35 42 34 30 34 27 34 29 34 37 35 50 34 60 
34 56 34 31 34 -4 34 -35 35 -51 34 -43 34 -23 34 -13 
34 -15 34 -49 35 -109 34 -121 34 -31 34 -7 34 -49 35 -19 
34 5 34 -10 34 -9 34 10 34 27 35 40 34 50 34 42 
34 26 34 3 34 0 292 988 52 MP stroke
c11
35 136 34 -32 34 -64 34 -5 34 35 35 3 34 -60 34 -67 
34 -38 34 -23 34 1 35 0 34 0 34 0 34 2 34 8 
34 36 35 47 34 21 34 18 34 43 34 20 35 -34 34 -37 
34 -6 34 13 34 -3 34 -39 35 -57 34 -38 34 5 34 31 
34 26 34 -17 35 -66 34 -73 34 -22 34 -3 34 -46 35 -76 
34 -46 34 -12 34 -7 34 -18 34 -22 35 -11 34 7 34 27 
34 55 34 81 34 85 292 1047 52 MP stroke
c12
35 68 34 21 34 -13 34 -34 34 -38 35 -25 34 6 34 31 
34 18 34 -55 34 -74 35 -6 34 33 34 11 34 12 34 23 
34 23 35 14 34 3 34 0 34 8 34 15 35 21 34 23 
34 18 34 2 34 -19 34 -33 35 -26 34 20 34 49 34 -27 
34 -71 34 8 35 43 34 -24 34 -74 34 -62 34 -22 35 9 
34 27 34 25 34 7 34 -7 34 -6 35 2 34 13 34 28 
34 36 34 41 34 32 292 863 52 MP stroke
c13
35 89 34 -102 34 -87 34 11 34 24 35 -41 34 -75 34 -59 
34 -8 34 27 34 31 35 27 34 24 34 22 34 22 34 21 
34 17 35 11 34 3 34 0 34 4 34 6 35 8 34 11 
34 5 34 1 34 -9 34 -17 35 -14 34 -9 34 -1 34 2 
34 -1 34 -9 35 -16 34 -22 34 -21 34 -16 34 -12 35 -4 
34 9 34 23 34 36 34 42 34 41 35 34 34 20 34 -1 
34 -26 34 -61 34 -96 292 991 52 MP stroke
0.25 sg
35 97 34 5 34 -38 34 -40 34 -4 35 34 34 32 34 -1 
34 -36 34 -47 34 -31 35 -19 34 6 34 18 34 51 34 19 
34 -60 35 25 34 55 34 -61 34 104 34 49 35 -17 34 -13 
34 1 34 1 34 1 34 3 35 9 34 6 34 -6 34 -29 
34 -43 34 -38 35 -26 34 -16 34 -7 34 -1 34 0 35 -3 
34 -7 34 -5 34 1 34 12 34 13 35 -1 34 -15 34 -21 
34 -16 34 5 34 46 292 977 52 MP stroke
c8
35 0 34 0 34 5 34 8 34 7 35 1 34 -5 34 -6 
34 11 34 52 34 33 35 -66 34 -22 34 6 34 -6 34 4 
34 23 35 31 34 24 34 16 34 21 34 24 35 25 34 25 
34 25 34 17 34 8 34 5 35 25 34 60 34 75 34 32 
34 -52 34 -72 35 -53 34 -42 34 -32 34 -19 34 -8 35 -17 
34 -26 34 -35 34 -41 34 -34 34 -6 35 20 34 30 34 28 
34 16 34 -3 34 -27 292 991 52 MP stroke
c9
35 2 34 9 34 16 34 21 34 7 35 -4 34 -21 34 -37 
34 -25 34 7 34 -49 35 41 34 10 34 -9 34 21 34 -32 
34 26 35 40 34 15 34 0 34 6 34 9 35 13 34 17 
34 10 34 5 34 -9 34 -16 35 -16 34 -9 34 -6 34 -12 
34 -18 34 -14 35 -9 34 -4 34 -3 34 0 34 0 35 0 
34 -1 34 3 34 5 34 7 34 4 35 0 34 2 34 16 
34 25 34 22 34 2 292 873 52 MP stroke
c10
35 -85 34 -62 34 -35 34 -12 34 2 35 1 34 -20 34 -48 
34 -54 34 -41 34 -24 35 4 34 17 34 25 34 33 34 29 
34 20 35 11 34 2 34 -1 34 9 34 25 35 41 34 52 
34 59 34 61 34 41 34 0 35 -50 34 -67 34 -52 34 -23 
34 -12 34 -16 35 -57 34 -106 34 -87 34 -11 34 -25 35 -81 
34 -21 34 75 34 87 34 39 34 -5 35 -26 34 -30 34 -26 
34 -9 34 10 34 19 292 1103 52 MP stroke
c11
35 10 34 -40 34 -69 34 -77 34 -70 35 -50 34 -38 34 -46 
34 -64 34 -70 34 -53 35 -22 34 37 34 59 34 71 34 64 
34 31 35 7 34 7 34 24 34 41 34 46 35 38 34 36 
34 49 34 72 34 57 34 17 35 -23 34 -43 34 -46 34 -37 
34 -44 34 -68 35 -120 34 -160 34 -81 34 -21 34 -180 35 -48 
34 123 34 119 34 68 34 31 34 9 35 -8 34 -14 34 -15 
34 -10 34 -3 34 0 292 1103 52 MP stroke
c12
35 0 34 0 34 -2 34 -2 34 -2 35 -2 34 0 34 0 
34 -2 34 -7 34 -15 35 -34 34 -39 34 36 34 127 34 56 
34 -93 35 -91 34 48 34 82 34 25 34 -22 35 -8 34 29 
34 39 34 17 34 -19 34 -46 35 -18 34 69 34 80 34 -33 
34 -73 34 -36 35 -19 34 -14 34 -11 34 -5 34 -3 35 -5 
34 -9 34 -11 34 -7 34 3 34 12 35 4 34 -20 34 -35 
34 -25 34 14 34 85 292 943 52 MP stroke
c13
35 14 34 29 34 43 34 9 34 -23 35 -94 34 -134 34 -134 
34 -85 34 12 34 80 35 54 34 -47 34 -50 34 30 34 93 
34 101 35 68 34 26 34 7 34 -19 34 -16 35 35 34 107 
34 79 34 -31 34 -68 34 -53 35 -49 34 -45 34 -11 34 0 
34 0 34 -45 35 -118 34 -169 34 -68 34 64 34 -163 35 41 
34 196 34 -7 34 7 34 132 34 150 35 127 34 85 34 56 
34 47 34 59 34 97 292 385 52 MP stroke
0.25 sg
35 151 34 29 34 -41 34 -67 34 -52 35 -10 34 19 34 14 
34 -16 34 -36 34 -39 35 -25 34 5 34 27 34 47 34 5 
34 -25 35 6 34 55 34 -2 34 -33 34 33 35 33 34 6 
34 0 34 0 34 0 34 0 35 1 34 -15 34 -29 34 -38 
34 -9 34 16 35 15 34 6 34 3 34 -3 34 -1 35 -4 
34 -7 34 -16 34 -21 34 -15 34 13 35 28 34 12 34 -19 
34 -32 34 -16 34 34 292 964 52 MP stroke
c8
35 -12 34 -17 34 -6 34 11 34 27 35 5 34 -36 34 -66 
34 -61 34 -30 34 4 35 21 34 20 34 4 34 -1 34 3 
34 28 35 56 34 58 34 21 34 -24 34 -41 35 -26 34 0 
34 20 34 26 34 23 34 12 35 -21 34 -50 34 -6 34 86 
34 3 34 -82 35 -61 34 -18 34 -3 34 0 34 0 35 0 
34 -2 34 11 34 15 34 21 34 1 35 -18 34 -18 34 -11 
34 -12 34 -28 34 -58 292 1097 52 MP stroke
c9
35 -8 34 -31 34 -24 34 8 34 30 35 19 34 -10 34 -23 
34 -17 34 -10 34 -5 35 0 34 0 34 0 34 0 34 2 
34 16 35 24 34 8 34 -15 34 -24 34 -19 35 -8 34 1 
34 5 34 -1 34 -18 34 -38 35 -41 34 -24 34 5 34 24 
34 28 34 17 35 -5 34 -23 34 -30 34 -25 34 -5 35 14 
34 10 34 -10 34 -23 34 -14 34 8 35 24 34 28 34 18 
34 -1 34 -27 34 -58 292 1068 52 MP stroke
c10
35 -2 34 11 34 17 34 18 34 11 35 2 34 -8 34 -22 
34 -34 34 -29 34 -5 35 -29 34 -33 34 55 34 23 34 -32 
34 6 35 50 34 54 34 41 34 26 34 17 35 6 34 4 
34 1 34 -3 34 -3 34 -10 35 -13 34 -15 34 -7 34 -5 
34 -21 34 -31 35 -29 34 -21 34 -10 34 -1 34 0 35 -2 
34 -8 34 -10 34 -9 34 3 34 12 35 10 34 -4 34 -19 
34 -20 34 -11 34 12 292 1007 52 MP stroke
c11
35 -6 34 -10 34 -13 34 -14 34 -15 35 -14 34 -16 34 -20 
34 -23 34 -24 34 -21 35 -13 34 -2 34 7 34 20 34 40 
34 58 35 55 34 21 34 -23 34 -30 34 -9 35 11 34 28 
34 35 34 30 34 18 34 3 35 -10 34 -19 34 -26 34 -26 
34 -21 34 -12 35 -20 34 -65 34 -108 34 -68 34 -2 35 -4 
34 8 34 65 34 100 34 85 34 42 35 0 34 -35 34 -66 
34 -65 34 -43 34 -20 292 1076 52 MP stroke
c12
35 16 34 0 34 -9 34 -10 34 -7 35 0 34 2 34 -2 
34 -7 34 -8 34 -7 35 -4 34 -3 34 -2 34 -1 34 0 
34 0 35 0 34 0 34 0 34 1 34 4 35 9 34 1 
34 -27 34 -54 34 33 34 60 35 -8 34 -29 34 -18 34 -2 
34 13 34 32 35 43 34 41 34 13 34 -28 34 -33 35 29 
34 60 34 27 34 -1 34 2 34 22 35 24 34 8 34 -22 
34 -60 34 -103 34 -144 292 1084 52 MP stroke
c13
35 27 34 -17 34 -38 34 -36 34 -13 35 8 34 2 34 -26 
34 -56 34 -57 34 -33 35 -13 34 20 34 22 34 29 34 22 
34 15 35 7 34 0 34 6 34 32 34 51 35 48 34 39 
34 48 34 38 34 -9 34 1 35 -1 34 -55 34 -83 34 -60 
34 -26 34 28 35 27 34 -80 34 -148 34 -17 34 4 35 -75 
34 1 34 75 34 50 34 7 34 -12 35 -14 34 -12 34 2 
34 6 34 19 34 15 292 1057 52 MP stroke
0.25 sg
35 14 34 11 34 10 34 7 34 6 35 3 34 -4 34 -18 
34 -27 34 -26 34 -22 35 -9 34 -6 34 7 34 31 34 44 
34 0 35 34 34 -24 34 27 34 16 34 -30 35 27 34 18 
34 0 34 0 34 0 34 0 35 2 34 4 34 -11 34 -28 
34 -41 34 -29 35 2 34 17 34 7 34 -14 34 -19 35 -8 
34 -6 34 -9 34 -8 34 -5 34 2 35 9 34 14 34 18 
34 16 34 11 34 6 292 932 52 MP stroke
c8
35 47 34 22 34 -3 34 -18 34 -31 35 -42 34 -59 34 -79 
34 -73 34 -31 34 21 35 34 34 11 34 12 34 35 34 39 
34 21 35 -2 34 -4 34 -5 34 12 34 24 35 44 34 55 
34 49 34 32 34 -4 34 -29 35 -28 34 -8 34 10 34 2 
34 -36 34 -73 35 -81 34 -57 34 -32 34 -20 34 -23 35 -34 
34 -47 34 -53 34 -18 34 69 34 177 35 219 34 181 34 75 
34 -76 34 -258 34 -452 292 1313 52 MP stroke
c9
35 49 34 9 34 -12 34 -21 34 -15 35 -3 34 5 34 5 
34 2 34 1 34 0 35 -1 34 0 34 0 34 -4 34 -4 
34 -3 35 5 34 10 34 -5 34 26 34 -35 35 13 34 15 
34 0 34 0 34 0 34 0 35 0 34 0 34 0 34 0 
34 -13 34 -24 35 -32 34 0 34 58 34 54 34 -64 35 -84 
34 -5 34 37 34 30 34 11 34 1 35 -1 34 0 34 4 
34 7 34 12 34 9 292 911 52 MP stroke
c10
35 0 34 0 34 4 34 6 34 -4 35 -24 34 -46 34 -47 
34 9 34 142 34 92 35 -216 34 0 34 54 34 -32 34 81 
34 42 35 -43 34 -38 34 -20 34 2 34 31 35 70 34 96 
34 85 34 51 34 -42 34 -86 35 -93 34 -78 34 -25 34 5 
34 14 34 14 35 -6 34 -11 34 -19 34 -16 34 -16 35 -17 
34 -8 34 9 34 33 34 63 34 78 35 35 34 -50 34 -40 
34 53 34 15 34 -294 292 1127 52 MP stroke
c11
35 55 34 28 34 7 34 -8 34 -18 35 -19 34 -14 34 -14 
34 -46 34 -83 34 10 35 97 34 -56 34 -78 34 17 34 82 
34 67 35 29 34 11 34 4 34 4 34 2 35 0 34 1 
34 -2 34 -1 34 -2 34 -1 35 4 34 10 34 19 34 13 
34 -39 34 -64 35 -46 34 -25 34 -3 34 0 34 0 35 -1 
34 -2 34 0 34 9 34 17 34 11 35 0 34 -9 34 -8 
34 0 34 23 34 57 292 897 52 MP stroke
c12
35 -54 34 92 34 31 34 -70 34 -94 35 -75 34 -48 34 -28 
34 -14 34 -4 34 3 35 6 34 7 34 10 34 13 34 15 
34 11 35 5 34 3 34 28 34 50 34 42 35 22 34 5 
34 -4 34 -3 34 -4 34 -3 35 4 34 8 34 9 34 0 
34 -22 34 -41 35 -50 34 -55 34 -58 34 -58 34 -34 35 -2 
34 15 34 18 34 20 34 21 34 22 35 21 34 19 34 15 
34 9 34 2 34 0 292 975 52 MP stroke
c13
35 10 34 1 34 -14 34 -31 34 -39 35 -39 34 -30 34 -6 
34 18 34 -4 34 -44 35 -4 34 48 34 -11 34 -23 34 19 
34 34 35 23 34 6 34 1 34 10 34 19 35 19 34 2 
34 -21 34 -11 34 14 34 15 35 -5 34 -20 34 -21 34 -19 
34 -14 34 -9 35 -1 34 2 34 -11 34 -45 34 -90 35 -33 
34 48 34 65 34 42 34 29 34 22 35 21 34 22 34 20 
34 23 34 17 34 11 292 804 52 MP stroke
0.25 sg
35 -28 34 -59 34 -47 34 -1 34 26 35 15 34 -17 34 -25 
34 -4 34 30 34 46 35 34 34 8 34 -5 34 -9 34 -6 
34 -4 35 -1 34 0 34 -1 34 1 34 3 35 8 34 8 
34 -16 34 -32 34 9 34 38 35 4 34 -32 34 -25 34 10 
34 24 34 0 35 -39 34 -6 34 83 34 44 34 -43 35 16 
34 53 34 -4 34 -51 34 -52 34 -28 35 -1 34 11 34 35 
34 24 34 13 34 3 292 879 52 MP stroke
c8
35 3 34 2 34 -11 34 -17 34 -21 35 -19 34 -4 34 38 
34 83 34 37 34 -150 35 -111 34 81 34 10 34 0 34 86 
34 89 35 46 34 9 34 0 34 14 34 29 35 -8 34 -42 
34 -75 34 -37 34 25 34 23 35 -14 34 -29 34 -29 34 -23 
34 -23 34 -18 35 -9 34 -12 34 -24 34 11 34 93 35 14 
34 -78 34 -24 34 72 34 108 34 101 35 80 34 53 34 19 
34 -20 34 -64 34 -109 292 801 52 MP stroke
c9
35 0 34 1 34 9 34 14 34 2 35 -25 34 -63 34 -86 
34 -76 34 -12 34 58 35 26 34 -35 34 6 34 24 34 -9 
34 -31 35 -30 34 -22 34 -16 34 -15 34 -4 35 9 34 23 
34 26 34 14 34 8 34 23 35 41 34 36 34 9 34 -3 
34 4 34 7 35 -5 34 -19 34 -20 34 -9 34 1 35 10 
34 17 34 12 34 -4 34 -14 34 -16 35 -5 34 7 34 8 
34 0 34 -20 34 -50 292 977 52 MP stroke
c10
35 0 34 0 34 -2 34 -3 34 -4 35 -5 34 -9 34 -14 
34 -20 34 -28 34 -37 35 -28 34 2 34 37 34 48 34 37 
34 21 35 3 34 -8 34 -7 34 3 34 17 35 27 34 25 
34 7 34 -26 34 -44 34 -20 35 13 34 26 34 14 34 -7 
34 -25 34 -34 35 -29 34 -22 34 -9 34 -4 34 -3 35 -7 
34 1 34 8 34 27 34 37 34 30 35 8 34 -22 34 -44 
34 -24 34 16 34 67 292 911 52 MP stroke
c11
35 123 34 -18 34 -90 34 -83 34 -42 35 -15 34 -29 34 -60 
34 -62 34 -38 34 -11 35 13 34 28 34 36 34 45 34 25 
34 -6 35 -27 34 -28 34 10 34 45 34 61 35 57 34 44 
34 31 34 16 34 9 34 0 35 -18 34 -36 34 -45 34 -39 
34 -16 34 12 35 -7 34 -95 34 -155 34 -51 34 71 35 -4 
34 -88 34 -29 34 91 34 130 34 111 35 44 34 -19 34 -44 
34 -119 34 -98 34 -68 292 1191 52 MP stroke
c12
35 -454 34 -77 34 133 34 156 34 77 35 -3 34 -32 34 -20 
34 -10 34 -2 34 -1 35 0 34 0 34 0 34 4 34 7 
34 23 35 32 34 13 34 -13 34 6 34 31 35 21 34 13 
34 28 34 30 34 -10 34 -76 35 -113 34 -91 34 -36 34 50 
34 71 34 38 35 -112 34 -267 34 -159 34 181 34 139 35 -185 
34 -178 34 42 34 105 34 47 34 -23 35 -53 34 -53 34 -33 
34 17 34 62 34 88 292 1180 52 MP stroke
c13
35 -37 34 -21 34 -11 34 -7 34 -9 35 -14 34 -22 34 -27 
34 -29 34 -27 34 -21 35 -7 34 4 34 14 34 25 34 29 
34 24 35 17 34 8 34 4 34 10 34 26 35 37 34 40 
34 35 34 18 34 -7 34 -34 35 -42 34 -24 34 8 34 19 
34 4 34 -51 35 -100 34 -65 34 3 34 -18 34 -63 35 -14 
34 15 34 14 34 12 34 12 34 13 35 13 34 14 34 11 
34 7 34 1 34 0 292 1009 52 MP stroke
0.25 sg
35 -12 34 -67 34 -60 34 -35 34 -25 35 -14 34 12 34 36 
34 37 34 27 34 9 35 0 34 0 34 0 34 20 34 47 
34 58 35 77 34 118 34 34 34 -63 34 -38 35 -9 34 -7 
34 -8 34 -8 34 -8 34 -10 35 -11 34 -12 34 -11 34 -12 
34 -10 34 -6 35 2 34 16 34 40 34 59 34 72 35 77 
34 85 34 80 34 48 34 -1 34 -44 35 -70 34 -79 34 -80 
34 -69 34 -53 34 -42 292 951 52 MP stroke
c8
35 13 34 15 34 2 34 -2 34 -11 35 -18 34 -19 34 -13 
34 -1 34 3 34 -10 35 -32 34 -36 34 0 34 60 34 78 
34 36 35 -11 34 -3 34 -7 34 -34 34 -12 35 43 34 65 
34 46 34 16 34 -6 34 -17 35 14 34 64 34 31 34 -84 
34 -93 34 -36 35 -9 34 -2 34 0 34 0 34 0 35 0 
34 0 34 1 34 2 34 4 34 1 35 -10 34 -47 34 -87 
34 -99 34 -47 34 63 292 1140 52 MP stroke
c9
35 -70 34 -35 34 -16 34 -15 34 -21 35 -34 34 -45 34 -51 
34 -45 34 -25 34 -5 35 5 34 15 34 17 34 20 34 20 
34 20 35 20 34 19 34 20 34 22 34 24 35 25 34 28 
34 39 34 57 34 54 34 15 35 -35 34 -55 34 -44 34 -29 
34 -15 34 -7 35 -49 34 -136 34 -163 34 -75 34 57 35 48 
34 -11 34 10 34 31 34 21 34 3 35 -20 34 -26 34 -32 
34 -22 34 -10 34 0 292 1185 52 MP stroke
c10
35 28 34 42 34 42 34 17 34 -4 35 -29 34 -49 34 -46 
34 18 34 54 34 -88 35 -43 34 19 34 7 34 82 34 22 
34 -6 35 6 34 9 34 4 34 8 34 12 35 14 34 13 
34 15 34 4 34 1 34 -5 35 -10 34 -10 34 -11 34 -13 
34 -13 34 -16 35 -13 34 -12 34 -10 34 -7 34 -7 35 -15 
34 -19 34 -20 34 7 34 66 34 95 35 50 34 6 34 94 
34 17 34 -237 34 -309 292 1233 52 MP stroke
c11
35 -17 34 -22 34 -31 34 -38 34 -45 35 -47 34 -44 34 -27 
34 43 34 39 34 -28 35 -7 34 -43 34 30 34 56 34 -23 
34 -19 35 16 34 11 34 1 34 0 34 0 35 0 34 0 
34 0 34 0 34 1 34 11 35 18 34 12 34 -9 34 -34 
34 -33 34 5 35 19 34 8 34 -11 34 -19 34 -13 35 -5 
34 0 34 -1 34 0 34 2 34 7 35 11 34 18 34 17 
34 19 34 14 34 9 292 881 52 MP stroke
c12
35 -130 34 -30 34 25 34 38 34 16 35 -12 34 -21 34 -16 
34 -6 34 4 34 9 35 13 34 14 34 9 34 6 34 1 
34 0 35 0 34 0 34 0 34 0 34 -8 35 -21 34 -45 
34 -48 34 17 34 61 34 14 35 -13 34 -9 34 2 34 7 
34 11 34 15 35 18 34 17 34 14 34 6 34 -12 35 -33 
34 -43 34 -27 34 6 34 23 34 16 35 -7 34 -19 34 -17 
34 3 34 37 34 88 292 855 52 MP stroke
c13
35 -5 34 -17 34 -29 34 -38 34 -24 35 -14 34 -2 34 4 
34 -11 34 -49 34 -79 35 -48 34 16 34 49 34 47 34 40 
34 30 35 17 34 2 34 1 34 20 34 40 35 56 34 37 
34 -12 34 -10 34 23 34 6 35 -18 34 -23 34 -18 34 0 
34 -7 34 -33 35 -77 34 -104 34 -51 34 -2 34 -102 35 -22 
34 107 34 132 34 47 34 5 34 41 35 96 34 115 34 83 
34 1 34 -129 34 -307 292 1017 52 MP stroke
0.25 sg
35 0 34 0 34 -6 34 -10 34 -11 35 -9 34 -6 34 -6 
34 -15 34 -38 34 -18 35 33 34 19 34 5 34 -62 34 -30 
34 50 35 47 34 18 34 3 34 12 34 19 35 19 34 13 
34 -3 34 -18 34 -29 34 -31 35 -19 34 9 34 33 34 30 
34 2 34 -22 35 -35 34 -34 34 -27 34 -12 34 -8 35 2 
34 12 34 26 34 27 34 16 34 -2 35 -1 34 27 34 52 
34 40 34 -17 34 -122 292 956 52 MP stroke
c8
35 -32 34 -50 34 -54 34 -42 34 -17 35 13 34 32 34 18 
34 -50 34 -68 34 31 35 24 34 -55 34 19 34 33 34 13 
34 13 35 12 34 7 34 2 34 6 34 9 35 13 34 17 
34 10 34 0 34 -21 34 -34 35 -15 34 27 34 52 34 21 
34 -43 34 -62 35 -39 34 -10 34 -5 34 -19 34 -27 35 -19 
34 1 34 20 34 24 34 15 34 -1 35 -8 34 -9 34 -2 
34 10 34 22 34 31 292 943 52 MP stroke
c9
35 71 34 20 34 -15 34 -35 34 -37 35 -19 34 12 34 32 
34 15 34 -41 34 -69 35 -29 34 27 34 24 34 -15 34 -12 
34 25 35 46 34 18 34 -17 34 -21 34 1 35 24 34 34 
34 29 34 16 34 10 34 0 35 -6 34 -4 34 7 34 24 
34 12 34 -16 35 -25 34 -21 34 -11 34 -1 34 0 35 -3 
34 -10 34 -18 34 -18 34 -12 34 12 35 33 34 16 34 -56 
34 -88 34 -51 34 72 292 1015 52 MP stroke
c10
35 168 34 -35 34 -89 34 -34 34 47 35 44 34 -7 34 -40 
34 -37 34 -24 34 -1 35 2 34 1 34 7 34 20 34 21 
34 0 35 -28 34 5 34 40 34 -25 34 -47 35 -15 34 12 
34 21 34 19 34 19 34 13 35 -6 34 -22 34 -1 34 71 
34 56 34 -14 35 -36 34 -26 34 -12 34 0 34 0 35 0 
34 -12 34 -12 34 -14 34 -4 34 10 35 13 34 -12 34 -72 
34 -100 34 -38 34 134 292 1004 52 MP stroke
c11
35 152 34 -51 34 -146 34 -144 34 -61 35 27 34 41 34 -22 
34 -106 34 -101 34 17 35 89 34 17 34 -47 34 0 34 54 
34 53 35 34 34 7 34 0 34 24 34 42 35 55 34 30 
34 7 34 45 34 89 34 40 35 -76 34 -110 34 -55 34 18 
34 28 34 -30 35 -121 34 -156 34 -115 34 -14 34 42 35 37 
34 -12 34 -43 34 -21 34 47 34 95 35 82 34 1 34 -74 
34 -127 34 -154 34 -153 292 1463 52 MP stroke
c12
35 179 34 -8 34 -109 34 -134 34 -96 35 -20 34 10 34 -20 
34 -79 34 -94 34 -51 35 23 34 61 34 52 34 25 34 12 
34 14 35 18 34 24 34 26 34 37 34 39 35 35 34 29 
34 44 34 82 34 84 34 13 35 -67 34 -94 34 -65 34 -25 
34 1 34 9 35 -68 34 -182 34 -136 34 -50 34 -174 35 9 
34 188 34 101 34 -6 34 -21 34 -2 35 36 34 48 34 62 
34 41 34 20 34 0 292 911 52 MP stroke
gr

c12

end %%Color Dict

eplot
%%EndObject

epage
end

showpage

%%Trailer
%%EOF
