%!PS-Adobe-3.0 EPSF-3.0
%%Creator: MATLAB, The Mathworks, Inc. Version 7.10.0.499 (R2010a). Operating System: Microsoft Windows 7.
%%Title: C:\Users\wwu\Desktop\warping\Gervini_code\comp_signa_smr.eps
%%CreationDate: 04/12/2011  16:34:22
%%DocumentNeededFonts: Helvetica
%%DocumentProcessColors: Cyan Magenta Yellow Black
%%LanguageLevel: 2
%%Pages: 1
%%BoundingBox:   212   320   399   470
%%EndComments

%%BeginProlog
% MathWorks dictionary
/MathWorks 160 dict begin
% definition operators
/bdef {bind def} bind def
/ldef {load def} bind def
/xdef {exch def} bdef
/xstore {exch store} bdef
% operator abbreviations
/c  /clip ldef
/cc /concat ldef
/cp /closepath ldef
/gr /grestore ldef
/gs /gsave ldef
/mt /moveto ldef
/np /newpath ldef
/cm /currentmatrix ldef
/sm /setmatrix ldef
/rm /rmoveto ldef
/rl /rlineto ldef
/s {show newpath} bdef
/sc {setcmykcolor} bdef
/sr /setrgbcolor ldef
/sg /setgray ldef
/w /setlinewidth ldef
/j /setlinejoin ldef
/cap /setlinecap ldef
/rc {rectclip} bdef
/rf {rectfill} bdef
% page state control
/pgsv () def
/bpage {/pgsv save def} bdef
/epage {pgsv restore} bdef
/bplot /gsave ldef
/eplot {stroke grestore} bdef
% orientation switch
/portraitMode 0 def /landscapeMode 1 def /rotateMode 2 def
% coordinate system mappings
/dpi2point 0 def
% font control
/FontSize 0 def
/FMS {/FontSize xstore findfont [FontSize 0 0 FontSize neg 0 0]
  makefont setfont} bdef
/ISOLatin1Encoding where {pop /WindowsLatin1Encoding 256 array bdef
ISOLatin1Encoding WindowsLatin1Encoding copy pop
/.notdef/.notdef/quotesinglbase/florin/quotedblbase/ellipsis/dagger
/daggerdbl/circumflex/perthousand/Scaron/guilsinglleft/OE/.notdef/.notdef
/.notdef/.notdef/quoteleft/quoteright/quotedblleft/quotedblright/bullet
/endash/emdash/tilde/trademark/scaron/guilsinglright/oe/.notdef/.notdef
/Ydieresis WindowsLatin1Encoding 128 32 getinterval astore pop}
{/WindowsLatin1Encoding StandardEncoding bdef} ifelse
/reencode {exch dup where {pop load} {pop StandardEncoding} ifelse
  exch dup 3 1 roll findfont dup length dict begin
  { 1 index /FID ne {def}{pop pop} ifelse } forall
  /Encoding exch def currentdict end definefont pop} bdef
/isroman {findfont /CharStrings get /Agrave known} bdef
/FMSR {3 1 roll 1 index dup isroman {reencode} {pop pop} ifelse
  exch FMS} bdef
/csm {1 dpi2point div -1 dpi2point div scale neg translate
 dup landscapeMode eq {pop -90 rotate}
  {rotateMode eq {90 rotate} if} ifelse} bdef
% line types: solid, dotted, dashed, dotdash
/SO { [] 0 setdash } bdef
/DO { [.5 dpi2point mul 4 dpi2point mul] 0 setdash } bdef
/DA { [6 dpi2point mul] 0 setdash } bdef
/DD { [.5 dpi2point mul 4 dpi2point mul 6 dpi2point mul 4
  dpi2point mul] 0 setdash } bdef
% macros for lines and objects
/L {lineto stroke} bdef
/MP {3 1 roll moveto 1 sub {rlineto} repeat} bdef
/AP {{rlineto} repeat} bdef
/PDlw -1 def
/W {/PDlw currentlinewidth def setlinewidth} def
/PP {closepath eofill} bdef
/DP {closepath stroke} bdef
/MR {4 -2 roll moveto dup  0 exch rlineto exch 0 rlineto
  neg 0 exch rlineto closepath} bdef
/FR {MR stroke} bdef
/PR {MR fill} bdef
/L1i {{currentfile picstr readhexstring pop} image} bdef
/tMatrix matrix def
/MakeOval {newpath tMatrix currentmatrix pop translate scale
0 0 1 0 360 arc tMatrix setmatrix} bdef
/FO {MakeOval stroke} bdef
/PO {MakeOval fill} bdef
/PD {currentlinewidth 2 div 0 360 arc fill
   PDlw -1 eq not {PDlw w /PDlw -1 def} if} def
/FA {newpath tMatrix currentmatrix pop translate scale
  0 0 1 5 -2 roll arc tMatrix setmatrix stroke} bdef
/PA {newpath tMatrix currentmatrix pop	translate 0 0 moveto scale
  0 0 1 5 -2 roll arc closepath tMatrix setmatrix fill} bdef
/FAn {newpath tMatrix currentmatrix pop translate scale
  0 0 1 5 -2 roll arcn tMatrix setmatrix stroke} bdef
/PAn {newpath tMatrix currentmatrix pop translate 0 0 moveto scale
  0 0 1 5 -2 roll arcn closepath tMatrix setmatrix fill} bdef
/vradius 0 def /hradius 0 def /lry 0 def
/lrx 0 def /uly 0 def /ulx 0 def /rad 0 def
/MRR {/vradius xdef /hradius xdef /lry xdef /lrx xdef /uly xdef
  /ulx xdef newpath tMatrix currentmatrix pop ulx hradius add uly
  vradius add translate hradius vradius scale 0 0 1 180 270 arc 
  tMatrix setmatrix lrx hradius sub uly vradius add translate
  hradius vradius scale 0 0 1 270 360 arc tMatrix setmatrix
  lrx hradius sub lry vradius sub translate hradius vradius scale
  0 0 1 0 90 arc tMatrix setmatrix ulx hradius add lry vradius sub
  translate hradius vradius scale 0 0 1 90 180 arc tMatrix setmatrix
  closepath} bdef
/FRR {MRR stroke } bdef
/PRR {MRR fill } bdef
/MlrRR {/lry xdef /lrx xdef /uly xdef /ulx xdef /rad lry uly sub 2 div def
  newpath tMatrix currentmatrix pop ulx rad add uly rad add translate
  rad rad scale 0 0 1 90 270 arc tMatrix setmatrix lrx rad sub lry rad
  sub translate rad rad scale 0 0 1 270 90 arc tMatrix setmatrix
  closepath} bdef
/FlrRR {MlrRR stroke } bdef
/PlrRR {MlrRR fill } bdef
/MtbRR {/lry xdef /lrx xdef /uly xdef /ulx xdef /rad lrx ulx sub 2 div def
  newpath tMatrix currentmatrix pop ulx rad add uly rad add translate
  rad rad scale 0 0 1 180 360 arc tMatrix setmatrix lrx rad sub lry rad
  sub translate rad rad scale 0 0 1 0 180 arc tMatrix setmatrix
  closepath} bdef
/FtbRR {MtbRR stroke } bdef
/PtbRR {MtbRR fill } bdef
/stri 6 array def /dtri 6 array def
/smat 6 array def /dmat 6 array def
/tmat1 6 array def /tmat2 6 array def /dif 3 array def
/asub {/ind2 exch def /ind1 exch def dup dup
  ind1 get exch ind2 get sub exch } bdef
/tri_to_matrix {
  2 0 asub 3 1 asub 4 0 asub 5 1 asub
  dup 0 get exch 1 get 7 -1 roll astore } bdef
/compute_transform {
  dmat dtri tri_to_matrix tmat1 invertmatrix 
  smat stri tri_to_matrix tmat2 concatmatrix } bdef
/ds {stri astore pop} bdef
/dt {dtri astore pop} bdef
/db {2 copy /cols xdef /rows xdef mul dup 3 mul string
  currentfile 
  3 index 0 eq {/ASCIIHexDecode filter}
  {/ASCII85Decode filter 3 index 2 eq {/RunLengthDecode filter} if }
  ifelse exch readstring pop
  dup 0 3 index getinterval /rbmap xdef
  dup 2 index dup getinterval /gbmap xdef
  1 index dup 2 mul exch getinterval /bbmap xdef pop pop}bdef
/it {gs np dtri aload pop moveto lineto lineto cp c
  cols rows 8 compute_transform 
  rbmap gbmap bbmap true 3 colorimage gr}bdef
/il {newpath moveto lineto stroke}bdef
currentdict end def
%%EndProlog

%%BeginSetup
MathWorks begin

0 cap

end
%%EndSetup

%%Page: 1 1
%%BeginPageSetup
%%PageBoundingBox:   212   320   399   470
MathWorks begin
bpage
%%EndPageSetup

%%BeginObject: obj1
bplot

/dpi2point 12 def
portraitMode 2544 5640 csm

    0     0  2249  1800 rc
85 dict begin %Colortable dictionary
/c0 { 0.000000 0.000000 0.000000 sr} bdef
/c1 { 1.000000 1.000000 1.000000 sr} bdef
/c2 { 0.900000 0.000000 0.000000 sr} bdef
/c3 { 0.000000 0.820000 0.000000 sr} bdef
/c4 { 0.000000 0.000000 0.800000 sr} bdef
/c5 { 0.910000 0.820000 0.320000 sr} bdef
/c6 { 1.000000 0.260000 0.820000 sr} bdef
/c7 { 0.000000 0.820000 0.820000 sr} bdef
c0
1 j
1 sg
   0    0 2250 1801 rf
6 w
0 1467 1743 0 0 -1467 292 1602 4 MP
PP
-1743 0 0 1467 1743 0 0 -1467 292 1602 5 MP stroke
4 w
DO
SO
6 w
0 sg
 292  135 mt 2035  135 L
 292 1602 mt 2035 1602 L
2035 1602 mt 2035  135 L
 292 1602 mt  292  135 L
 292 1602 mt 2035 1602 L
 292 1602 mt  292  135 L
 633 1602 mt  633 1584 L
 633  135 mt  633  152 L
%%IncludeResource: font Helvetica
/Helvetica /WindowsLatin1Encoding 120 FMSR

 567 1747 mt 
(20) s
 992 1602 mt  992 1584 L
 992  135 mt  992  152 L
 926 1747 mt 
(40) s
1352 1602 mt 1352 1584 L
1352  135 mt 1352  152 L
1286 1747 mt 
(60) s
1711 1602 mt 1711 1584 L
1711  135 mt 1711  152 L
1645 1747 mt 
(80) s
 292 1602 mt  309 1602 L
2035 1602 mt 2017 1602 L
 191 1646 mt 
(0) s
 292 1113 mt  309 1113 L
2035 1113 mt 2017 1113 L
  91 1157 mt 
(0.5) s
 292  624 mt  309  624 L
2035  624 mt 2017  624 L
 191  668 mt 
(1) s
 292  135 mt  309  135 L
2035  135 mt 2017  135 L
  91  179 mt 
(1.5) s
 292  135 mt 2035  135 L
 292 1602 mt 2035 1602 L
2035 1602 mt 2035  135 L
 292 1602 mt  292  135 L
gs 292 135 1744 1468 rc
/c8 { 0.000000 0.000000 1.000000 sr} bdef
c8
18 282 18 169 18 36 18 10 18 53 18 63 18 37 18 6 
18 -26 18 -48 18 -57 18 -55 18 -40 18 -33 18 10 18 44 
18 74 18 86 18 58 18 -9 18 -73 18 -88 18 -41 18 26 
18 50 18 23 18 -3 18 -24 18 -63 18 -95 18 -92 18 -47 
17 2 18 41 18 66 18 81 18 80 18 59 18 22 18 -20 
18 -50 18 -52 18 -20 18 17 18 27 18 11 18 -1 18 4 
18 9 18 -10 18 -48 18 -79 18 -78 18 -36 18 31 18 91 
18 117 18 102 18 53 18 -18 18 -78 18 -81 18 -43 18 11 
17 54 18 75 18 46 18 1 18 -38 18 -64 18 -71 18 -45 
18 -24 18 -2 18 9 18 0 18 -11 18 -19 18 -15 18 1 
18 21 18 37 18 45 18 39 18 14 18 -27 18 -62 18 -65 
18 -18 18 59 18 120 18 126 18 64 18 -47 18 -162 18 -230 
17 -239 292 1549 98 MP stroke
/c9 { 0.000000 0.500000 0.000000 sr} bdef
c9
18 179 18 155 18 104 18 52 18 30 18 29 18 31 18 23 
18 -1 18 -38 18 -76 18 -103 18 -93 18 -45 18 11 18 61 
18 82 18 68 18 25 18 -27 18 -55 18 -44 18 -12 18 9 
18 10 18 4 18 -3 18 -25 18 -59 18 -84 18 -78 18 -44 
17 -1 18 39 18 71 18 88 18 89 18 76 18 51 18 19 
18 -17 18 -39 18 -34 18 -6 18 17 18 18 18 1 18 -14 
18 -18 18 -16 18 -24 18 -48 18 -73 18 -72 18 -28 18 43 
18 99 18 102 18 45 18 -42 18 -109 18 -112 18 -52 18 23 
17 78 18 97 18 76 18 29 18 -19 18 -51 18 -62 18 -57 
18 -34 18 -21 18 -14 18 -10 18 -14 18 -15 18 -6 18 10 
18 24 18 34 18 35 18 23 18 -10 18 -59 18 -100 18 -72 
18 6 18 86 18 132 18 118 18 52 18 -49 18 -136 18 -166 
17 -142 292 1515 98 MP stroke
/c10 { 1.000000 0.000000 0.000000 sr} bdef
c10
18 136 18 134 18 126 18 103 18 68 18 53 18 47 18 36 
18 8 18 -47 18 -115 18 -164 18 -144 18 -58 18 43 18 110 
18 122 18 83 18 19 18 -33 18 -50 18 -34 18 -6 18 12 
18 20 18 16 18 -3 18 -38 18 -75 18 -89 18 -70 18 -30 
17 16 18 58 18 84 18 91 18 75 18 36 18 -18 18 -60 
18 -70 18 -46 18 -11 18 7 18 -4 18 -29 18 -42 18 -30 
18 2 18 33 18 42 18 24 18 -13 18 -41 18 -22 18 46 
18 114 18 132 18 78 18 -25 18 -122 18 -156 18 -117 18 -39 
17 36 18 75 18 75 18 48 18 4 18 -50 18 -66 18 -74 
18 -64 18 -52 18 -38 18 -8 18 11 18 13 18 9 18 18 
18 36 18 49 18 41 18 19 18 0 18 -24 18 -70 18 -65 
18 22 18 109 18 117 18 76 18 17 18 -31 18 -47 18 -41 
17 -30 292 1168 98 MP stroke
/c11 { 0.000000 0.750000 0.750000 sr} bdef
c11
18 217 18 196 18 135 18 69 18 34 18 45 18 69 18 64 
18 22 18 -47 18 -125 18 -177 18 -152 18 -56 18 49 18 112 
18 120 18 83 18 25 18 -29 18 -55 18 -53 18 -33 18 -9 
18 -3 18 -8 18 -25 18 -54 18 -87 18 -103 18 -81 18 -31 
17 23 18 67 18 98 18 115 18 110 18 81 18 35 18 -13 
18 -43 18 -44 18 -22 18 1 18 6 18 -11 18 -27 18 -24 
18 0 18 23 18 26 18 1 18 -33 18 -54 18 -28 18 46 
18 118 18 129 18 63 18 -48 18 -143 18 -175 18 -133 18 -34 
17 71 18 143 18 159 18 110 18 6 18 -82 18 -112 18 -103 
18 -91 18 -75 18 -42 18 -6 18 16 18 31 18 38 18 35 
18 25 18 13 18 0 18 -13 18 -27 18 -41 18 -45 18 -28 
18 15 18 66 18 100 18 101 18 62 18 -6 18 -79 18 -123 
17 -128 292 1310 98 MP stroke
/c12 { 0.750000 0.000000 0.750000 sr} bdef
c12
18 145 18 158 18 162 18 138 18 109 18 69 18 38 18 24 
18 4 18 -50 18 -129 18 -188 18 -163 18 -38 18 70 18 123 
18 126 18 85 18 21 18 -29 18 -42 18 -25 18 -1 18 15 
18 24 18 13 18 -4 18 -27 18 -51 18 -74 18 -81 18 -72 
17 -46 18 -7 18 41 18 87 18 119 18 123 18 95 18 42 
18 -15 18 -47 18 -36 18 -6 18 23 18 32 18 21 18 -3 
18 -21 18 -28 18 -30 18 -36 18 -48 18 -38 18 12 18 84 
18 124 18 93 18 2 18 -109 18 -183 18 -183 18 -114 18 -13 
17 67 18 103 18 101 18 66 18 12 18 -39 18 -73 18 -88 
18 -71 18 -46 18 -22 18 0 18 7 18 7 18 10 18 15 
18 23 18 41 18 57 18 33 18 -45 18 -122 18 -135 18 -60 
18 55 18 113 18 129 18 106 18 47 18 -23 18 -78 18 -100 
17 -103 292 1305 98 MP stroke
/c13 { 0.750000 0.750000 0.000000 sr} bdef
c13
18 158 18 148 18 121 18 87 18 61 18 56 18 61 18 53 
18 14 18 -57 18 -135 18 -177 18 -142 18 -48 18 41 18 86 
18 85 18 48 18 1 18 -36 18 -44 18 -25 18 2 18 15 
18 17 18 18 18 16 18 19 18 17 18 1 18 -24 18 -47 
17 -53 18 -32 18 10 18 52 18 75 18 63 18 30 18 -15 
18 -50 18 -58 18 -38 18 -6 18 19 18 26 18 19 18 11 
18 10 18 11 18 -2 18 -30 18 -58 18 -58 18 -11 18 62 
18 119 18 111 18 40 18 -53 18 -125 18 -131 18 -73 18 8 
17 64 18 74 18 47 18 10 18 -33 18 -58 18 -57 18 -54 
18 -39 18 -36 18 -25 18 -21 18 -18 18 -18 18 -12 18 6 
18 30 18 51 18 55 18 30 18 -2 18 -32 18 -70 18 -52 
18 39 18 104 18 103 18 71 18 31 18 -20 18 -57 18 -64 
17 -51 292 1214 98 MP stroke
0.25 sg
18 166 18 160 18 143 18 113 18 81 18 59 18 55 18 39 
18 1 18 -62 18 -130 18 -166 18 -136 18 -52 18 37 18 91 
18 100 18 69 18 19 18 -24 18 -37 18 -20 18 6 18 22 
18 23 18 11 18 -13 18 -43 18 -71 18 -85 18 -73 18 -43 
17 -5 18 29 18 57 18 79 18 86 18 68 18 25 18 -20 
18 -46 18 -45 18 -26 18 -4 18 11 18 11 18 1 18 -7 
18 -1 18 14 18 17 18 -7 18 -39 18 -48 18 -11 18 57 
18 109 18 100 18 33 18 -58 18 -127 18 -137 18 -93 18 -20 
17 50 18 86 18 86 18 58 18 18 18 -35 18 -58 18 -63 
18 -59 18 -39 18 -25 18 -7 18 6 18 10 18 11 18 13 
18 16 18 20 18 24 18 12 18 -24 18 -85 18 -111 18 -61 
18 20 18 81 18 102 18 80 18 27 18 -42 18 -94 18 -106 
17 -93 292 1479 98 MP stroke
c8
18 106 18 93 18 67 18 50 18 48 18 53 18 42 18 13 
18 -33 18 -94 18 -114 18 -111 18 -96 18 -46 18 21 18 76 
18 108 18 99 18 47 18 -28 18 -76 18 -66 18 -22 18 6 
18 12 18 23 18 24 18 -6 18 -55 18 -85 18 -73 18 -24 
17 26 18 61 18 81 18 86 18 72 18 37 18 -7 18 -42 
18 -49 18 -25 18 14 18 42 18 39 18 12 18 -15 18 -22 
18 -11 18 -9 18 -27 18 -60 18 -82 18 -65 18 2 18 90 
18 151 18 154 18 93 18 -13 18 -114 18 -183 18 -180 18 -84 
17 84 18 213 18 198 18 43 18 -105 18 -47 18 -76 18 -133 
18 -24 18 64 18 14 18 -75 18 -97 18 -67 18 -20 18 12 
18 37 18 3 18 0 18 0 18 0 18 0 18 0 18 0 
18 0 18 8 18 35 18 57 18 68 18 58 18 -7 18 -155 
17 -350 292 1569 98 MP stroke
c9
18 150 18 130 18 79 18 29 18 9 18 21 18 34 18 25 
18 1 18 -25 18 -52 18 -78 18 -79 18 -41 18 28 18 92 
18 122 18 104 18 48 18 -18 18 -50 18 -39 18 -10 18 -1 
18 -18 18 -40 18 -47 18 -48 18 -55 18 -63 18 -60 18 -40 
17 -4 18 36 18 71 18 98 18 112 18 97 18 51 18 -10 
18 -52 18 -59 18 -35 18 -2 18 14 18 6 18 -15 18 -22 
18 -16 18 -9 18 -21 18 -46 18 -51 18 -12 18 60 18 119 
18 130 18 88 18 19 18 -47 18 -94 18 -118 18 -107 18 -49 
17 37 18 106 18 124 18 92 18 29 18 -46 18 -117 18 -151 
18 -118 18 -43 18 19 18 35 18 20 18 4 18 5 18 18 
18 33 18 36 18 14 18 -30 18 -74 18 -96 18 -83 18 -42 
18 9 18 50 18 69 18 62 18 35 18 -28 18 -96 18 -141 
17 -175 292 1583 98 MP stroke
c10
18 130 18 123 18 110 18 87 18 58 18 41 18 25 18 2 
18 -32 18 -59 18 -83 18 -93 18 -68 18 -33 18 14 18 70 
18 92 18 77 18 37 18 -12 18 -40 18 -30 18 11 18 45 
18 41 18 3 18 -47 18 -88 18 -100 18 -77 18 -29 18 18 
17 43 18 46 18 37 18 31 18 27 18 12 18 -23 18 -52 
18 -56 18 -33 18 0 18 26 18 32 18 19 18 -3 18 -10 
18 0 18 15 18 31 18 33 18 16 18 -9 18 -13 18 26 
18 93 18 127 18 84 18 -23 18 -143 18 -219 18 -230 18 -112 
17 64 18 190 18 184 18 26 18 -45 18 89 18 -77 18 -229 
18 -69 18 76 18 76 18 -9 18 -74 18 -105 18 -77 18 -25 
18 9 18 30 18 1 18 0 18 0 18 0 18 0 18 0 
18 9 18 30 18 60 18 78 18 94 18 73 18 -20 18 -163 
17 -265 292 1432 98 MP stroke
c11
18 93 18 118 18 125 18 80 18 75 18 146 18 178 18 120 
18 20 18 -90 18 -191 18 -231 18 -179 18 -62 18 69 18 153 
18 161 18 98 18 -7 18 -102 18 -135 18 -93 18 -23 18 19 
18 12 18 -8 18 -7 18 12 18 12 18 -19 18 -62 18 -74 
17 -44 18 7 18 49 18 76 18 86 18 73 18 30 18 -28 
18 -74 18 -82 18 -42 18 18 18 52 18 38 18 -2 18 -21 
18 4 18 34 18 19 18 -25 18 -50 18 -23 18 56 18 139 
18 171 18 122 18 15 18 -92 18 -156 18 -169 18 -131 18 -53 
17 47 18 93 18 93 18 60 18 6 18 -56 18 -105 18 -109 
18 -89 18 -63 18 -37 18 -18 18 -3 18 19 18 43 18 64 
18 77 18 76 18 53 18 -1 18 -71 18 -116 18 -106 18 -46 
18 26 18 81 18 105 18 97 18 57 18 -18 18 -85 18 -136 
17 -170 292 1302 98 MP stroke
c12
18 72 18 75 18 73 18 52 18 42 18 44 18 65 18 85 
18 66 18 -6 18 -104 18 -196 18 -208 18 -63 18 94 18 170 
18 148 18 63 18 -26 18 -75 18 -70 18 -35 18 -4 18 8 
18 10 18 10 18 10 18 4 18 -28 18 -65 18 -81 18 -63 
17 -16 18 37 18 77 18 97 18 95 18 67 18 22 18 -19 
18 -37 18 -26 18 -5 18 12 18 19 18 9 18 -19 18 -46 
18 -52 18 -34 18 -24 18 -39 18 -62 18 -50 18 23 18 125 
18 189 18 165 18 59 18 -70 18 -166 18 -198 18 -158 18 -57 
17 68 18 160 18 177 18 112 18 -10 18 -127 18 -167 18 -118 
18 -35 18 11 18 8 18 -10 18 -15 18 -4 18 17 18 35 
18 44 18 39 18 21 18 -12 18 -48 18 -76 18 -91 18 -78 
18 -23 18 67 18 163 18 218 18 153 18 -28 18 -247 18 -362 
17 -284 292 1568 98 MP stroke
c13
6 -28 18 -113 18 -140 18 -166 18 -136 18 -79 18 -2 18 50 
18 30 18 -35 18 -148 18 -180 18 -40 18 130 18 193 18 98 
18 -48 18 -132 18 -101 18 -16 18 33 18 31 18 7 18 -16 
18 -37 18 -65 18 -86 18 -83 18 -47 18 -2 17 40 18 76 
18 106 18 116 18 99 18 55 18 5 18 -31 18 -39 18 -24 
18 -1 18 17 18 23 18 14 18 -12 18 -40 18 -43 18 -19 
18 6 18 4 18 -24 18 -56 18 -57 18 -10 18 68 18 123 
18 111 18 30 18 -74 18 -138 18 -122 18 -41 17 54 18 110 
18 101 18 33 18 -60 18 -134 18 -146 18 -91 18 -13 18 26 
18 26 18 12 18 3 18 9 18 25 18 41 18 50 18 43 
18 23 18 -9 18 -42 18 -64 18 -72 18 -54 18 -7 18 61 
18 122 18 141 18 78 18 -51 18 -177 18 -231 17 -201 292 1495 96 MP stroke
0.25 sg
18 190 18 176 18 136 18 92 18 64 18 70 18 93 18 94 
18 43 18 -49 18 -147 18 -209 18 -198 18 -96 18 53 18 175 
18 222 18 173 18 33 18 -126 18 -184 18 -81 18 31 18 54 
18 17 18 -19 18 -75 18 -146 18 -162 18 -87 18 3 18 64 
17 96 18 105 18 93 18 66 18 32 18 -1 18 -26 18 -35 
18 -17 18 18 18 41 18 35 18 2 18 -33 18 -40 18 -7 
18 33 18 37 18 -1 18 -55 18 -94 18 -86 18 -24 18 53 
18 102 18 105 18 66 18 5 18 -55 18 -95 18 -96 18 -42 
17 17 18 56 18 63 18 38 18 -15 18 -65 18 -71 18 -53 
18 -25 18 0 18 4 18 -11 18 -17 18 -10 18 9 18 31 
18 51 18 60 18 50 18 16 18 -34 18 -83 18 -104 18 -77 
18 -9 18 74 18 134 18 145 18 90 18 -30 18 -171 18 -268 
17 -295 292 1531 98 MP stroke
c8
18 190 18 164 18 105 18 48 18 29 18 46 18 60 18 49 
18 15 18 -23 18 -60 18 -93 18 -104 18 -59 18 44 18 151 
18 198 18 151 18 35 18 -88 18 -146 18 -117 18 -43 18 14 
18 27 18 13 18 -20 18 -73 18 -116 18 -119 18 -76 18 -9 
17 53 18 92 18 100 18 81 18 44 18 -1 18 -48 18 -77 
18 -65 18 -13 18 43 18 63 18 40 18 -6 18 -33 18 -15 
18 33 18 58 18 40 18 -8 18 -54 18 -73 18 -47 18 23 
18 97 18 122 18 72 18 -35 18 -138 18 -177 18 -129 18 -35 
17 37 18 67 18 59 18 27 18 -14 18 -49 18 -59 18 -40 
18 -18 18 1 18 11 18 3 18 -5 18 -5 18 4 18 23 
18 45 18 61 18 63 18 47 18 12 18 -35 18 -80 18 -89 
18 -34 18 73 18 171 18 166 18 64 18 -87 18 -178 18 -90 
17 95 292 943 98 MP stroke
c9
18 214 18 202 18 163 18 112 18 66 18 48 18 56 18 59 
18 25 18 -41 18 -111 18 -158 18 -154 18 -82 18 40 18 148 
18 186 18 135 18 20 18 -99 18 -145 18 -86 18 9 18 45 
18 11 18 -26 18 -40 18 -52 18 -75 18 -85 18 -58 18 -1 
17 61 18 104 18 119 18 108 18 72 18 24 18 -19 18 -43 
18 -43 18 -17 18 22 18 50 18 48 18 19 18 -8 18 -10 
18 3 18 -6 18 -44 18 -88 18 -103 18 -61 18 28 18 123 
18 166 18 131 18 40 18 -71 18 -165 18 -213 18 -199 18 -127 
17 -27 18 62 18 111 18 118 18 81 18 12 18 -61 18 -100 
18 -86 18 -35 18 14 18 33 18 25 18 12 18 15 18 37 
18 57 18 60 18 35 18 -13 18 -68 18 -104 18 -100 18 -55 
18 11 18 73 18 106 18 102 18 64 18 -24 18 -115 18 -171 
17 -210 292 1432 98 MP stroke
c10
18 253 18 229 18 161 18 84 18 52 18 80 18 114 18 102 
18 47 18 -28 18 -136 18 -238 18 -212 18 -62 18 105 18 200 
18 195 18 112 18 -9 18 -105 18 -126 18 -77 18 -20 18 8 
18 9 18 2 18 -5 18 -10 18 -26 18 -54 18 -67 18 -43 
17 7 18 54 18 80 18 83 18 62 18 18 18 -34 18 -61 
18 -37 18 19 18 64 18 71 18 43 18 -1 18 -31 18 -29 
18 -12 18 -16 18 -51 18 -93 18 -102 18 -51 18 45 18 125 
18 140 18 85 18 -2 18 -74 18 -111 18 -132 18 -135 18 -98 
17 -23 18 58 18 111 18 120 18 81 18 -2 18 -97 18 -150 
18 -129 18 -52 18 21 18 53 18 53 18 41 18 38 18 47 
18 61 18 63 18 45 18 7 18 -40 18 -80 18 -93 18 -64 
18 11 18 97 18 149 18 138 18 70 18 -22 18 -80 18 -62 
17 17 292 773 98 MP stroke
c11
18 292 18 234 18 126 18 35 18 21 18 70 18 89 18 59 
18 17 18 -32 18 -100 18 -164 18 -167 18 -82 18 51 18 164 
18 198 18 133 18 5 18 -110 18 -142 18 -82 18 11 18 54 
18 35 18 1 18 -4 18 -17 18 -59 18 -98 18 -95 18 -49 
17 9 18 63 18 111 18 128 18 110 18 67 18 20 18 -26 
18 -56 18 -51 18 -6 18 40 18 47 18 -2 18 -58 18 -61 
18 -25 18 -10 18 -38 18 -80 18 -88 18 -33 18 57 18 132 
18 152 18 119 18 47 18 -36 18 -121 18 -129 18 -100 18 -56 
17 19 18 44 18 49 18 32 18 -11 18 -32 18 -67 18 -71 
18 -74 18 -50 18 -34 18 -2 18 33 18 41 18 39 18 34 
18 38 18 55 18 67 18 46 18 -20 18 -107 18 -126 18 -79 
18 10 18 93 18 135 18 123 18 59 18 -39 18 -135 18 -212 
17 -257 292 1451 98 MP stroke
c12
18 347 18 193 18 16 18 1 18 83 18 76 18 59 18 90 
18 70 18 -28 18 -135 18 -164 18 -112 18 -21 18 72 18 131 
18 139 18 99 18 15 18 -52 18 -76 18 -67 18 -40 18 -9 
18 4 18 -4 18 -12 18 -24 18 -37 18 -58 18 -82 18 -82 
17 -50 18 -3 18 41 18 78 18 108 18 116 18 89 18 38 
18 -14 18 -40 18 -39 18 -13 18 19 18 35 18 22 18 -6 
18 -9 18 15 18 27 18 -3 18 -53 18 -64 18 -11 18 70 
18 117 18 89 18 3 18 -99 18 -164 18 -170 18 -106 18 7 
17 105 18 161 18 154 18 88 18 -19 18 -127 18 -189 18 -171 
18 -92 18 -13 18 19 18 11 18 -5 18 -4 18 19 18 46 
18 67 18 66 18 46 18 4 18 -48 18 -88 18 -95 18 -64 
18 -6 18 54 18 90 18 89 18 34 18 -47 18 -129 18 -197 
17 -248 292 1586 98 MP stroke
c13
18 253 18 240 18 142 18 -2 18 32 18 144 18 143 18 69 
18 6 18 -58 18 -122 18 -151 18 -137 18 -46 18 56 18 126 
18 136 18 83 18 -11 18 -99 18 -127 18 -73 18 20 18 82 
18 80 18 44 18 19 18 -2 18 -52 18 -119 18 -151 18 -118 
17 -42 18 44 18 109 18 127 18 88 18 27 18 -18 18 -41 
18 -47 18 -20 18 37 18 81 18 78 18 36 18 -6 18 -11 
18 1 18 -9 18 -43 18 -75 18 -74 18 -15 18 80 18 158 
18 172 18 116 18 12 18 -123 18 -182 18 -189 18 -150 18 -62 
17 53 18 147 18 169 18 126 18 32 18 -79 18 -144 18 -129 
18 -64 18 -12 18 -3 18 -4 18 4 18 23 18 40 18 47 
18 35 18 5 18 -30 18 -62 18 -95 18 -102 18 -93 18 -66 
18 3 18 61 18 100 18 114 18 88 18 15 18 -101 18 -239 
17 -350 292 1543 98 MP stroke
gr

c13

end %%Color Dict

eplot
%%EndObject

epage
end

showpage

%%Trailer
%%EOF
