%!PS-Adobe-3.0 EPSF-3.0
%%Creator: MATLAB, The MathWorks, Inc. Version 7.12.0.635 (R2011a). Operating System: Microsoft Windows 7.
%%Title: C:\Users\wwu\Desktop\warping\Muller_PACE\examples\comp_toy_pace.eps
%%CreationDate: 05/04/2011  21:20:26
%%DocumentNeededFonts: Helvetica
%%DocumentProcessColors: Cyan Magenta Yellow Black
%%LanguageLevel: 2
%%Pages: 1
%%BoundingBox:   212   320   399   470
%%EndComments

%%BeginProlog
% MathWorks dictionary
/MathWorks 160 dict begin
% definition operators
/bdef {bind def} bind def
/ldef {load def} bind def
/xdef {exch def} bdef
/xstore {exch store} bdef
% operator abbreviations
/c  /clip ldef
/cc /concat ldef
/cp /closepath ldef
/gr /grestore ldef
/gs /gsave ldef
/mt /moveto ldef
/np /newpath ldef
/cm /currentmatrix ldef
/sm /setmatrix ldef
/rm /rmoveto ldef
/rl /rlineto ldef
/s {show newpath} bdef
/sc {setcmykcolor} bdef
/sr /setrgbcolor ldef
/sg /setgray ldef
/w /setlinewidth ldef
/j /setlinejoin ldef
/cap /setlinecap ldef
/rc {rectclip} bdef
/rf {rectfill} bdef
% page state control
/pgsv () def
/bpage {/pgsv save def} bdef
/epage {pgsv restore} bdef
/bplot /gsave ldef
/eplot {stroke grestore} bdef
% orientation switch
/portraitMode 0 def /landscapeMode 1 def /rotateMode 2 def
% coordinate system mappings
/dpi2point 0 def
% font control
/FontSize 0 def
/FMS {/FontSize xstore findfont [FontSize 0 0 FontSize neg 0 0]
  makefont setfont} bdef
/ISOLatin1Encoding where {pop /WindowsLatin1Encoding 256 array bdef
ISOLatin1Encoding WindowsLatin1Encoding copy pop
/.notdef/.notdef/quotesinglbase/florin/quotedblbase/ellipsis/dagger
/daggerdbl/circumflex/perthousand/Scaron/guilsinglleft/OE/.notdef/.notdef
/.notdef/.notdef/quoteleft/quoteright/quotedblleft/quotedblright/bullet
/endash/emdash/tilde/trademark/scaron/guilsinglright/oe/.notdef/.notdef
/Ydieresis WindowsLatin1Encoding 128 32 getinterval astore pop}
{/WindowsLatin1Encoding StandardEncoding bdef} ifelse
/reencode {exch dup where {pop load} {pop StandardEncoding} ifelse
  exch dup 3 1 roll findfont dup length dict begin
  { 1 index /FID ne {def}{pop pop} ifelse } forall
  /Encoding exch def currentdict end definefont pop} bdef
/isroman {findfont /CharStrings get /Agrave known} bdef
/FMSR {3 1 roll 1 index dup isroman {reencode} {pop pop} ifelse
  exch FMS} bdef
/csm {1 dpi2point div -1 dpi2point div scale neg translate
 dup landscapeMode eq {pop -90 rotate}
  {rotateMode eq {90 rotate} if} ifelse} bdef
% line types: solid, dotted, dashed, dotdash
/SO { [] 0 setdash } bdef
/DO { [.5 dpi2point mul 4 dpi2point mul] 0 setdash } bdef
/DA { [6 dpi2point mul] 0 setdash } bdef
/DD { [.5 dpi2point mul 4 dpi2point mul 6 dpi2point mul 4
  dpi2point mul] 0 setdash } bdef
% macros for lines and objects
/L {lineto stroke} bdef
/MP {3 1 roll moveto 1 sub {rlineto} repeat} bdef
/AP {{rlineto} repeat} bdef
/PDlw -1 def
/W {/PDlw currentlinewidth def setlinewidth} def
/PP {closepath eofill} bdef
/DP {closepath stroke} bdef
/MR {4 -2 roll moveto dup  0 exch rlineto exch 0 rlineto
  neg 0 exch rlineto closepath} bdef
/FR {MR stroke} bdef
/PR {MR fill} bdef
/L1i {{currentfile picstr readhexstring pop} image} bdef
/tMatrix matrix def
/MakeOval {newpath tMatrix currentmatrix pop translate scale
0 0 1 0 360 arc tMatrix setmatrix} bdef
/FO {MakeOval stroke} bdef
/PO {MakeOval fill} bdef
/PD {currentlinewidth 2 div 0 360 arc fill
   PDlw -1 eq not {PDlw w /PDlw -1 def} if} def
/FA {newpath tMatrix currentmatrix pop translate scale
  0 0 1 5 -2 roll arc tMatrix setmatrix stroke} bdef
/PA {newpath tMatrix currentmatrix pop	translate 0 0 moveto scale
  0 0 1 5 -2 roll arc closepath tMatrix setmatrix fill} bdef
/FAn {newpath tMatrix currentmatrix pop translate scale
  0 0 1 5 -2 roll arcn tMatrix setmatrix stroke} bdef
/PAn {newpath tMatrix currentmatrix pop translate 0 0 moveto scale
  0 0 1 5 -2 roll arcn closepath tMatrix setmatrix fill} bdef
/vradius 0 def /hradius 0 def /lry 0 def
/lrx 0 def /uly 0 def /ulx 0 def /rad 0 def
/MRR {/vradius xdef /hradius xdef /lry xdef /lrx xdef /uly xdef
  /ulx xdef newpath tMatrix currentmatrix pop ulx hradius add uly
  vradius add translate hradius vradius scale 0 0 1 180 270 arc 
  tMatrix setmatrix lrx hradius sub uly vradius add translate
  hradius vradius scale 0 0 1 270 360 arc tMatrix setmatrix
  lrx hradius sub lry vradius sub translate hradius vradius scale
  0 0 1 0 90 arc tMatrix setmatrix ulx hradius add lry vradius sub
  translate hradius vradius scale 0 0 1 90 180 arc tMatrix setmatrix
  closepath} bdef
/FRR {MRR stroke } bdef
/PRR {MRR fill } bdef
/MlrRR {/lry xdef /lrx xdef /uly xdef /ulx xdef /rad lry uly sub 2 div def
  newpath tMatrix currentmatrix pop ulx rad add uly rad add translate
  rad rad scale 0 0 1 90 270 arc tMatrix setmatrix lrx rad sub lry rad
  sub translate rad rad scale 0 0 1 270 90 arc tMatrix setmatrix
  closepath} bdef
/FlrRR {MlrRR stroke } bdef
/PlrRR {MlrRR fill } bdef
/MtbRR {/lry xdef /lrx xdef /uly xdef /ulx xdef /rad lrx ulx sub 2 div def
  newpath tMatrix currentmatrix pop ulx rad add uly rad add translate
  rad rad scale 0 0 1 180 360 arc tMatrix setmatrix lrx rad sub lry rad
  sub translate rad rad scale 0 0 1 0 180 arc tMatrix setmatrix
  closepath} bdef
/FtbRR {MtbRR stroke } bdef
/PtbRR {MtbRR fill } bdef
/stri 6 array def /dtri 6 array def
/smat 6 array def /dmat 6 array def
/tmat1 6 array def /tmat2 6 array def /dif 3 array def
/asub {/ind2 exch def /ind1 exch def dup dup
  ind1 get exch ind2 get sub exch } bdef
/tri_to_matrix {
  2 0 asub 3 1 asub 4 0 asub 5 1 asub
  dup 0 get exch 1 get 7 -1 roll astore } bdef
/compute_transform {
  dmat dtri tri_to_matrix tmat1 invertmatrix 
  smat stri tri_to_matrix tmat2 concatmatrix } bdef
/ds {stri astore pop} bdef
/dt {dtri astore pop} bdef
/db {2 copy /cols xdef /rows xdef mul dup 3 mul string
  currentfile 
  3 index 0 eq {/ASCIIHexDecode filter}
  {/ASCII85Decode filter 3 index 2 eq {/RunLengthDecode filter} if }
  ifelse exch readstring pop
  dup 0 3 index getinterval /rbmap xdef
  dup 2 index dup getinterval /gbmap xdef
  1 index dup 2 mul exch getinterval /bbmap xdef pop pop}bdef
/it {gs np dtri aload pop moveto lineto lineto cp c
  cols rows 8 compute_transform 
  rbmap gbmap bbmap true 3 colorimage gr}bdef
/il {newpath moveto lineto stroke}bdef
currentdict end def
%%EndProlog

%%BeginSetup
MathWorks begin

0 cap

end
%%EndSetup

%%Page: 1 1
%%BeginPageSetup
%%PageBoundingBox:   212   320   399   470
MathWorks begin
bpage
%%EndPageSetup

%%BeginObject: obj1
bplot

/dpi2point 12 def
portraitMode 2544 5640 csm

    0     0  2249  1800 rc
85 dict begin %Colortable dictionary
/c0 { 0.000000 0.000000 0.000000 sr} bdef
/c1 { 1.000000 1.000000 1.000000 sr} bdef
/c2 { 0.900000 0.000000 0.000000 sr} bdef
/c3 { 0.000000 0.820000 0.000000 sr} bdef
/c4 { 0.000000 0.000000 0.800000 sr} bdef
/c5 { 0.910000 0.820000 0.320000 sr} bdef
/c6 { 1.000000 0.260000 0.820000 sr} bdef
/c7 { 0.000000 0.820000 0.820000 sr} bdef
c0
1 j
1 sg
   0    0 2250 1801 rf
6 w
0 1467 1743 0 0 -1467 292 1602 4 MP
PP
-1743 0 0 1467 1743 0 0 -1467 292 1602 5 MP stroke
4 w
DO
SO
6 w
0 sg
 292  135 mt 2035  135 L
 292 1602 mt 2035 1602 L
2035 1602 mt 2035  135 L
 292 1602 mt  292  135 L
 292 1602 mt 2035 1602 L
 292 1602 mt  292  135 L
 292 1602 mt  292 1584 L
 292  135 mt  292  152 L
%%IncludeResource: font Helvetica
/Helvetica /WindowsLatin1Encoding 120 FMSR

 259 1747 mt 
(0) s
1163 1602 mt 1163 1584 L
1163  135 mt 1163  152 L
1080 1747 mt 
(0.5) s
2035 1602 mt 2035 1584 L
2035  135 mt 2035  152 L
2002 1747 mt 
(1) s
 292 1602 mt  309 1602 L
2035 1602 mt 2017 1602 L
 191 1646 mt 
(0) s
 292 1276 mt  309 1276 L
2035 1276 mt 2017 1276 L
 191 1320 mt 
(2) s
 292  950 mt  309  950 L
2035  950 mt 2017  950 L
 191  994 mt 
(4) s
 292  624 mt  309  624 L
2035  624 mt 2017  624 L
 191  668 mt 
(6) s
 292  298 mt  309  298 L
2035  298 mt 2017  298 L
 191  342 mt 
(8) s
 292  135 mt 2035  135 L
 292 1602 mt 2035 1602 L
2035 1602 mt 2035  135 L
 292 1602 mt  292  135 L
gs 292 135 1744 1468 rc
/c8 { 0.000000 0.000000 1.000000 sr} bdef
c8
18 0 17 0 18 0 17 0 18 0 17 0 18 0 17 0 
17 0 18 0 17 0 18 0 17 0 18 0 17 0 17 0 
18 0 17 0 18 0 17 0 18 0 17 0 17 1 18 0 
17 0 18 0 17 0 18 0 17 0 17 0 18 0 17 0 
18 0 17 0 18 0 17 0 17 0 18 0 17 0 18 0 
17 0 18 0 17 0 17 0 18 0 17 0 18 0 17 0 
18 0 17 0 17 0 18 0 17 0 18 0 17 0 18 0 
17 0 17 2 18 2 17 6 18 12 17 21 18 36 17 61 
17 90 18 125 17 159 18 192 17 206 18 197 17 132 17 86 
18 54 17 18 18 -23 17 -64 18 -94 17 -118 17 -133 18 -142 
17 -141 18 -132 17 -118 18 -103 17 -86 17 -69 18 -54 17 -39 
18 -27 17 -20 18 -14 17 -9 17 -6 18 -3 17 -2 18 -1 
17 -1 18 0 17 0 17 0 292 1601 101 MP stroke
/c9 { 0.000000 0.500000 0.000000 sr} bdef
c9
18 0 17 0 18 0 17 0 18 0 17 0 18 0 17 0 
17 0 18 0 17 0 18 0 17 0 18 0 17 0 17 0 
18 0 17 0 18 0 17 0 18 0 17 0 17 0 18 1 
17 0 18 0 17 0 18 0 17 0 17 0 18 0 17 0 
18 0 17 0 18 0 17 0 17 0 18 0 17 0 18 0 
17 0 18 0 17 0 17 0 18 0 17 0 18 0 17 0 
18 0 17 0 17 0 18 0 17 0 18 0 17 0 18 0 
17 1 17 2 18 4 17 6 18 12 17 19 18 29 17 45 
17 64 18 88 17 112 18 138 17 159 18 171 17 169 17 153 
18 119 17 73 18 21 17 -29 18 -76 17 -117 17 -143 18 -158 
17 -159 18 -150 17 -133 18 -113 17 -90 17 -69 18 -51 17 -36 
18 -24 17 -15 18 -10 17 -6 17 -3 18 -2 17 -1 18 0 
17 0 18 0 17 0 17 0 292 1601 101 MP stroke
/c10 { 1.000000 0.000000 0.000000 sr} bdef
c10
18 0 17 0 18 0 17 0 18 0 17 0 18 0 17 0 
17 0 18 0 17 0 18 0 17 0 18 0 17 0 17 0 
18 0 17 0 18 0 17 0 18 0 17 0 17 0 18 0 
17 0 18 0 17 0 18 1 17 0 17 0 18 0 17 0 
18 0 17 0 18 0 17 0 17 0 18 0 17 0 18 0 
17 0 18 0 17 0 17 0 18 0 17 0 18 0 17 0 
18 0 17 0 17 0 18 0 17 0 18 0 17 1 18 2 
17 4 17 6 18 11 17 18 18 28 17 43 18 61 17 83 
17 108 18 133 17 153 18 166 17 167 18 154 17 125 17 82 
18 29 17 -26 18 -75 17 -115 18 -142 17 -156 17 -159 18 -149 
17 -134 18 -112 17 -90 18 -69 17 -51 17 -36 18 -23 17 -16 
18 -9 17 -6 18 -3 17 -2 17 -1 18 0 17 0 18 0 
17 0 18 0 17 0 17 0 292 1601 101 MP stroke
/c11 { 0.000000 0.750000 0.750000 sr} bdef
c11
18 0 17 0 18 0 17 0 18 0 17 0 18 0 17 0 
17 0 18 0 17 0 18 0 17 0 18 0 17 0 17 0 
18 0 17 0 18 0 17 0 18 0 17 0 17 0 18 0 
17 0 18 0 17 1 18 0 17 0 17 0 18 0 17 0 
18 0 17 0 18 0 17 0 17 0 18 0 17 0 18 0 
17 0 18 0 17 0 17 0 18 0 17 0 18 0 17 0 
18 0 17 0 17 0 18 0 17 1 18 2 17 3 18 7 
17 10 17 17 18 28 17 40 18 59 17 80 18 104 17 128 
17 149 18 162 17 164 18 153 17 127 18 87 17 37 17 -17 
18 -70 17 -113 18 -140 17 -156 18 -157 17 -150 17 -134 18 -113 
17 -91 18 -70 17 -51 18 -36 17 -24 17 -15 18 -9 17 -6 
18 -3 17 -2 18 -1 17 0 17 0 18 0 17 0 18 0 
17 0 18 0 17 0 17 0 292 1601 101 MP stroke
/c12 { 0.750000 0.000000 0.750000 sr} bdef
c12
18 0 17 0 18 0 17 0 18 0 17 0 18 0 17 0 
17 0 18 0 17 0 18 0 17 0 18 0 17 0 17 0 
18 0 17 0 18 0 17 0 18 0 17 0 17 0 18 0 
17 1 18 0 17 0 18 0 17 0 17 0 18 0 17 0 
18 0 17 0 18 0 17 0 17 0 18 0 17 0 18 0 
17 0 18 0 17 0 17 0 18 0 17 0 18 0 17 0 
18 0 17 0 17 0 18 1 17 1 18 3 17 6 18 9 
17 14 17 24 18 36 17 52 18 71 17 94 18 117 17 139 
17 154 18 162 17 155 18 136 17 103 18 58 17 7 17 -45 
18 -92 17 -128 18 -152 17 -163 18 -162 17 -147 17 -125 18 -100 
17 -76 18 -55 17 -38 18 -24 17 -16 17 -9 18 -5 17 -3 
18 -1 17 -1 18 0 17 0 17 0 18 0 17 0 18 0 
17 0 18 0 17 0 17 0 292 1601 101 MP stroke
/c13 { 0.750000 0.750000 0.000000 sr} bdef
c13
18 0 17 0 18 0 17 0 18 0 17 0 18 0 17 0 
17 0 18 0 17 0 18 0 17 0 18 0 17 0 17 0 
18 0 17 0 18 0 17 0 18 0 17 0 17 0 18 1 
17 0 18 0 17 0 18 0 17 0 17 0 18 0 17 0 
18 0 17 0 18 0 17 0 17 0 18 0 17 0 18 0 
17 0 18 0 17 0 17 0 18 0 17 0 18 0 17 0 
18 1 17 1 17 2 18 4 17 7 18 12 17 20 18 30 
17 45 17 63 18 85 17 108 18 131 17 150 18 161 17 160 
17 145 18 116 17 75 18 25 17 -28 18 -77 17 -119 17 -147 
18 -160 17 -160 18 -149 17 -130 18 -107 17 -84 17 -62 18 -44 
17 -29 18 -19 17 -12 18 -7 17 -3 17 -2 18 -2 17 0 
18 0 17 0 18 0 17 0 17 0 18 0 17 0 18 0 
17 0 18 0 17 0 17 0 292 1601 101 MP stroke
0.25 sg
18 0 17 0 18 0 17 0 18 0 17 0 18 0 17 0 
17 0 18 0 17 0 18 0 17 0 18 0 17 0 17 0 
18 0 17 0 18 0 17 0 18 0 17 1 17 0 18 0 
17 0 18 0 17 0 18 0 17 0 17 0 18 0 17 0 
18 0 17 0 18 0 17 0 17 0 18 0 17 0 18 0 
17 0 18 0 17 0 17 0 18 0 17 0 18 1 17 2 
18 3 17 5 17 10 18 16 17 25 18 38 17 54 18 74 
17 97 17 120 18 140 17 155 18 160 17 152 18 129 17 93 
17 48 18 -4 17 -55 18 -99 17 -134 18 -153 17 -160 17 -153 
18 -138 17 -117 18 -92 17 -70 18 -51 17 -36 17 -24 18 -15 
17 -10 18 -5 17 -3 18 -2 17 -1 17 0 18 0 17 0 
18 0 17 0 18 0 17 0 17 0 18 0 17 0 18 0 
17 0 18 0 17 0 17 0 292 1601 101 MP stroke
c8
18 0 17 0 18 0 17 0 18 0 17 0 18 0 17 0 
17 0 18 0 17 0 18 0 17 0 18 0 17 0 17 0 
18 0 17 0 18 0 17 1 18 0 17 0 17 0 18 0 
17 0 18 0 17 0 18 0 17 0 17 0 18 0 17 0 
18 0 17 0 18 0 17 0 17 0 18 0 17 0 18 0 
17 0 18 0 17 1 17 1 18 3 17 5 18 9 17 15 
18 23 17 35 17 51 18 71 17 93 18 116 17 137 18 152 
17 159 17 153 18 132 17 100 18 54 17 4 18 -47 17 -93 
17 -128 18 -151 17 -159 18 -154 17 -140 18 -119 17 -96 17 -74 
18 -52 17 -36 18 -24 17 -17 18 -10 17 -6 17 -4 18 -2 
17 -1 18 -1 17 0 18 0 17 0 17 0 18 0 17 0 
18 0 17 0 18 0 17 0 17 0 18 0 17 0 18 0 
17 0 18 0 17 0 17 0 292 1601 101 MP stroke
c9
18 0 17 0 18 0 17 0 18 0 17 0 18 0 17 0 
17 0 18 0 17 0 18 0 17 0 18 0 17 0 17 0 
18 0 17 0 18 1 17 0 18 0 17 0 17 0 18 0 
17 0 18 0 17 0 18 0 17 0 17 0 18 0 17 0 
18 0 17 0 18 0 17 0 17 0 18 0 17 0 18 0 
17 0 18 1 17 1 17 2 18 4 17 7 18 12 17 19 
18 30 17 44 17 62 18 84 17 107 18 129 17 148 18 158 
17 157 17 142 18 114 17 73 18 23 17 -28 18 -78 17 -117 
17 -145 18 -157 17 -158 18 -146 17 -127 18 -105 17 -81 17 -60 
18 -43 17 -28 18 -18 17 -11 18 -7 17 -4 17 -2 18 -1 
17 -1 18 0 17 0 18 0 17 0 17 0 18 0 17 0 
18 0 17 0 18 0 17 0 17 0 18 0 17 0 18 0 
17 0 18 0 17 0 17 0 292 1601 101 MP stroke
c10
18 0 17 0 18 0 17 0 18 0 17 0 18 0 17 0 
17 0 18 0 17 0 18 0 17 0 18 0 17 0 17 0 
18 1 17 0 18 0 17 0 18 0 17 0 17 0 18 0 
17 0 18 0 17 0 18 0 17 0 17 0 18 0 17 0 
18 0 17 0 18 0 17 0 17 0 18 0 17 0 18 1 
17 1 18 3 17 5 17 9 18 14 17 23 18 35 17 51 
18 70 17 92 17 114 18 136 17 151 18 157 17 151 18 132 
17 98 17 55 18 4 17 -46 18 -92 17 -127 18 -149 17 -158 
17 -152 18 -139 17 -118 18 -96 17 -73 18 -54 17 -37 17 -25 
18 -15 17 -10 18 -5 17 -3 18 -2 17 -1 17 0 18 0 
17 0 18 0 17 0 18 0 17 0 17 0 18 0 17 0 
18 0 17 0 18 0 17 0 17 0 18 0 17 0 18 0 
17 0 18 0 17 0 17 0 292 1601 101 MP stroke
c11
18 0 17 0 18 0 17 0 18 0 17 0 18 0 17 0 
17 0 18 0 17 0 18 0 17 0 18 0 17 1 17 0 
18 0 17 0 18 0 17 0 18 0 17 0 17 0 18 0 
17 0 18 0 17 0 18 0 17 0 17 0 18 0 17 0 
18 0 17 0 18 0 17 0 17 0 18 1 17 2 18 3 
17 5 18 10 17 16 17 25 18 37 17 54 18 73 17 96 
18 118 17 138 17 153 18 157 17 148 18 126 17 91 18 45 
17 -5 17 -55 18 -99 17 -132 18 -151 17 -157 18 -150 17 -135 
17 -114 18 -91 17 -69 18 -50 17 -34 18 -23 17 -14 17 -9 
18 -5 17 -3 18 -1 17 -1 18 0 17 0 17 0 18 0 
17 0 18 0 17 0 18 0 17 0 17 0 18 0 17 0 
18 0 17 0 18 0 17 0 17 0 18 0 17 0 18 0 
17 0 18 0 17 0 17 0 292 1601 101 MP stroke
c12
18 0 17 0 18 0 17 0 18 0 17 0 18 0 17 0 
17 0 18 0 17 0 18 1 17 0 18 0 17 0 17 0 
18 0 17 0 18 0 17 0 18 0 17 0 17 0 18 0 
17 0 18 0 17 0 18 0 17 0 17 0 18 0 17 0 
18 0 17 0 18 1 17 1 17 2 18 5 17 7 18 13 
17 21 18 32 17 46 17 65 18 86 17 110 18 130 17 148 
18 157 17 153 17 136 18 107 17 64 18 15 17 -36 18 -82 
17 -121 17 -145 18 -156 17 -154 18 -142 17 -122 18 -100 17 -77 
17 -57 18 -40 17 -27 18 -17 17 -10 18 -6 17 -4 17 -2 
18 -1 17 0 18 0 17 0 18 0 17 0 17 0 18 0 
17 0 18 0 17 0 18 0 17 0 17 0 18 0 17 0 
18 0 17 0 18 0 17 0 17 0 18 0 17 0 18 0 
17 0 18 0 17 -1 17 0 292 1602 101 MP stroke
c13
18 0 17 0 18 0 17 0 18 0 17 0 18 0 17 0 
17 0 18 0 17 0 18 0 17 1 18 0 17 0 17 0 
18 0 17 0 18 0 17 0 18 0 17 0 17 0 18 0 
17 0 18 0 17 0 18 0 17 0 17 0 18 0 17 0 
18 0 17 0 18 0 17 0 17 0 18 1 17 1 18 2 
17 4 18 7 17 12 17 19 18 30 17 44 18 63 17 83 
18 106 17 129 17 146 18 156 17 154 18 140 17 111 18 71 
17 21 17 -30 18 -78 17 -116 18 -144 17 -155 18 -156 17 -143 
17 -125 18 -103 17 -79 18 -59 17 -42 18 -28 17 -18 17 -11 
18 -6 17 -4 18 -2 17 -1 18 0 17 0 17 0 18 0 
17 0 18 0 17 0 18 0 17 0 17 0 18 0 17 0 
18 0 17 0 18 0 17 0 17 0 18 0 17 0 18 0 
17 0 18 -1 17 0 17 0 292 1602 101 MP stroke
0.25 sg
18 0 17 0 18 0 17 0 18 0 17 0 18 0 17 0 
17 0 18 1 17 0 18 0 17 0 18 0 17 0 17 0 
18 0 17 0 18 0 17 0 18 0 17 0 17 0 18 0 
17 0 18 0 17 0 18 0 17 0 17 0 18 0 17 0 
18 0 17 1 18 1 17 2 17 4 18 8 17 12 18 20 
17 31 18 45 17 64 17 85 18 107 17 129 18 147 17 156 
18 153 17 138 17 109 18 67 17 18 18 -33 17 -80 18 -119 
17 -144 17 -155 18 -155 17 -142 18 -123 17 -101 18 -78 17 -58 
17 -41 18 -27 17 -17 18 -11 17 -6 18 -4 17 -2 17 -1 
18 0 17 0 18 0 17 0 18 0 17 0 17 0 18 0 
17 0 18 0 17 0 18 0 17 0 17 0 18 0 17 0 
18 0 17 0 18 0 17 0 17 0 18 0 17 0 18 -1 
17 0 18 0 17 0 17 0 292 1602 101 MP stroke
c8
18 0 17 0 18 0 17 0 18 0 17 0 18 1 17 0 
17 0 18 0 17 0 18 0 17 0 18 0 17 0 17 0 
18 0 17 0 18 0 17 0 18 0 17 0 17 0 18 0 
17 0 18 0 17 0 18 0 17 0 17 1 18 2 17 3 
18 5 17 10 18 16 17 25 17 37 18 54 17 73 18 96 
17 118 18 138 17 152 17 156 18 147 17 124 18 90 17 43 
18 -6 17 -56 17 -99 18 -132 17 -150 18 -156 17 -149 18 -134 
17 -112 17 -90 18 -68 17 -50 18 -33 17 -23 18 -14 17 -8 
17 -5 18 -3 17 -1 18 -1 17 0 18 0 17 0 17 0 
18 0 17 0 18 0 17 0 18 0 17 0 17 0 18 0 
17 0 18 0 17 0 18 0 17 0 17 0 18 0 17 0 
18 0 17 0 18 0 17 0 17 -1 18 0 17 0 18 0 
17 0 18 0 17 0 17 0 292 1602 101 MP stroke
c9
18 0 17 0 18 0 17 0 18 0 17 1 18 0 17 0 
17 0 18 0 17 0 18 0 17 0 18 0 17 0 17 0 
18 0 17 0 18 0 17 0 18 0 17 0 17 0 18 0 
17 0 18 0 17 0 18 0 17 0 17 0 18 0 17 1 
18 1 17 3 18 4 17 8 17 14 18 21 17 33 18 47 
17 66 18 88 17 111 17 131 18 149 17 155 18 152 17 134 
18 103 17 61 17 11 18 -39 17 -86 18 -122 17 -145 18 -156 
17 -153 17 -140 18 -120 17 -98 18 -75 17 -56 18 -39 17 -25 
17 -17 18 -10 17 -6 18 -3 17 -2 18 -1 17 0 17 0 
18 0 17 0 18 0 17 0 18 0 17 0 17 0 18 0 
17 0 18 0 17 0 18 0 17 0 17 0 18 0 17 0 
18 0 17 0 18 0 17 -1 17 0 18 0 17 0 18 0 
17 0 18 0 17 0 17 0 292 1602 101 MP stroke
c10
18 0 17 0 18 1 17 0 18 0 17 0 18 0 17 0 
17 0 18 0 17 0 18 0 17 0 18 0 17 0 17 0 
18 0 17 0 18 0 17 0 18 0 17 0 17 0 18 1 
17 1 18 2 17 4 18 7 17 12 17 20 18 30 17 44 
18 63 17 84 18 106 17 129 17 146 18 156 17 155 18 139 
17 110 18 70 17 21 17 -31 18 -78 17 -118 18 -143 17 -156 
18 -155 17 -143 17 -125 18 -102 17 -79 18 -59 17 -41 18 -28 
17 -18 17 -11 18 -6 17 -4 18 -2 17 -1 18 0 17 0 
17 0 18 0 17 0 18 0 17 0 18 0 17 0 17 0 
18 0 17 0 18 0 17 0 18 0 17 0 17 0 18 0 
17 0 18 0 17 0 18 0 17 0 17 0 18 0 17 -1 
18 0 17 0 18 0 17 0 17 0 18 0 17 0 18 0 
17 0 18 0 17 0 17 0 292 1602 101 MP stroke
c11
18 0 17 1 18 0 17 0 18 0 17 0 18 0 17 0 
17 0 18 0 17 0 18 0 17 0 18 0 17 0 17 0 
18 0 17 0 18 0 17 0 18 0 17 0 17 0 18 0 
17 0 18 0 17 1 18 2 17 4 17 6 18 10 17 17 
18 27 17 40 18 57 17 78 17 100 18 122 17 142 18 154 
17 156 18 145 17 121 17 82 18 36 17 -16 18 -65 17 -107 
18 -136 17 -154 17 -156 18 -148 17 -130 18 -109 17 -87 18 -64 
17 -47 17 -31 18 -21 17 -13 18 -7 17 -5 18 -2 17 -1 
17 -1 18 0 17 0 18 0 17 0 18 0 17 0 17 0 
18 0 17 0 18 0 17 0 18 0 17 0 17 0 18 0 
17 0 18 0 17 0 18 0 17 0 17 0 18 0 17 -1 
18 0 17 0 18 0 17 0 17 0 18 0 17 0 18 0 
17 0 18 0 17 0 17 0 292 1602 101 MP stroke
c12
18 0 17 0 18 0 17 0 18 0 17 0 18 0 17 0 
17 0 18 0 17 0 18 0 17 0 18 0 17 0 17 0 
18 0 17 0 18 0 17 0 18 0 17 0 17 0 18 0 
17 1 18 2 17 2 18 6 17 9 17 14 18 24 17 36 
18 51 17 71 18 93 17 116 17 136 18 152 17 156 18 150 
17 129 18 96 17 51 17 1 18 -50 17 -94 18 -128 17 -150 
18 -157 17 -151 17 -137 18 -116 17 -94 18 -72 17 -52 18 -36 
17 -24 17 -15 18 -9 17 -5 18 -3 17 -2 18 -1 17 0 
17 0 18 0 17 0 18 0 17 0 18 0 17 0 17 0 
18 0 17 0 18 0 17 0 18 0 17 0 17 0 18 0 
17 0 18 0 17 0 18 0 17 0 17 -1 18 0 17 0 
18 0 17 0 18 0 17 0 17 0 18 0 17 0 18 0 
17 0 18 0 17 0 17 0 292 1602 101 MP stroke
c13
18 0 17 0 18 0 17 0 18 0 17 0 18 0 17 0 
17 0 18 0 17 0 18 0 17 0 18 0 17 0 17 0 
18 0 17 0 18 0 17 0 18 0 17 0 17 1 18 1 
17 2 18 4 17 6 18 11 17 19 17 28 18 43 17 61 
18 81 17 105 18 127 17 146 17 157 18 157 17 144 18 116 
17 76 18 27 17 -24 17 -74 18 -114 17 -143 18 -157 17 -157 
18 -147 17 -128 17 -106 18 -83 17 -61 18 -44 17 -29 18 -19 
17 -12 17 -6 18 -4 17 -2 18 -2 17 0 18 0 17 0 
17 0 18 0 17 0 18 0 17 0 18 0 17 0 17 0 
18 0 17 0 18 0 17 0 18 0 17 0 17 0 18 0 
17 0 18 0 17 0 18 0 17 -1 17 0 18 0 17 0 
18 0 17 0 18 0 17 0 17 0 18 0 17 0 18 0 
17 0 18 0 17 0 17 0 292 1602 101 MP stroke
0.25 sg
18 0 17 0 18 0 17 0 18 0 17 0 18 0 17 0 
17 0 18 0 17 0 18 0 17 0 18 0 17 0 17 0 
18 0 17 0 18 0 17 0 18 1 17 1 17 2 18 4 
17 6 18 11 17 16 18 28 17 40 17 59 18 79 17 101 
18 125 17 144 18 156 17 158 17 146 18 121 17 82 18 34 
17 -17 18 -67 17 -109 17 -139 18 -155 17 -158 18 -149 17 -132 
18 -109 17 -87 17 -65 18 -46 17 -31 18 -21 17 -13 18 -7 
17 -5 17 -2 18 -1 17 -1 18 0 17 0 18 0 17 0 
17 0 18 0 17 0 18 0 17 0 18 0 17 0 17 0 
18 0 17 0 18 0 17 0 18 0 17 0 17 0 18 0 
17 0 18 0 17 -1 18 0 17 0 17 0 18 0 17 0 
18 0 17 0 18 0 17 0 17 0 18 0 17 0 18 0 
17 0 18 0 17 0 17 0 292 1602 101 MP stroke
c8
18 0 17 0 18 0 17 0 18 0 17 0 18 0 17 0 
17 0 18 0 17 0 18 0 17 0 18 0 17 0 17 0 
18 0 17 2 18 2 17 3 18 7 17 11 17 19 18 29 
17 43 18 61 17 82 18 106 17 128 17 147 18 159 17 158 
18 145 17 118 18 77 17 28 17 -25 18 -74 17 -115 18 -143 
17 -159 18 -158 17 -148 17 -130 18 -107 17 -84 18 -62 17 -44 
18 -30 17 -19 17 -11 18 -7 17 -4 18 -2 17 -2 18 -1 
17 0 17 0 18 0 17 0 18 0 17 0 18 0 17 0 
17 0 18 0 17 0 18 0 17 0 18 0 17 0 17 0 
18 0 17 0 18 0 17 0 18 0 17 0 17 0 18 0 
17 0 18 0 17 -1 18 0 17 0 17 0 18 0 17 0 
18 0 17 0 18 0 17 0 17 0 18 0 17 0 18 0 
17 0 18 0 17 0 17 0 292 1602 101 MP stroke
c9
18 0 17 0 18 0 17 0 18 0 17 0 18 0 17 0 
17 0 18 0 17 0 18 0 17 0 18 0 17 0 17 1 
18 1 17 2 18 3 17 6 18 11 17 16 17 25 18 37 
17 52 18 70 17 93 18 118 17 140 17 154 18 160 17 152 
18 132 17 96 18 51 17 0 17 -51 18 -97 17 -132 18 -152 
17 -160 18 -154 17 -140 17 -118 18 -95 17 -72 18 -53 17 -37 
18 -24 17 -15 17 -9 18 -5 17 -3 18 -2 17 -1 18 0 
17 0 17 0 18 0 17 0 18 0 17 0 18 0 17 0 
17 0 18 0 17 0 18 0 17 0 18 0 17 0 17 0 
18 0 17 0 18 0 17 0 18 0 17 0 17 -1 18 0 
17 0 18 0 17 0 18 0 17 0 17 0 18 0 17 0 
18 0 17 0 18 0 17 0 17 0 18 0 17 0 18 0 
17 0 18 0 17 0 17 0 292 1602 101 MP stroke
c10
18 0 17 0 18 0 17 0 18 0 17 0 18 0 17 0 
17 0 18 0 17 0 18 0 17 0 18 1 17 1 17 3 
18 5 17 8 18 14 17 21 18 32 17 45 17 64 18 83 
17 105 18 127 17 150 18 161 17 160 17 146 18 116 17 75 
18 24 17 -29 18 -78 17 -119 17 -148 18 -160 17 -161 18 -148 
17 -130 18 -107 17 -83 17 -61 18 -44 17 -29 18 -18 17 -12 
18 -7 17 -3 17 -2 18 -2 17 0 18 0 17 0 18 0 
17 0 17 0 18 0 17 0 18 0 17 0 18 0 17 0 
17 0 18 0 17 0 18 0 17 0 18 0 17 0 17 0 
18 0 17 0 18 0 17 0 18 -1 17 0 17 0 18 0 
17 0 18 0 17 0 18 0 17 0 17 0 18 0 17 0 
18 0 17 0 18 0 17 0 17 0 18 0 17 0 18 0 
17 0 18 0 17 0 17 0 292 1602 101 MP stroke
c11
18 0 17 0 18 0 17 0 18 0 17 0 18 0 17 0 
17 0 18 0 17 0 18 1 17 2 18 4 17 6 17 11 
18 18 17 27 18 41 17 59 18 78 17 102 17 124 18 145 
17 157 18 161 17 152 18 127 17 89 17 41 18 -12 17 -63 
18 -107 17 -140 18 -157 17 -162 17 -154 18 -137 17 -115 18 -92 
17 -68 18 -50 17 -34 17 -22 18 -14 17 -8 18 -5 17 -3 
18 -1 17 -1 17 0 18 0 17 0 18 0 17 0 18 0 
17 0 17 0 18 0 17 0 18 0 17 0 18 0 17 0 
17 0 18 0 17 0 18 0 17 0 18 0 17 0 17 0 
18 0 17 0 18 0 17 -1 18 0 17 0 17 0 18 0 
17 0 18 0 17 0 18 0 17 0 17 0 18 0 17 0 
18 0 17 0 18 0 17 0 17 0 18 0 17 0 18 0 
17 0 18 0 17 0 17 0 292 1602 101 MP stroke
c12
18 0 17 0 18 0 17 0 18 0 17 0 18 0 17 0 
17 0 18 1 17 1 18 3 17 5 18 7 17 13 17 19 
18 29 17 42 18 60 17 79 18 100 17 121 17 139 18 151 
17 154 18 146 17 130 18 100 17 51 17 -3 18 -57 17 -103 
18 -139 17 -160 18 -165 17 -159 17 -141 18 -119 17 -94 18 -71 
17 -51 18 -35 17 -22 17 -14 18 -9 17 -4 18 -3 17 -1 
18 -1 17 0 17 0 18 0 17 0 18 0 17 0 18 0 
17 0 17 0 18 0 17 0 18 0 17 0 18 0 17 0 
17 0 18 0 17 0 18 0 17 0 18 0 17 0 17 0 
18 0 17 0 18 -1 17 0 18 0 17 0 17 0 18 0 
17 0 18 0 17 0 18 0 17 0 17 0 18 0 17 0 
18 0 17 0 18 0 17 0 17 0 18 0 17 0 18 0 
17 0 18 0 17 0 17 0 292 1602 101 MP stroke
c13
18 0 17 0 18 0 17 0 18 0 17 0 18 0 17 1 
17 3 18 3 17 7 18 11 17 18 18 28 17 42 17 60 
18 80 17 104 18 126 17 147 18 160 17 162 17 152 18 128 
17 91 18 43 17 -10 18 -62 17 -108 17 -142 18 -161 17 -165 
18 -157 17 -140 18 -118 17 -93 17 -70 18 -51 17 -34 18 -23 
17 -14 18 -8 17 -5 17 -3 18 -1 17 -1 18 0 17 0 
18 0 17 0 17 0 18 0 17 0 18 0 17 0 18 0 
17 0 17 0 18 0 17 0 18 0 17 0 18 0 17 0 
17 0 18 0 17 0 18 0 17 0 18 0 17 0 17 -1 
18 0 17 0 18 0 17 0 18 0 17 0 17 0 18 0 
17 0 18 0 17 0 18 0 17 0 17 0 18 0 17 0 
18 0 17 0 18 0 17 0 17 0 18 0 17 0 18 0 
17 0 18 0 17 0 17 0 292 1602 101 MP stroke
0.25 sg
18 0 17 0 18 0 17 0 18 0 17 1 18 2 17 4 
17 6 18 10 17 17 18 26 17 39 18 55 17 75 17 97 
18 119 17 140 18 156 17 161 18 155 17 137 17 106 18 62 
17 13 18 -39 17 -90 18 -131 17 -158 17 -168 18 -165 17 -151 
18 -129 17 -105 18 -80 17 -59 17 -40 18 -27 17 -17 18 -10 
17 -6 18 -3 17 -2 17 -1 18 0 17 0 18 0 17 0 
18 0 17 0 17 0 18 0 17 0 18 0 17 0 18 0 
17 0 17 0 18 0 17 0 18 0 17 0 18 0 17 0 
17 0 18 0 17 0 18 0 17 0 18 0 17 0 17 0 
18 0 17 0 18 0 17 -1 18 0 17 0 17 0 18 0 
17 0 18 0 17 0 18 0 17 0 17 0 18 0 17 0 
18 0 17 0 18 0 17 0 17 0 18 0 17 0 18 0 
17 0 18 0 17 0 17 0 292 1602 101 MP stroke
c8
18 0 17 0 18 0 17 1 18 2 17 2 18 4 17 7 
17 11 18 17 17 25 18 36 17 49 18 65 17 83 17 102 
18 120 17 138 18 146 17 148 18 141 17 123 17 96 18 63 
17 22 18 -25 17 -66 18 -100 17 -152 17 -188 18 -191 17 -176 
18 -149 17 -117 18 -87 17 -60 17 -39 18 -24 17 -13 18 -7 
17 -4 18 -2 17 -1 17 0 18 0 17 0 18 0 17 0 
18 0 17 0 17 0 18 0 17 0 18 0 17 0 18 0 
17 0 17 0 18 0 17 0 18 0 17 0 18 0 17 0 
17 0 18 0 17 0 18 0 17 0 18 0 17 0 17 0 
18 0 17 0 18 0 17 -1 18 0 17 0 17 0 18 0 
17 0 18 0 17 0 18 0 17 0 17 0 18 0 17 0 
18 0 17 0 18 0 17 0 17 0 18 0 17 0 18 0 
17 0 18 0 17 0 17 0 292 1602 101 MP stroke
gr

c8

end %%Color Dict

eplot
%%EndObject

epage
end

showpage

%%Trailer
%%EOF
