%!PS-Adobe-3.0 EPSF-3.0
%%Creator: MATLAB, The MathWorks, Inc. Version 7.12.0.635 (R2011a). Operating System: Microsoft Windows 7.
%%Title: C:\Users\wwu\Desktop\warping\Muller_PACE\examples\comp_signa_pace.eps
%%CreationDate: 05/04/2011  21:43:03
%%DocumentNeededFonts: Helvetica
%%DocumentProcessColors: Cyan Magenta Yellow Black
%%LanguageLevel: 2
%%Pages: 1
%%BoundingBox:   212   320   399   470
%%EndComments

%%BeginProlog
% MathWorks dictionary
/MathWorks 160 dict begin
% definition operators
/bdef {bind def} bind def
/ldef {load def} bind def
/xdef {exch def} bdef
/xstore {exch store} bdef
% operator abbreviations
/c  /clip ldef
/cc /concat ldef
/cp /closepath ldef
/gr /grestore ldef
/gs /gsave ldef
/mt /moveto ldef
/np /newpath ldef
/cm /currentmatrix ldef
/sm /setmatrix ldef
/rm /rmoveto ldef
/rl /rlineto ldef
/s {show newpath} bdef
/sc {setcmykcolor} bdef
/sr /setrgbcolor ldef
/sg /setgray ldef
/w /setlinewidth ldef
/j /setlinejoin ldef
/cap /setlinecap ldef
/rc {rectclip} bdef
/rf {rectfill} bdef
% page state control
/pgsv () def
/bpage {/pgsv save def} bdef
/epage {pgsv restore} bdef
/bplot /gsave ldef
/eplot {stroke grestore} bdef
% orientation switch
/portraitMode 0 def /landscapeMode 1 def /rotateMode 2 def
% coordinate system mappings
/dpi2point 0 def
% font control
/FontSize 0 def
/FMS {/FontSize xstore findfont [FontSize 0 0 FontSize neg 0 0]
  makefont setfont} bdef
/ISOLatin1Encoding where {pop /WindowsLatin1Encoding 256 array bdef
ISOLatin1Encoding WindowsLatin1Encoding copy pop
/.notdef/.notdef/quotesinglbase/florin/quotedblbase/ellipsis/dagger
/daggerdbl/circumflex/perthousand/Scaron/guilsinglleft/OE/.notdef/.notdef
/.notdef/.notdef/quoteleft/quoteright/quotedblleft/quotedblright/bullet
/endash/emdash/tilde/trademark/scaron/guilsinglright/oe/.notdef/.notdef
/Ydieresis WindowsLatin1Encoding 128 32 getinterval astore pop}
{/WindowsLatin1Encoding StandardEncoding bdef} ifelse
/reencode {exch dup where {pop load} {pop StandardEncoding} ifelse
  exch dup 3 1 roll findfont dup length dict begin
  { 1 index /FID ne {def}{pop pop} ifelse } forall
  /Encoding exch def currentdict end definefont pop} bdef
/isroman {findfont /CharStrings get /Agrave known} bdef
/FMSR {3 1 roll 1 index dup isroman {reencode} {pop pop} ifelse
  exch FMS} bdef
/csm {1 dpi2point div -1 dpi2point div scale neg translate
 dup landscapeMode eq {pop -90 rotate}
  {rotateMode eq {90 rotate} if} ifelse} bdef
% line types: solid, dotted, dashed, dotdash
/SO { [] 0 setdash } bdef
/DO { [.5 dpi2point mul 4 dpi2point mul] 0 setdash } bdef
/DA { [6 dpi2point mul] 0 setdash } bdef
/DD { [.5 dpi2point mul 4 dpi2point mul 6 dpi2point mul 4
  dpi2point mul] 0 setdash } bdef
% macros for lines and objects
/L {lineto stroke} bdef
/MP {3 1 roll moveto 1 sub {rlineto} repeat} bdef
/AP {{rlineto} repeat} bdef
/PDlw -1 def
/W {/PDlw currentlinewidth def setlinewidth} def
/PP {closepath eofill} bdef
/DP {closepath stroke} bdef
/MR {4 -2 roll moveto dup  0 exch rlineto exch 0 rlineto
  neg 0 exch rlineto closepath} bdef
/FR {MR stroke} bdef
/PR {MR fill} bdef
/L1i {{currentfile picstr readhexstring pop} image} bdef
/tMatrix matrix def
/MakeOval {newpath tMatrix currentmatrix pop translate scale
0 0 1 0 360 arc tMatrix setmatrix} bdef
/FO {MakeOval stroke} bdef
/PO {MakeOval fill} bdef
/PD {currentlinewidth 2 div 0 360 arc fill
   PDlw -1 eq not {PDlw w /PDlw -1 def} if} def
/FA {newpath tMatrix currentmatrix pop translate scale
  0 0 1 5 -2 roll arc tMatrix setmatrix stroke} bdef
/PA {newpath tMatrix currentmatrix pop	translate 0 0 moveto scale
  0 0 1 5 -2 roll arc closepath tMatrix setmatrix fill} bdef
/FAn {newpath tMatrix currentmatrix pop translate scale
  0 0 1 5 -2 roll arcn tMatrix setmatrix stroke} bdef
/PAn {newpath tMatrix currentmatrix pop translate 0 0 moveto scale
  0 0 1 5 -2 roll arcn closepath tMatrix setmatrix fill} bdef
/vradius 0 def /hradius 0 def /lry 0 def
/lrx 0 def /uly 0 def /ulx 0 def /rad 0 def
/MRR {/vradius xdef /hradius xdef /lry xdef /lrx xdef /uly xdef
  /ulx xdef newpath tMatrix currentmatrix pop ulx hradius add uly
  vradius add translate hradius vradius scale 0 0 1 180 270 arc 
  tMatrix setmatrix lrx hradius sub uly vradius add translate
  hradius vradius scale 0 0 1 270 360 arc tMatrix setmatrix
  lrx hradius sub lry vradius sub translate hradius vradius scale
  0 0 1 0 90 arc tMatrix setmatrix ulx hradius add lry vradius sub
  translate hradius vradius scale 0 0 1 90 180 arc tMatrix setmatrix
  closepath} bdef
/FRR {MRR stroke } bdef
/PRR {MRR fill } bdef
/MlrRR {/lry xdef /lrx xdef /uly xdef /ulx xdef /rad lry uly sub 2 div def
  newpath tMatrix currentmatrix pop ulx rad add uly rad add translate
  rad rad scale 0 0 1 90 270 arc tMatrix setmatrix lrx rad sub lry rad
  sub translate rad rad scale 0 0 1 270 90 arc tMatrix setmatrix
  closepath} bdef
/FlrRR {MlrRR stroke } bdef
/PlrRR {MlrRR fill } bdef
/MtbRR {/lry xdef /lrx xdef /uly xdef /ulx xdef /rad lrx ulx sub 2 div def
  newpath tMatrix currentmatrix pop ulx rad add uly rad add translate
  rad rad scale 0 0 1 180 360 arc tMatrix setmatrix lrx rad sub lry rad
  sub translate rad rad scale 0 0 1 0 180 arc tMatrix setmatrix
  closepath} bdef
/FtbRR {MtbRR stroke } bdef
/PtbRR {MtbRR fill } bdef
/stri 6 array def /dtri 6 array def
/smat 6 array def /dmat 6 array def
/tmat1 6 array def /tmat2 6 array def /dif 3 array def
/asub {/ind2 exch def /ind1 exch def dup dup
  ind1 get exch ind2 get sub exch } bdef
/tri_to_matrix {
  2 0 asub 3 1 asub 4 0 asub 5 1 asub
  dup 0 get exch 1 get 7 -1 roll astore } bdef
/compute_transform {
  dmat dtri tri_to_matrix tmat1 invertmatrix 
  smat stri tri_to_matrix tmat2 concatmatrix } bdef
/ds {stri astore pop} bdef
/dt {dtri astore pop} bdef
/db {2 copy /cols xdef /rows xdef mul dup 3 mul string
  currentfile 
  3 index 0 eq {/ASCIIHexDecode filter}
  {/ASCII85Decode filter 3 index 2 eq {/RunLengthDecode filter} if }
  ifelse exch readstring pop
  dup 0 3 index getinterval /rbmap xdef
  dup 2 index dup getinterval /gbmap xdef
  1 index dup 2 mul exch getinterval /bbmap xdef pop pop}bdef
/it {gs np dtri aload pop moveto lineto lineto cp c
  cols rows 8 compute_transform 
  rbmap gbmap bbmap true 3 colorimage gr}bdef
/il {newpath moveto lineto stroke}bdef
currentdict end def
%%EndProlog

%%BeginSetup
MathWorks begin

0 cap

end
%%EndSetup

%%Page: 1 1
%%BeginPageSetup
%%PageBoundingBox:   212   320   399   470
MathWorks begin
bpage
%%EndPageSetup

%%BeginObject: obj1
bplot

/dpi2point 12 def
portraitMode 2544 5640 csm

    0     0  2249  1800 rc
85 dict begin %Colortable dictionary
/c0 { 0.000000 0.000000 0.000000 sr} bdef
/c1 { 1.000000 1.000000 1.000000 sr} bdef
/c2 { 0.900000 0.000000 0.000000 sr} bdef
/c3 { 0.000000 0.820000 0.000000 sr} bdef
/c4 { 0.000000 0.000000 0.800000 sr} bdef
/c5 { 0.910000 0.820000 0.320000 sr} bdef
/c6 { 1.000000 0.260000 0.820000 sr} bdef
/c7 { 0.000000 0.820000 0.820000 sr} bdef
c0
1 j
1 sg
   0    0 2250 1801 rf
6 w
0 1467 1743 0 0 -1467 292 1602 4 MP
PP
-1743 0 0 1467 1743 0 0 -1467 292 1602 5 MP stroke
4 w
DO
SO
6 w
0 sg
 292  135 mt 2035  135 L
 292 1602 mt 2035 1602 L
2035 1602 mt 2035  135 L
 292 1602 mt  292  135 L
 292 1602 mt 2035 1602 L
 292 1602 mt  292  135 L
 633 1602 mt  633 1584 L
 633  135 mt  633  152 L
%%IncludeResource: font Helvetica
/Helvetica /WindowsLatin1Encoding 120 FMSR

 567 1747 mt 
(20) s
 992 1602 mt  992 1584 L
 992  135 mt  992  152 L
 926 1747 mt 
(40) s
1352 1602 mt 1352 1584 L
1352  135 mt 1352  152 L
1286 1747 mt 
(60) s
1711 1602 mt 1711 1584 L
1711  135 mt 1711  152 L
1645 1747 mt 
(80) s
 292 1602 mt  309 1602 L
2035 1602 mt 2017 1602 L
 191 1646 mt 
(0) s
 292 1113 mt  309 1113 L
2035 1113 mt 2017 1113 L
  91 1157 mt 
(0.5) s
 292  624 mt  309  624 L
2035  624 mt 2017  624 L
 191  668 mt 
(1) s
 292  135 mt  309  135 L
2035  135 mt 2017  135 L
  91  179 mt 
(1.5) s
 292  135 mt 2035  135 L
 292 1602 mt 2035 1602 L
2035 1602 mt 2035  135 L
 292 1602 mt  292  135 L
gs 292 135 1744 1468 rc
/c8 { 0.000000 0.000000 1.000000 sr} bdef
c8
18 189 18 162 18 100 18 34 18 5 18 19 18 49 18 56 
18 37 18 5 18 -36 18 -78 18 -93 18 -51 18 30 18 95 
18 101 18 44 18 -37 18 -85 18 -72 18 -15 18 37 18 45 
18 16 18 -3 18 -25 18 -60 18 -95 18 -93 18 -48 18 4 
17 45 18 75 18 91 18 84 18 50 18 -4 18 -47 18 -59 
18 -28 18 14 18 29 18 10 18 -1 18 7 18 6 18 -24 
18 -69 18 -97 18 -62 18 25 18 110 18 141 18 101 18 3 
18 -92 18 -101 18 -9 18 80 18 87 18 15 18 -75 18 -107 
17 -56 18 -4 18 5 18 5 18 -4 18 -17 18 -15 18 -10 
18 1 18 19 18 26 18 33 18 36 18 27 18 13 18 -6 
18 -26 18 -49 18 -47 18 -33 18 -10 18 41 18 67 18 85 
18 91 18 63 18 23 18 -22 18 -71 18 -131 18 -147 18 -155 
17 -152 292 1549 98 MP stroke
/c9 { 0.000000 0.500000 0.000000 sr} bdef
c9
18 154 18 138 18 105 18 67 18 39 18 27 18 27 18 30 
18 20 18 -8 18 -52 18 -91 18 -105 18 -84 18 -29 18 38 
18 80 18 78 18 48 18 5 18 -31 18 -48 18 -40 18 -12 
18 6 18 8 18 7 18 2 18 -9 18 -41 18 -83 18 -96 
17 -61 18 -7 18 45 18 85 18 102 18 98 18 74 18 32 
18 -17 18 -45 18 -30 18 4 18 22 18 6 18 -16 18 -21 
18 -19 18 -33 18 -58 18 -78 18 -60 18 -8 18 55 18 94 
18 90 18 46 18 -21 18 -78 18 -100 18 -80 18 -27 18 35 
17 80 18 93 18 71 18 22 18 -36 18 -74 18 -71 18 -48 
18 -23 18 -13 18 -13 18 -17 18 -11 18 5 18 21 18 30 
18 32 18 26 18 13 18 -14 18 -49 18 -81 18 -80 18 -33 
18 40 18 95 18 120 18 107 18 47 18 -46 18 -132 18 -166 
17 -149 292 1515 98 MP stroke
/c10 { 1.000000 0.000000 0.000000 sr} bdef
c10
18 180 18 165 18 126 18 87 18 60 18 48 18 37 18 9 
18 -38 18 -96 18 -142 18 -148 18 -94 18 -12 18 62 18 105 
18 108 18 78 18 27 18 -22 18 -47 18 -42 18 -17 18 6 
18 19 18 20 18 11 18 -40 18 -100 18 -107 18 -59 18 17 
17 83 18 113 18 102 18 45 18 -47 18 -91 18 -63 18 -7 
18 7 18 -35 18 -55 18 -20 18 38 18 49 18 15 18 -21 
18 -36 18 -10 18 49 18 106 18 122 18 84 18 5 18 -82 
18 -138 18 -142 18 -91 18 -11 18 60 18 91 18 73 18 16 
17 -54 18 -101 18 -102 18 -67 18 -24 18 4 18 12 18 9 
18 10 18 15 18 24 18 31 18 32 18 28 18 19 18 8 
18 2 18 -1 18 -8 18 -22 18 -41 18 -50 18 -36 18 3 
18 48 18 81 18 91 18 75 18 39 18 -6 18 -42 18 -57 
17 -42 292 1168 98 MP stroke
/c11 { 0.000000 0.750000 0.750000 sr} bdef
c11
18 199 18 180 18 135 18 79 18 42 18 34 18 49 18 62 
18 52 18 19 18 -31 18 -92 18 -149 18 -160 18 -107 18 -18 
18 61 18 107 18 113 18 81 18 27 18 -26 18 -57 18 -55 
18 -34 18 -9 18 -2 18 -14 18 -48 18 -91 18 -112 18 -90 
17 -34 18 28 18 74 18 106 18 117 18 108 18 74 18 25 
18 -22 18 -47 18 -41 18 -15 18 5 18 1 18 -17 18 -29 
18 -15 18 10 18 26 18 15 18 -23 18 -55 18 -37 18 54 
18 133 18 126 18 35 18 -90 18 -174 18 -176 18 -92 18 32 
17 125 18 161 18 134 18 50 18 -50 18 -108 18 -107 18 -92 
18 -76 18 -53 18 -27 18 -3 18 16 18 27 18 34 18 34 
18 27 18 17 18 4 18 -8 18 -21 18 -36 18 -48 18 -40 
18 -2 18 53 18 99 18 112 18 77 18 6 18 -77 18 -129 
17 -134 292 1310 98 MP stroke
/c12 { 0.750000 0.000000 0.750000 sr} bdef
c12
18 262 18 236 18 170 18 95 18 46 18 29 18 14 18 -21 
18 -71 18 -123 18 -149 18 -133 18 -71 18 7 18 72 18 108 
18 112 18 85 18 34 18 -19 18 -43 18 -31 18 0 18 24 
18 24 18 -3 18 -44 18 -78 18 -95 18 -87 18 -51 18 5 
17 64 18 113 18 133 18 117 18 63 18 -2 18 -45 18 -41 
18 -6 18 29 18 37 18 15 18 -17 18 -31 18 -31 18 -36 
18 -52 18 -42 18 18 18 96 18 128 18 81 18 -19 18 -124 
18 -186 18 -176 18 -96 18 8 18 87 18 119 18 97 18 29 
17 -60 18 -122 18 -109 18 -46 18 -3 18 8 18 6 18 7 
18 9 18 12 18 14 18 20 18 31 18 35 18 32 18 17 
18 -5 18 -31 18 -57 18 -77 18 -84 18 -72 18 -31 18 15 
18 56 18 84 18 99 18 95 18 70 18 23 18 -40 18 -105 
17 -153 292 1305 98 MP stroke
/c13 { 0.750000 0.750000 0.000000 sr} bdef
c13
18 155 18 145 18 118 18 86 18 60 18 51 18 54 18 57 
18 38 18 -11 18 -71 18 -126 18 -151 18 -132 18 -72 18 4 
18 66 18 89 18 71 18 33 18 -9 18 -38 18 -41 18 -21 
18 5 18 20 18 19 18 20 18 25 18 21 18 -11 18 -54 
17 -65 18 -29 18 31 18 74 18 79 18 43 18 -15 18 -63 
18 -67 18 -24 18 19 18 31 18 21 18 13 18 12 18 2 
18 -30 18 -62 18 -56 18 -9 18 58 18 105 18 107 18 59 
18 -12 18 -80 18 -118 18 -112 18 -61 18 14 18 70 18 80 
17 42 18 -22 18 -75 18 -91 18 -71 18 -43 18 -24 18 -20 
18 -16 18 -9 18 7 18 22 18 35 18 40 18 37 18 25 
18 11 18 -3 18 -14 18 -27 18 -43 18 -48 18 -25 18 22 
18 66 18 84 18 79 18 60 18 32 18 -6 18 -48 18 -71 
17 -62 292 1214 98 MP stroke
0.25 sg
18 192 18 176 18 143 18 103 18 74 18 58 18 50 18 33 
18 -18 18 -78 18 -129 18 -147 18 -122 18 -63 18 9 18 68 
18 94 18 83 18 51 18 9 18 -23 18 -34 18 -23 18 0 
18 19 18 22 18 16 18 1 18 -32 18 -71 18 -95 18 -85 
17 -44 18 5 18 46 18 80 18 98 18 83 18 30 18 -28 
18 -58 18 -45 18 -12 18 11 18 13 18 -1 18 -6 18 9 
18 19 18 -3 18 -36 18 -47 18 -15 18 45 18 94 18 100 
18 56 18 -17 18 -86 18 -125 18 -122 18 -75 18 -4 18 63 
17 98 18 88 18 40 18 -24 18 -76 18 -87 18 -63 18 -27 
18 -1 18 9 18 11 18 11 18 13 18 14 18 18 18 20 
18 14 18 -2 18 -28 18 -57 18 -79 18 -76 18 -40 18 12 
18 56 18 81 18 83 18 62 18 17 18 -42 18 -90 18 -106 
17 -97 292 1479 98 MP stroke
c8
18 84 18 78 18 67 18 52 18 40 18 42 18 46 18 43 
18 25 18 -25 18 -67 18 -99 18 -121 18 -104 18 -63 18 -15 
18 35 18 84 18 93 18 81 18 52 18 3 18 -44 18 -55 
18 -54 18 -35 18 -6 18 2 18 7 18 8 18 13 18 24 
17 15 18 -44 18 -95 18 -86 18 -16 18 50 18 95 18 112 
18 83 18 17 18 -54 18 -57 18 -3 18 51 18 40 18 -5 
18 -26 18 -14 18 -30 18 -92 18 -107 18 12 18 174 18 212 
18 78 18 -107 18 -234 18 -195 18 -18 18 144 18 211 18 149 
17 13 18 -83 18 -51 18 -12 18 -18 18 -32 18 -49 18 -57 
18 -46 18 -28 18 -9 18 7 18 23 18 27 18 21 18 8 
18 -8 18 -30 18 -49 18 -55 18 -53 18 -45 18 -25 18 11 
18 41 18 64 18 75 18 72 18 32 18 -28 18 -98 18 -169 
17 -231 292 1569 98 MP stroke
c9
18 147 18 128 18 80 18 31 18 10 18 20 18 32 18 26 
18 5 18 -21 18 -48 18 -73 18 -80 18 -50 18 14 18 80 
18 118 18 112 18 63 18 -3 18 -48 18 -47 18 -17 18 3 
18 -9 18 -36 18 -47 18 -48 18 -52 18 -63 18 -65 18 -49 
17 -15 18 27 18 64 18 96 18 113 18 107 18 63 18 0 
18 -51 18 -63 18 -40 18 -5 18 15 18 7 18 -14 18 -23 
18 -16 18 -13 18 -42 18 -65 18 -9 18 107 18 164 18 118 
18 2 18 -88 18 -142 18 -130 18 -37 18 87 18 153 18 116 
17 31 18 -85 18 -158 18 -149 18 -66 18 -19 18 11 18 27 
18 25 18 11 18 4 18 2 18 7 18 14 18 23 18 30 
18 24 18 6 18 -20 18 -48 18 -71 18 -79 18 -66 18 -38 
18 -2 18 33 18 61 18 70 18 46 18 -2 18 -68 18 -144 
17 -212 292 1583 98 MP stroke
c10
18 154 18 142 18 114 18 82 18 53 18 29 18 0 18 -47 
18 -92 18 -106 18 -85 18 -36 18 26 18 76 18 96 18 70 
18 24 18 -18 18 -37 18 -28 18 2 18 35 18 43 18 24 
18 -9 18 -44 18 -74 18 -93 18 -91 18 -34 18 28 18 55 
17 51 18 39 18 31 18 -2 18 -51 18 -72 18 -37 18 22 
18 44 18 17 18 -9 18 -2 18 26 18 44 18 24 18 -9 
18 -13 18 45 18 124 18 126 18 31 18 -87 18 -180 18 -217 
18 -174 18 -70 18 51 18 132 18 150 18 118 18 34 18 -40 
17 -21 18 49 18 51 18 -43 18 -96 18 -92 18 -80 18 -50 
18 -24 18 0 18 19 18 34 18 40 18 38 18 22 18 4 
18 -15 18 -33 18 -51 18 -66 18 -69 18 -49 18 -12 18 30 
18 67 18 93 18 100 18 74 18 22 18 -41 18 -102 18 -146 
17 -162 292 1432 98 MP stroke
c11
18 55 18 62 18 78 18 88 18 75 18 50 18 44 18 75 
18 118 18 136 18 112 18 58 18 -11 18 -97 18 -183 18 -221 
18 -176 18 -61 18 68 18 152 18 161 18 100 18 -5 18 -100 
18 -138 18 -105 18 7 18 8 18 -11 18 21 18 -28 18 -107 
17 -62 18 44 18 108 18 119 18 49 18 -64 18 -117 18 -46 
18 58 18 46 18 10 18 -14 18 -12 18 13 18 29 18 14 
18 -24 18 -49 18 -27 18 48 18 138 18 179 18 130 18 11 
18 -121 18 -198 18 -181 18 -87 18 26 18 100 18 107 18 54 
17 -28 18 -93 18 -110 18 -97 18 -73 18 -42 18 -25 18 -12 
18 -1 18 16 18 33 18 45 18 55 18 61 18 58 18 44 
18 21 18 -8 18 -43 18 -81 18 -87 18 -76 18 -47 18 0 
18 51 18 76 18 90 18 88 18 54 18 -7 18 -71 18 -135 
17 -189 292 1302 98 MP stroke
c12
18 113 18 98 18 67 18 44 18 50 18 72 18 78 18 53 
18 0 18 -64 18 -124 18 -165 18 -154 18 -73 18 30 18 111 
18 141 18 122 18 66 18 -2 18 -54 18 -72 18 -56 18 -22 
18 5 18 11 18 11 18 14 18 -2 18 -49 18 -92 18 -83 
17 -23 18 52 18 102 18 115 18 92 18 35 18 -21 18 -42 
18 -23 18 3 18 21 18 16 18 -22 18 -56 18 -54 18 -34 
18 -34 18 -58 18 -58 18 5 18 108 18 183 18 173 18 79 
18 -48 18 -155 18 -197 18 -171 18 -80 18 45 18 149 18 182 
17 131 18 12 18 -115 18 -171 18 -128 18 -42 18 11 18 8 
18 -9 18 -15 18 -5 18 14 18 34 18 46 18 42 18 18 
18 -18 18 -60 18 -91 18 -94 18 -60 18 -1 18 70 18 130 
18 162 18 150 18 92 18 -7 18 -116 18 -203 18 -236 18 -210 
17 -154 292 1568 98 MP stroke
c13
6 -46 18 -132 18 -120 18 -118 18 -88 18 -80 18 -47 18 -32 
18 -10 18 8 18 13 18 21 18 20 18 15 18 12 18 0 
18 -2 18 -19 18 -19 18 -43 18 -42 18 -58 18 -60 18 -57 
18 -55 18 -33 18 -23 18 3 18 23 18 40 18 60 18 64 
17 71 18 66 18 50 18 46 18 7 18 6 18 -35 18 -37 
18 -53 18 -56 18 -46 18 -43 18 -23 18 -12 18 1 18 13 
18 15 18 17 18 19 18 -28 18 -268 18 68 18 371 18 -46 
18 7 18 -19 18 -64 18 -7 18 10 18 -31 18 -79 18 -41 
17 81 18 170 18 88 18 -88 18 -194 18 -101 18 73 18 156 
18 78 18 -101 18 -198 18 -138 18 -3 18 36 18 19 18 3 
18 19 18 51 18 64 18 46 18 3 18 -48 18 -88 18 -80 
18 -26 18 59 18 131 18 146 18 65 18 -67 18 -184 18 -222 
17 -184 292 1495 98 MP stroke
0.25 sg
18 210 18 187 18 134 18 82 18 64 18 80 18 97 18 78 
18 16 18 -69 18 -148 18 -194 18 -180 18 -100 18 19 18 131 
18 186 18 183 18 122 18 19 18 -86 18 -140 18 -119 18 -47 
18 19 18 47 18 31 18 -2 18 -55 18 -142 18 -178 18 -108 
17 9 18 82 18 118 18 121 18 89 18 43 18 -12 18 -39 
18 -30 18 20 18 51 18 30 18 -19 18 -41 18 -28 18 4 
18 31 18 33 18 6 18 -36 18 -75 18 -87 18 -57 18 8 
18 75 18 113 18 101 18 44 18 -41 18 -99 18 -106 18 -56 
17 16 18 66 18 65 18 18 18 -44 18 -79 18 -70 18 -30 
18 1 18 3 18 -14 18 -19 18 -6 18 17 18 38 18 53 
18 56 18 41 18 11 18 -32 18 -74 18 -97 18 -80 18 -26 
18 41 18 102 18 131 18 118 18 50 18 -58 18 -172 18 -253 
17 -276 292 1531 98 MP stroke
c8
18 179 18 156 18 107 18 57 18 28 18 32 18 51 18 59 
18 33 18 2 18 -27 18 -56 18 -81 18 -96 18 -77 18 1 
18 91 18 152 18 164 18 127 18 52 18 -35 18 -107 18 -123 
18 -88 18 -41 18 -4 18 20 18 25 18 2 18 -54 18 -125 
17 -140 18 -88 18 5 18 88 18 118 18 105 18 53 18 -20 
18 -77 18 -85 18 -22 18 58 18 68 18 17 18 -36 18 -20 
18 20 18 46 18 45 18 24 18 -8 18 -40 18 -65 18 -56 
18 -14 18 40 18 87 18 108 18 80 18 -13 18 -95 18 -143 
17 -143 18 -98 18 -27 18 46 18 67 18 56 18 24 18 -15 
18 -51 18 -62 18 -39 18 -12 18 8 18 7 18 -9 18 1 
18 34 18 67 18 80 18 62 18 11 18 -66 18 -102 18 -64 
18 41 18 146 18 179 18 100 18 -31 18 -136 18 -145 18 -44 
17 97 292 943 98 MP stroke
c9
18 257 18 230 18 161 18 87 18 52 18 56 18 63 18 36 
18 -22 18 -86 18 -136 18 -152 18 -116 18 -31 18 75 18 151 
18 167 18 117 18 21 18 -77 18 -127 18 -99 18 -28 18 27 
18 32 18 0 18 -29 18 -40 18 -54 18 -76 18 -84 18 -53 
17 6 18 68 18 110 18 123 18 107 18 65 18 12 18 -28 
18 -47 18 -36 18 -3 18 34 18 51 18 37 18 6 18 -9 
18 -3 18 0 18 -25 18 -71 18 -104 18 -87 18 -5 18 103 
18 170 18 152 18 56 18 -71 18 -181 18 -230 18 -203 18 -110 
17 4 18 90 18 125 18 109 18 48 18 -31 18 -89 18 -93 
18 -57 18 -11 18 22 18 30 18 20 18 11 18 13 18 30 
18 49 18 55 18 44 18 14 18 -27 18 -67 18 -93 18 -91 
18 -59 18 -1 18 63 18 110 18 114 18 61 18 -45 18 -180 
17 -291 292 1432 98 MP stroke
c10
18 265 18 231 18 156 18 80 18 54 18 81 18 111 18 96 
18 46 18 -20 18 -106 18 -196 18 -224 18 -137 18 27 18 157 
18 207 18 168 18 63 18 -60 18 -130 18 -109 18 -37 18 3 
18 11 18 4 18 -4 18 -7 18 -20 18 -42 18 -56 18 -53 
17 -27 18 13 18 55 18 70 18 71 18 59 18 35 18 0 
18 -37 18 -54 18 -32 18 5 18 40 18 59 18 56 18 34 
18 -2 18 -23 18 -28 18 -21 18 -30 18 -95 18 -138 18 -37 
18 125 18 185 18 70 18 -74 18 -166 18 -191 18 -137 18 27 
17 144 18 157 18 38 18 -129 18 -181 18 -98 18 -26 18 21 
18 45 18 48 18 40 18 33 18 34 18 47 18 57 18 56 
18 42 18 12 18 -27 18 -70 18 -86 18 -70 18 -24 18 36 
18 95 18 131 18 119 18 66 18 2 18 -48 18 -64 18 -39 
17 16 292 773 98 MP stroke
c11
18 250 18 220 18 147 18 61 18 14 18 26 18 67 18 80 
18 58 18 21 18 -18 18 -75 18 -142 18 -169 18 -120 18 -7 
18 111 18 177 18 166 18 86 18 -27 18 -113 18 -127 18 -72 
18 12 18 55 18 34 18 1 18 -4 18 -17 18 -59 18 -101 
17 -96 18 -48 18 15 18 76 18 121 18 132 18 104 18 56 
18 3 18 -43 18 -65 18 -32 18 21 18 48 18 25 18 -28 
18 -62 18 -47 18 -13 18 -11 18 -50 18 -95 18 -83 18 6 
18 118 18 182 18 150 18 32 18 -109 18 -178 18 -123 18 -2 
17 77 18 54 18 -40 18 -110 18 -103 18 -69 18 -24 18 14 
18 38 18 42 18 31 18 28 18 33 18 41 18 50 18 50 
18 25 18 -9 18 -45 18 -76 18 -91 18 -81 18 -37 18 13 
18 61 18 98 18 117 18 98 18 41 18 -37 18 -125 18 -208 
17 -274 292 1451 98 MP stroke
c12
18 269 18 211 18 84 18 -14 18 9 18 82 18 74 18 60 
18 99 18 72 18 -99 18 -229 18 -158 18 88 18 216 18 154 
18 -29 18 -101 18 -70 18 -27 18 -2 18 -1 18 -13 18 -25 
18 -42 18 -65 18 -83 18 -79 18 -45 18 3 18 42 18 73 
17 96 18 104 18 88 18 51 18 10 18 -22 18 -37 18 -30 
18 -10 18 15 18 33 18 26 18 0 18 -14 18 4 18 30 
18 15 18 -38 18 -71 18 -36 18 54 18 123 18 104 18 0 
18 -123 18 -190 18 -162 18 -57 18 73 18 162 18 173 18 103 
17 -21 18 -147 18 -197 18 -146 18 -80 18 -24 18 16 18 16 
18 4 18 -5 18 -5 18 6 18 30 18 46 18 55 18 55 
18 45 18 19 18 -15 18 -45 18 -70 18 -82 18 -72 18 -29 
18 16 18 56 18 82 18 82 18 34 18 -38 18 -120 18 -198 
17 -263 292 1586 98 MP stroke
c13
18 169 18 172 18 164 18 115 18 25 18 -11 18 55 18 132 
18 132 18 68 18 3 18 -82 18 -184 18 -200 18 -32 18 144 
18 183 18 77 18 -95 18 -161 18 -71 18 67 18 106 18 55 
18 22 18 -20 18 -123 18 -183 18 -143 18 -8 18 102 18 151 
17 107 18 20 18 -33 18 -57 18 -33 18 41 18 96 18 77 
18 19 18 -12 18 -4 18 0 18 -37 18 -83 18 -87 18 1 
18 158 18 237 18 127 18 -95 18 -272 18 -257 18 -62 18 136 
18 223 18 160 18 -10 18 -81 18 -90 18 -102 18 -73 18 -54 
17 -18 18 -6 18 0 18 -4 18 -3 18 -2 18 9 18 17 
18 27 18 33 18 35 18 27 18 9 18 -3 18 -47 18 -64 
18 -85 18 -90 18 -83 18 -58 18 -17 18 7 18 60 18 73 
18 88 18 77 18 58 18 23 18 -41 18 -78 18 -156 18 -197 
17 -225 292 1543 98 MP stroke
gr

c13

end %%Color Dict

eplot
%%EndObject

epage
end

showpage

%%Trailer
%%EOF
