%!PS-Adobe-3.0 EPSF-3.0
%%Creator: MATLAB, The MathWorks, Inc. Version 7.12.0.635 (R2011a). Operating System: Microsoft Windows 7.
%%Title: C:\Users\wwu\Desktop\warping\Muller_PACE\examples\comp_gene_pace.eps
%%CreationDate: 05/04/2011  22:04:56
%%DocumentNeededFonts: Helvetica
%%DocumentProcessColors: Cyan Magenta Yellow Black
%%LanguageLevel: 2
%%Pages: 1
%%BoundingBox:   212   320   399   470
%%EndComments

%%BeginProlog
% MathWorks dictionary
/MathWorks 160 dict begin
% definition operators
/bdef {bind def} bind def
/ldef {load def} bind def
/xdef {exch def} bdef
/xstore {exch store} bdef
% operator abbreviations
/c  /clip ldef
/cc /concat ldef
/cp /closepath ldef
/gr /grestore ldef
/gs /gsave ldef
/mt /moveto ldef
/np /newpath ldef
/cm /currentmatrix ldef
/sm /setmatrix ldef
/rm /rmoveto ldef
/rl /rlineto ldef
/s {show newpath} bdef
/sc {setcmykcolor} bdef
/sr /setrgbcolor ldef
/sg /setgray ldef
/w /setlinewidth ldef
/j /setlinejoin ldef
/cap /setlinecap ldef
/rc {rectclip} bdef
/rf {rectfill} bdef
% page state control
/pgsv () def
/bpage {/pgsv save def} bdef
/epage {pgsv restore} bdef
/bplot /gsave ldef
/eplot {stroke grestore} bdef
% orientation switch
/portraitMode 0 def /landscapeMode 1 def /rotateMode 2 def
% coordinate system mappings
/dpi2point 0 def
% font control
/FontSize 0 def
/FMS {/FontSize xstore findfont [FontSize 0 0 FontSize neg 0 0]
  makefont setfont} bdef
/ISOLatin1Encoding where {pop /WindowsLatin1Encoding 256 array bdef
ISOLatin1Encoding WindowsLatin1Encoding copy pop
/.notdef/.notdef/quotesinglbase/florin/quotedblbase/ellipsis/dagger
/daggerdbl/circumflex/perthousand/Scaron/guilsinglleft/OE/.notdef/.notdef
/.notdef/.notdef/quoteleft/quoteright/quotedblleft/quotedblright/bullet
/endash/emdash/tilde/trademark/scaron/guilsinglright/oe/.notdef/.notdef
/Ydieresis WindowsLatin1Encoding 128 32 getinterval astore pop}
{/WindowsLatin1Encoding StandardEncoding bdef} ifelse
/reencode {exch dup where {pop load} {pop StandardEncoding} ifelse
  exch dup 3 1 roll findfont dup length dict begin
  { 1 index /FID ne {def}{pop pop} ifelse } forall
  /Encoding exch def currentdict end definefont pop} bdef
/isroman {findfont /CharStrings get /Agrave known} bdef
/FMSR {3 1 roll 1 index dup isroman {reencode} {pop pop} ifelse
  exch FMS} bdef
/csm {1 dpi2point div -1 dpi2point div scale neg translate
 dup landscapeMode eq {pop -90 rotate}
  {rotateMode eq {90 rotate} if} ifelse} bdef
% line types: solid, dotted, dashed, dotdash
/SO { [] 0 setdash } bdef
/DO { [.5 dpi2point mul 4 dpi2point mul] 0 setdash } bdef
/DA { [6 dpi2point mul] 0 setdash } bdef
/DD { [.5 dpi2point mul 4 dpi2point mul 6 dpi2point mul 4
  dpi2point mul] 0 setdash } bdef
% macros for lines and objects
/L {lineto stroke} bdef
/MP {3 1 roll moveto 1 sub {rlineto} repeat} bdef
/AP {{rlineto} repeat} bdef
/PDlw -1 def
/W {/PDlw currentlinewidth def setlinewidth} def
/PP {closepath eofill} bdef
/DP {closepath stroke} bdef
/MR {4 -2 roll moveto dup  0 exch rlineto exch 0 rlineto
  neg 0 exch rlineto closepath} bdef
/FR {MR stroke} bdef
/PR {MR fill} bdef
/L1i {{currentfile picstr readhexstring pop} image} bdef
/tMatrix matrix def
/MakeOval {newpath tMatrix currentmatrix pop translate scale
0 0 1 0 360 arc tMatrix setmatrix} bdef
/FO {MakeOval stroke} bdef
/PO {MakeOval fill} bdef
/PD {currentlinewidth 2 div 0 360 arc fill
   PDlw -1 eq not {PDlw w /PDlw -1 def} if} def
/FA {newpath tMatrix currentmatrix pop translate scale
  0 0 1 5 -2 roll arc tMatrix setmatrix stroke} bdef
/PA {newpath tMatrix currentmatrix pop	translate 0 0 moveto scale
  0 0 1 5 -2 roll arc closepath tMatrix setmatrix fill} bdef
/FAn {newpath tMatrix currentmatrix pop translate scale
  0 0 1 5 -2 roll arcn tMatrix setmatrix stroke} bdef
/PAn {newpath tMatrix currentmatrix pop translate 0 0 moveto scale
  0 0 1 5 -2 roll arcn closepath tMatrix setmatrix fill} bdef
/vradius 0 def /hradius 0 def /lry 0 def
/lrx 0 def /uly 0 def /ulx 0 def /rad 0 def
/MRR {/vradius xdef /hradius xdef /lry xdef /lrx xdef /uly xdef
  /ulx xdef newpath tMatrix currentmatrix pop ulx hradius add uly
  vradius add translate hradius vradius scale 0 0 1 180 270 arc 
  tMatrix setmatrix lrx hradius sub uly vradius add translate
  hradius vradius scale 0 0 1 270 360 arc tMatrix setmatrix
  lrx hradius sub lry vradius sub translate hradius vradius scale
  0 0 1 0 90 arc tMatrix setmatrix ulx hradius add lry vradius sub
  translate hradius vradius scale 0 0 1 90 180 arc tMatrix setmatrix
  closepath} bdef
/FRR {MRR stroke } bdef
/PRR {MRR fill } bdef
/MlrRR {/lry xdef /lrx xdef /uly xdef /ulx xdef /rad lry uly sub 2 div def
  newpath tMatrix currentmatrix pop ulx rad add uly rad add translate
  rad rad scale 0 0 1 90 270 arc tMatrix setmatrix lrx rad sub lry rad
  sub translate rad rad scale 0 0 1 270 90 arc tMatrix setmatrix
  closepath} bdef
/FlrRR {MlrRR stroke } bdef
/PlrRR {MlrRR fill } bdef
/MtbRR {/lry xdef /lrx xdef /uly xdef /ulx xdef /rad lrx ulx sub 2 div def
  newpath tMatrix currentmatrix pop ulx rad add uly rad add translate
  rad rad scale 0 0 1 180 360 arc tMatrix setmatrix lrx rad sub lry rad
  sub translate rad rad scale 0 0 1 0 180 arc tMatrix setmatrix
  closepath} bdef
/FtbRR {MtbRR stroke } bdef
/PtbRR {MtbRR fill } bdef
/stri 6 array def /dtri 6 array def
/smat 6 array def /dmat 6 array def
/tmat1 6 array def /tmat2 6 array def /dif 3 array def
/asub {/ind2 exch def /ind1 exch def dup dup
  ind1 get exch ind2 get sub exch } bdef
/tri_to_matrix {
  2 0 asub 3 1 asub 4 0 asub 5 1 asub
  dup 0 get exch 1 get 7 -1 roll astore } bdef
/compute_transform {
  dmat dtri tri_to_matrix tmat1 invertmatrix 
  smat stri tri_to_matrix tmat2 concatmatrix } bdef
/ds {stri astore pop} bdef
/dt {dtri astore pop} bdef
/db {2 copy /cols xdef /rows xdef mul dup 3 mul string
  currentfile 
  3 index 0 eq {/ASCIIHexDecode filter}
  {/ASCII85Decode filter 3 index 2 eq {/RunLengthDecode filter} if }
  ifelse exch readstring pop
  dup 0 3 index getinterval /rbmap xdef
  dup 2 index dup getinterval /gbmap xdef
  1 index dup 2 mul exch getinterval /bbmap xdef pop pop}bdef
/it {gs np dtri aload pop moveto lineto lineto cp c
  cols rows 8 compute_transform 
  rbmap gbmap bbmap true 3 colorimage gr}bdef
/il {newpath moveto lineto stroke}bdef
currentdict end def
%%EndProlog

%%BeginSetup
MathWorks begin

0 cap

end
%%EndSetup

%%Page: 1 1
%%BeginPageSetup
%%PageBoundingBox:   212   320   399   470
MathWorks begin
bpage
%%EndPageSetup

%%BeginObject: obj1
bplot

/dpi2point 12 def
portraitMode 2544 5640 csm

    0     0  2249  1800 rc
85 dict begin %Colortable dictionary
/c0 { 0.000000 0.000000 0.000000 sr} bdef
/c1 { 1.000000 1.000000 1.000000 sr} bdef
/c2 { 0.900000 0.000000 0.000000 sr} bdef
/c3 { 0.000000 0.820000 0.000000 sr} bdef
/c4 { 0.000000 0.000000 0.800000 sr} bdef
/c5 { 0.910000 0.820000 0.320000 sr} bdef
/c6 { 1.000000 0.260000 0.820000 sr} bdef
/c7 { 0.000000 0.820000 0.820000 sr} bdef
c0
1 j
1 sg
   0    0 2250 1801 rf
6 w
0 1467 1743 0 0 -1467 292 1602 4 MP
PP
-1743 0 0 1467 1743 0 0 -1467 292 1602 5 MP stroke
4 w
DO
SO
6 w
0 sg
 292  135 mt 2035  135 L
 292 1602 mt 2035 1602 L
2035 1602 mt 2035  135 L
 292 1602 mt  292  135 L
 292 1602 mt 2035 1602 L
 292 1602 mt  292  135 L
 292 1602 mt  292 1584 L
 292  135 mt  292  152 L
%%IncludeResource: font Helvetica
/Helvetica /WindowsLatin1Encoding 120 FMSR

 259 1747 mt 
(0) s
1024 1602 mt 1024 1584 L
1024  135 mt 1024  152 L
 958 1747 mt 
(50) s
1756 1602 mt 1756 1584 L
1756  135 mt 1756  152 L
1656 1747 mt 
(100) s
 292 1468 mt  309 1468 L
2035 1468 mt 2017 1468 L
 121 1512 mt 
(-2) s
 292 1201 mt  309 1201 L
2035 1201 mt 2017 1201 L
 121 1245 mt 
(-1) s
 292  935 mt  309  935 L
2035  935 mt 2017  935 L
 191  979 mt 
(0) s
 292  668 mt  309  668 L
2035  668 mt 2017  668 L
 191  712 mt 
(1) s
 292  401 mt  309  401 L
2035  401 mt 2017  401 L
 191  445 mt 
(2) s
 292  135 mt  309  135 L
2035  135 mt 2017  135 L
 191  179 mt 
(3) s
 292  135 mt 2035  135 L
 292 1602 mt 2035 1602 L
2035 1602 mt 2035  135 L
 292 1602 mt  292  135 L
gs 292 135 1744 1468 rc
/c8 { 0.000000 0.000000 1.000000 sr} bdef
c8
35 -29 34 -30 34 -30 34 -30 34 -28 35 -24 34 -19 34 -13 
34 -9 34 -7 34 -6 35 -5 34 -1 34 6 34 22 34 54 
34 39 35 1 34 -18 34 8 34 35 34 23 35 -3 34 -21 
34 -29 34 -26 34 -11 34 4 35 5 34 -10 34 -43 34 -53 
34 -39 34 -8 35 20 34 34 34 28 34 6 34 -3 35 6 
34 25 34 40 34 37 34 15 34 -30 35 -59 34 -66 34 -58 
34 -34 34 9 34 66 292 1031 52 MP stroke
/c9 { 0.000000 0.500000 0.000000 sr} bdef
c9
35 -28 34 -47 34 -53 34 -41 34 -19 35 -3 34 -17 34 -39 
34 -27 34 13 34 22 35 19 34 14 34 6 34 4 34 14 
34 29 35 43 34 54 34 48 34 37 34 23 35 9 34 2 
34 1 34 -2 34 -8 34 -35 35 -62 34 -57 34 -18 34 19 
34 10 34 -44 35 -87 34 -72 34 -11 34 20 34 -8 35 -55 
34 -52 34 14 34 115 34 159 34 119 35 24 34 -42 34 -59 
34 -24 34 59 34 193 292 657 52 MP stroke
/c10 { 1.000000 0.000000 0.000000 sr} bdef
c10
35 -97 34 -17 34 32 34 49 34 35 35 -6 34 -49 34 -69 
34 -68 34 -39 34 10 35 50 34 49 34 25 34 -11 34 -31 
34 -31 35 -6 34 51 34 71 34 60 34 28 35 -15 34 -39 
34 -21 34 15 34 43 34 44 35 -13 34 -83 34 -96 34 -50 
34 -7 34 -8 35 -46 34 -68 34 -45 34 -2 34 17 35 6 
34 -12 34 -5 34 29 34 65 34 73 35 54 34 24 34 -4 
34 -30 34 -53 34 -73 292 1057 52 MP stroke
/c11 { 0.000000 0.750000 0.750000 sr} bdef
c11
35 -66 34 -47 34 -31 34 -19 34 -10 35 -10 34 -14 34 -22 
34 -36 34 -36 34 -31 35 -16 34 15 34 29 34 38 34 40 
34 34 35 41 34 65 34 100 34 94 34 45 35 0 34 2 
34 49 34 67 34 40 34 -7 35 -50 34 -81 34 -87 34 -73 
34 -58 34 -68 35 -96 34 -89 34 -40 34 12 34 31 35 26 
34 23 34 24 34 27 34 20 34 -3 35 -37 34 -61 34 -72 
34 -67 34 -49 34 -16 292 1295 52 MP stroke
/c12 { 0.750000 0.000000 0.750000 sr} bdef
c12
35 -152 34 -90 34 -37 34 17 34 44 35 50 34 48 34 14 
34 -22 34 -49 34 -71 35 -59 34 -36 34 -8 34 25 34 34 
34 37 35 37 34 43 34 50 34 61 34 56 35 31 34 -5 
34 -18 34 3 34 45 34 57 35 23 34 -44 34 -85 34 -76 
34 -28 34 -11 35 -35 34 -67 34 -79 34 -69 34 -46 35 -15 
34 16 34 50 34 87 34 99 34 76 35 31 34 -27 34 -66 
34 -72 34 -39 34 27 292 1020 52 MP stroke
/c13 { 0.750000 0.750000 0.000000 sr} bdef
c13
35 117 34 -41 34 -68 34 28 34 88 35 -5 34 -48 34 -2 
34 -9 34 -33 34 2 35 36 34 10 34 0 34 24 34 12 
34 -14 35 7 34 66 34 41 34 -61 34 -67 35 47 34 79 
34 28 34 5 34 -9 34 -17 35 -26 34 -23 34 -17 34 -12 
34 8 34 8 35 18 34 19 34 5 34 6 34 -19 35 -24 
34 -36 34 -42 34 -42 34 -43 34 -35 35 -26 34 -15 34 10 
34 18 34 63 34 64 292 953 52 MP stroke
0.25 sg
35 -58 34 -10 34 22 34 40 34 41 35 27 34 3 34 -22 
34 -46 34 -61 34 -61 35 -42 34 -4 34 94 34 131 34 17 
34 -85 35 -41 34 37 34 62 34 8 34 -38 35 -15 34 26 
34 6 34 -51 34 -44 34 22 35 13 34 -6 34 -34 34 -36 
34 -41 34 -28 35 -18 34 19 34 29 34 48 34 44 35 31 
34 10 34 -11 34 -35 34 -43 34 -52 35 -49 34 -40 34 -24 
34 -8 34 32 34 46 292 1084 52 MP stroke
c8
35 270 34 83 34 -47 34 -125 34 -150 35 -122 34 -59 34 27 
34 116 34 137 34 43 35 -134 34 -186 34 -89 34 72 34 148 
34 116 35 34 34 -35 34 -76 34 -67 34 12 35 134 34 154 
34 91 34 17 34 -45 34 -85 35 -75 34 -29 34 1 34 10 
34 -4 34 -59 35 -88 34 -103 34 -105 34 -89 34 -76 35 -83 
34 -97 34 -79 34 -11 34 97 34 173 35 191 34 164 34 99 
34 -1 34 -137 34 -309 292 1255 52 MP stroke
c9
35 -37 34 -32 34 -27 34 -21 34 -21 35 -20 34 -24 34 -29 
34 -33 34 -42 34 -40 35 -38 34 -15 34 1 34 22 34 38 
34 37 35 32 34 11 34 0 34 36 34 107 35 103 34 45 
34 19 34 24 34 12 34 -21 35 -38 34 -51 34 -64 34 -70 
34 -65 34 -55 35 -58 34 -80 34 -110 34 -126 34 -107 35 -51 
34 25 34 70 34 64 34 -36 34 -6 35 140 34 125 34 -52 
34 -141 34 -104 34 41 292 1295 52 MP stroke
c10
35 -158 34 -44 34 31 34 65 34 57 35 14 34 -38 34 -56 
34 -38 34 -11 34 3 35 0 34 1 34 10 34 27 34 40 
34 41 35 28 34 8 34 -10 34 -21 34 -28 35 -27 34 -18 
34 -4 34 6 34 9 34 3 35 -3 34 -6 34 -5 34 -7 
34 -12 34 -19 35 -25 34 -32 34 -37 34 -36 34 -33 35 -27 
34 -15 34 0 34 12 34 14 34 8 35 -1 34 -1 34 5 
34 22 34 46 34 80 292 951 52 MP stroke
c11
35 58 34 18 34 -7 34 -9 34 2 35 -4 34 -35 34 -63 
34 -54 34 -27 34 7 35 28 34 21 34 5 34 9 34 28 
34 27 35 3 34 -7 34 -2 34 4 34 11 35 13 34 9 
34 -7 34 -31 34 -42 34 -24 35 14 34 34 34 12 34 -1 
34 -17 34 -27 35 -27 34 -22 34 -11 34 -2 34 8 35 5 
34 1 34 -12 34 -19 34 -27 34 -26 35 -24 34 -11 34 -1 
34 21 34 47 34 63 292 988 52 MP stroke
c12
35 -46 34 -6 34 18 34 28 34 23 35 2 34 -46 34 -93 
34 -117 34 -110 34 -68 35 17 34 68 34 80 34 70 34 45 
34 19 35 6 34 13 34 33 34 63 34 72 35 43 34 -7 
34 -10 34 42 34 87 34 65 35 17 34 -67 34 -106 34 -109 
34 -87 34 -48 35 -20 34 -30 34 -55 34 -77 34 -84 35 -59 
34 -14 34 17 34 41 34 48 34 14 35 29 34 48 34 28 
34 9 34 15 34 44 292 964 52 MP stroke
c13
35 -95 34 -60 34 -33 34 -12 34 3 35 3 34 -5 34 -19 
34 -37 34 -46 34 -35 35 -19 34 4 34 24 34 31 34 35 
34 41 35 57 34 73 34 81 34 69 34 50 35 38 34 32 
34 31 34 26 34 16 34 -5 35 -30 34 -53 34 -69 34 -80 
34 -89 34 -101 35 -109 34 -90 34 -39 34 28 34 60 35 42 
34 -3 34 -19 34 0 34 26 34 21 35 -18 34 -57 34 -67 
34 -47 34 6 34 91 292 1137 52 MP stroke
0.25 sg
35 -69 34 10 34 49 34 42 34 -10 35 -60 34 -58 34 -6 
34 15 34 2 34 -8 35 -6 34 3 34 10 34 11 34 3 
34 -13 35 -14 34 1 34 25 34 43 34 47 35 31 34 1 
34 -20 34 -21 34 -7 34 6 35 10 34 4 34 -7 34 -27 
34 -51 34 -70 35 -71 34 -44 34 4 34 30 34 30 35 7 
34 -7 34 10 34 50 34 69 34 46 35 -10 34 -55 34 -68 
34 -49 34 1 34 82 292 972 52 MP stroke
c8
35 -95 34 -35 34 9 34 32 34 37 35 23 34 -4 34 -33 
34 -48 34 -46 34 -34 35 -22 34 -17 34 -12 34 -2 34 20 
34 47 35 59 34 53 34 32 34 11 34 -9 35 -23 34 -26 
34 -13 34 7 34 18 34 19 35 14 34 8 34 0 34 -10 
34 -23 34 -35 35 -44 34 -51 34 -52 34 -44 34 -15 35 18 
34 40 34 52 34 43 34 1 34 12 35 39 34 24 34 -15 
34 -45 34 -55 34 -48 292 1047 52 MP stroke
c9
35 -41 34 2 34 26 34 35 34 27 35 4 34 -21 34 -29 
34 -21 34 -7 34 0 35 0 34 0 34 7 34 17 34 23 
34 22 35 12 34 3 34 -3 34 -4 34 -2 35 0 34 5 
34 8 34 7 34 6 34 3 35 -1 34 -6 34 -14 34 -26 
34 -40 34 -51 35 -45 34 -24 34 7 34 18 34 1 35 -36 
34 -41 34 0 34 69 34 98 34 68 35 -6 34 -56 34 -69 
34 -43 34 22 34 125 292 900 52 MP stroke
c10
35 -53 34 -29 34 -10 34 2 34 6 35 -4 34 -21 34 -41 
34 -69 34 -72 34 -50 35 -15 34 28 34 59 34 49 34 26 
34 -8 35 -30 34 4 34 53 34 77 34 71 35 49 34 25 
34 2 34 -6 34 3 34 17 35 13 34 -2 34 -24 34 -52 
34 -75 34 -96 35 -103 34 -96 34 -75 34 -47 34 -22 35 -6 
34 3 34 8 34 12 34 26 34 96 35 209 34 142 34 -117 
34 -228 34 -127 34 141 292 1092 52 MP stroke
c11
35 -18 34 14 34 20 34 -6 34 -45 35 -45 34 -15 34 15 
34 24 34 2 34 -37 35 -45 34 -26 34 -18 34 -22 34 2 
34 53 35 53 34 39 34 30 34 22 34 13 35 8 34 6 
34 4 34 0 34 -2 34 -7 35 -11 34 -13 34 -14 34 -12 
34 -9 34 -9 35 -11 34 -20 34 -33 34 -37 34 -34 35 -25 
34 -6 34 5 34 5 34 0 34 -8 35 -12 34 -7 34 3 
34 18 34 39 34 66 292 953 52 MP stroke
c12
35 -84 34 -8 34 34 34 44 34 13 35 -32 34 -48 34 -34 
34 -4 34 21 34 35 35 31 34 13 34 6 34 23 34 46 
34 47 35 28 34 -5 34 -33 34 -49 34 -39 35 -22 34 -8 
34 -6 34 -16 34 -22 34 -12 35 12 34 32 34 27 34 1 
34 -28 34 -31 35 -16 34 10 34 26 34 34 34 36 35 31 
34 27 34 26 34 26 34 28 34 26 35 23 34 18 34 5 
34 -9 34 -22 34 -38 292 785 52 MP stroke
c13
35 -84 34 52 34 102 34 41 34 -93 35 -104 34 -5 34 5 
34 -60 34 -60 34 -30 35 10 34 32 34 31 34 18 34 4 
34 -8 35 -6 34 13 34 45 34 62 34 60 35 46 34 24 
34 -10 34 -45 34 -60 34 -45 35 -6 34 21 34 19 34 -15 
34 -49 34 -57 35 -44 34 -25 34 -13 34 -12 34 -13 35 -21 
34 -23 34 -19 34 -11 34 7 34 14 35 18 34 17 34 5 
34 -11 34 -31 34 -54 292 1180 52 MP stroke
0.25 sg
35 69 34 18 34 -14 34 -29 34 -25 35 -4 34 17 34 12 
34 -14 34 -38 34 -30 35 6 34 51 34 -23 34 -53 34 8 
34 57 35 66 34 28 34 -4 34 -22 34 -29 35 -21 34 2 
34 45 34 51 34 26 34 -24 35 -72 34 -93 34 -66 34 -1 
34 34 34 39 35 23 34 -9 34 -25 34 -19 34 -4 35 32 
34 51 34 51 34 44 34 17 34 -3 35 -15 34 -23 34 -23 
34 -15 34 -3 34 13 292 900 52 MP stroke
c8
35 98 34 44 34 -39 34 -32 34 4 35 8 34 22 34 35 
34 2 34 -65 34 -44 35 54 34 51 34 -31 34 53 34 34 
34 -67 35 15 34 16 34 6 34 -7 34 -12 35 -13 34 -17 
34 -17 34 -12 34 -9 34 -8 35 10 34 10 34 13 34 18 
34 17 34 10 35 9 34 3 34 -10 34 -10 34 -20 35 -23 
34 -22 34 -23 34 -23 34 -15 34 -12 35 -9 34 11 34 11 
34 31 34 45 34 46 292 905 52 MP stroke
c9
35 213 34 32 34 -81 34 -125 34 -99 35 -21 34 37 34 16 
34 -63 34 -83 34 -36 35 20 34 32 34 24 34 -12 34 -20 
34 -9 35 20 34 62 34 82 34 62 34 23 35 -12 34 -28 
34 -13 34 28 34 55 34 53 35 -33 34 -74 34 -20 34 27 
34 -42 34 -129 35 -114 34 12 34 58 34 20 34 -19 35 -38 
34 -26 34 13 34 28 34 16 34 -14 35 -41 34 -50 34 -38 
34 -5 34 48 34 123 292 1004 52 MP stroke
c10
35 -77 34 -1 34 41 34 46 34 16 35 -42 34 -92 34 -86 
34 -25 34 35 34 55 35 36 34 17 34 19 34 32 34 30 
34 -1 35 -46 34 -57 34 -20 34 52 34 83 35 54 34 -17 
34 -77 34 -83 34 -36 34 -3 35 17 34 46 34 56 34 8 
34 -66 34 -44 35 -8 34 14 34 31 34 23 34 12 35 -7 
34 -18 34 -11 34 1 34 23 34 38 35 38 34 33 34 12 
34 -20 34 -56 34 -95 292 988 52 MP stroke
c11
35 -88 34 -17 34 30 34 52 34 49 35 21 34 -26 34 -75 
34 -93 34 -72 34 -16 35 21 34 31 34 19 34 9 34 7 
34 16 35 31 34 45 34 52 34 53 34 50 35 41 34 28 
34 11 34 -5 34 -17 34 -25 35 -28 34 -28 34 -21 34 -15 
34 -30 34 -61 35 -89 34 -79 34 -32 34 27 34 44 35 8 
34 -50 34 -71 34 -19 34 93 34 108 35 52 34 14 34 4 
34 -6 34 -20 34 -35 292 967 52 MP stroke
c12
35 -21 34 -36 34 -47 34 -52 34 -32 35 43 34 96 34 59 
34 -188 34 38 34 14 35 123 34 19 34 19 34 -75 34 -48 
34 -1 35 -1 34 -2 34 -2 34 -2 34 2 35 1 34 5 
34 11 34 11 34 20 34 25 35 25 34 33 34 33 34 34 
34 34 34 34 35 32 34 28 34 28 34 25 34 24 35 23 
34 23 34 22 34 23 34 24 34 24 35 27 34 29 34 29 
34 35 34 38 34 37 292 300 52 MP stroke
c13
35 36 34 9 34 -6 34 -8 34 0 35 18 34 24 34 8 
34 -12 34 -7 34 27 35 -10 34 -205 34 251 34 -106 34 106 
34 79 35 0 34 -33 34 -71 34 -50 34 49 35 13 34 5 
34 -15 34 -16 34 -20 34 -21 35 -13 34 -6 34 2 34 23 
34 23 34 40 35 40 34 41 34 42 34 35 34 29 35 27 
34 19 34 20 34 16 34 16 34 19 35 19 34 24 34 29 
34 32 34 45 34 44 292 452 52 MP stroke
0.25 sg
35 26 34 10 34 -4 34 -16 34 -23 35 -26 34 -25 34 -19 
34 0 34 80 34 -3 35 109 34 -146 34 -14 34 55 34 1 
34 -10 35 64 34 11 34 9 34 -4 34 -5 35 -8 34 -11 
34 -11 34 -9 34 -8 34 -4 35 2 34 2 34 8 34 8 
34 8 34 8 35 8 34 5 34 3 34 2 34 1 35 1 
34 3 34 6 34 5 34 14 34 15 35 19 34 32 34 31 
34 45 34 53 34 54 292 617 52 MP stroke
c8
35 19 34 9 34 -9 34 -20 34 -25 35 -32 34 -30 34 -26 
34 -15 34 -10 34 13 35 16 34 22 34 17 34 14 34 -7 
34 -9 35 -14 34 -4 34 2 34 36 34 96 35 60 34 -34 
34 42 34 22 34 -47 34 -8 35 -11 34 -69 34 -45 34 57 
34 53 34 -64 35 -94 34 0 34 40 34 16 34 -2 35 -7 
34 3 34 22 34 32 34 23 34 1 35 -19 34 -36 34 -45 
34 -49 34 -46 34 -38 292 1121 52 MP stroke
c9
35 -20 34 -7 34 3 34 11 34 14 35 16 34 14 34 4 
34 -14 34 -36 34 -44 35 -31 34 -3 34 18 34 25 34 22 
34 17 35 17 34 24 34 33 34 33 34 19 35 -3 34 -21 
34 -27 34 -21 34 -8 34 0 35 -7 34 -19 34 -20 34 -3 
34 21 34 21 35 -7 34 -45 34 -54 34 -26 34 22 35 41 
34 24 34 -12 34 -10 34 30 34 63 35 58 34 25 34 -7 
34 -35 34 -58 34 -74 292 980 52 MP stroke
c10
35 69 34 -44 34 -59 34 -16 34 41 35 69 34 22 34 -39 
34 -5 34 55 34 23 35 -55 34 -50 34 -2 34 45 34 18 
34 -14 35 -9 34 -9 34 -9 34 -9 34 -4 35 -4 34 -1 
34 8 34 7 34 16 34 23 35 23 34 26 34 27 34 26 
34 16 34 16 35 8 34 -7 34 -7 34 -17 34 -23 35 -24 
34 -29 34 -31 34 -30 34 -28 34 -28 35 -22 34 -16 34 -16 
34 1 34 6 34 6 292 1031 52 MP stroke
c11
35 -77 34 -28 34 8 34 28 34 32 35 22 34 -1 34 -24 
34 -37 34 -36 34 -25 35 -11 34 8 34 26 34 37 34 26 
34 9 35 22 34 65 34 91 34 54 34 -39 35 -98 34 -64 
34 27 34 58 34 41 34 -9 35 -44 34 -62 34 -64 34 -58 
34 -43 34 -23 35 2 34 20 34 30 34 32 34 32 35 34 
34 37 34 36 34 29 34 21 34 6 35 -12 34 -29 34 -37 
34 -32 34 -16 34 12 292 940 52 MP stroke
c12
35 -58 34 -32 34 -10 34 5 34 14 35 15 34 7 34 -4 
34 -16 34 -24 34 -24 35 -16 34 -9 34 -1 34 7 34 17 
34 22 35 15 34 0 34 -2 34 12 34 40 35 52 34 42 
34 12 34 -9 34 -16 34 -10 35 -8 34 -20 34 -39 34 -51 
34 -52 34 -42 35 -18 34 12 34 33 34 24 34 -9 35 -29 
34 -12 34 30 34 39 34 12 34 -21 35 -31 34 -17 34 -1 
34 11 34 20 34 28 292 953 52 MP stroke
c13
35 100 34 18 34 -35 34 -55 34 -44 35 -4 34 42 34 47 
34 0 34 -59 34 -67 35 -17 34 61 34 74 34 -21 34 -58 
34 -3 35 51 34 35 34 3 34 18 34 43 35 19 34 -34 
34 -58 34 -21 34 59 34 70 35 3 34 -82 34 -95 34 -33 
34 32 34 30 35 8 34 -13 34 -28 34 -22 34 -10 35 6 
34 22 34 23 34 18 34 9 34 -1 35 -4 34 -7 34 -5 
34 1 34 7 34 17 292 929 52 MP stroke
0.25 sg
35 -72 34 -13 34 25 34 41 34 34 35 8 34 -26 34 -40 
34 -29 34 -5 34 16 35 29 34 34 34 14 34 -31 34 -23 
34 33 35 54 34 -11 34 -72 34 -31 34 54 35 68 34 -45 
34 -106 34 -4 34 115 34 -44 35 -68 34 -18 34 21 34 30 
34 42 34 33 35 30 34 -5 34 -11 34 -30 34 -28 35 -27 
34 -14 34 -4 34 10 34 14 34 20 35 18 34 16 34 7 
34 0 34 -20 34 -26 292 948 52 MP stroke
c8
35 -25 34 9 34 31 34 41 34 40 35 26 34 3 34 -20 
34 -33 34 -33 34 -25 35 -14 34 0 34 14 34 28 34 17 
34 6 35 15 34 30 34 25 34 8 34 -9 35 -23 34 -3 
34 -85 34 -44 34 126 34 -69 35 -22 34 2 34 8 34 16 
34 16 34 14 35 3 34 -2 34 -10 34 -13 34 -12 35 -13 
34 -5 34 -5 34 -1 34 -2 34 -3 35 -7 34 -10 34 -20 
34 -23 34 -39 34 -41 292 1113 52 MP stroke
c9
35 -103 34 -36 34 14 34 44 34 57 35 51 34 29 34 -5 
34 -29 34 -36 34 -30 35 -20 34 -7 34 4 34 13 34 13 
34 8 35 2 34 -5 34 -8 34 1 34 12 35 24 34 35 
34 33 34 28 34 15 34 4 35 -2 34 -8 34 -12 34 -19 
34 -39 34 -60 35 -52 34 -18 34 -7 34 -20 34 -28 35 -21 
34 -3 34 16 34 21 34 6 34 -12 35 -17 34 -7 34 2 
34 10 34 13 34 13 292 1007 52 MP stroke
c10
35 66 34 1 34 -37 34 -45 34 -25 35 20 34 58 34 41 
34 -29 34 -95 34 -93 35 -23 34 56 34 84 34 43 34 8 
34 -10 35 -15 34 -13 34 -5 34 0 34 -1 35 -2 34 -2 
34 -3 34 -1 34 1 34 2 35 -2 34 -12 34 -21 34 -21 
34 -10 34 4 35 16 34 22 34 24 34 24 34 12 35 0 
34 -9 34 -14 34 -10 34 1 34 9 35 13 34 13 34 3 
34 -10 34 -26 34 -48 292 977 52 MP stroke
c11
35 123 34 41 34 -14 34 -44 34 -48 35 -27 34 11 34 24 
34 4 34 -43 34 -64 35 -51 34 -7 34 30 34 27 34 6 
34 9 35 42 34 59 34 32 34 -7 34 -9 35 24 34 42 
34 14 34 -32 34 -50 34 -29 35 -1 34 -2 34 -36 34 -64 
34 -56 34 -12 35 21 34 17 34 1 34 -9 34 -9 35 -2 
34 16 34 14 34 -4 34 -33 34 -68 35 -90 34 -89 34 -67 
34 -29 34 26 34 96 292 1228 52 MP stroke
c12
35 -11 34 -8 34 -7 34 -4 34 -2 35 1 34 -1 34 -6 
34 -13 34 -8 34 8 35 21 34 20 34 4 34 -8 34 -10 
34 1 35 8 34 12 34 10 34 -2 34 -19 35 -31 34 -28 
34 -20 34 -11 34 -8 34 -11 35 -21 34 -23 34 -15 34 -1 
34 9 34 7 35 -6 34 -27 34 -36 34 -26 34 -2 35 11 
34 0 34 -30 34 -53 34 -53 34 -29 35 4 34 25 34 27 
34 13 34 -19 34 -69 292 1233 52 MP stroke
c13
35 69 34 18 34 -13 34 -27 34 -24 35 -7 34 7 34 1 
34 -20 34 -27 34 -15 35 2 34 13 34 18 34 22 34 27 
34 34 35 39 34 40 34 29 34 3 34 -38 35 -52 34 -46 
34 -20 34 11 34 47 34 14 35 -26 34 -18 34 4 34 9 
34 -20 34 -23 35 -20 34 -17 34 -12 34 4 34 18 35 29 
34 35 34 22 34 6 34 -16 34 -35 35 -35 34 -31 34 -11 
34 23 34 58 34 98 292 841 52 MP stroke
0.25 sg
35 -85 34 -39 34 -3 34 22 34 37 35 39 34 25 34 2 
34 -16 34 -29 34 -34 35 -30 34 -21 34 -10 34 4 34 18 
34 29 35 29 34 23 34 16 34 12 34 9 35 10 34 15 
34 21 34 21 34 11 34 -10 35 -32 34 -46 34 -26 34 -77 
34 -17 34 67 35 -74 34 -57 34 3 34 31 34 42 35 35 
34 6 34 -15 34 -23 34 -25 34 -20 35 -14 34 -8 34 -3 
34 2 34 8 34 12 292 1025 52 MP stroke
c8
35 25 34 -12 34 -10 34 7 34 -29 35 -43 34 30 34 39 
34 17 34 -11 34 -24 35 -20 34 -9 34 6 34 21 34 30 
34 30 35 20 34 1 34 -13 34 -2 34 29 35 25 34 -22 
34 -65 34 -58 34 -5 34 22 35 20 34 18 34 16 34 10 
34 6 34 -4 35 -11 34 -21 34 -26 34 -28 34 -25 35 -23 
34 -10 34 -7 34 2 34 5 34 7 35 6 34 5 34 -1 
34 -4 34 -17 34 -20 292 1052 52 MP stroke
c9
35 -149 34 -22 34 54 34 78 34 52 35 -17 34 -76 34 -79 
34 -32 34 6 34 4 35 -13 34 -17 34 -7 34 14 34 29 
34 36 35 38 34 36 34 33 34 32 34 30 35 25 34 15 
34 2 34 -11 34 -25 34 -30 35 -35 34 -53 34 -52 34 -12 
34 11 34 -37 35 -87 34 -48 34 -16 34 1 34 9 35 10 
34 1 34 -5 34 -7 34 -4 34 -1 35 2 34 4 34 4 
34 2 34 -1 34 -4 292 1103 52 MP stroke
c10
35 146 34 -1 34 -76 34 -64 34 -30 35 -58 34 -97 34 -82 
34 -39 34 -16 34 2 35 15 34 19 34 20 34 27 34 39 
34 53 35 63 34 67 34 56 34 39 34 19 35 3 34 -5 
34 -1 34 12 34 12 34 -1 35 -24 34 -50 34 -70 34 -85 
34 -90 34 -84 35 -59 34 -38 34 -21 34 -11 34 -17 35 -29 
34 -34 34 -31 34 -4 34 34 34 56 35 70 34 67 34 39 
34 -2 34 -53 34 -118 292 1212 52 MP stroke
c11
35 35 34 -36 34 -74 34 -82 34 -57 35 -10 34 27 34 20 
34 -25 34 -57 34 -56 35 -32 34 -4 34 28 34 58 34 65 
34 48 35 8 34 -13 34 -10 34 13 34 34 35 47 34 50 
34 43 34 24 34 -2 34 -28 35 -42 34 -46 34 -39 34 -37 
34 -46 34 -57 35 -57 34 -37 34 -4 34 25 34 32 35 5 
34 -40 34 -51 34 -23 34 19 34 40 35 40 34 31 34 21 
34 11 34 1 34 -8 292 985 52 MP stroke
c12
35 -18 34 -20 34 -55 34 -66 34 38 35 55 34 1 34 1 
34 16 34 14 34 -4 35 -9 34 14 34 35 34 24 34 -14 
34 -16 35 3 34 25 34 22 34 -11 34 -46 35 -49 34 -13 
34 31 34 33 34 -10 34 -65 35 -68 34 -30 34 6 34 19 
34 40 34 37 35 28 34 7 34 -9 34 -24 34 -26 35 -16 
34 -5 34 17 34 32 34 42 34 50 35 51 34 47 34 39 
34 27 34 3 34 -7 292 724 52 MP stroke
c13
35 -113 34 -23 34 36 34 62 34 57 35 22 34 -18 34 -37 
34 -31 34 -18 34 -8 35 -3 34 0 34 5 34 10 34 17 
34 31 35 46 34 61 34 64 34 51 34 9 35 -50 34 -77 
34 -78 34 -52 34 2 34 53 35 67 34 -22 34 -99 34 -93 
34 6 34 68 35 -3 34 -33 34 -5 34 16 34 30 35 32 
34 22 34 12 34 2 34 -9 34 -18 35 -24 34 -24 34 -21 
34 -13 34 -2 34 13 292 996 52 MP stroke
0.25 sg
35 90 34 -2 34 -49 34 -43 34 5 35 35 34 -5 34 -51 
34 -28 34 37 34 18 35 -20 34 7 34 -11 34 -4 34 29 
34 23 35 11 34 7 34 6 34 -1 34 -6 35 -2 34 2 
34 -1 34 -3 34 -4 34 -5 35 -5 34 -5 34 -2 34 -1 
34 3 34 4 35 4 34 4 34 0 34 -1 34 -9 35 -12 
34 -14 34 -17 34 -16 34 -14 34 -11 35 -4 34 -1 34 14 
34 16 34 39 34 39 292 905 52 MP stroke
c8
35 -17 34 -2 34 10 34 20 34 28 35 31 34 15 34 -22 
34 -53 34 -38 34 72 35 -26 34 29 34 -16 34 -40 34 -31 
34 6 35 32 34 34 34 16 34 1 34 -4 35 -5 34 -5 
34 -5 34 -5 34 -6 34 -6 35 -3 34 -3 34 3 34 3 
34 14 34 13 35 18 34 18 34 17 34 16 34 12 35 9 
34 4 34 0 34 -3 34 -8 34 -11 35 -16 34 -18 34 -24 
34 -25 34 -32 34 -32 292 991 52 MP stroke
c9
35 -49 34 45 34 41 34 -46 34 -83 35 3 34 29 34 5 
34 -8 34 -14 34 -19 35 -22 34 -20 34 -9 34 15 34 41 
34 65 35 79 34 70 34 29 34 -31 34 -72 35 -74 34 -45 
34 -8 34 27 34 50 34 34 35 -23 34 -85 34 -87 34 -55 
34 -12 34 -1 35 13 34 11 34 6 34 -9 34 -15 35 -15 
34 -3 34 12 34 27 34 44 34 48 35 50 34 40 34 34 
34 9 34 -17 34 -35 292 903 52 MP stroke
c10
35 -43 34 -27 34 -14 34 -1 34 6 35 8 34 7 34 2 
34 -8 34 -14 34 -20 35 -25 34 -24 34 -22 34 -16 34 -4 
34 9 35 23 34 37 34 27 34 8 34 5 35 20 34 40 
34 45 34 33 34 15 34 4 35 2 34 -2 34 -21 34 -57 
34 -61 34 -30 35 4 34 11 34 4 34 -8 34 -21 35 -28 
34 -30 34 -20 34 9 34 53 34 84 35 100 34 94 34 57 
34 -9 34 -106 34 -235 292 1020 52 MP stroke
c11
35 -46 34 4 34 33 34 38 34 21 35 -14 34 -51 34 -69 
34 -69 34 -56 34 -32 35 -7 34 3 34 5 34 0 34 2 
34 17 35 37 34 48 34 38 34 9 34 -23 35 -31 34 -6 
34 51 34 87 34 94 34 53 35 2 34 -37 34 -64 34 -72 
34 -62 34 -51 35 -56 34 -77 34 -89 34 -68 34 -37 35 -16 
34 -7 34 -12 34 -15 34 -8 34 9 35 24 34 26 34 10 
34 -25 34 -75 34 -145 292 1436 52 MP stroke
c12
35 39 34 7 34 -16 34 -30 34 -35 35 -30 34 -21 34 -17 
34 -16 34 -18 34 -9 35 10 34 26 34 30 34 25 34 10 
34 0 35 -2 34 0 34 3 34 3 34 1 35 -1 34 3 
34 11 34 24 34 22 34 5 35 -24 34 -41 34 -33 34 -3 
34 23 34 22 35 -7 34 -44 34 -57 34 -39 34 0 35 24 
34 21 34 -6 34 -6 34 27 34 53 35 36 34 -17 34 -37 
34 -19 34 41 34 139 292 799 52 MP stroke
c13
35 140 34 -18 34 -100 34 -74 34 29 35 71 34 34 34 -1 
34 -11 34 -29 34 -53 35 -30 34 45 34 53 34 -2 34 1 
34 42 35 39 34 30 34 22 34 7 34 -7 35 -19 34 -27 
34 -27 34 -14 34 8 34 19 35 20 34 11 34 -9 34 -20 
34 -18 34 -11 35 0 34 5 34 4 34 2 34 -11 35 -12 
34 -14 34 -4 34 8 34 19 34 31 35 37 34 38 34 37 
34 29 34 21 34 10 292 727 52 MP stroke
0.25 sg
35 76 34 3 34 -41 34 -58 34 -47 35 -13 34 -1 34 -17 
34 -33 34 -20 34 21 35 37 34 7 34 -23 34 -8 34 34 
34 45 35 18 34 -4 34 12 34 30 34 25 35 10 34 -5 
34 -10 34 -3 34 13 34 16 35 0 34 -26 34 -50 34 -60 
34 -52 34 -31 35 -16 34 -16 34 -21 34 -25 34 -21 35 -7 
34 18 34 27 34 21 34 6 34 -16 35 -34 34 -36 34 -29 
34 -10 34 16 34 53 292 1089 52 MP stroke
c8
35 31 34 15 34 5 34 4 34 6 35 -2 34 -29 34 -41 
34 -17 34 19 34 16 35 1 34 -2 34 -5 34 -5 34 20 
34 27 35 16 34 8 34 4 34 4 34 7 35 17 34 15 
34 5 34 -14 34 -36 34 -47 35 -34 34 -13 34 9 34 21 
34 14 34 0 35 -9 34 -19 34 -15 34 -11 34 1 35 7 
34 6 34 2 34 -11 34 -15 34 -20 35 -15 34 -7 34 3 
34 31 34 53 34 74 292 879 52 MP stroke
c9
35 -86 34 -16 34 30 34 50 34 46 35 21 34 -3 34 -13 
34 -6 34 5 34 17 35 20 34 15 34 5 34 -14 34 -19 
34 -16 35 -4 34 11 34 22 34 24 34 18 35 12 34 5 
34 0 34 -7 34 -18 34 -38 35 -49 34 -36 34 3 34 35 
34 38 34 8 35 -14 34 -23 34 -26 34 -29 34 -33 35 -33 
34 -26 34 -8 34 10 34 24 34 31 35 32 34 27 34 19 
34 6 34 -13 34 -36 292 977 52 MP stroke
c10
35 -51 34 -34 34 -18 34 5 34 14 35 22 34 28 34 29 
34 28 34 21 34 12 35 4 34 -10 34 -25 34 -29 34 -30 
34 -10 35 9 34 42 34 71 34 -54 34 -51 35 91 34 46 
34 -97 34 -44 34 77 34 32 35 -60 34 -32 34 18 34 -5 
34 -12 34 23 35 7 34 -17 34 -30 34 -39 34 -29 35 -12 
34 1 34 11 34 15 34 8 34 4 35 2 34 2 34 6 
34 14 34 23 34 34 292 919 52 MP stroke
c11
35 -44 34 -14 34 8 34 21 34 24 35 13 34 -18 34 -53 
34 -49 34 -9 34 10 35 2 34 -13 34 -25 34 -23 34 -1 
34 44 35 65 34 70 34 59 34 40 34 29 35 31 34 43 
34 55 34 9 34 -84 34 70 35 -9 34 -68 34 31 34 10 
34 -12 34 -17 35 -23 34 -19 34 -15 34 -4 34 2 35 5 
34 0 34 -6 34 -12 34 -18 34 -19 35 -18 34 -10 34 -4 
34 11 34 27 34 39 292 881 52 MP stroke
c12
35 102 34 -13 34 -72 34 -53 34 20 35 27 34 -31 34 -32 
34 42 34 57 34 -4 35 -30 34 18 34 49 34 5 34 -26 
34 20 35 56 34 -9 34 -60 34 16 34 67 35 -15 34 -51 
34 23 34 24 34 11 34 -8 35 -7 34 -15 34 -14 34 -6 
34 -6 34 12 35 12 34 19 34 19 34 10 34 11 35 -10 
34 -11 34 -23 34 -24 34 -26 34 -26 35 -18 34 -17 34 3 
34 3 34 34 34 35 292 913 52 MP stroke
c13
35 -55 34 -17 34 6 34 17 34 12 35 -4 34 -31 34 -48 
34 -41 34 -15 34 16 35 29 34 25 34 8 34 -3 34 -3 
34 5 35 14 34 27 34 37 34 42 34 35 35 19 34 1 
34 -6 34 5 34 28 34 30 35 1 34 -56 34 -93 34 -88 
34 -47 34 -14 35 1 34 -2 34 -6 34 -2 34 4 35 1 
34 -16 34 -33 34 -8 34 56 34 97 35 63 34 -22 34 -69 
34 -65 34 -12 34 94 292 943 52 MP stroke
0.25 sg
35 148 34 22 34 -62 34 -103 34 -101 35 -59 34 11 34 44 
34 27 34 -23 34 -48 35 -29 34 15 34 30 34 31 34 27 
34 11 35 5 34 7 34 13 34 32 34 34 35 31 34 17 
34 -11 34 -23 34 -30 34 -21 35 -2 34 12 34 19 34 -58 
34 -77 34 -31 35 -78 34 -89 34 24 34 25 34 1 35 -9 
34 -4 34 11 34 17 34 2 34 -27 35 -57 34 -69 34 -55 
34 -21 34 38 34 121 292 1113 52 MP stroke
c8
35 -143 34 -43 34 22 34 54 34 52 35 17 34 -26 34 -65 
34 -89 34 -89 34 -58 35 -20 34 6 34 30 34 51 34 60 
34 52 35 30 34 16 34 7 34 8 34 14 35 23 34 28 
34 34 34 34 34 27 34 5 35 -22 34 -29 34 -19 34 -10 
34 -23 34 -53 35 -79 34 -80 34 -61 34 -47 34 -47 35 -56 
34 -46 34 -4 34 54 34 81 34 58 35 1 34 -44 34 -61 
34 -52 34 -16 34 48 292 1183 52 MP stroke
c9
35 -36 34 -1 34 20 34 22 34 10 35 -11 34 -31 34 -36 
34 -22 34 7 34 14 35 16 34 11 34 6 34 1 34 -3 
34 -8 35 -5 34 4 34 15 34 24 34 26 35 20 34 4 
34 -7 34 -17 34 -14 34 -29 35 -25 34 30 34 30 34 -67 
34 -63 34 -24 35 -1 34 16 34 17 34 17 34 2 35 -3 
34 -4 34 -1 34 10 34 15 34 21 35 16 34 10 34 -1 
34 -27 34 -47 34 -69 292 1063 52 MP stroke
c10
35 131 34 31 34 -36 34 -70 34 -71 35 -38 34 8 34 28 
34 14 34 -18 34 -30 35 -19 34 16 34 -9 34 18 34 59 
34 28 35 13 34 23 34 31 34 9 34 -35 35 -19 34 -11 
34 -13 34 -20 34 -21 34 -16 35 -14 34 1 34 16 34 31 
34 58 34 59 35 66 34 64 34 26 34 27 34 -37 35 -45 
34 -80 34 -92 34 -100 34 -103 34 -92 35 -78 34 -59 34 -15 
34 0 34 85 34 85 292 1159 52 MP stroke
c11
35 -84 34 -33 34 3 34 26 34 35 35 29 34 10 34 -13 
34 -29 34 -32 34 -22 35 -10 34 2 34 16 34 30 34 -25 
34 -18 35 140 34 105 34 -100 34 -28 34 64 35 38 34 -10 
34 -40 34 -47 34 -38 34 -27 35 -22 34 -25 34 -30 34 -27 
34 -11 34 14 35 25 34 19 34 6 34 -8 34 -13 35 -5 
34 13 34 20 34 17 34 4 34 -17 35 -33 34 -35 34 -26 
34 -10 34 16 34 50 292 1004 52 MP stroke
c12
35 10 34 0 34 -5 34 -5 34 -4 35 -22 34 -53 34 -46 
34 7 34 36 34 21 35 -7 34 -18 34 -14 34 13 34 39 
34 34 35 -1 34 -10 34 -7 34 4 34 12 35 19 34 23 
34 24 34 16 34 -1 34 -19 35 -35 34 -41 34 -30 34 -8 
34 7 34 12 35 11 34 0 34 -9 34 -14 34 -18 35 -19 
34 -19 34 -16 34 -14 34 -8 34 -2 35 5 34 11 34 22 
34 31 34 40 34 50 292 887 52 MP stroke
c13
35 -56 34 -45 34 -35 34 -22 34 -14 35 -7 34 -2 34 3 
34 4 34 6 34 5 35 6 34 5 34 5 34 8 34 10 
34 21 35 33 34 54 34 72 34 52 34 49 35 82 34 103 
34 63 34 -20 34 -37 34 7 35 38 34 -25 34 -112 34 -123 
34 -96 34 -79 35 -63 34 -35 34 1 34 22 34 32 35 36 
34 26 34 7 34 -9 34 -22 34 -29 35 -37 34 -43 34 -52 
34 -60 34 -70 34 -81 292 1359 52 MP stroke
0.25 sg
35 136 34 -3 34 -75 34 -66 34 9 35 54 34 0 34 -62 
34 -28 34 25 34 32 35 27 34 3 34 -10 34 -13 34 -9 
34 3 35 11 34 8 34 1 34 -6 34 -8 35 6 34 23 
34 33 34 24 34 -26 34 -68 35 -38 34 51 34 90 34 20 
34 -82 34 -103 35 -34 34 36 34 32 34 -9 34 -39 35 -45 
34 -29 34 -1 34 17 34 13 34 -7 35 -19 34 -23 34 -17 
34 1 34 29 34 67 292 1004 52 MP stroke
c8
35 66 34 -10 34 -37 34 -5 34 42 35 -2 34 -76 34 -41 
34 38 34 5 34 -57 35 -13 34 26 34 31 34 15 34 3 
34 3 35 7 34 12 34 18 34 22 34 16 35 0 34 -23 
34 -27 34 -12 34 17 34 27 35 7 34 -1 34 -14 34 -20 
34 -24 34 -19 35 -16 34 1 34 5 34 17 34 22 35 26 
34 30 34 30 34 29 34 27 34 21 35 16 34 7 34 -4 
34 -11 34 -31 34 -36 292 844 52 MP stroke
c9
35 36 34 -8 34 -19 34 -1 34 0 35 -35 34 -26 34 -1 
34 4 34 4 34 1 35 -2 34 -2 34 -2 34 0 34 3 
34 7 35 10 34 14 34 15 34 10 34 4 35 -2 34 -6 
34 -3 34 2 34 5 34 0 35 -11 34 -26 34 -28 34 -12 
34 12 34 24 35 15 34 -15 34 -63 34 -78 34 -55 35 16 
34 66 34 46 34 -29 34 -77 34 -59 35 14 34 72 34 86 
34 57 34 -18 34 -137 292 1065 52 MP stroke
c10
35 -78 34 -10 34 37 34 64 34 71 35 59 34 28 34 -2 
34 -27 34 -41 34 -43 35 -27 34 6 34 69 34 -34 34 220 
34 -212 35 52 34 24 34 -27 34 -38 34 -6 35 18 34 1 
34 -20 34 -7 34 36 34 47 35 11 34 -5 34 -18 34 -23 
34 -25 34 -5 35 2 34 32 34 39 34 48 34 39 35 34 
34 5 34 -3 34 -29 34 -30 34 -35 35 -30 34 -22 34 -3 
34 10 34 51 34 61 292 796 52 MP stroke
c11
35 39 34 4 34 -19 34 -33 34 -37 35 -32 34 -19 34 -14 
34 -21 34 -32 34 -38 35 -31 34 -16 34 2 34 22 34 30 
34 19 35 -6 34 -15 34 9 34 48 34 69 35 73 34 60 
34 27 34 -5 34 -4 34 22 35 11 34 -57 34 -117 34 -97 
34 -12 34 17 35 6 34 -11 34 -26 34 -29 34 -28 35 -21 
34 -16 34 -14 34 -14 34 -15 34 -15 35 -12 34 -9 34 0 
34 9 34 21 34 31 292 1103 52 MP stroke
c12
35 -42 34 -7 34 16 34 28 34 32 35 23 34 7 34 -12 
34 -31 34 -46 34 -46 35 -24 34 10 34 33 34 36 34 24 
34 8 35 -5 34 -7 34 2 34 9 34 16 35 22 34 25 
34 23 34 18 34 4 34 -10 35 -51 34 -58 34 -12 34 31 
34 34 34 -35 35 -58 34 -20 34 -2 34 12 34 12 35 8 
34 2 34 -2 34 1 34 5 34 9 35 11 34 10 34 6 
34 -1 34 -11 34 -21 292 961 52 MP stroke
c13
35 -85 34 -14 34 29 34 41 34 26 35 -15 34 -52 34 -51 
34 -15 34 22 34 35 35 31 34 25 34 -2 34 -34 34 33 
34 8 35 -13 34 0 34 2 34 -9 34 -19 35 -16 34 -4 
34 9 34 16 34 6 34 -2 35 -10 34 -11 34 -10 34 -10 
34 4 34 7 35 25 34 27 34 33 34 29 34 23 35 13 
34 0 34 -9 34 -17 34 -19 34 -21 35 -16 34 -14 34 1 
34 5 34 33 34 36 292 849 52 MP stroke
0.25 sg
35 -36 34 -1 34 14 34 7 34 -20 35 -62 34 -82 34 -51 
34 24 34 73 34 61 35 11 34 -6 34 32 34 50 34 1 
34 -52 35 -33 34 36 34 50 34 6 34 -37 35 -31 34 -22 
34 -36 34 -2 34 86 34 52 35 -96 34 -58 34 -24 34 4 
34 18 34 25 35 22 34 15 34 -1 34 -7 34 -11 35 -6 
34 -1 34 15 34 21 34 28 34 28 35 26 34 15 34 5 
34 -10 34 -37 34 -49 292 927 52 MP stroke
c8
35 75 34 41 34 11 34 -18 34 -35 35 -40 34 -40 34 -29 
34 -10 34 2 34 11 35 14 34 7 34 2 34 -3 34 -4 
34 -3 35 -1 34 -2 34 -7 34 6 34 59 35 107 34 89 
34 11 34 -41 34 -2 34 65 35 -4 34 -50 34 134 34 71 
34 20 34 -4 35 -9 34 -9 34 -8 34 0 34 9 35 11 
34 9 34 -15 34 -37 34 -59 34 -84 35 -86 34 -83 34 -70 
34 -38 34 -6 34 30 292 1116 52 MP stroke
c9
35 -54 34 -40 34 -29 34 -22 34 -21 35 -24 34 -29 34 -25 
34 -12 34 9 34 26 35 27 34 17 34 6 34 13 34 39 
34 66 35 85 34 73 34 26 34 -37 34 -98 35 -144 34 -149 
34 -75 34 0 34 10 34 -53 35 -22 34 66 34 6 34 -20 
34 -35 34 -51 35 -46 34 -36 34 -6 34 8 34 37 35 42 
34 49 34 49 34 48 34 51 34 56 35 61 34 78 34 86 
34 106 34 127 34 140 292 369 52 MP stroke
c10
35 77 34 -12 34 -59 34 -58 34 -10 35 33 34 18 34 -33 
34 -41 34 -5 34 14 35 -24 34 -20 34 55 34 71 34 8 
34 -14 35 8 34 13 34 9 34 5 34 1 35 1 34 -1 
34 -7 34 -17 34 -24 34 -18 35 0 34 17 34 11 34 -12 
34 -38 34 -48 35 -59 34 -48 34 -39 34 -5 34 6 35 16 
34 15 34 6 34 -6 34 -16 34 -18 35 -17 34 -5 34 3 
34 29 34 55 34 73 292 983 52 MP stroke
c11
35 3 34 16 34 18 34 10 34 -11 35 -40 34 -58 34 -54 
34 -36 34 -31 34 -42 35 -46 34 -29 34 -1 34 32 34 49 
34 42 35 19 34 6 34 10 34 26 34 39 35 44 34 38 
34 30 34 16 34 -3 34 -16 35 -12 34 4 34 4 34 -16 
34 -45 34 -63 35 -68 34 -64 34 -44 34 -30 34 -24 35 -24 
34 -28 34 -32 34 -26 34 -3 34 30 35 50 34 55 34 44 
34 19 34 -23 34 -79 292 1132 52 MP stroke
c12
35 -23 34 14 34 38 34 31 34 -36 35 -45 34 21 34 34 
34 5 34 -36 34 -29 35 36 34 2 34 -121 34 -104 34 109 
34 66 35 -16 34 -1 34 3 34 7 34 7 35 10 34 10 
34 9 34 6 34 7 34 1 35 0 34 -1 34 6 34 6 
34 16 34 30 35 30 34 57 34 64 34 66 34 76 35 76 
34 67 34 59 34 58 34 17 34 12 35 -9 34 -65 34 -65 
34 -132 34 -172 34 -171 292 921 52 MP stroke
c13
35 -53 34 -21 34 1 34 17 34 24 35 23 34 15 34 2 
34 -6 34 -7 34 -1 35 4 34 7 34 10 34 15 34 14 
34 0 35 -27 34 -38 34 1 34 27 34 -21 35 -59 34 -11 
34 32 34 3 34 -14 34 13 35 20 34 -5 34 -1 34 6 
34 12 34 16 35 15 34 11 34 5 34 1 34 4 35 13 
34 29 34 54 34 66 34 79 34 71 35 63 34 23 34 -2 
34 -62 34 -127 34 -169 292 881 52 MP stroke
0.25 sg
35 -39 34 -18 34 -4 34 2 34 0 35 -10 34 -21 34 -28 
34 -30 34 -21 34 5 35 32 34 36 34 14 34 -14 34 -26 
34 -17 35 2 34 27 34 49 34 59 34 48 35 18 34 -8 
34 -27 34 -36 34 -33 34 -14 35 10 34 25 34 24 34 8 
34 -28 34 -82 35 -120 34 -101 34 -43 34 20 34 63 35 60 
34 32 34 6 34 -11 34 -15 34 -5 35 4 34 10 34 14 
34 14 34 13 34 10 292 977 52 MP stroke
c8
35 -75 34 -31 34 -2 34 15 34 16 35 6 34 -12 34 -19 
34 -18 34 -8 34 5 35 20 34 38 34 22 34 -14 34 -36 
34 -23 35 20 34 46 34 21 34 2 34 1 35 4 34 4 
34 4 34 1 34 -7 34 -15 35 -22 34 -23 34 -19 34 -14 
34 -8 34 -6 35 -6 34 -8 34 -17 34 -23 34 -33 35 -39 
34 -40 34 -38 34 -30 34 -23 34 -12 35 7 34 21 34 36 
34 67 34 87 34 106 292 900 52 MP stroke
c9
35 -64 34 -6 34 32 34 49 34 46 35 22 34 -10 34 -41 
34 -59 34 -44 34 0 35 23 34 24 34 19 34 38 34 90 
34 137 35 121 34 30 34 -79 34 -123 34 -91 35 -31 34 -4 
34 -28 34 -61 34 -71 34 -58 35 -47 34 -39 34 -17 34 38 
34 113 34 119 35 49 34 -24 34 -49 34 -57 34 -42 35 16 
34 40 34 52 34 49 34 15 34 -2 35 -13 34 -17 34 -2 
34 19 34 50 34 85 292 764 52 MP stroke
c10
35 29 34 14 34 0 34 -11 34 -21 35 -28 34 -27 34 -13 
34 9 34 20 34 8 35 -13 34 -17 34 -8 34 10 34 18 
34 10 35 -6 34 -12 34 0 34 23 34 39 35 38 34 20 
34 0 34 -14 34 -14 34 -5 35 4 34 10 34 0 34 -23 
34 -48 34 -46 35 -17 34 10 34 10 34 -3 34 -12 35 -11 
34 1 34 18 34 28 34 21 34 7 35 -6 34 -14 34 -18 
34 -16 34 -10 34 2 292 988 52 MP stroke
c11
35 99 34 23 34 -32 34 -63 34 -73 35 -59 34 -25 34 22 
34 42 34 19 34 -25 35 -56 34 -56 34 -23 34 51 34 49 
34 -17 35 155 34 91 34 43 34 20 34 -116 35 26 34 79 
34 -142 34 16 34 88 34 41 35 6 34 4 34 -11 34 -10 
34 -8 34 -3 35 10 34 13 34 20 34 19 34 18 35 11 
34 6 34 2 34 -1 34 -1 34 -1 35 6 34 8 34 22 
34 24 34 46 34 49 292 601 52 MP stroke
c12
35 -40 34 -19 34 3 34 21 34 40 35 46 34 15 34 -44 
34 -75 34 -21 34 74 35 34 34 -75 34 -2 34 36 34 13 
34 28 35 18 34 -16 34 36 34 79 34 -42 35 -126 34 -5 
34 39 34 18 34 -4 34 -6 35 -16 34 -18 34 -14 34 -13 
34 -2 34 2 35 9 34 12 34 12 34 10 34 6 35 1 
34 -2 34 -6 34 -7 34 -7 34 -6 35 -2 34 0 34 9 
34 10 34 26 34 27 292 889 52 MP stroke
c13
35 -91 34 -42 34 -5 34 18 34 28 35 25 34 8 34 -24 
34 -36 34 -29 34 -8 35 16 34 30 34 28 34 14 34 4 
34 13 35 26 34 12 34 -3 34 11 34 28 35 13 34 -14 
34 -28 34 -26 34 -14 34 4 35 -3 34 -29 34 -42 34 -28 
34 0 34 10 35 16 34 12 34 5 34 -13 34 -36 35 -46 
34 -49 34 -24 34 3 34 30 34 61 35 66 34 62 34 46 
34 6 34 -33 34 -76 292 961 52 MP stroke
0.25 sg
35 107 34 0 34 -67 34 -94 34 -78 35 -30 34 13 34 12 
34 -31 34 -60 34 -44 35 1 34 22 34 14 34 -5 34 3 
34 38 35 74 34 77 34 47 34 15 34 13 35 37 34 45 
34 20 34 -21 34 -54 34 -56 35 -27 34 15 34 38 34 31 
34 -3 34 -22 35 -22 34 -8 34 3 34 1 34 -17 35 -33 
34 -17 34 33 34 91 34 113 34 91 35 39 34 -2 34 -25 
34 -27 34 -11 34 25 292 668 52 MP stroke
c8
35 93 34 4 34 -50 34 -67 34 -48 35 2 34 42 34 41 
34 3 34 -33 34 -42 35 -29 34 -15 34 0 34 9 34 10 
34 4 35 1 34 13 34 31 34 42 34 45 35 34 34 13 
34 -10 34 -27 34 -26 34 -3 35 26 34 34 34 11 34 -33 
34 -58 34 -55 35 -32 34 -15 34 -10 34 -16 34 -20 35 -11 
34 13 34 43 34 57 34 39 34 5 35 -24 34 -39 34 -39 
34 -24 34 8 34 55 292 961 52 MP stroke
c9
35 -43 34 -8 34 12 34 18 34 9 35 -9 34 -26 34 -23 
34 -8 34 0 34 -5 35 -11 34 -1 34 24 34 45 34 37 
34 3 35 -23 34 -24 34 -3 34 16 34 21 35 17 34 6 
34 -8 34 -19 34 -17 34 -3 35 16 34 16 34 -4 34 -32 
34 -42 34 -31 35 -7 34 8 34 6 34 -4 34 -7 35 -4 
34 4 34 13 34 15 34 10 34 -4 35 -12 34 -14 34 -12 
34 -4 34 8 34 27 292 964 52 MP stroke
c10
35 -23 34 -12 34 -8 34 -9 34 -15 35 -27 34 -36 34 -40 
34 -34 34 -21 34 1 35 19 34 27 34 33 34 32 34 26 
34 11 35 -6 34 -9 34 5 34 32 34 55 35 58 34 41 
34 9 34 -24 34 -38 34 -27 35 -25 34 -25 34 -16 34 -21 
34 -64 34 -89 35 -39 34 -8 34 4 34 10 34 9 35 -3 
34 -8 34 -9 34 -6 34 9 34 15 35 19 34 21 34 14 
34 5 34 -7 34 -22 292 1041 52 MP stroke
c11
35 -86 34 -36 34 -3 34 19 34 26 35 20 34 2 34 -24 
34 -54 34 -60 34 -23 35 44 34 69 34 54 34 12 34 -16 
34 -15 35 5 34 20 34 19 34 7 34 2 35 7 34 22 
34 26 34 -5 34 -68 34 -66 35 -6 34 39 34 25 34 -13 
34 -50 34 -60 35 -27 34 1 34 15 34 23 34 12 35 -5 
34 -18 34 -23 34 -14 34 8 34 21 35 31 34 33 34 21 
34 3 34 -21 34 -51 292 999 52 MP stroke
c12
35 125 34 6 34 -64 34 -72 34 -34 35 -21 34 -64 34 -58 
34 59 34 114 34 74 35 -19 34 -98 34 -112 34 -66 34 -6 
34 36 35 57 34 63 34 58 34 46 34 30 35 17 34 10 
34 5 34 1 34 -2 34 -4 35 -5 34 -10 34 -16 34 -22 
34 -31 34 -37 35 -46 34 -52 34 -55 34 -56 34 -61 35 -52 
34 -40 34 -29 34 -16 34 8 34 44 35 83 34 92 34 63 
34 -5 34 -112 34 -256 292 1345 52 MP stroke
c13
35 -65 34 -13 34 12 34 9 34 -25 35 -75 34 -95 34 -83 
34 -57 34 -28 34 -4 35 17 34 39 34 55 34 58 34 46 
34 31 35 32 34 49 34 67 34 69 34 51 35 24 34 -1 
34 -23 34 -38 34 -41 34 -35 35 -27 34 -20 34 -19 34 -31 
34 -62 34 -103 35 -116 34 -66 34 -6 34 37 34 56 35 43 
34 -6 34 -29 34 -29 34 -12 34 19 35 40 34 36 34 15 
34 -23 34 -76 34 -144 292 1271 52 MP stroke
0.25 sg
35 -49 34 -8 34 17 34 24 34 14 35 -9 34 -27 34 -30 
34 -23 34 -14 34 -2 35 6 34 10 34 14 34 18 34 19 
34 16 35 12 34 8 34 5 34 7 34 10 35 15 34 17 
34 14 34 10 34 3 34 -10 35 -37 34 -38 34 -9 34 -5 
34 -29 34 -55 35 -60 34 -36 34 -30 34 -32 34 -37 35 -41 
34 -46 34 -46 34 -36 34 -22 34 -8 35 5 34 17 34 24 
34 28 34 30 34 30 292 1183 52 MP stroke
c8
35 -16 34 -37 34 -42 34 -34 34 -7 35 21 34 21 34 -9 
34 -33 34 -26 34 1 35 18 34 32 34 33 34 15 34 -16 
34 -37 35 -23 34 20 34 56 34 56 34 25 35 -9 34 -29 
34 -31 34 -25 34 -18 34 -14 35 -14 34 -18 34 -17 34 -3 
34 21 34 17 35 -10 34 -42 34 -50 34 -46 34 -27 35 22 
34 45 34 56 34 54 34 30 34 13 35 2 34 -7 34 -7 
34 0 34 10 34 26 292 884 52 MP stroke
c9
35 -27 34 -2 34 4 34 -9 34 -32 35 -19 34 30 34 39 
34 3 34 -13 34 -16 35 -12 34 -6 34 0 34 7 34 11 
34 14 35 13 34 12 34 11 34 13 34 16 35 28 34 14 
34 -93 34 58 34 47 34 -16 35 -18 34 -20 34 -18 34 -19 
34 -11 34 -9 35 4 34 5 34 13 34 12 34 9 35 6 
34 -2 34 -4 34 -7 34 -5 34 -2 35 6 34 12 34 29 
34 36 34 64 34 68 292 724 52 MP stroke
c10
35 -97 34 -30 34 13 34 32 34 28 35 3 34 -29 34 -34 
34 -9 34 23 34 33 35 19 34 -1 34 -7 34 2 34 14 
34 18 35 16 34 11 34 12 34 14 34 11 35 -5 34 -27 
34 -39 34 -39 34 -31 34 -20 35 -8 34 5 34 10 34 4 
34 -9 34 -20 35 -18 34 -5 34 15 34 29 34 37 35 35 
34 20 34 -7 34 -38 34 -54 34 -53 35 -35 34 -15 34 6 
34 29 34 51 34 76 292 921 52 MP stroke
c11
35 -68 34 -41 34 -19 34 -5 34 5 35 7 34 4 34 -1 
34 -8 34 -10 34 3 35 31 34 52 34 40 34 -4 34 -39 
34 -26 35 22 34 50 34 24 34 -26 34 -39 35 -8 34 26 
34 21 34 1 34 -41 34 -59 35 -57 34 -42 34 -16 34 2 
34 -6 34 -23 35 -42 34 -53 34 -46 34 -30 34 -19 35 -19 
34 -49 34 -91 34 -84 34 -26 34 42 35 95 34 124 34 130 
34 116 34 82 34 30 292 825 52 MP stroke
c12
35 -40 34 -2 34 20 34 31 34 26 35 7 34 -20 34 -42 
34 -52 34 -52 34 -36 35 -3 34 48 34 111 34 48 34 32 
34 57 35 59 34 63 34 65 34 -12 34 -53 35 35 34 56 
34 -92 34 -132 34 -82 34 -25 35 -21 34 -19 34 -17 34 -17 
34 -14 34 -15 35 -11 34 -11 34 -9 34 -8 34 -7 35 -7 
34 -5 34 -7 34 -8 34 -11 34 -13 35 -19 34 -22 34 -32 
34 -35 34 -49 34 -50 292 1356 52 MP stroke
c13
35 120 34 31 34 -26 34 -50 34 -36 35 -11 34 -16 34 -51 
34 -71 34 -52 34 -24 35 -13 34 -18 34 -5 34 30 34 64 
34 63 35 32 34 14 34 32 34 57 34 50 35 32 34 11 
34 -3 34 0 34 10 34 8 35 -10 34 -41 34 -72 34 -81 
34 -58 34 -9 35 13 34 5 34 -22 34 -51 34 -67 35 -61 
34 -33 34 -11 34 5 34 16 34 21 35 23 34 22 34 20 
34 16 34 10 34 3 292 1057 52 MP stroke
0.25 sg
35 36 34 -4 34 -31 34 -36 34 -29 35 -39 34 -63 34 -53 
34 -2 34 14 34 11 35 -4 34 -13 34 -11 34 -2 34 12 
34 23 35 29 34 32 34 35 34 39 34 42 35 40 34 28 
34 6 34 -12 34 -16 34 -1 35 17 34 14 34 -15 34 -62 
34 -85 34 -69 35 -28 34 -3 34 -9 34 -33 34 -56 35 -60 
34 -42 34 -11 34 17 34 30 34 32 35 30 34 25 34 18 
34 11 34 0 34 -11 292 1055 52 MP stroke
c8
35 173 34 -22 34 -81 34 -14 34 23 35 -68 34 -59 34 30 
34 22 34 -41 34 -44 35 13 34 50 34 19 34 -8 34 25 
34 65 35 52 34 16 34 -12 34 -15 34 4 35 8 34 -19 
34 -63 34 -69 34 -26 34 37 35 53 34 21 34 -4 34 -17 
34 -32 34 -31 35 -21 34 -5 34 10 34 21 34 22 35 8 
34 -4 34 -27 34 -40 34 -47 34 -46 35 -42 34 -21 34 1 
34 27 34 78 34 97 292 959 52 MP stroke
c9
35 128 34 62 34 12 34 -21 34 -39 35 -37 34 -24 34 -1 
34 21 34 33 34 29 35 5 34 -34 34 -41 34 -12 34 18 
34 9 35 -25 34 -26 34 11 34 38 34 28 35 -3 34 -19 
34 -10 34 18 34 29 34 11 35 -27 34 -42 34 -24 34 20 
34 49 34 37 35 26 34 16 34 7 34 -4 34 -8 35 -10 
34 -11 34 -4 34 4 34 12 34 19 35 19 34 16 34 8 
34 -7 34 -22 34 -39 292 876 52 MP stroke
c10
35 -9 34 -8 34 -7 34 -3 34 2 35 8 34 14 34 13 
34 3 34 -13 34 -24 35 -26 34 -22 34 -9 34 7 34 -24 
34 47 35 39 34 3 34 1 34 4 34 6 35 8 34 11 
34 12 34 13 34 8 34 3 35 -5 34 -21 34 -25 34 -28 
34 -22 34 -13 35 -3 34 3 34 -3 34 -19 34 -43 35 -49 
34 -19 34 29 34 63 34 79 34 76 35 59 34 36 34 8 
34 -29 34 -70 34 -117 292 964 52 MP stroke
c11
35 58 34 17 34 -15 34 -40 34 -54 35 -60 34 -58 34 -52 
34 -45 34 -36 34 -24 35 -5 34 19 34 49 34 54 34 2 
34 -31 35 6 34 51 34 56 34 43 34 59 35 85 34 57 
34 15 34 -26 34 -46 34 -41 35 -19 34 -12 34 -30 34 -63 
34 -74 34 -50 35 -4 34 23 34 7 34 -45 34 -100 35 -110 
34 -67 34 24 34 75 34 69 34 26 35 -18 34 -43 34 -45 
34 -22 34 23 34 91 292 1095 52 MP stroke
c12
35 -9 34 -2 34 0 34 0 34 -4 35 -13 34 -19 34 -14 
34 2 34 21 34 22 35 9 34 -7 34 -3 34 28 34 39 
34 7 35 -30 34 -33 34 -2 34 30 34 36 35 21 34 -32 
34 -93 34 -58 34 44 34 67 35 11 34 -18 34 -17 34 -15 
34 -14 34 -16 35 -16 34 -13 34 -6 34 5 34 12 35 24 
34 32 34 36 34 43 34 41 34 38 35 26 34 10 34 -2 
34 -38 34 -64 34 -87 292 953 52 MP stroke
c13
35 2 34 -4 34 -7 34 -9 34 -8 35 -5 34 0 34 5 
34 8 34 4 34 -2 35 -7 34 -4 34 3 34 22 34 20 
34 -34 35 36 34 58 34 -40 34 43 34 70 35 1 34 -50 
34 -37 34 37 34 51 34 -12 35 -78 34 -74 34 -5 34 30 
34 9 34 -21 35 -33 34 -43 34 -36 34 -24 34 -8 35 7 
34 9 34 8 34 -3 34 -9 34 -15 35 -16 34 -15 34 -12 
34 0 34 11 34 20 292 1084 52 MP stroke
0.25 sg
35 88 34 23 34 -22 34 -47 34 -51 35 -42 34 -42 34 -52 
34 -61 34 -57 34 -40 35 -20 34 2 34 22 34 34 34 35 
34 31 35 31 34 34 34 40 34 48 34 57 35 61 34 48 
34 17 34 -21 34 -37 34 -31 35 -7 34 19 34 22 34 -1 
34 -52 34 -81 35 -87 34 -75 34 -62 34 -59 34 -72 35 -85 
34 -77 34 -42 34 4 34 33 34 36 35 21 34 9 34 4 
34 6 34 16 34 31 292 1199 52 MP stroke
c8
35 -9 34 -7 34 -1 34 9 34 23 35 36 34 23 34 -20 
34 -62 34 -53 34 8 35 68 34 -15 34 -33 34 65 34 30 
34 -38 35 1 34 25 34 6 34 -12 34 -8 35 14 34 32 
34 25 34 -3 34 -29 34 -38 35 -32 34 -22 34 -11 34 -9 
34 -8 34 -9 35 -10 34 -14 34 -19 34 -21 34 -21 35 -19 
34 -15 34 -5 34 -1 34 9 34 16 35 21 34 31 34 33 
34 41 34 46 34 49 292 865 52 MP stroke
c9
35 2 34 -8 34 -17 34 -24 34 -31 35 -35 34 -35 34 -35 
34 -32 34 -27 34 -22 35 -15 34 -10 34 -6 34 -5 34 -5 
34 -4 35 16 34 59 34 81 34 66 34 38 35 19 34 12 
34 9 34 5 34 0 34 -5 35 -13 34 -19 34 -24 34 -30 
34 -38 34 -49 35 -64 34 -68 34 -57 34 -30 34 6 35 32 
34 53 34 59 34 65 34 77 34 77 35 53 34 13 34 -27 
34 -65 34 -101 34 -135 292 1079 52 MP stroke
c10
35 -19 34 -4 34 -3 34 -13 34 -37 35 -69 34 -89 34 -66 
34 -5 34 46 34 46 35 -3 34 -41 34 -37 34 4 34 37 
34 47 35 38 34 28 34 26 34 31 34 42 35 56 34 68 
34 52 34 17 34 -22 34 -45 35 -50 34 -38 34 -18 34 -10 
34 -28 34 -56 35 -75 34 -76 34 -58 34 -25 34 0 35 2 
34 -16 34 -32 34 -24 34 -5 34 4 35 -3 34 -10 34 -5 
34 20 34 60 34 118 292 988 52 MP stroke
c11
35 120 34 9 34 -51 34 -45 34 9 35 33 34 -35 34 -99 
34 -55 34 12 34 27 35 28 34 26 34 13 34 6 34 5 
34 7 35 13 34 19 34 19 34 14 34 7 35 -13 34 -18 
34 -23 34 -17 34 -10 34 4 35 9 34 2 34 -42 34 -70 
34 -28 34 32 35 34 34 -24 34 -76 34 -64 34 -14 35 -3 
34 -32 34 -62 34 -58 34 -26 34 -5 35 -12 34 -26 34 -17 
34 16 34 77 34 162 292 1047 52 MP stroke
c12
35 79 34 4 34 -39 34 -48 34 -23 35 27 34 29 34 -16 
34 -60 34 -55 34 -6 35 15 34 18 34 11 34 6 34 5 
34 9 35 20 34 27 34 29 34 27 34 24 35 17 34 8 
34 -3 34 -13 34 -29 34 -30 35 -2 34 45 34 24 34 -56 
34 -56 34 30 35 32 34 -10 34 -42 34 -61 34 -48 35 -22 
34 5 34 24 34 24 34 12 34 0 35 -6 34 -6 34 7 
34 24 34 47 34 76 292 863 52 MP stroke
c13
35 86 34 -12 34 -66 34 -77 34 -39 35 20 34 22 34 -32 
34 -78 34 -63 34 -2 35 53 34 38 34 36 34 50 34 42 
34 13 35 2 34 -8 34 -15 34 -14 34 -12 35 -2 34 1 
34 2 34 -3 34 -10 34 -16 35 -19 34 -20 34 -16 34 -13 
34 -4 34 4 35 11 34 20 34 28 34 29 34 30 35 27 
34 23 34 18 34 12 34 5 34 -4 35 -10 34 -17 34 -27 
34 -36 34 -42 34 -51 292 991 52 MP stroke
0.25 sg
35 93 34 14 34 -31 34 -42 34 -17 35 30 34 39 34 -11 
34 -64 34 -53 34 16 35 72 34 -27 34 -51 34 64 34 41 
34 -55 35 5 34 75 34 51 34 10 34 -16 35 -15 34 4 
34 13 34 6 34 -14 34 -31 35 -41 34 -41 34 -35 34 -15 
34 -6 34 1 35 9 34 8 34 8 34 1 34 -2 35 -5 
34 -8 34 -10 34 -10 34 -8 34 -8 35 -4 34 0 34 2 
34 11 34 17 34 22 292 977 52 MP stroke
c8
35 20 34 -4 34 -6 34 17 34 52 35 32 34 -36 34 -49 
34 -11 34 3 34 6 35 1 34 -2 34 -3 34 -2 34 1 
34 7 35 18 34 29 34 38 34 40 34 37 35 39 34 35 
34 25 34 96 34 75 34 -52 35 -47 34 -30 34 -24 34 -24 
34 -24 34 -28 35 -30 34 -39 34 -37 34 -37 34 -31 35 -24 
34 -8 34 -2 34 13 34 15 34 20 35 20 34 16 34 10 
34 4 34 -15 34 -19 292 991 52 MP stroke
c9
35 39 34 15 34 -3 34 -17 34 -23 35 -24 34 -15 34 -3 
34 3 34 4 34 -5 35 -20 34 -22 34 -11 34 9 34 44 
34 37 35 -37 34 -22 34 34 34 9 34 -33 35 20 34 63 
34 41 34 14 34 -8 34 -17 35 -16 34 -8 34 -4 34 -5 
34 -10 34 -13 35 -13 34 -11 34 -7 34 -3 34 2 35 6 
34 7 34 3 34 0 34 0 34 5 35 12 34 16 34 17 
34 13 34 7 34 -3 292 873 52 MP stroke
c10
35 -122 34 -57 34 -15 34 2 34 -5 35 -34 34 -63 34 -60 
34 -22 34 23 34 44 35 37 34 22 34 10 34 3 34 0 
34 0 35 6 34 16 34 25 34 32 34 37 35 40 34 42 
34 42 34 35 34 17 34 -26 35 -64 34 -69 34 -39 34 -12 
34 -25 34 -68 35 -94 34 -74 34 -18 34 3 34 -17 35 -50 
34 -52 34 -12 34 50 34 79 34 64 35 17 34 -20 34 -37 
34 -35 34 -11 34 31 292 1103 52 MP stroke
c11
35 11 34 -40 34 -70 34 -81 34 -74 35 -51 34 -43 34 -64 
34 -92 34 -68 34 9 35 76 34 87 34 58 34 20 34 7 
34 19 35 38 34 44 34 39 34 33 34 37 35 53 34 60 
34 45 34 14 34 -22 34 -47 35 -54 34 -48 34 -52 34 -69 
34 -94 34 -101 35 -82 34 -44 34 -10 34 -6 34 -40 35 -84 
34 -86 34 -43 34 27 34 73 34 87 35 74 34 55 34 34 
34 11 34 -12 34 -38 292 1103 52 MP stroke
c12
35 -5 34 -3 34 0 34 0 34 -1 35 -2 34 -5 34 -9 
34 -14 34 -22 34 -29 35 -17 34 13 34 60 34 125 34 -19 
34 -132 35 58 34 84 34 -22 34 26 34 55 35 -55 34 -16 
34 100 34 30 34 -83 34 -56 35 -18 34 -12 34 -13 34 -13 
34 -12 34 -8 35 -6 34 3 34 4 34 7 34 5 35 1 
34 -6 34 -11 34 -17 34 -17 34 -15 35 -12 34 -4 34 6 
34 15 34 37 34 43 292 943 52 MP stroke
c13
35 89 34 -4 34 -71 34 -110 34 -124 35 -110 34 -54 34 17 
34 54 34 56 34 23 35 -28 34 -52 34 -16 34 46 34 88 
34 100 35 81 34 12 34 -15 34 -16 34 4 35 47 34 73 
34 61 34 34 34 -1 34 -29 35 -41 34 -39 34 -48 34 -98 
34 -194 34 -177 35 -26 34 55 34 -57 34 -116 34 31 35 153 
34 73 34 -11 34 -6 34 84 34 158 35 153 34 100 34 63 
34 49 34 61 34 97 292 385 52 MP stroke
0.25 sg
35 133 34 48 34 -11 34 -46 34 -58 35 -44 34 -13 34 14 
34 18 34 -6 34 -35 35 -46 34 -27 34 15 34 53 34 20 
34 -16 35 -16 34 2 34 23 34 32 34 16 35 -7 34 -24 
34 -12 34 31 34 36 34 -22 35 -55 34 -6 34 28 34 10 
34 -11 34 -14 35 -21 34 -14 34 -8 34 7 34 13 35 16 
34 12 34 5 34 -2 34 -12 34 -14 35 -17 34 -13 34 -9 
34 1 34 12 34 21 292 964 52 MP stroke
c8
35 -10 34 -15 34 -10 34 7 34 29 35 5 34 -65 34 -96 
34 -32 34 26 34 25 35 0 34 3 34 41 34 70 34 51 
34 -10 35 -49 34 -32 34 9 34 42 34 27 35 -18 34 -55 
34 7 34 81 34 -3 34 -98 35 -40 34 -19 34 -5 34 9 
34 12 34 14 35 11 34 1 34 -2 34 -8 34 -9 35 -10 
34 -7 34 -6 34 -4 34 -4 34 -5 35 -6 34 -8 34 -13 
34 -15 34 -23 34 -25 292 1097 52 MP stroke
c9
35 -39 34 -6 34 22 34 -47 34 9 35 10 34 10 34 11 
34 5 34 5 34 -1 35 -2 34 -5 34 -6 34 -8 34 -8 
34 -8 35 -8 34 -8 34 -5 34 -5 34 -2 35 -1 34 0 
34 1 34 3 34 2 34 -1 35 -12 34 -38 34 -50 34 -25 
34 22 34 38 35 19 34 -11 34 -28 34 -29 34 -18 35 -1 
34 12 34 9 34 -7 34 -21 34 -17 35 7 34 27 34 32 
34 16 34 -19 34 -72 292 1068 52 MP stroke
c10
35 0 34 17 34 24 34 15 34 -5 35 -25 34 -38 34 -24 
34 -5 34 -14 34 -34 35 -15 34 40 34 40 34 -12 34 -24 
34 37 35 88 34 65 34 18 34 -13 34 -19 35 -15 34 -4 
34 -6 34 -21 34 -25 34 -18 35 -17 34 -17 34 -15 34 -15 
34 -7 34 -6 35 2 34 3 34 7 34 6 34 5 35 2 
34 -2 34 -6 34 -7 34 -9 34 -10 35 -8 34 -7 34 -4 
34 -2 34 6 34 7 292 1007 52 MP stroke
c11
35 -5 34 -9 34 -12 34 -14 34 -14 35 -15 34 -17 34 -21 
34 -28 34 -30 34 -22 35 -3 34 30 34 64 34 74 34 32 
34 -18 35 -33 34 -11 34 18 34 43 34 34 35 22 34 8 
34 -1 34 -10 34 -16 34 -22 35 -22 34 -19 34 -15 34 -8 
34 -9 34 -17 35 -31 34 -50 34 -57 34 -56 34 -37 35 -11 
34 4 34 0 34 -5 34 7 34 40 35 78 34 91 34 73 
34 21 34 -61 34 -177 292 1076 52 MP stroke
c12
35 13 34 5 34 -2 34 -6 34 -8 35 -7 34 -5 34 0 
34 1 34 0 34 -5 35 -10 34 -10 34 -8 34 1 34 15 
34 -9 35 -54 34 -9 34 74 34 3 34 -24 35 -20 34 -9 
34 7 34 25 34 37 34 37 35 28 34 11 34 -11 34 -28 
34 -21 34 -4 35 20 34 28 34 31 34 26 34 11 35 4 
34 -3 34 1 34 9 34 16 34 19 35 9 34 -3 34 -25 
34 -65 34 -99 34 -135 292 1084 52 MP stroke
c13
35 25 34 1 34 -18 34 -27 34 -28 35 -21 34 -8 34 7 
34 6 34 -17 34 -52 35 -63 34 -45 34 -1 34 60 34 100 
34 73 35 37 34 33 34 37 34 25 34 -1 35 -9 34 3 
34 3 34 -23 34 -58 34 -75 35 -57 34 -10 34 26 34 23 
34 -22 34 -74 35 -90 34 -61 34 -8 34 21 34 8 35 -34 
34 -50 34 -25 34 29 34 58 34 51 35 19 34 -8 34 -19 
34 -15 34 3 34 39 292 1057 52 MP stroke
0.25 sg
35 17 34 13 34 10 34 9 34 -1 35 -26 34 -57 34 -26 
34 31 34 36 34 18 35 -1 34 -1 34 16 34 22 34 4 
34 -22 35 -22 34 4 34 30 34 28 34 -1 35 -22 34 -15 
34 15 34 29 34 6 34 -33 35 -46 34 -29 34 3 34 14 
34 11 34 -2 35 -6 34 -9 34 -10 34 -8 34 -6 35 -3 
34 -4 34 -3 34 -6 34 -6 34 -6 35 -2 34 1 34 5 
34 16 34 23 34 31 292 932 52 MP stroke
c8
35 51 34 18 34 -10 34 -38 34 -69 35 -110 34 -95 34 -11 
34 26 34 25 34 10 35 4 34 12 34 32 34 37 34 23 
34 -2 35 -7 34 16 34 58 34 86 34 55 35 -23 34 -42 
34 -1 34 11 34 -40 34 -94 35 -91 34 -49 34 -20 34 -13 
34 -15 34 -18 35 -21 34 -30 34 -31 34 -33 34 -14 35 2 
34 48 34 93 34 123 34 151 34 138 35 117 34 40 34 -12 
34 -139 34 -272 34 -361 292 1313 52 MP stroke
c9
35 58 34 -13 34 -31 34 -5 34 10 35 -2 34 -6 34 -2 
34 -1 34 0 34 3 35 6 34 6 34 1 34 -8 34 -9 
34 5 35 20 34 16 34 -9 34 -25 34 -4 35 20 34 7 
34 -37 34 -35 34 23 34 66 35 19 34 1 34 -20 34 -32 
34 -38 34 -31 35 -28 34 -2 34 2 34 16 34 18 35 19 
34 13 34 11 34 3 34 2 34 -1 35 -1 34 0 34 2 
34 5 34 12 34 13 292 911 52 MP stroke
c10
35 8 34 -45 34 -57 34 -29 34 45 35 121 34 89 34 -38 
34 -139 34 -90 34 25 35 62 34 22 34 -24 34 -13 34 45 
34 61 35 4 34 -56 34 -30 34 80 34 133 35 88 34 19 
34 -53 34 -103 34 -93 34 -50 35 -11 34 15 34 17 34 -8 
34 -22 34 -29 35 -25 34 -9 34 11 34 30 34 53 35 63 
34 48 34 10 34 -29 34 -40 34 -17 35 19 34 37 34 23 
34 -19 34 -92 34 -194 292 1127 52 MP stroke
c11
35 56 34 28 34 7 34 -9 34 -17 35 -18 34 -13 34 -10 
34 -15 34 -27 34 -46 35 -45 34 -18 34 23 34 73 34 22 
34 -59 35 -64 34 -9 34 65 34 95 34 49 35 9 34 0 
34 -2 34 -2 34 -1 34 3 35 6 34 10 34 12 34 11 
34 4 34 -16 35 -39 34 -50 34 -46 34 -26 34 -2 35 13 
34 17 34 7 34 -1 34 -5 34 -7 35 -5 34 -1 34 4 
34 14 34 24 34 39 292 897 52 MP stroke
c12
35 -64 34 33 34 71 34 34 34 -46 35 -89 34 -92 34 -67 
34 -31 34 -11 34 1 35 9 34 16 34 18 34 16 34 7 
34 2 35 9 34 30 34 43 34 36 34 25 35 5 34 -3 
34 -6 34 -5 34 6 34 9 35 7 34 2 34 -13 34 -21 
34 -27 34 -31 35 -31 34 -30 34 -32 34 -35 34 -38 35 -33 
34 -23 34 -9 34 1 34 8 34 12 35 15 34 17 34 21 
34 25 34 29 34 35 292 975 52 MP stroke
c13
35 13 34 -26 34 -47 34 -50 34 -34 35 -4 34 16 34 7 
34 -26 34 -32 34 -5 35 28 34 29 34 -7 34 -28 34 2 
34 49 35 58 34 22 34 -15 34 -19 34 6 35 15 34 8 
34 0 34 -6 34 -13 34 -16 35 -15 34 -14 34 -11 34 -7 
34 -4 34 -1 35 1 34 0 34 0 34 -4 34 -11 35 -24 
34 -47 34 -58 34 -36 34 15 34 53 35 55 34 40 34 31 
34 31 34 39 34 58 292 804 52 MP stroke
0.25 sg
35 -15 34 -39 34 -47 34 -34 34 0 35 26 34 15 34 -25 
34 -20 34 30 34 87 35 -24 34 19 34 -52 34 33 34 21 
34 5 35 -12 34 -22 34 -18 34 -9 34 8 35 16 34 12 
34 2 34 -18 34 -22 34 -15 35 -1 34 31 34 41 34 38 
34 27 34 -4 35 -13 34 -22 34 -12 34 1 34 17 35 27 
34 23 34 16 34 -12 34 -22 34 -32 35 -35 34 -29 34 -22 
34 7 34 31 34 53 292 879 52 MP stroke
c8
35 4 34 -20 34 -29 34 -19 34 5 35 44 34 66 34 36 
34 -41 34 -104 34 -93 35 -17 34 37 34 42 34 20 34 -8 
34 -15 35 16 34 76 34 95 34 74 34 21 35 -36 34 -65 
34 -54 34 -3 34 29 34 8 35 -70 34 -55 34 -15 34 -27 
34 1 34 86 35 38 34 -11 34 -34 34 -47 34 -24 35 13 
34 43 34 68 34 81 34 77 34 67 35 53 34 33 34 1 
34 -29 34 -63 34 -100 292 801 52 MP stroke
c9
35 28 34 -53 34 -91 34 -89 34 -41 35 31 34 49 34 15 
34 -24 34 -18 34 20 35 13 34 -49 34 -58 34 -13 34 42 
34 27 35 34 34 76 34 3 34 9 34 -44 35 -6 34 -3 
34 4 34 5 34 9 34 10 35 7 34 5 34 2 34 -3 
34 -4 34 -8 35 -8 34 -6 34 -7 34 -2 34 -1 35 2 
34 3 34 4 34 3 34 4 34 0 35 -1 34 -5 34 -9 
34 -13 34 -22 34 -21 292 977 52 MP stroke
c10
35 -7 34 -9 34 -13 34 -19 34 -27 35 -35 34 -34 34 -13 
34 22 34 43 34 43 35 34 34 15 34 -9 34 -9 34 11 
34 27 35 32 34 10 34 -32 34 -45 34 -11 35 24 34 24 
34 -3 34 -32 34 -56 34 -42 35 5 34 37 34 25 34 17 
34 14 34 8 35 2 34 -2 34 -10 34 -12 34 -16 35 -16 
34 -15 34 -10 34 -7 34 -4 34 1 35 3 34 10 34 11 
34 16 34 21 34 22 292 911 52 MP stroke
c11
35 112 34 16 34 -48 34 -77 34 -72 35 -39 34 -16 34 -30 
34 -72 34 -74 34 -24 35 42 34 67 34 36 34 -5 34 -24 
34 -24 35 -8 34 20 34 48 34 60 34 58 35 45 34 30 
34 14 34 -10 34 -36 34 -51 35 -43 34 -14 34 11 34 -1 
34 -50 34 -104 35 -105 34 -58 34 13 34 42 34 34 35 5 
34 -40 34 -61 34 -29 34 21 34 73 35 107 34 103 34 59 
34 -9 34 -105 34 -225 292 1191 52 MP stroke
c12
35 -302 34 -169 34 -61 34 21 34 79 35 108 34 91 34 58 
34 18 34 -14 34 -28 35 -20 34 -11 34 -1 34 9 34 21 
34 24 35 18 34 5 34 -5 34 -9 34 0 35 12 34 19 
34 18 34 11 34 8 34 16 35 25 34 24 34 -44 34 -196 
34 -72 34 136 35 -93 34 -341 34 -54 34 219 34 52 35 -104 
34 -158 34 -95 34 28 34 91 34 72 35 -2 34 -54 34 -66 
34 -38 34 29 34 138 292 1180 52 MP stroke
c13
35 -32 34 -20 34 -12 34 -7 34 -6 35 -8 34 -14 34 -19 
34 -25 34 -29 34 -29 35 -24 34 -9 34 12 34 30 34 33 
34 26 35 15 34 7 34 3 34 9 34 21 35 34 34 40 
34 38 34 24 34 -7 34 -43 35 -43 34 -9 34 20 34 7 
34 -51 34 -89 35 -67 34 -14 34 8 34 -3 34 -22 35 -33 
34 -29 34 -9 34 3 34 10 34 10 35 9 34 10 34 11 
34 14 34 20 34 26 292 1009 52 MP stroke
0.25 sg
35 5 34 -22 34 -38 34 -45 34 -38 35 -26 34 -22 34 -21 
34 -3 34 33 34 67 35 75 34 62 34 61 34 73 34 74 
34 35 35 -23 34 -47 34 -33 34 -11 34 -6 35 -8 34 -13 
34 -15 34 -16 34 -16 34 -15 35 -11 34 -6 34 0 34 11 
34 22 34 33 35 39 34 42 34 43 34 48 34 52 35 56 
34 59 34 50 34 27 34 -3 34 -31 35 -55 34 -75 34 -80 
34 -77 34 -68 34 -53 292 951 52 MP stroke
c8
35 29 34 -2 34 -19 34 -24 34 -16 35 -1 34 0 34 -21 
34 -39 34 -20 34 37 35 106 34 33 34 -12 34 0 34 -32 
34 -20 35 90 34 79 34 -23 34 31 34 76 35 -49 34 -116 
34 -52 34 -4 34 -1 34 0 35 1 34 2 34 1 34 2 
34 2 34 0 35 -1 34 -5 34 -7 34 -16 34 -19 35 -29 
34 -31 34 -37 34 -36 34 -34 34 -32 35 -22 34 -20 34 -1 
34 1 34 31 34 31 292 1140 52 MP stroke
c9
35 -51 34 -34 34 -20 34 -13 34 -11 35 -13 34 -21 34 -33 
34 -46 34 -54 34 -46 35 -20 34 11 34 29 34 33 34 32 
34 28 35 27 34 26 34 26 34 25 34 27 35 34 34 45 
34 47 34 26 34 -11 34 -49 35 -59 34 -42 34 -14 34 -11 
34 -36 34 -76 35 -98 34 -95 34 -70 34 -40 34 -5 35 28 
34 43 34 33 34 4 34 -10 34 -5 35 16 34 26 34 22 
34 4 34 -31 34 -79 292 1185 52 MP stroke
c10
35 119 34 -1 34 -63 34 -53 34 11 35 48 34 -7 34 -69 
34 -47 34 24 34 -13 35 66 34 57 34 9 34 48 34 22 
34 -4 35 -18 34 -25 34 -36 34 -52 34 -45 35 18 34 81 
34 60 34 36 34 12 34 9 35 1 34 -2 34 4 34 5 
34 17 34 23 35 26 34 28 34 22 34 14 34 2 35 -14 
34 -22 34 -38 34 -43 34 -54 34 -55 35 -61 34 -61 34 -60 
34 -59 34 -50 34 -50 292 1233 52 MP stroke
c11
35 -93 34 -96 34 -69 34 -5 34 45 35 28 34 -10 34 -18 
34 -6 34 -5 34 -34 35 -6 34 53 34 33 34 -1 34 -22 
34 -17 35 14 34 36 34 23 34 -24 34 -39 35 -15 34 14 
34 11 34 8 34 -2 34 -2 35 -8 34 -9 34 -8 34 -9 
34 -5 34 -4 35 -2 34 -1 34 0 34 0 34 -1 35 0 
34 0 34 0 34 1 34 3 34 4 35 7 34 9 34 14 
34 14 34 22 34 23 292 881 52 MP stroke
c12
35 -150 34 6 34 52 34 3 34 -37 35 -9 34 22 34 33 
34 -37 34 -87 34 57 35 37 34 -11 34 -8 34 -2 34 3 
34 9 35 12 34 15 34 16 34 15 34 11 35 7 34 -3 
34 -9 34 -12 34 -15 34 -18 35 -17 34 -18 34 -12 34 -9 
34 -1 34 4 35 8 34 11 34 10 34 7 34 4 35 -4 
34 -5 34 -9 34 -9 34 -8 34 -6 35 1 34 3 34 18 
34 20 34 43 34 42 292 855 52 MP stroke
c13
35 -69 34 -40 34 -18 34 -3 34 5 35 1 34 -12 34 -29 
34 -44 34 -51 34 -38 35 -15 34 5 34 19 34 30 34 35 
34 46 35 54 34 64 34 60 34 39 34 5 35 -15 34 -13 
34 7 34 17 34 13 34 -7 35 -44 34 -99 34 -118 34 -60 
34 1 34 -15 35 -62 34 -56 34 -1 34 46 34 70 35 78 
34 62 34 28 34 5 34 15 34 54 35 97 34 104 34 69 
34 -9 34 -131 34 -296 292 1017 52 MP stroke
0.25 sg
35 -22 34 -13 34 -6 34 -5 34 -5 35 -11 34 -18 34 -20 
34 -16 34 -4 34 8 35 14 34 14 34 10 34 11 34 4 
34 -48 35 -45 34 68 34 97 34 9 34 -29 35 -38 34 -26 
34 3 34 29 34 33 34 12 35 -18 34 -41 34 -51 34 -27 
34 -7 34 12 35 22 34 23 34 19 34 8 34 1 35 -5 
34 0 34 5 34 21 34 26 34 29 35 25 34 15 34 5 
34 -25 34 -49 34 -71 292 956 52 MP stroke
c8
35 -36 34 -58 34 -59 34 -40 34 4 35 36 34 21 34 -39 
34 -60 34 -15 34 42 35 6 34 -44 34 -3 34 37 34 21 
34 24 35 46 34 21 34 -3 34 -24 34 -32 35 -11 34 21 
34 37 34 32 34 7 34 -27 35 -49 34 -44 34 -23 34 -8 
34 -3 34 -5 35 -18 34 -19 34 -19 34 -10 34 5 35 14 
34 19 34 17 34 9 34 1 34 -6 35 -7 34 -7 34 -1 
34 9 34 21 34 33 292 943 52 MP stroke
c9
35 85 34 -11 34 -56 34 -34 34 28 35 31 34 -46 34 -77 
34 -12 34 36 34 8 35 -21 34 12 34 51 34 24 34 -25 
34 -18 35 39 34 56 34 24 34 -2 34 -7 35 3 34 19 
34 18 34 -10 34 -34 34 -23 35 -19 34 -18 34 -14 34 -12 
34 -3 34 0 35 12 34 14 34 15 34 13 34 4 35 -3 
34 -17 34 -24 34 -31 34 -33 34 -32 35 -26 34 -22 34 -4 
34 2 34 33 34 37 292 1015 52 MP stroke
c10
35 177 34 -98 34 -65 34 82 34 -41 35 -61 34 56 34 -39 
34 39 34 -22 34 -55 35 31 34 39 34 15 34 -27 34 1 
34 76 35 45 34 -48 34 -25 34 -22 34 -11 35 -11 34 -7 
34 -2 34 -2 34 2 34 3 35 4 34 6 34 6 34 2 
34 2 34 -2 35 -8 34 -8 34 -21 34 -21 34 -25 35 -29 
34 -28 34 -25 34 -25 34 -18 34 -12 35 -11 34 12 34 11 
34 29 34 45 34 46 292 1004 52 MP stroke
c11
35 150 34 -21 34 -120 34 -147 34 -100 35 0 34 53 34 -6 
34 -99 34 -103 34 -15 35 58 34 57 34 8 34 -31 34 -22 
34 33 35 87 34 99 34 64 34 21 34 10 35 35 34 66 
34 55 34 2 34 -68 34 -98 35 -65 34 9 34 35 34 -5 
34 -89 34 -142 35 -130 34 -60 34 13 34 42 34 16 35 -30 
34 -38 34 5 34 65 34 88 34 60 35 -1 34 -56 34 -95 
34 -118 34 -124 34 -114 292 1463 52 MP stroke
c12
35 177 34 -1 34 -109 34 -142 34 -97 35 -13 34 0 34 -64 
34 -112 34 -61 34 23 35 51 34 54 34 27 34 15 34 17 
34 30 35 44 34 49 34 43 34 27 34 25 35 38 34 59 
34 67 34 44 34 -20 34 -84 35 -93 34 -48 34 3 34 4 
34 -47 34 -109 35 -123 34 -84 34 -34 34 -22 34 -53 35 -85 
34 -72 34 -4 34 82 34 119 34 94 35 33 34 -11 34 -21 
34 2 34 57 34 146 292 911 52 MP stroke
gr

c12

end %%Color Dict

eplot
%%EndObject

epage
end

showpage

%%Trailer
%%EOF
