%!PS-Adobe-3.0 EPSF-3.0
%%Creator: MATLAB, The MathWorks, Inc. Version 7.12.0.635 (R2011a). Operating System: Microsoft Windows 7.
%%Title: C:\Users\wwu\Desktop\warping\Muller_PACE\examples\comp_wave_pace.eps
%%CreationDate: 05/04/2011  21:34:33
%%DocumentNeededFonts: Helvetica
%%DocumentProcessColors: Cyan Magenta Yellow Black
%%LanguageLevel: 2
%%Pages: 1
%%BoundingBox:   212   320   399   470
%%EndComments

%%BeginProlog
% MathWorks dictionary
/MathWorks 160 dict begin
% definition operators
/bdef {bind def} bind def
/ldef {load def} bind def
/xdef {exch def} bdef
/xstore {exch store} bdef
% operator abbreviations
/c  /clip ldef
/cc /concat ldef
/cp /closepath ldef
/gr /grestore ldef
/gs /gsave ldef
/mt /moveto ldef
/np /newpath ldef
/cm /currentmatrix ldef
/sm /setmatrix ldef
/rm /rmoveto ldef
/rl /rlineto ldef
/s {show newpath} bdef
/sc {setcmykcolor} bdef
/sr /setrgbcolor ldef
/sg /setgray ldef
/w /setlinewidth ldef
/j /setlinejoin ldef
/cap /setlinecap ldef
/rc {rectclip} bdef
/rf {rectfill} bdef
% page state control
/pgsv () def
/bpage {/pgsv save def} bdef
/epage {pgsv restore} bdef
/bplot /gsave ldef
/eplot {stroke grestore} bdef
% orientation switch
/portraitMode 0 def /landscapeMode 1 def /rotateMode 2 def
% coordinate system mappings
/dpi2point 0 def
% font control
/FontSize 0 def
/FMS {/FontSize xstore findfont [FontSize 0 0 FontSize neg 0 0]
  makefont setfont} bdef
/ISOLatin1Encoding where {pop /WindowsLatin1Encoding 256 array bdef
ISOLatin1Encoding WindowsLatin1Encoding copy pop
/.notdef/.notdef/quotesinglbase/florin/quotedblbase/ellipsis/dagger
/daggerdbl/circumflex/perthousand/Scaron/guilsinglleft/OE/.notdef/.notdef
/.notdef/.notdef/quoteleft/quoteright/quotedblleft/quotedblright/bullet
/endash/emdash/tilde/trademark/scaron/guilsinglright/oe/.notdef/.notdef
/Ydieresis WindowsLatin1Encoding 128 32 getinterval astore pop}
{/WindowsLatin1Encoding StandardEncoding bdef} ifelse
/reencode {exch dup where {pop load} {pop StandardEncoding} ifelse
  exch dup 3 1 roll findfont dup length dict begin
  { 1 index /FID ne {def}{pop pop} ifelse } forall
  /Encoding exch def currentdict end definefont pop} bdef
/isroman {findfont /CharStrings get /Agrave known} bdef
/FMSR {3 1 roll 1 index dup isroman {reencode} {pop pop} ifelse
  exch FMS} bdef
/csm {1 dpi2point div -1 dpi2point div scale neg translate
 dup landscapeMode eq {pop -90 rotate}
  {rotateMode eq {90 rotate} if} ifelse} bdef
% line types: solid, dotted, dashed, dotdash
/SO { [] 0 setdash } bdef
/DO { [.5 dpi2point mul 4 dpi2point mul] 0 setdash } bdef
/DA { [6 dpi2point mul] 0 setdash } bdef
/DD { [.5 dpi2point mul 4 dpi2point mul 6 dpi2point mul 4
  dpi2point mul] 0 setdash } bdef
% macros for lines and objects
/L {lineto stroke} bdef
/MP {3 1 roll moveto 1 sub {rlineto} repeat} bdef
/AP {{rlineto} repeat} bdef
/PDlw -1 def
/W {/PDlw currentlinewidth def setlinewidth} def
/PP {closepath eofill} bdef
/DP {closepath stroke} bdef
/MR {4 -2 roll moveto dup  0 exch rlineto exch 0 rlineto
  neg 0 exch rlineto closepath} bdef
/FR {MR stroke} bdef
/PR {MR fill} bdef
/L1i {{currentfile picstr readhexstring pop} image} bdef
/tMatrix matrix def
/MakeOval {newpath tMatrix currentmatrix pop translate scale
0 0 1 0 360 arc tMatrix setmatrix} bdef
/FO {MakeOval stroke} bdef
/PO {MakeOval fill} bdef
/PD {currentlinewidth 2 div 0 360 arc fill
   PDlw -1 eq not {PDlw w /PDlw -1 def} if} def
/FA {newpath tMatrix currentmatrix pop translate scale
  0 0 1 5 -2 roll arc tMatrix setmatrix stroke} bdef
/PA {newpath tMatrix currentmatrix pop	translate 0 0 moveto scale
  0 0 1 5 -2 roll arc closepath tMatrix setmatrix fill} bdef
/FAn {newpath tMatrix currentmatrix pop translate scale
  0 0 1 5 -2 roll arcn tMatrix setmatrix stroke} bdef
/PAn {newpath tMatrix currentmatrix pop translate 0 0 moveto scale
  0 0 1 5 -2 roll arcn closepath tMatrix setmatrix fill} bdef
/vradius 0 def /hradius 0 def /lry 0 def
/lrx 0 def /uly 0 def /ulx 0 def /rad 0 def
/MRR {/vradius xdef /hradius xdef /lry xdef /lrx xdef /uly xdef
  /ulx xdef newpath tMatrix currentmatrix pop ulx hradius add uly
  vradius add translate hradius vradius scale 0 0 1 180 270 arc 
  tMatrix setmatrix lrx hradius sub uly vradius add translate
  hradius vradius scale 0 0 1 270 360 arc tMatrix setmatrix
  lrx hradius sub lry vradius sub translate hradius vradius scale
  0 0 1 0 90 arc tMatrix setmatrix ulx hradius add lry vradius sub
  translate hradius vradius scale 0 0 1 90 180 arc tMatrix setmatrix
  closepath} bdef
/FRR {MRR stroke } bdef
/PRR {MRR fill } bdef
/MlrRR {/lry xdef /lrx xdef /uly xdef /ulx xdef /rad lry uly sub 2 div def
  newpath tMatrix currentmatrix pop ulx rad add uly rad add translate
  rad rad scale 0 0 1 90 270 arc tMatrix setmatrix lrx rad sub lry rad
  sub translate rad rad scale 0 0 1 270 90 arc tMatrix setmatrix
  closepath} bdef
/FlrRR {MlrRR stroke } bdef
/PlrRR {MlrRR fill } bdef
/MtbRR {/lry xdef /lrx xdef /uly xdef /ulx xdef /rad lrx ulx sub 2 div def
  newpath tMatrix currentmatrix pop ulx rad add uly rad add translate
  rad rad scale 0 0 1 180 360 arc tMatrix setmatrix lrx rad sub lry rad
  sub translate rad rad scale 0 0 1 0 180 arc tMatrix setmatrix
  closepath} bdef
/FtbRR {MtbRR stroke } bdef
/PtbRR {MtbRR fill } bdef
/stri 6 array def /dtri 6 array def
/smat 6 array def /dmat 6 array def
/tmat1 6 array def /tmat2 6 array def /dif 3 array def
/asub {/ind2 exch def /ind1 exch def dup dup
  ind1 get exch ind2 get sub exch } bdef
/tri_to_matrix {
  2 0 asub 3 1 asub 4 0 asub 5 1 asub
  dup 0 get exch 1 get 7 -1 roll astore } bdef
/compute_transform {
  dmat dtri tri_to_matrix tmat1 invertmatrix 
  smat stri tri_to_matrix tmat2 concatmatrix } bdef
/ds {stri astore pop} bdef
/dt {dtri astore pop} bdef
/db {2 copy /cols xdef /rows xdef mul dup 3 mul string
  currentfile 
  3 index 0 eq {/ASCIIHexDecode filter}
  {/ASCII85Decode filter 3 index 2 eq {/RunLengthDecode filter} if }
  ifelse exch readstring pop
  dup 0 3 index getinterval /rbmap xdef
  dup 2 index dup getinterval /gbmap xdef
  1 index dup 2 mul exch getinterval /bbmap xdef pop pop}bdef
/it {gs np dtri aload pop moveto lineto lineto cp c
  cols rows 8 compute_transform 
  rbmap gbmap bbmap true 3 colorimage gr}bdef
/il {newpath moveto lineto stroke}bdef
currentdict end def
%%EndProlog

%%BeginSetup
MathWorks begin

0 cap

end
%%EndSetup

%%Page: 1 1
%%BeginPageSetup
%%PageBoundingBox:   212   320   399   470
MathWorks begin
bpage
%%EndPageSetup

%%BeginObject: obj1
bplot

/dpi2point 12 def
portraitMode 2544 5640 csm

    0     0  2249  1800 rc
85 dict begin %Colortable dictionary
/c0 { 0.000000 0.000000 0.000000 sr} bdef
/c1 { 1.000000 1.000000 1.000000 sr} bdef
/c2 { 0.900000 0.000000 0.000000 sr} bdef
/c3 { 0.000000 0.820000 0.000000 sr} bdef
/c4 { 0.000000 0.000000 0.800000 sr} bdef
/c5 { 0.910000 0.820000 0.320000 sr} bdef
/c6 { 1.000000 0.260000 0.820000 sr} bdef
/c7 { 0.000000 0.820000 0.820000 sr} bdef
c0
1 j
1 sg
   0    0 2250 1801 rf
6 w
0 1467 1743 0 0 -1467 292 1602 4 MP
PP
-1743 0 0 1467 1743 0 0 -1467 292 1602 5 MP stroke
4 w
DO
SO
6 w
0 sg
 292  135 mt 2035  135 L
 292 1602 mt 2035 1602 L
2035 1602 mt 2035  135 L
 292 1602 mt  292  135 L
 292 1602 mt 2035 1602 L
 292 1602 mt  292  135 L
 292 1602 mt  292 1584 L
 292  135 mt  292  152 L
%%IncludeResource: font Helvetica
/Helvetica /WindowsLatin1Encoding 120 FMSR

 259 1747 mt 
(0) s
 679 1602 mt  679 1584 L
 679  135 mt  679  152 L
 646 1747 mt 
(2) s
1066 1602 mt 1066 1584 L
1066  135 mt 1066  152 L
1033 1747 mt 
(4) s
1454 1602 mt 1454 1584 L
1454  135 mt 1454  152 L
1421 1747 mt 
(6) s
1841 1602 mt 1841 1584 L
1841  135 mt 1841  152 L
1808 1747 mt 
(8) s
 292 1479 mt  309 1479 L
2035 1479 mt 2017 1479 L
 121 1523 mt 
(-1) s
 292 1174 mt  309 1174 L
2035 1174 mt 2017 1174 L
  21 1218 mt 
(-0.5) s
 292  868 mt  309  868 L
2035  868 mt 2017  868 L
 191  912 mt 
(0) s
 292  562 mt  309  562 L
2035  562 mt 2017  562 L
  91  606 mt 
(0.5) s
 292  257 mt  309  257 L
2035  257 mt 2017  257 L
 191  301 mt 
(1) s
 292  135 mt 2035  135 L
 292 1602 mt 2035 1602 L
2035 1602 mt 2035  135 L
 292 1602 mt  292  135 L
gs 292 135 1744 1468 rc
/c8 { 0.000000 0.000000 1.000000 sr} bdef
c8
10 37 10 37 10 38 9 37 10 37 10 36 9 36 10 33 
10 33 9 30 10 29 10 25 9 23 10 19 10 16 9 12 
10 9 10 3 9 0 10 -6 10 -9 10 -15 9 -20 10 -24 
10 -30 9 -33 10 -38 10 -43 9 -46 10 -49 10 -53 9 -54 
10 -57 10 -58 9 -58 10 -57 10 -57 9 -55 10 -46 10 -43 
10 -39 9 -36 10 -31 10 -27 9 -21 10 -16 10 -9 9 -3 
10 3 10 11 9 17 10 24 10 31 9 37 10 44 10 49 
9 55 10 59 10 63 9 67 10 68 10 70 10 70 9 69 
10 66 10 63 9 59 10 53 10 47 9 38 10 30 10 20 
9 10 10 -1 10 -12 9 -23 10 -34 10 -46 9 -55 10 -64 
10 -73 10 -78 9 -78 10 -81 10 -83 9 -83 10 -81 10 -78 
9 -72 10 -66 10 -57 9 -47 10 -36 10 -23 9 -10 10 3 
10 18 9 31 10 46 10 58 10 70 9 80 10 88 10 95 
9 99 10 100 10 99 9 94 10 87 10 77 9 65 10 50 
10 33 9 16 10 -3 10 -23 9 -42 10 -59 10 -76 9 -90 
10 -101 10 -110 10 -114 9 -115 10 -111 10 -103 9 -91 10 -75 
10 -55 9 -31 10 -10 10 10 9 31 10 50 10 69 9 86 
10 99 10 110 9 116 10 118 10 113 10 106 9 93 10 78 
10 58 9 35 10 8 10 -17 9 -42 10 -65 10 -86 9 -102 
10 -115 10 -123 9 -124 10 -119 10 -107 9 -90 10 -69 10 -44 
10 -16 9 12 10 41 10 71 9 93 10 111 10 121 9 125 
10 123 10 112 9 96 10 71 10 40 9 10 10 -21 10 -51 
9 -78 10 -99 10 -115 9 -122 292 868 181 MP stroke
/c9 { 0.000000 0.500000 0.000000 sr} bdef
c9
10 38 10 38 10 39 9 38 10 37 10 37 9 35 10 34 
10 32 9 30 10 28 10 25 9 22 10 18 10 16 9 11 
10 8 10 4 9 0 10 -5 10 -9 10 -13 9 -18 10 -22 
10 -26 9 -30 10 -34 10 -38 9 -41 10 -44 10 -47 9 -49 
10 -51 10 -52 9 -53 10 -53 10 -53 9 -51 10 -51 10 -48 
10 -45 9 -42 10 -38 10 -34 9 -29 10 -23 10 -18 9 -11 
10 -5 10 3 9 10 10 18 10 26 9 32 10 39 10 46 
9 52 10 58 10 61 9 66 10 69 10 70 10 71 9 71 
10 69 10 66 9 62 10 57 10 51 9 43 10 36 10 26 
9 16 10 6 10 -5 9 -15 10 -27 10 -37 9 -47 10 -56 
10 -65 10 -72 9 -78 10 -83 10 -85 9 -87 10 -85 10 -83 
9 -78 10 -72 10 -64 9 -54 10 -42 10 -30 9 -16 10 -1 
10 13 9 28 10 43 10 56 10 68 9 79 10 88 10 95 
9 99 10 101 10 99 9 96 10 89 10 79 9 67 10 52 
10 37 9 19 10 0 10 -19 9 -38 10 -55 10 -72 9 -86 
10 -97 10 -106 10 -112 9 -112 10 -111 10 -103 9 -93 10 -79 
10 -62 9 -42 10 -20 10 2 9 26 10 48 10 69 9 86 
10 102 10 112 9 118 10 121 10 117 10 108 9 96 10 78 
10 56 9 33 10 7 10 -19 9 -45 10 -69 10 -90 9 -106 
10 -119 10 -124 9 -125 10 -118 10 -106 9 -87 10 -65 10 -39 
10 -9 9 19 10 48 10 74 9 96 10 113 10 122 9 126 
10 121 10 109 9 91 10 67 10 38 9 8 10 -24 10 -53 
9 -79 10 -100 10 -114 9 -120 292 868 181 MP stroke
/c10 { 1.000000 0.000000 0.000000 sr} bdef
c10
10 48 10 48 10 48 9 47 10 45 10 43 9 41 10 37 
10 33 9 30 10 25 10 20 9 14 10 9 10 2 9 -3 
10 -9 10 -16 9 -21 10 -28 10 -33 10 -39 9 -43 10 -48 
10 -52 9 -56 10 -57 10 -60 9 -61 10 -61 10 -60 9 -59 
10 -56 10 -53 9 -49 10 -44 10 -38 9 -32 10 -25 10 -18 
10 -10 9 -1 10 7 10 15 9 24 10 32 10 41 9 48 
10 55 10 62 9 66 10 70 10 74 9 74 10 76 10 74 
9 71 10 68 10 62 9 56 10 49 10 39 10 30 9 20 
10 9 10 -3 9 -14 10 -26 10 -36 9 -47 10 -57 10 -65 
9 -73 10 -79 10 -84 9 -86 10 -87 10 -86 9 -83 10 -78 
10 -72 10 -63 9 -54 10 -42 10 -29 9 -16 10 -3 10 12 
9 26 10 40 10 53 9 65 10 75 10 84 9 90 10 95 
10 97 9 96 10 94 10 88 10 81 9 70 10 59 10 45 
9 29 10 13 10 -3 9 -21 10 -37 10 -52 9 -67 10 -80 
10 -90 9 -97 10 -103 10 -105 9 -104 10 -99 10 -92 9 -82 
10 -69 10 -53 10 -37 9 -18 10 2 10 20 9 40 10 57 
10 73 9 87 10 98 10 105 9 109 10 110 10 105 9 97 
10 86 10 73 9 57 10 38 10 20 10 -2 9 -21 10 -42 
10 -60 9 -76 10 -90 10 -100 9 -107 10 -109 10 -107 9 -102 
10 -93 10 -78 9 -63 10 -43 10 -22 9 -1 10 21 10 43 
10 61 9 78 10 92 10 101 9 107 10 107 10 103 9 94 
10 82 10 65 9 46 10 25 10 2 9 -20 10 -41 10 -61 
9 -77 10 -90 10 -98 9 -101 292 868 181 MP stroke
/c11 { 0.000000 0.750000 0.750000 sr} bdef
c11
10 59 10 59 10 58 9 55 10 53 10 48 9 43 10 37 
10 31 9 24 10 15 10 8 9 -1 10 -10 10 -18 9 -26 
10 -35 10 -42 9 -49 10 -55 10 -60 10 -64 9 -68 10 -69 
10 -70 9 -69 10 -68 10 -64 9 -59 10 -54 10 -47 9 -39 
10 -31 10 -21 9 -11 10 -2 10 10 9 19 10 30 10 40 
10 48 9 56 10 64 10 70 9 74 10 79 10 81 9 81 
10 79 10 76 9 71 10 64 10 56 9 47 10 37 10 25 
9 13 10 1 10 -13 9 -24 10 -37 10 -48 10 -59 9 -68 
10 -76 10 -82 9 -86 10 -89 10 -89 9 -88 10 -84 10 -78 
9 -71 10 -62 10 -51 9 -39 10 -26 10 -11 9 2 10 17 
10 30 10 45 9 56 10 68 10 78 9 85 10 91 10 95 
9 95 10 95 10 91 9 85 10 77 10 67 9 55 10 41 
10 27 9 12 10 -4 10 -20 10 -35 9 -50 10 -63 10 -74 
9 -85 10 -92 10 -96 9 -100 10 -99 10 -96 9 -91 10 -83 
10 -72 9 -60 10 -46 10 -31 9 -14 10 3 10 19 9 36 
10 51 10 66 10 77 9 87 10 94 10 100 9 101 10 99 
10 96 9 89 10 79 10 67 9 53 10 38 10 21 9 3 
10 -13 10 -29 9 -44 10 -59 10 -72 10 -81 9 -90 10 -94 
10 -97 9 -97 10 -93 10 -86 9 -78 10 -67 10 -53 9 -38 
10 -23 10 -5 9 11 10 28 10 43 9 57 10 69 10 80 
10 87 9 91 10 93 10 91 9 87 10 80 10 70 9 58 
10 44 10 29 9 12 10 -3 10 -20 9 -35 10 -50 10 -61 
9 -72 10 -79 10 -84 9 -85 292 868 181 MP stroke
/c12 { 0.750000 0.000000 0.750000 sr} bdef
c12
10 72 10 70 10 69 9 64 10 58 10 51 9 42 10 32 
10 22 9 10 10 -2 10 -14 9 -25 10 -37 10 -47 9 -57 
10 -65 10 -71 9 -76 10 -80 10 -80 10 -80 9 -77 10 -73 
10 -66 9 -57 10 -48 10 -38 9 -25 10 -13 10 1 9 13 
10 27 10 38 9 51 10 61 10 69 9 77 10 83 10 86 
10 87 9 87 10 84 10 79 9 72 10 64 10 54 9 42 
10 29 10 14 9 1 10 -15 10 -28 9 -43 10 -55 10 -66 
9 -76 10 -84 10 -89 9 -93 10 -94 10 -93 10 -89 9 -83 
10 -75 10 -65 9 -54 10 -40 10 -26 9 -12 10 4 10 18 
9 34 10 47 10 60 9 71 10 81 10 88 9 93 10 96 
10 96 10 94 9 90 10 83 10 75 9 63 10 52 10 37 
9 23 10 8 10 -7 9 -23 10 -38 10 -51 9 -64 10 -74 
10 -83 9 -90 10 -95 10 -96 10 -96 9 -94 10 -88 10 -80 
9 -71 10 -60 10 -48 9 -33 10 -18 10 -4 9 12 10 27 
10 40 9 54 10 66 10 75 9 83 10 90 10 93 9 94 
10 93 10 89 10 84 9 75 10 66 10 55 9 42 10 28 
10 14 9 -1 10 -15 10 -30 9 -42 10 -55 10 -65 9 -72 
10 -79 10 -84 9 -87 10 -87 10 -86 10 -82 9 -77 10 -69 
10 -60 9 -50 10 -38 10 -26 9 -13 10 0 10 13 9 25 
10 38 10 48 9 58 10 66 10 73 9 77 10 80 10 80 
10 79 9 76 10 72 10 64 9 56 10 47 10 37 9 25 
10 14 10 1 9 -10 10 -21 10 -32 9 -43 10 -50 10 -59 
9 -64 10 -68 10 -71 9 -71 292 868 181 MP stroke
/c13 { 0.750000 0.750000 0.000000 sr} bdef
c13
10 86 10 83 10 80 9 71 10 62 10 49 9 35 10 20 
10 3 9 -13 10 -29 10 -44 9 -59 10 -70 10 -80 9 -88 
10 -92 10 -93 9 -91 10 -87 10 -79 10 -69 9 -57 10 -42 
10 -27 9 -11 10 7 10 23 9 39 10 55 10 67 9 79 
10 87 10 94 9 97 10 97 10 94 9 90 10 81 10 70 
10 58 9 43 10 28 10 12 9 -6 10 -22 10 -39 9 -54 
10 -68 10 -80 9 -89 10 -96 10 -99 9 -101 10 -99 10 -93 
9 -87 10 -76 10 -64 9 -51 10 -35 10 -19 10 -2 9 15 
10 31 10 46 9 60 10 72 10 83 9 90 10 97 10 98 
9 99 10 97 10 92 9 84 10 74 10 63 9 50 10 35 
10 20 10 5 9 -11 10 -27 10 -40 9 -55 10 -66 10 -76 
9 -84 10 -91 10 -94 9 -96 10 -95 10 -91 9 -86 10 -78 
10 -69 9 -57 10 -45 10 -32 10 -17 9 -3 10 11 10 26 
9 38 10 51 10 61 9 71 10 78 10 84 9 88 10 90 
10 89 9 86 10 83 10 76 9 68 10 59 10 48 9 37 
10 25 10 12 10 0 9 -13 10 -25 10 -36 9 -47 10 -57 
10 -64 9 -71 10 -76 10 -80 9 -81 10 -81 10 -78 9 -75 
10 -69 10 -64 9 -56 10 -49 10 -39 10 -30 9 -19 10 -10 
10 2 9 11 10 21 10 31 9 39 10 47 10 54 9 60 
10 64 10 67 9 69 10 70 10 69 9 68 10 64 10 60 
10 55 9 49 10 42 10 35 9 26 10 18 10 10 9 1 
10 -8 10 -15 9 -24 10 -31 10 -37 9 -43 10 -49 10 -52 
9 -55 10 -58 10 -59 9 -59 292 868 181 MP stroke
0.25 sg
10 101 10 98 10 90 9 77 10 61 10 41 9 20 10 -2 
10 -25 9 -46 10 -66 10 -82 9 -95 10 -103 10 -108 9 -106 
10 -101 10 -92 9 -78 10 -61 10 -42 10 -20 9 1 10 23 
10 44 9 63 10 80 10 93 9 102 10 108 10 109 9 107 
10 100 10 89 9 76 10 59 10 40 9 21 10 0 10 -20 
10 -40 9 -58 10 -74 10 -87 9 -98 10 -105 10 -110 9 -109 
10 -104 10 -97 9 -86 10 -73 10 -56 9 -38 10 -20 10 0 
9 19 10 37 10 54 9 69 10 82 10 93 10 99 9 104 
10 104 10 103 9 97 10 90 10 79 9 66 10 53 10 36 
9 20 10 3 10 -13 9 -30 10 -45 10 -58 9 -71 10 -80 
10 -88 10 -94 9 -96 10 -97 10 -95 9 -90 10 -84 10 -75 
9 -64 10 -53 10 -40 9 -27 10 -12 10 2 9 17 10 29 
10 42 9 53 10 64 10 71 10 79 9 83 10 86 10 87 
9 86 10 84 10 79 9 72 10 66 10 57 9 47 10 36 
10 26 9 14 10 3 10 -9 9 -20 10 -30 10 -39 9 -49 
10 -56 10 -62 10 -68 9 -72 10 -74 10 -75 9 -75 10 -73 
10 -70 9 -67 10 -61 10 -55 9 -48 10 -41 10 -32 9 -24 
10 -15 10 -7 9 1 10 10 10 18 10 25 9 32 10 38 
10 44 9 49 10 53 10 57 9 58 10 61 10 60 9 61 
10 60 10 58 9 55 10 52 10 48 9 43 10 39 10 33 
10 28 9 21 10 16 10 9 9 3 10 -2 10 -9 9 -15 
10 -19 10 -25 9 -30 10 -33 10 -37 9 -41 10 -43 10 -45 
9 -47 10 -48 10 -48 9 -48 292 868 181 MP stroke
c8
10 120 10 114 10 100 9 79 10 53 10 24 9 -8 10 -38 
10 -67 9 -91 10 -109 10 -121 9 -126 10 -122 10 -113 9 -96 
10 -74 10 -48 9 -19 10 9 10 39 10 65 9 87 10 106 
10 118 9 125 10 124 10 119 9 106 10 90 10 69 9 45 
10 19 10 -7 9 -33 10 -56 10 -78 9 -96 10 -108 10 -117 
10 -121 9 -118 10 -112 10 -102 9 -86 10 -69 10 -48 9 -26 
10 -2 10 20 9 42 10 62 10 79 9 93 10 103 10 111 
9 112 10 112 10 106 9 97 10 86 10 72 10 55 9 38 
10 19 10 0 9 -19 10 -37 10 -52 9 -67 10 -79 10 -89 
9 -96 10 -99 10 -101 9 -99 10 -95 10 -88 9 -79 10 -68 
10 -56 10 -43 9 -28 10 -13 10 1 9 16 10 30 10 42 
9 54 10 64 10 72 9 78 10 83 10 85 9 87 10 85 
10 83 9 78 10 72 10 65 10 56 9 47 10 37 10 27 
9 15 10 5 10 -6 9 -16 10 -26 10 -36 9 -43 10 -51 
10 -57 9 -62 10 -66 10 -69 9 -71 10 -71 10 -70 9 -69 
10 -66 10 -62 10 -57 9 -52 10 -46 10 -39 9 -32 10 -26 
10 -18 9 -10 10 -3 10 5 9 11 10 18 10 23 9 29 
10 34 10 38 9 42 10 45 10 48 10 51 9 51 10 53 
10 53 9 53 10 52 10 51 9 49 10 47 10 44 9 41 
10 38 10 34 9 30 10 26 10 22 9 18 10 13 10 9 
10 5 9 0 10 -4 10 -8 9 -11 10 -16 10 -18 9 -22 
10 -25 10 -28 9 -30 10 -32 10 -34 9 -35 10 -37 10 -37 
9 -38 10 -39 10 -38 9 -38 292 868 181 MP stroke
c9
10 122 10 114 10 100 9 78 10 51 10 21 9 -10 10 -40 
10 -71 9 -96 10 -112 10 -123 9 -125 10 -121 10 -110 9 -93 
10 -72 10 -41 9 -12 10 16 10 44 10 69 9 90 10 107 
10 118 9 124 10 123 10 115 9 103 10 85 10 65 9 43 
10 17 10 -7 9 -36 10 -58 10 -77 9 -94 10 -105 10 -113 
10 -117 9 -117 10 -110 10 -99 9 -86 10 -69 10 -51 9 -31 
10 -10 10 10 9 30 10 56 10 74 9 91 10 102 10 110 
9 115 10 114 10 109 9 102 10 90 10 76 10 60 9 43 
10 23 10 4 9 -14 10 -33 10 -49 9 -63 10 -77 10 -86 
9 -94 10 -98 10 -100 9 -99 10 -95 10 -89 9 -80 10 -71 
10 -59 10 -46 9 -33 10 -19 10 -5 9 9 10 22 10 35 
9 46 10 56 10 64 9 72 10 77 10 81 9 82 10 83 
10 81 9 78 10 79 10 73 10 66 9 57 10 46 10 36 
9 24 10 14 10 1 9 -9 10 -19 10 -30 9 -38 10 -46 
10 -53 9 -59 10 -63 10 -67 9 -69 10 -70 10 -71 9 -68 
10 -67 10 -64 10 -59 9 -55 10 -50 10 -44 9 -37 10 -31 
10 -24 9 -17 10 -10 10 -3 9 3 10 10 10 16 9 22 
10 27 10 32 9 36 10 40 10 43 10 48 9 54 10 57 
10 58 9 58 10 57 10 56 9 55 10 52 10 49 9 46 
10 42 10 37 9 34 10 28 10 25 9 19 10 14 10 10 
10 5 9 0 10 -4 10 -8 9 -13 10 -16 10 -19 9 -23 
10 -25 10 -28 9 -31 10 -32 10 -34 9 -35 10 -36 10 -37 
9 -38 10 -37 10 -37 9 -37 292 868 181 MP stroke
gr

c9

end %%Color Dict

eplot
%%EndObject

epage
end

showpage

%%Trailer
%%EOF
