%!PS-Adobe-3.0 EPSF-3.0
%%Creator: MATLAB, The MathWorks, Inc. Version 7.12.0.635 (R2011a). Operating System: Microsoft Windows 7.
%%Title: C:\Users\wwu\Desktop\warping\Muller_PACE\examples\comp_neural_pace.eps
%%CreationDate: 05/04/2011  21:44:58
%%DocumentNeededFonts: Helvetica
%%DocumentProcessColors: Cyan Magenta Yellow Black
%%LanguageLevel: 2
%%Pages: 1
%%BoundingBox:   212   320   399   470
%%EndComments

%%BeginProlog
% MathWorks dictionary
/MathWorks 160 dict begin
% definition operators
/bdef {bind def} bind def
/ldef {load def} bind def
/xdef {exch def} bdef
/xstore {exch store} bdef
% operator abbreviations
/c  /clip ldef
/cc /concat ldef
/cp /closepath ldef
/gr /grestore ldef
/gs /gsave ldef
/mt /moveto ldef
/np /newpath ldef
/cm /currentmatrix ldef
/sm /setmatrix ldef
/rm /rmoveto ldef
/rl /rlineto ldef
/s {show newpath} bdef
/sc {setcmykcolor} bdef
/sr /setrgbcolor ldef
/sg /setgray ldef
/w /setlinewidth ldef
/j /setlinejoin ldef
/cap /setlinecap ldef
/rc {rectclip} bdef
/rf {rectfill} bdef
% page state control
/pgsv () def
/bpage {/pgsv save def} bdef
/epage {pgsv restore} bdef
/bplot /gsave ldef
/eplot {stroke grestore} bdef
% orientation switch
/portraitMode 0 def /landscapeMode 1 def /rotateMode 2 def
% coordinate system mappings
/dpi2point 0 def
% font control
/FontSize 0 def
/FMS {/FontSize xstore findfont [FontSize 0 0 FontSize neg 0 0]
  makefont setfont} bdef
/ISOLatin1Encoding where {pop /WindowsLatin1Encoding 256 array bdef
ISOLatin1Encoding WindowsLatin1Encoding copy pop
/.notdef/.notdef/quotesinglbase/florin/quotedblbase/ellipsis/dagger
/daggerdbl/circumflex/perthousand/Scaron/guilsinglleft/OE/.notdef/.notdef
/.notdef/.notdef/quoteleft/quoteright/quotedblleft/quotedblright/bullet
/endash/emdash/tilde/trademark/scaron/guilsinglright/oe/.notdef/.notdef
/Ydieresis WindowsLatin1Encoding 128 32 getinterval astore pop}
{/WindowsLatin1Encoding StandardEncoding bdef} ifelse
/reencode {exch dup where {pop load} {pop StandardEncoding} ifelse
  exch dup 3 1 roll findfont dup length dict begin
  { 1 index /FID ne {def}{pop pop} ifelse } forall
  /Encoding exch def currentdict end definefont pop} bdef
/isroman {findfont /CharStrings get /Agrave known} bdef
/FMSR {3 1 roll 1 index dup isroman {reencode} {pop pop} ifelse
  exch FMS} bdef
/csm {1 dpi2point div -1 dpi2point div scale neg translate
 dup landscapeMode eq {pop -90 rotate}
  {rotateMode eq {90 rotate} if} ifelse} bdef
% line types: solid, dotted, dashed, dotdash
/SO { [] 0 setdash } bdef
/DO { [.5 dpi2point mul 4 dpi2point mul] 0 setdash } bdef
/DA { [6 dpi2point mul] 0 setdash } bdef
/DD { [.5 dpi2point mul 4 dpi2point mul 6 dpi2point mul 4
  dpi2point mul] 0 setdash } bdef
% macros for lines and objects
/L {lineto stroke} bdef
/MP {3 1 roll moveto 1 sub {rlineto} repeat} bdef
/AP {{rlineto} repeat} bdef
/PDlw -1 def
/W {/PDlw currentlinewidth def setlinewidth} def
/PP {closepath eofill} bdef
/DP {closepath stroke} bdef
/MR {4 -2 roll moveto dup  0 exch rlineto exch 0 rlineto
  neg 0 exch rlineto closepath} bdef
/FR {MR stroke} bdef
/PR {MR fill} bdef
/L1i {{currentfile picstr readhexstring pop} image} bdef
/tMatrix matrix def
/MakeOval {newpath tMatrix currentmatrix pop translate scale
0 0 1 0 360 arc tMatrix setmatrix} bdef
/FO {MakeOval stroke} bdef
/PO {MakeOval fill} bdef
/PD {currentlinewidth 2 div 0 360 arc fill
   PDlw -1 eq not {PDlw w /PDlw -1 def} if} def
/FA {newpath tMatrix currentmatrix pop translate scale
  0 0 1 5 -2 roll arc tMatrix setmatrix stroke} bdef
/PA {newpath tMatrix currentmatrix pop	translate 0 0 moveto scale
  0 0 1 5 -2 roll arc closepath tMatrix setmatrix fill} bdef
/FAn {newpath tMatrix currentmatrix pop translate scale
  0 0 1 5 -2 roll arcn tMatrix setmatrix stroke} bdef
/PAn {newpath tMatrix currentmatrix pop translate 0 0 moveto scale
  0 0 1 5 -2 roll arcn closepath tMatrix setmatrix fill} bdef
/vradius 0 def /hradius 0 def /lry 0 def
/lrx 0 def /uly 0 def /ulx 0 def /rad 0 def
/MRR {/vradius xdef /hradius xdef /lry xdef /lrx xdef /uly xdef
  /ulx xdef newpath tMatrix currentmatrix pop ulx hradius add uly
  vradius add translate hradius vradius scale 0 0 1 180 270 arc 
  tMatrix setmatrix lrx hradius sub uly vradius add translate
  hradius vradius scale 0 0 1 270 360 arc tMatrix setmatrix
  lrx hradius sub lry vradius sub translate hradius vradius scale
  0 0 1 0 90 arc tMatrix setmatrix ulx hradius add lry vradius sub
  translate hradius vradius scale 0 0 1 90 180 arc tMatrix setmatrix
  closepath} bdef
/FRR {MRR stroke } bdef
/PRR {MRR fill } bdef
/MlrRR {/lry xdef /lrx xdef /uly xdef /ulx xdef /rad lry uly sub 2 div def
  newpath tMatrix currentmatrix pop ulx rad add uly rad add translate
  rad rad scale 0 0 1 90 270 arc tMatrix setmatrix lrx rad sub lry rad
  sub translate rad rad scale 0 0 1 270 90 arc tMatrix setmatrix
  closepath} bdef
/FlrRR {MlrRR stroke } bdef
/PlrRR {MlrRR fill } bdef
/MtbRR {/lry xdef /lrx xdef /uly xdef /ulx xdef /rad lrx ulx sub 2 div def
  newpath tMatrix currentmatrix pop ulx rad add uly rad add translate
  rad rad scale 0 0 1 180 360 arc tMatrix setmatrix lrx rad sub lry rad
  sub translate rad rad scale 0 0 1 0 180 arc tMatrix setmatrix
  closepath} bdef
/FtbRR {MtbRR stroke } bdef
/PtbRR {MtbRR fill } bdef
/stri 6 array def /dtri 6 array def
/smat 6 array def /dmat 6 array def
/tmat1 6 array def /tmat2 6 array def /dif 3 array def
/asub {/ind2 exch def /ind1 exch def dup dup
  ind1 get exch ind2 get sub exch } bdef
/tri_to_matrix {
  2 0 asub 3 1 asub 4 0 asub 5 1 asub
  dup 0 get exch 1 get 7 -1 roll astore } bdef
/compute_transform {
  dmat dtri tri_to_matrix tmat1 invertmatrix 
  smat stri tri_to_matrix tmat2 concatmatrix } bdef
/ds {stri astore pop} bdef
/dt {dtri astore pop} bdef
/db {2 copy /cols xdef /rows xdef mul dup 3 mul string
  currentfile 
  3 index 0 eq {/ASCIIHexDecode filter}
  {/ASCII85Decode filter 3 index 2 eq {/RunLengthDecode filter} if }
  ifelse exch readstring pop
  dup 0 3 index getinterval /rbmap xdef
  dup 2 index dup getinterval /gbmap xdef
  1 index dup 2 mul exch getinterval /bbmap xdef pop pop}bdef
/it {gs np dtri aload pop moveto lineto lineto cp c
  cols rows 8 compute_transform 
  rbmap gbmap bbmap true 3 colorimage gr}bdef
/il {newpath moveto lineto stroke}bdef
currentdict end def
%%EndProlog

%%BeginSetup
MathWorks begin

0 cap

end
%%EndSetup

%%Page: 1 1
%%BeginPageSetup
%%PageBoundingBox:   212   320   399   470
MathWorks begin
bpage
%%EndPageSetup

%%BeginObject: obj1
bplot

/dpi2point 12 def
portraitMode 2544 5640 csm

    0     0  2249  1800 rc
85 dict begin %Colortable dictionary
/c0 { 0.000000 0.000000 0.000000 sr} bdef
/c1 { 1.000000 1.000000 1.000000 sr} bdef
/c2 { 0.900000 0.000000 0.000000 sr} bdef
/c3 { 0.000000 0.820000 0.000000 sr} bdef
/c4 { 0.000000 0.000000 0.800000 sr} bdef
/c5 { 0.910000 0.820000 0.320000 sr} bdef
/c6 { 1.000000 0.260000 0.820000 sr} bdef
/c7 { 0.000000 0.820000 0.820000 sr} bdef
c0
1 j
1 sg
   0    0 2250 1801 rf
6 w
0 1467 1743 0 0 -1467 292 1602 4 MP
PP
-1743 0 0 1467 1743 0 0 -1467 292 1602 5 MP stroke
4 w
DO
SO
6 w
0 sg
 292  135 mt 2035  135 L
 292 1602 mt 2035 1602 L
2035 1602 mt 2035  135 L
 292 1602 mt  292  135 L
 292 1602 mt 2035 1602 L
 292 1602 mt  292  135 L
 635 1602 mt  635 1584 L
 635  135 mt  635  152 L
%%IncludeResource: font Helvetica
/Helvetica /WindowsLatin1Encoding 120 FMSR

 552 1747 mt 
(0.5) s
 985 1602 mt  985 1584 L
 985  135 mt  985  152 L
 952 1747 mt 
(1) s
1335 1602 mt 1335 1584 L
1335  135 mt 1335  152 L
1252 1747 mt 
(1.5) s
1685 1602 mt 1685 1584 L
1685  135 mt 1685  152 L
1652 1747 mt 
(2) s
2035 1602 mt 2035 1584 L
2035  135 mt 2035  152 L
1952 1747 mt 
(2.5) s
 292 1602 mt  309 1602 L
2035 1602 mt 2017 1602 L
 191 1646 mt 
(0) s
 292 1113 mt  309 1113 L
2035 1113 mt 2017 1113 L
  91 1157 mt 
(0.5) s
 292  624 mt  309  624 L
2035  624 mt 2017  624 L
 191  668 mt 
(1) s
 292  135 mt  309  135 L
2035  135 mt 2017  135 L
  91  179 mt 
(1.5) s
 292  135 mt 2035  135 L
 292 1602 mt 2035 1602 L
2035 1602 mt 2035  135 L
 292 1602 mt  292  135 L
gs 292 135 1744 1468 rc
/c8 { 0.000000 0.000000 1.000000 sr} bdef
c8
7 0 7 0 7 0 7 0 7 0 7 0 7 0 7 0 
7 0 7 0 7 0 7 0 7 0 7 0 7 1 7 6 
7 11 7 25 7 42 7 67 7 82 7 82 7 59 7 11 
7 -36 7 -74 7 -85 7 -75 7 -55 7 -32 7 -17 7 -8 
7 -4 7 0 7 0 7 0 7 0 7 0 7 0 7 0 
7 7 7 10 7 9 7 10 7 12 7 15 7 17 7 22 
8 23 6 28 7 29 7 34 7 34 7 34 7 33 7 32 
7 29 7 26 7 20 7 18 7 12 7 10 7 4 7 4 
7 1 7 1 7 0 7 0 7 0 7 1 7 1 7 -2 
7 -3 7 -6 7 -7 7 -9 7 -10 7 -11 7 -11 7 -10 
7 -4 7 -4 7 6 7 9 7 21 7 24 7 32 7 35 
7 39 7 38 7 38 7 32 7 30 7 16 7 12 7 -2 
7 -11 7 -23 7 -31 7 -38 7 -47 7 -50 7 -56 7 -55 
7 -55 7 -53 7 -49 7 -46 7 -40 7 -35 7 -31 7 -24 
7 -21 7 -15 7 -14 7 -10 7 -9 7 -4 7 -3 7 0 
7 0 7 0 7 4 7 4 7 8 7 8 7 12 7 14 
7 17 7 20 7 23 7 27 7 28 7 31 7 32 7 32 
7 31 7 27 7 24 7 19 7 12 7 7 7 -3 7 -6 
7 -17 7 -19 7 -27 7 -28 7 -32 7 -32 7 -31 7 -30 
7 -29 7 -24 7 -23 7 -22 7 -21 7 -17 7 -12 7 -7 
7 0 7 0 7 6 7 11 7 16 7 24 7 31 7 39 
7 47 7 51 7 56 7 49 7 41 7 29 7 17 7 5 
7 -3 7 -7 7 -5 7 0 7 4 7 7 7 3 7 -3 
7 -14 7 -26 7 -39 7 -48 7 -56 7 -52 7 -48 7 -41 
7 -32 7 -25 7 -18 7 -11 7 -8 7 -4 7 -4 7 -1 
7 0 7 3 7 3 7 5 7 9 7 17 7 23 7 35 
7 47 7 61 7 73 7 86 7 93 7 94 7 88 7 75 
7 54 7 33 7 11 7 -7 7 -23 7 -32 7 -36 7 -41 
7 -42 7 -54 7 -107 7 -19 7 72 7 67 7 -20 7 -121 
7 -188 7 -157 7 -73 7 -7 7 56 7 148 7 232 7 252 
7 228 7 161 7 -16 7 -192 7 -196 7 -98 7 -40 7 -36 
7 -90 292 1171 250 MP stroke
/c9 { 0.000000 0.500000 0.000000 sr} bdef
c9
7 0 7 0 7 0 7 0 7 0 7 0 7 0 7 0 
7 0 7 0 7 0 7 0 7 0 7 0 7 0 7 0 
7 0 7 0 7 0 7 0 7 0 7 0 7 0 7 0 
7 0 7 0 7 0 7 0 7 0 7 0 7 0 7 0 
7 0 7 0 7 0 7 0 7 0 7 0 7 0 7 0 
7 0 7 0 7 0 7 0 7 0 7 0 7 0 7 0 
8 0 6 0 7 0 7 0 7 0 7 0 7 0 7 0 
7 0 7 0 7 4 7 4 7 8 7 12 7 18 7 27 
7 31 7 31 7 36 7 40 7 41 7 43 7 42 7 41 
7 36 7 32 7 28 7 23 7 19 7 15 7 11 7 10 
7 9 7 9 7 9 7 12 7 11 7 11 7 11 7 10 
7 11 7 10 7 10 7 10 7 9 7 7 7 5 7 2 
7 0 7 -5 7 -13 7 -18 7 -25 7 -33 7 -37 7 -42 
7 -47 7 -49 7 -47 7 -45 7 -41 7 -30 7 -21 7 -16 
7 3 7 12 7 22 7 40 7 46 7 55 7 62 7 65 
7 67 7 64 7 61 7 58 7 47 7 42 7 27 7 15 
7 6 7 -14 7 -23 7 -31 7 -49 7 -55 7 -60 7 -65 
7 -63 7 -61 7 -51 7 -45 7 -34 7 -20 7 -13 7 1 
7 9 7 12 7 15 7 13 7 9 7 2 7 -4 7 -11 
7 -25 7 -28 7 -33 7 -37 7 -37 7 -38 7 -32 7 -32 
7 -31 7 -17 7 13 7 51 7 89 7 124 7 144 7 135 
7 97 7 28 7 -44 7 -94 7 -115 7 -94 7 -44 7 24 
7 85 7 114 7 104 7 57 7 -7 7 -78 7 -129 7 -145 
7 -133 7 -97 7 -62 7 -24 7 11 7 39 7 62 7 77 
7 74 7 54 7 20 7 -8 7 -22 7 -17 7 0 7 18 
7 22 7 6 7 -21 7 -57 7 -74 7 -77 7 -67 7 -52 
7 -32 7 -17 7 -7 7 -4 7 0 7 0 7 0 7 0 
7 0 7 0 7 0 7 0 7 0 7 0 7 0 7 0 
7 0 7 0 7 0 7 0 7 5 7 10 7 19 7 39 
7 60 7 88 7 97 7 91 7 69 7 38 7 16 7 -5 
7 -23 7 -53 7 -78 7 -96 7 -95 7 -77 7 -52 7 -29 
7 -15 292 1593 250 MP stroke
/c10 { 1.000000 0.000000 0.000000 sr} bdef
c10
7 0 7 0 7 0 7 0 7 0 7 0 7 0 7 0 
7 0 7 0 7 0 7 0 7 0 7 0 7 0 7 0 
7 0 7 0 7 0 7 0 7 0 7 0 7 0 7 0 
7 0 7 0 7 0 7 0 7 0 7 0 7 0 7 0 
7 0 7 0 7 0 7 0 7 0 7 0 7 0 7 0 
7 0 7 0 7 5 7 5 7 8 7 15 7 24 7 33 
8 46 6 54 7 60 7 58 7 46 7 28 7 5 7 -21 
7 -41 7 -55 7 -57 7 -51 7 -37 7 -19 7 4 7 29 
7 58 7 83 7 104 7 116 7 113 7 92 7 55 7 12 
7 -35 7 -69 7 -90 7 -89 7 -67 7 -31 7 12 7 51 
7 77 7 88 7 76 7 48 7 9 7 -33 7 -71 7 -95 
7 -106 7 -99 7 -79 7 -50 7 -20 7 9 7 32 7 44 
7 46 7 37 7 19 7 -3 7 -28 7 -43 7 -48 7 -49 
7 -48 7 -43 7 -36 7 -28 7 -20 7 -15 7 -10 7 -6 
7 -4 7 0 7 3 7 6 7 9 7 14 7 20 7 27 
7 35 7 42 7 48 7 49 7 47 7 42 7 28 7 13 
7 -2 7 -16 7 -29 7 -35 7 -37 7 -31 7 -20 7 -6 
7 7 7 21 7 32 7 37 7 36 7 27 7 15 7 0 
7 -14 7 -29 7 -42 7 -48 7 -50 7 -46 7 -42 7 -35 
7 -26 7 -19 7 -14 7 -9 7 -5 7 -4 7 -4 7 0 
7 0 7 0 7 2 7 4 7 5 7 7 7 11 7 17 
7 24 7 31 7 38 7 45 7 49 7 49 7 44 7 35 
7 21 7 7 7 -10 7 -29 7 -39 7 -46 7 -49 7 -48 
7 -43 7 -36 7 -24 7 -17 7 -10 7 -2 7 6 7 15 
7 22 7 33 7 40 7 46 7 49 7 49 7 42 7 30 
7 17 7 1 7 -15 7 -30 7 -42 7 -48 7 -49 7 -46 
7 -41 7 -34 7 -27 7 -18 7 -14 7 -8 7 -6 7 -4 
7 -4 7 0 7 0 7 0 7 0 7 0 7 0 7 0 
7 4 7 4 7 5 7 9 7 13 7 18 7 26 7 34 
7 41 7 47 7 53 7 52 7 49 7 42 7 32 7 23 
7 13 7 7 7 2 7 0 7 0 7 -1 7 -4 7 -9 
7 -17 292 1159 250 MP stroke
/c11 { 0.000000 0.750000 0.750000 sr} bdef
c11
7 0 7 0 7 0 7 0 7 0 7 0 7 0 7 0 
7 0 7 0 7 0 7 0 7 0 7 0 7 0 7 0 
7 0 7 0 7 0 7 0 7 0 7 0 7 0 7 0 
7 0 7 0 7 0 7 0 7 0 7 0 7 0 7 0 
7 0 7 0 7 0 7 0 7 0 7 0 7 0 7 0 
7 0 7 0 7 0 7 0 7 0 7 0 7 0 7 0 
8 0 6 1 7 3 7 2 7 2 7 3 7 4 7 5 
7 6 7 8 7 10 7 12 7 15 7 16 7 20 7 21 
7 25 7 25 7 28 7 28 7 28 7 28 7 27 7 26 
7 21 7 18 7 13 7 9 7 4 7 1 7 -1 7 -4 
7 -5 7 -7 7 -5 7 -4 7 -1 7 4 7 7 7 14 
7 16 7 23 7 24 7 29 7 30 7 31 7 30 7 28 
7 27 7 18 7 18 7 6 7 6 7 -8 7 -10 7 -18 
7 -20 7 -29 7 -32 7 -36 7 -37 7 -38 7 -38 7 -35 
7 -33 7 -28 7 -23 7 -18 7 -12 7 -7 7 1 7 4 
7 10 7 12 7 15 7 16 7 18 7 16 7 13 7 12 
7 -3 7 -97 7 -139 7 -79 7 30 7 146 7 251 7 230 
7 86 7 -31 7 -34 7 45 7 91 7 5 7 -192 7 -301 
7 -233 7 -83 7 44 7 131 7 133 7 43 7 -14 7 7 
7 7 7 -39 7 -47 7 -20 7 44 7 101 7 120 7 94 
7 21 7 -38 7 -66 7 -51 7 -12 7 25 7 38 7 46 
7 46 7 53 7 62 7 59 7 37 7 -8 7 -47 7 -77 
7 -90 7 -102 7 -114 7 -127 7 -116 7 -84 7 -28 7 39 
7 97 7 139 7 151 7 118 7 56 7 -10 7 -25 7 -23 
7 -10 7 11 7 33 7 44 7 41 7 25 7 -9 7 -39 
7 -67 7 -81 7 -78 7 -60 7 -37 7 -14 7 5 7 9 
7 3 7 -9 7 -17 7 -24 7 -16 7 -5 7 8 7 17 
7 18 7 8 7 -9 7 -29 7 -48 7 -59 7 -62 7 -57 
7 -48 7 -36 7 -25 7 -17 7 -9 7 -5 7 -5 7 0 
7 0 7 0 7 0 7 0 7 2 7 5 7 6 7 12 
7 19 7 29 7 40 7 52 7 60 7 61 7 53 7 38 
7 14 292 1211 250 MP stroke
/c12 { 0.750000 0.000000 0.750000 sr} bdef
c12
7 0 7 0 7 0 7 0 7 0 7 0 7 0 7 0 
7 0 7 0 7 0 7 0 7 0 7 0 7 0 7 0 
7 0 7 0 7 0 7 0 7 0 7 0 7 0 7 0 
7 0 7 0 7 0 7 0 7 0 7 0 7 0 7 0 
7 3 7 5 7 6 7 12 7 20 7 29 7 39 7 50 
7 57 7 59 7 53 7 38 7 17 7 -7 7 -30 7 -48 
8 -58 6 -59 7 -54 7 -44 7 -33 7 -22 7 -15 7 -9 
7 -4 7 -4 7 4 7 5 7 9 7 16 7 25 7 36 
7 49 7 58 7 61 7 58 7 46 7 26 7 3 7 -17 
7 -29 7 -28 7 -17 7 1 7 18 7 29 7 27 7 16 
7 -4 7 -28 7 -47 7 -58 7 -62 7 -58 7 -47 7 -36 
7 -24 7 -15 7 -4 7 0 7 7 7 17 7 26 7 38 
7 50 7 61 7 67 7 64 7 54 7 39 7 24 7 14 
7 8 7 9 7 16 7 21 7 25 7 23 7 16 7 6 
7 -8 7 -23 7 -38 7 -54 7 -67 7 -75 7 -77 7 -67 
7 -56 7 -45 7 -32 7 -19 7 -10 7 -1 7 7 7 15 
7 27 7 38 7 48 7 54 7 56 7 52 7 40 7 21 
7 0 7 -22 7 -40 7 -52 7 -56 7 -54 7 -48 7 -38 
7 -28 7 -18 7 -8 7 -2 7 4 7 11 7 22 7 32 
7 41 7 51 7 56 7 57 7 48 7 34 7 14 7 -9 
7 -29 7 -42 7 -50 7 -50 7 -37 7 -20 7 0 7 24 
7 49 7 70 7 87 7 94 7 92 7 79 7 54 7 22 
7 -14 7 -48 7 -74 7 -92 7 -99 7 -95 7 -84 7 -68 
7 -51 7 -37 7 -25 7 -18 7 -4 7 0 7 3 7 11 
7 19 7 28 7 36 7 46 7 53 7 55 7 52 7 41 
7 25 7 4 7 -16 7 -36 7 -48 7 -55 7 -55 7 -50 
7 -40 7 -30 7 -22 7 -11 7 -5 7 2 7 7 7 17 
7 26 7 35 7 45 7 52 7 55 7 53 7 43 7 27 
7 8 7 -14 7 -29 7 -43 7 -47 7 -42 7 -26 7 -9 
7 14 7 36 7 57 7 72 7 81 7 80 7 72 7 56 
7 32 7 5 7 -24 7 -50 7 -69 7 -83 7 -87 7 -85 
7 -76 292 1392 250 MP stroke
/c13 { 0.750000 0.750000 0.000000 sr} bdef
c13
7 0 7 0 7 0 7 0 7 0 7 0 7 0 7 0 
7 0 7 0 7 0 7 0 7 0 7 0 7 0 7 0 
7 0 7 0 7 0 7 0 7 0 7 0 7 0 7 0 
7 0 7 0 7 0 7 0 7 0 7 0 7 0 7 0 
7 0 7 0 7 0 7 0 7 0 7 0 7 0 7 0 
7 0 7 1 7 3 7 2 7 2 7 4 7 5 7 7 
8 7 6 12 7 12 7 17 7 19 7 23 7 25 7 29 
7 30 7 31 7 32 7 31 7 28 7 26 7 21 7 18 
7 9 7 5 7 -2 7 -7 7 -11 7 -14 7 -15 7 -15 
7 -14 7 -8 7 -7 7 0 7 3 7 8 7 12 7 14 
7 15 7 15 7 12 7 11 7 2 7 0 7 -9 7 -12 
7 -21 7 -24 7 -27 7 -28 7 -29 7 -29 7 -29 7 -24 
7 -23 7 -13 7 -10 7 -3 7 2 7 10 7 17 7 23 
7 33 7 35 7 45 7 47 7 52 7 53 7 55 7 53 
7 50 7 44 7 38 7 25 7 21 7 3 7 0 7 -21 
7 -23 7 -38 7 -42 7 -50 7 -53 7 -55 7 -55 7 -54 
7 -50 7 -49 7 -40 7 -39 7 -30 7 -28 7 -22 7 -18 
7 -15 7 -11 7 -10 7 -6 7 -4 7 -1 7 0 7 0 
7 2 7 4 7 9 7 20 7 59 7 107 7 152 7 178 
7 160 7 105 7 48 7 20 7 46 7 84 7 108 7 82 
7 25 7 -33 7 -82 7 -103 7 -119 7 -140 7 -144 7 -128 
7 -72 7 -13 7 19 7 9 7 -31 7 -62 7 -52 7 -8 
7 46 7 72 7 60 7 29 7 8 7 0 7 -6 7 -26 
7 -48 7 -49 7 -57 7 -60 7 -58 7 -49 7 -39 7 -30 
7 -21 7 -13 7 -8 7 -5 7 -4 7 -1 7 4 7 4 
7 8 7 11 7 19 7 30 7 41 7 53 7 64 7 73 
7 78 7 76 7 69 7 55 7 38 7 16 7 -5 7 -28 
7 -47 7 -63 7 -74 7 -78 7 -73 7 -65 7 -50 7 -33 
7 -11 7 10 7 32 7 55 7 72 7 87 7 98 7 106 
7 104 7 97 7 86 7 72 7 57 7 39 7 23 7 9 
7 -3 7 -14 7 -23 7 -30 7 -39 7 -48 7 -60 7 -70 
7 -83 292 913 250 MP stroke
0.25 sg
7 0 7 0 7 0 7 0 7 0 7 0 7 0 7 0 
7 0 7 0 7 0 7 0 7 0 7 0 7 0 7 0 
7 0 7 0 7 0 7 0 7 0 7 0 7 0 7 0 
7 0 7 0 7 0 7 0 7 0 7 0 7 0 7 0 
7 0 7 0 7 0 7 0 7 0 7 0 7 0 7 0 
7 0 7 0 7 2 7 2 7 3 7 3 7 5 7 6 
8 9 6 11 7 14 7 19 7 23 7 28 7 33 7 35 
7 40 7 42 7 43 7 43 7 43 7 39 7 36 7 33 
7 26 7 22 7 14 7 10 7 5 7 -4 7 -7 7 -14 
7 -20 7 -24 7 -32 7 -34 7 -40 7 -40 7 -40 7 -41 
7 -39 7 -35 7 -29 7 -26 7 -16 7 -10 7 0 7 7 
7 13 7 22 7 26 7 30 7 33 7 35 7 30 7 28 
7 26 7 18 7 16 7 6 7 3 7 -1 7 -4 7 -4 
7 -4 7 -2 7 0 7 3 7 7 7 5 7 -9 7 -32 
7 -53 7 -69 7 -70 7 -64 7 -51 7 -35 7 -22 7 -13 
7 -7 7 -5 7 -1 7 0 7 0 7 0 7 0 7 0 
7 0 7 0 7 0 7 0 7 5 7 6 7 12 7 21 
7 33 7 48 7 61 7 69 7 65 7 48 7 21 7 -12 
7 -44 7 -62 7 -69 7 -64 7 -52 7 -36 7 -23 7 -14 
7 -7 7 -5 7 -1 7 0 7 0 7 3 7 6 7 9 
7 18 7 19 7 24 7 30 7 40 7 49 7 56 7 63 
7 70 7 71 7 71 7 65 7 54 7 44 7 26 7 5 
7 -11 7 -26 7 -49 7 -57 7 -62 7 -69 7 -63 7 -58 
7 -51 7 -32 7 -19 7 -3 7 20 7 37 7 51 7 70 
7 86 7 95 7 100 7 101 7 99 7 93 7 79 7 62 
7 48 7 28 7 7 7 -9 7 -23 7 -45 7 -55 7 -62 
7 -70 7 -72 7 -70 7 -67 7 -57 7 -50 7 -42 7 -31 
7 -24 7 -20 7 -18 7 -20 7 -22 7 -27 7 -37 7 -39 
7 -41 7 -44 7 -44 7 -42 7 -36 7 -28 7 -23 7 -19 
7 -10 7 -3 7 2 7 9 7 17 7 22 7 27 7 36 
7 38 7 41 7 41 7 37 7 32 7 24 7 11 7 1 
7 -8 292 1223 250 MP stroke
c8
7 0 7 0 7 0 7 0 7 0 7 0 7 0 7 0 
7 0 7 0 7 0 7 0 7 0 7 0 7 0 7 0 
7 0 7 0 7 0 7 0 7 0 7 0 7 0 7 0 
7 0 7 0 7 0 7 0 7 0 7 0 7 0 7 0 
7 0 7 0 7 0 7 0 7 0 7 0 7 0 7 0 
7 0 7 0 7 4 7 3 7 5 7 6 7 11 7 16 
8 21 6 26 7 34 7 40 7 44 7 45 7 45 7 39 
7 28 7 17 7 4 7 -10 7 -26 7 -36 7 -40 7 -42 
7 -42 7 -35 7 -27 7 -17 7 -6 7 7 7 20 7 28 
7 37 7 42 7 41 7 43 7 37 7 28 7 16 7 2 
7 -24 7 -21 7 10 7 44 7 53 7 41 7 19 7 1 
7 -21 7 -50 7 -83 7 -104 7 -102 7 -79 7 -42 7 -10 
7 27 7 69 7 122 7 174 7 185 7 154 7 79 7 0 
7 -65 7 -96 7 -112 7 -124 7 -129 7 -119 7 -91 7 -61 
7 -23 7 0 7 29 7 70 7 113 7 166 7 223 7 92 
7 -107 7 -232 7 -208 7 -117 7 -46 7 -12 7 -1 7 0 
7 5 7 21 7 69 7 156 7 231 7 202 7 25 7 -162 
7 -237 7 -179 7 -76 7 15 7 92 7 136 7 86 7 -21 
7 -36 7 -30 7 -34 7 -34 7 -34 7 -33 7 -30 7 -26 
7 -24 7 -19 7 -16 7 -13 7 -9 7 -8 7 -5 7 -4 
7 -2 7 -3 7 -3 7 0 7 0 7 0 7 0 7 0 
7 0 7 0 7 0 7 0 7 0 7 0 7 0 7 0 
7 0 7 0 7 0 7 0 7 0 7 0 7 0 7 0 
7 0 7 0 7 2 7 2 7 3 7 3 7 5 7 6 
7 8 7 11 7 13 7 19 7 20 7 26 7 28 7 31 
7 34 7 34 7 35 7 31 7 30 7 21 7 18 7 7 
7 0 7 -7 7 -18 7 -21 7 -29 7 -32 7 -34 7 -34 
7 -35 7 -30 7 -29 7 -25 7 -21 7 -19 7 -13 7 -11 
7 -8 7 -6 7 -5 7 -3 7 -3 7 -2 7 -2 7 0 
7 0 7 0 7 0 7 0 7 0 7 0 7 0 7 0 
7 0 7 0 7 0 7 0 7 0 7 0 7 0 7 0 
7 0 292 1602 250 MP stroke
c9
7 0 7 0 7 0 7 0 7 0 7 0 7 0 7 0 
7 0 7 0 7 0 7 0 7 0 7 2 7 11 7 32 
7 73 7 116 7 115 7 38 7 -64 7 -121 7 -108 7 -61 
7 -24 7 -7 7 11 7 31 7 68 7 91 7 100 7 72 
7 8 7 -58 7 -96 7 -96 7 -68 7 -39 7 -17 7 -8 
7 -1 7 0 7 0 7 0 7 0 7 0 7 0 7 0 
8 0 6 0 7 0 7 0 7 0 7 6 7 13 7 38 
7 77 7 126 7 167 7 170 7 109 7 6 7 -100 7 -161 
7 -123 7 -77 7 -48 7 -16 7 15 7 36 7 50 7 50 
7 36 7 16 7 -12 7 -39 7 -56 7 -63 7 -61 7 -52 
7 -40 7 -25 7 -13 7 -2 7 8 7 18 7 36 7 47 
7 59 7 63 7 59 7 46 7 23 7 -4 7 -30 7 -51 
7 -62 7 -63 7 -55 7 -44 7 -31 7 -20 7 -13 7 -6 
7 -5 7 -2 7 0 7 0 7 0 7 0 7 0 7 0 
7 2 7 5 7 7 7 13 7 21 7 35 7 49 7 65 
7 77 7 66 7 43 7 40 7 37 7 38 7 32 7 31 
7 25 7 23 7 15 7 11 7 4 7 0 7 -7 7 -12 
7 -17 7 -23 7 -27 7 -31 7 -34 7 -37 7 -39 7 -39 
7 -40 7 -39 7 -37 7 -35 7 -33 7 -28 7 -25 7 -21 
7 -19 7 -14 7 -12 7 -4 7 -3 7 4 7 4 7 11 
7 12 7 18 7 19 7 23 7 23 7 28 7 28 7 29 
7 28 7 25 7 24 7 19 7 16 7 9 7 6 7 -2 
7 -6 7 -13 7 -16 7 -21 7 -25 7 -26 7 -28 7 -29 
7 -28 7 -27 7 -26 7 -23 7 -21 7 -19 7 -15 7 -14 
7 -11 7 -9 7 -7 7 -6 7 -4 7 -4 7 -2 7 -2 
7 -3 7 -2 7 0 7 0 7 0 7 0 7 0 7 0 
7 0 7 0 7 0 7 0 7 0 7 0 7 2 7 2 
7 2 7 3 7 5 7 6 7 8 7 9 7 12 7 15 
7 19 7 22 7 27 7 31 7 36 7 41 7 44 7 49 
7 51 7 53 7 54 7 53 7 50 7 45 7 41 7 30 
7 27 7 11 7 7 7 -10 7 -13 7 -30 7 -31 7 -45 
7 -45 292 1021 250 MP stroke
c10
7 0 7 0 7 0 7 0 7 0 7 0 7 0 7 0 
7 0 7 0 7 0 7 0 7 0 7 0 7 0 7 0 
7 0 7 0 7 0 7 0 7 0 7 0 7 0 7 0 
7 0 7 0 7 0 7 0 7 0 7 0 7 0 7 0 
7 0 7 0 7 0 7 0 7 0 7 0 7 0 7 0 
7 0 7 0 7 0 7 0 7 0 7 0 7 0 7 0 
8 0 6 0 7 0 7 0 7 0 7 0 7 0 7 0 
7 0 7 0 7 3 7 4 7 4 7 7 7 12 7 17 
7 23 7 29 7 37 7 43 7 51 7 51 7 50 7 45 
7 37 7 28 7 17 7 12 7 4 7 0 7 -2 7 -12 
7 -33 7 -56 7 -71 7 -76 7 -59 7 -22 7 18 7 58 
7 95 7 115 7 116 7 91 7 46 7 -7 7 -62 7 -103 
7 -120 7 -118 7 -96 7 -69 7 -35 7 -5 7 25 7 52 
7 76 7 87 7 84 7 67 7 46 7 27 7 17 7 15 
7 17 7 23 7 35 7 51 7 59 7 51 7 19 7 -30 
7 -76 7 -104 7 -82 7 -56 7 -27 7 4 7 35 7 60 
7 72 7 72 7 54 7 30 7 1 7 -27 7 -47 7 -58 
7 -59 7 -49 7 -36 7 -22 7 -14 7 -10 7 -13 7 -23 
7 -34 7 -37 7 -38 7 -29 7 -16 7 -1 7 15 7 28 
7 33 7 32 7 22 7 7 7 -11 7 -27 7 -37 7 -41 
7 -35 7 -24 7 -8 7 9 7 25 7 37 7 40 7 36 
7 25 7 6 7 -11 7 -31 7 -45 7 -53 7 -54 7 -50 
7 -43 7 -34 7 -25 7 -17 7 -12 7 -7 7 -3 7 0 
7 4 7 8 7 13 7 19 7 28 7 40 7 52 7 59 
7 60 7 53 7 36 7 14 7 -13 7 -37 7 -52 7 -60 
7 -59 7 -52 7 -41 7 -30 7 -20 7 -12 7 -7 7 -3 
7 2 7 7 7 11 7 20 7 28 7 40 7 51 7 59 
7 60 7 53 7 38 7 19 7 -5 7 -25 7 -37 7 -37 
7 -26 7 -3 7 18 7 39 7 54 7 60 7 57 7 46 
7 33 7 18 7 1 7 -17 7 -33 7 -50 7 -64 7 -72 
7 -74 7 -70 7 -62 7 -50 7 -36 7 -24 7 -15 7 -9 
7 -5 292 1597 250 MP stroke
gr

c10

end %%Color Dict

eplot
%%EndObject

epage
end

showpage

%%Trailer
%%EOF
