%!PS-Adobe-3.0 EPSF-3.0
%%Creator: MATLAB, The Mathworks, Inc. Version 7.10.0.499 (R2010a). Operating System: Microsoft Windows 7.
%%Title: C:\Users\wwu\Desktop\warping\Ramsay_code\code_0418\comp_neural_mse.eps
%%CreationDate: 05/20/2011  11:10:50
%%DocumentNeededFonts: Helvetica
%%DocumentProcessColors: Cyan Magenta Yellow Black
%%LanguageLevel: 2
%%Pages: 1
%%BoundingBox:   212   320   399   470
%%EndComments

%%BeginProlog
% MathWorks dictionary
/MathWorks 160 dict begin
% definition operators
/bdef {bind def} bind def
/ldef {load def} bind def
/xdef {exch def} bdef
/xstore {exch store} bdef
% operator abbreviations
/c  /clip ldef
/cc /concat ldef
/cp /closepath ldef
/gr /grestore ldef
/gs /gsave ldef
/mt /moveto ldef
/np /newpath ldef
/cm /currentmatrix ldef
/sm /setmatrix ldef
/rm /rmoveto ldef
/rl /rlineto ldef
/s {show newpath} bdef
/sc {setcmykcolor} bdef
/sr /setrgbcolor ldef
/sg /setgray ldef
/w /setlinewidth ldef
/j /setlinejoin ldef
/cap /setlinecap ldef
/rc {rectclip} bdef
/rf {rectfill} bdef
% page state control
/pgsv () def
/bpage {/pgsv save def} bdef
/epage {pgsv restore} bdef
/bplot /gsave ldef
/eplot {stroke grestore} bdef
% orientation switch
/portraitMode 0 def /landscapeMode 1 def /rotateMode 2 def
% coordinate system mappings
/dpi2point 0 def
% font control
/FontSize 0 def
/FMS {/FontSize xstore findfont [FontSize 0 0 FontSize neg 0 0]
  makefont setfont} bdef
/ISOLatin1Encoding where {pop /WindowsLatin1Encoding 256 array bdef
ISOLatin1Encoding WindowsLatin1Encoding copy pop
/.notdef/.notdef/quotesinglbase/florin/quotedblbase/ellipsis/dagger
/daggerdbl/circumflex/perthousand/Scaron/guilsinglleft/OE/.notdef/.notdef
/.notdef/.notdef/quoteleft/quoteright/quotedblleft/quotedblright/bullet
/endash/emdash/tilde/trademark/scaron/guilsinglright/oe/.notdef/.notdef
/Ydieresis WindowsLatin1Encoding 128 32 getinterval astore pop}
{/WindowsLatin1Encoding StandardEncoding bdef} ifelse
/reencode {exch dup where {pop load} {pop StandardEncoding} ifelse
  exch dup 3 1 roll findfont dup length dict begin
  { 1 index /FID ne {def}{pop pop} ifelse } forall
  /Encoding exch def currentdict end definefont pop} bdef
/isroman {findfont /CharStrings get /Agrave known} bdef
/FMSR {3 1 roll 1 index dup isroman {reencode} {pop pop} ifelse
  exch FMS} bdef
/csm {1 dpi2point div -1 dpi2point div scale neg translate
 dup landscapeMode eq {pop -90 rotate}
  {rotateMode eq {90 rotate} if} ifelse} bdef
% line types: solid, dotted, dashed, dotdash
/SO { [] 0 setdash } bdef
/DO { [.5 dpi2point mul 4 dpi2point mul] 0 setdash } bdef
/DA { [6 dpi2point mul] 0 setdash } bdef
/DD { [.5 dpi2point mul 4 dpi2point mul 6 dpi2point mul 4
  dpi2point mul] 0 setdash } bdef
% macros for lines and objects
/L {lineto stroke} bdef
/MP {3 1 roll moveto 1 sub {rlineto} repeat} bdef
/AP {{rlineto} repeat} bdef
/PDlw -1 def
/W {/PDlw currentlinewidth def setlinewidth} def
/PP {closepath eofill} bdef
/DP {closepath stroke} bdef
/MR {4 -2 roll moveto dup  0 exch rlineto exch 0 rlineto
  neg 0 exch rlineto closepath} bdef
/FR {MR stroke} bdef
/PR {MR fill} bdef
/L1i {{currentfile picstr readhexstring pop} image} bdef
/tMatrix matrix def
/MakeOval {newpath tMatrix currentmatrix pop translate scale
0 0 1 0 360 arc tMatrix setmatrix} bdef
/FO {MakeOval stroke} bdef
/PO {MakeOval fill} bdef
/PD {currentlinewidth 2 div 0 360 arc fill
   PDlw -1 eq not {PDlw w /PDlw -1 def} if} def
/FA {newpath tMatrix currentmatrix pop translate scale
  0 0 1 5 -2 roll arc tMatrix setmatrix stroke} bdef
/PA {newpath tMatrix currentmatrix pop	translate 0 0 moveto scale
  0 0 1 5 -2 roll arc closepath tMatrix setmatrix fill} bdef
/FAn {newpath tMatrix currentmatrix pop translate scale
  0 0 1 5 -2 roll arcn tMatrix setmatrix stroke} bdef
/PAn {newpath tMatrix currentmatrix pop translate 0 0 moveto scale
  0 0 1 5 -2 roll arcn closepath tMatrix setmatrix fill} bdef
/vradius 0 def /hradius 0 def /lry 0 def
/lrx 0 def /uly 0 def /ulx 0 def /rad 0 def
/MRR {/vradius xdef /hradius xdef /lry xdef /lrx xdef /uly xdef
  /ulx xdef newpath tMatrix currentmatrix pop ulx hradius add uly
  vradius add translate hradius vradius scale 0 0 1 180 270 arc 
  tMatrix setmatrix lrx hradius sub uly vradius add translate
  hradius vradius scale 0 0 1 270 360 arc tMatrix setmatrix
  lrx hradius sub lry vradius sub translate hradius vradius scale
  0 0 1 0 90 arc tMatrix setmatrix ulx hradius add lry vradius sub
  translate hradius vradius scale 0 0 1 90 180 arc tMatrix setmatrix
  closepath} bdef
/FRR {MRR stroke } bdef
/PRR {MRR fill } bdef
/MlrRR {/lry xdef /lrx xdef /uly xdef /ulx xdef /rad lry uly sub 2 div def
  newpath tMatrix currentmatrix pop ulx rad add uly rad add translate
  rad rad scale 0 0 1 90 270 arc tMatrix setmatrix lrx rad sub lry rad
  sub translate rad rad scale 0 0 1 270 90 arc tMatrix setmatrix
  closepath} bdef
/FlrRR {MlrRR stroke } bdef
/PlrRR {MlrRR fill } bdef
/MtbRR {/lry xdef /lrx xdef /uly xdef /ulx xdef /rad lrx ulx sub 2 div def
  newpath tMatrix currentmatrix pop ulx rad add uly rad add translate
  rad rad scale 0 0 1 180 360 arc tMatrix setmatrix lrx rad sub lry rad
  sub translate rad rad scale 0 0 1 0 180 arc tMatrix setmatrix
  closepath} bdef
/FtbRR {MtbRR stroke } bdef
/PtbRR {MtbRR fill } bdef
/stri 6 array def /dtri 6 array def
/smat 6 array def /dmat 6 array def
/tmat1 6 array def /tmat2 6 array def /dif 3 array def
/asub {/ind2 exch def /ind1 exch def dup dup
  ind1 get exch ind2 get sub exch } bdef
/tri_to_matrix {
  2 0 asub 3 1 asub 4 0 asub 5 1 asub
  dup 0 get exch 1 get 7 -1 roll astore } bdef
/compute_transform {
  dmat dtri tri_to_matrix tmat1 invertmatrix 
  smat stri tri_to_matrix tmat2 concatmatrix } bdef
/ds {stri astore pop} bdef
/dt {dtri astore pop} bdef
/db {2 copy /cols xdef /rows xdef mul dup 3 mul string
  currentfile 
  3 index 0 eq {/ASCIIHexDecode filter}
  {/ASCII85Decode filter 3 index 2 eq {/RunLengthDecode filter} if }
  ifelse exch readstring pop
  dup 0 3 index getinterval /rbmap xdef
  dup 2 index dup getinterval /gbmap xdef
  1 index dup 2 mul exch getinterval /bbmap xdef pop pop}bdef
/it {gs np dtri aload pop moveto lineto lineto cp c
  cols rows 8 compute_transform 
  rbmap gbmap bbmap true 3 colorimage gr}bdef
/il {newpath moveto lineto stroke}bdef
currentdict end def
%%EndProlog

%%BeginSetup
MathWorks begin

0 cap

end
%%EndSetup

%%Page: 1 1
%%BeginPageSetup
%%PageBoundingBox:   212   320   399   470
MathWorks begin
bpage
%%EndPageSetup

%%BeginObject: obj1
bplot

/dpi2point 12 def
portraitMode 2544 5640 csm

    0     0  2249  1800 rc
85 dict begin %Colortable dictionary
/c0 { 0.000000 0.000000 0.000000 sr} bdef
/c1 { 1.000000 1.000000 1.000000 sr} bdef
/c2 { 0.900000 0.000000 0.000000 sr} bdef
/c3 { 0.000000 0.820000 0.000000 sr} bdef
/c4 { 0.000000 0.000000 0.800000 sr} bdef
/c5 { 0.910000 0.820000 0.320000 sr} bdef
/c6 { 1.000000 0.260000 0.820000 sr} bdef
/c7 { 0.000000 0.820000 0.820000 sr} bdef
c0
1 j
1 sg
   0    0 2250 1801 rf
6 w
0 1467 1743 0 0 -1467 292 1602 4 MP
PP
-1743 0 0 1467 1743 0 0 -1467 292 1602 5 MP stroke
4 w
DO
SO
6 w
0 sg
 292  135 mt 2035  135 L
 292 1602 mt 2035 1602 L
2035 1602 mt 2035  135 L
 292 1602 mt  292  135 L
 292 1602 mt 2035 1602 L
 292 1602 mt  292  135 L
 635 1602 mt  635 1584 L
 635  135 mt  635  152 L
%%IncludeResource: font Helvetica
/Helvetica /WindowsLatin1Encoding 120 FMSR

 552 1747 mt 
(0.5) s
 985 1602 mt  985 1584 L
 985  135 mt  985  152 L
 952 1747 mt 
(1) s
1335 1602 mt 1335 1584 L
1335  135 mt 1335  152 L
1252 1747 mt 
(1.5) s
1685 1602 mt 1685 1584 L
1685  135 mt 1685  152 L
1652 1747 mt 
(2) s
2035 1602 mt 2035 1584 L
2035  135 mt 2035  152 L
1952 1747 mt 
(2.5) s
 292 1602 mt  309 1602 L
2035 1602 mt 2017 1602 L
 191 1646 mt 
(0) s
 292 1113 mt  309 1113 L
2035 1113 mt 2017 1113 L
  91 1157 mt 
(0.5) s
 292  624 mt  309  624 L
2035  624 mt 2017  624 L
 191  668 mt 
(1) s
 292  135 mt  309  135 L
2035  135 mt 2017  135 L
  91  179 mt 
(1.5) s
 292  135 mt 2035  135 L
 292 1602 mt 2035 1602 L
2035 1602 mt 2035  135 L
 292 1602 mt  292  135 L
gs 292 135 1744 1468 rc
/c8 { 0.000000 0.000000 1.000000 sr} bdef
c8
3 11 7 49 7 81 7 116 7 156 7 184 7 185 7 155 
7 94 7 4 7 -94 7 -151 7 -159 7 -119 7 -29 292 1120 16 MP stroke
6 33 7 50 7 62 7 65 7 63 7 53 7 39 7 25 
7 16 7 10 7 7 7 7 7 8 7 4 7 -2 7 -11 
7 -23 7 -34 7 -42 7 -47 7 -50 7 -49 7 -45 7 -41 
7 -36 7 -27 7 -20 7 -10 7 -3 7 2 7 3 7 3 
7 1 7 -1 7 -1 7 0 7 2 7 5 7 10 7 17 
7 24 7 33 7 44 7 53 7 61 7 65 7 67 7 67 
7 64 7 60 7 56 7 49 7 41 7 32 7 24 7 16 
7 8 7 1 7 -8 7 -14 7 -20 7 -27 7 -31 7 -37 
7 -39 7 -39 7 -36 7 -31 7 -24 7 -17 7 -11 7 -7 
7 -4 7 -5 7 -4 7 0 7 4 7 12 7 22 7 31 
7 35 7 32 7 23 7 9 7 -9 7 -25 7 -37 7 -43 
7 -48 7 -48 7 -47 7 -49 7 -50 7 -52 7 -55 7 -54 
7 -49 7 -39 5 -17 406 1603 100 MP stroke
5 32 7 50 7 58 7 58 7 54 7 43 7 30 7 16 
7 0 7 -15 7 -33 7 -48 7 -56 7 -59 7 -55 7 -45 
7 -30 1118 1603 18 MP stroke
4 3 7 8 7 9 7 12 7 15 7 17 7 20 7 22 
7 25 7 26 7 28 7 29 7 29 7 29 7 30 7 28 
7 29 7 28 7 27 7 27 7 24 7 21 7 15 7 8 
7 2 7 -6 7 -10 7 -14 7 -16 7 -18 7 -18 7 -15 
7 -11 7 -6 7 2 7 9 7 18 7 27 7 36 7 45 
7 51 7 49 7 40 7 25 7 2 7 -21 7 -43 7 -58 
7 -71 7 -78 7 -82 7 -83 7 -78 7 -71 7 -59 7 -45 
3 -12 1262 1603 58 MP stroke
3 2 7 3 7 1 7 1 7 1 7 -1 7 -1 7 -3 
7 -2 2 -1 1697 1603 11 MP stroke
5 17 7 40 7 57 7 67 7 66 7 58 7 41 7 19 
7 1 7 -16 7 -29 7 -41 7 -50 7 -53 7 -52 7 -46 
7 -36 7 -21 7 -11 7 -2 7 1 7 2 7 0 7 -3 
7 -4 7 -4 2 -1 1788 1603 28 MP stroke
3 2 7 5 7 1 7 -5 3 -3 1990 1603 6 MP stroke
6 -7 2029 1603 2 MP stroke
/c9 { 0.000000 0.500000 0.000000 sr} bdef
c9
4 40 7 99 7 116 7 114 7 88 7 42 7 -17 7 -73 
7 -119 7 -158 5 -132 294 1603 12 MP stroke
5 11 7 12 7 7 7 -2 7 -16 4 -12 393 1603 7 MP stroke
1 1 7 4 7 3 7 2 7 1 7 -1 7 -2 7 -5 
4 -3 470 1603 10 MP stroke
4 2 7 7 7 13 7 21 7 30 7 42 7 52 7 57 
7 60 7 59 7 54 7 47 7 41 7 35 7 27 7 21 
7 14 7 11 7 10 7 11 7 16 7 20 7 22 7 19 
7 12 7 3 7 -12 7 -26 7 -38 7 -51 7 -63 7 -73 
7 -75 7 -69 7 -51 7 -25 7 12 7 48 7 74 7 93 
7 104 7 105 7 98 7 84 7 60 7 29 7 -10 7 -51 
7 -80 7 -96 7 -99 7 -87 7 -67 7 -47 7 -29 7 -13 
7 -2 7 8 7 11 7 9 7 0 7 -15 7 -36 7 -54 
7 -61 7 -62 7 -52 7 -34 7 -12 7 10 7 32 7 52 
7 74 7 90 7 98 7 98 7 88 7 71 7 45 7 21 
7 -1 7 -22 7 -42 7 -58 7 -67 7 -66 7 -57 7 -38 
7 -11 7 15 7 35 7 51 7 60 7 64 7 61 7 53 
7 38 7 18 7 -9 7 -37 7 -59 7 -73 7 -82 7 -82 
7 -78 7 -72 7 -63 7 -53 7 -41 7 -27 7 -14 7 -3 
7 6 7 14 7 20 7 26 7 29 7 33 7 34 7 36 
7 34 7 32 7 28 7 21 7 14 7 6 7 -1 7 -5 
7 -6 7 -7 7 -5 7 -3 7 -1 7 1 7 3 7 6 
7 6 7 5 7 2 7 -4 7 -11 7 -17 7 -23 7 -29 
7 -34 7 -37 7 -40 7 -41 7 -38 7 -35 7 -29 7 -23 
7 -17 7 -12 7 -8 551 1603 156 MP stroke
2 1 8 2 6 1 7 1 7 0 7 -1 7 -2 7 -2 
1650 1603 9 MP stroke
7 -1 7 0 7 1 7 0 7 0 7 0 7 -1 7 0 
7 0 7 0 7 0 7 1 7 0 7 0 7 0 7 0 
7 -1 7 0 7 0 7 0 7 0 7 0 7 1 7 0 
7 0 7 0 7 0 7 0 7 -1 7 0 7 0 7 0 
7 0 7 0 7 0 7 1 7 0 7 0 7 1 7 0 
7 -1 7 0 7 -1 2 -1 1732 1603 45 MP stroke
/c10 { 1.000000 0.000000 0.000000 sr} bdef
c10
2 6 7 35 7 57 7 71 7 78 7 77 7 68 7 52 
7 32 7 12 7 -13 7 -40 292 1168 13 MP stroke
4 6 7 7 7 3 7 -4 7 -10 2 -2 388 1603 7 MP stroke
5 1 7 6 7 13 7 20 7 27 7 31 7 37 7 41 
7 43 7 43 7 39 7 34 7 24 7 13 7 4 7 -6 
7 -14 7 -22 7 -29 7 -33 7 -37 7 -38 7 -38 7 -35 
7 -32 7 -28 7 -22 7 -14 7 -7 7 3 7 11 7 20 
7 29 7 37 7 45 7 47 7 47 7 43 7 34 7 24 
7 13 7 2 7 -10 7 -21 7 -31 7 -40 7 -44 7 -46 
7 -45 7 -42 7 -35 7 -30 7 -21 6 -11 440 1603 55 MP stroke
5 8 7 11 7 16 7 24 7 33 7 45 7 58 7 61 
7 58 7 45 7 25 7 -3 7 -25 7 -36 7 -39 7 -32 
7 -17 7 -1 7 12 7 21 7 27 7 29 7 27 7 22 
7 10 7 -5 7 -24 7 -44 7 -56 7 -61 7 -59 7 -48 
7 -33 7 -21 7 -12 7 -4 7 -1 7 0 7 1 7 0 
7 -1 7 -2 7 -3 7 -4 7 -2 817 1603 46 MP stroke
1 2 7 10 7 19 7 26 7 35 7 42 7 52 7 57 
7 56 7 47 7 32 7 8 7 -18 7 -39 7 -50 7 -56 
7 -52 7 -43 7 -25 7 0 7 30 7 67 7 109 7 135 
7 138 7 116 7 71 7 4 7 -57 7 -91 7 -98 7 -78 
7 -31 7 21 7 56 7 72 7 68 7 46 7 12 7 -19 
7 -42 7 -61 7 -73 7 -79 7 -77 7 -66 7 -47 7 -18 
7 16 7 40 7 49 7 44 7 21 7 -13 7 -47 7 -68 
7 -76 7 -71 7 -55 7 -34 7 -17 1146 1603 62 MP stroke
6 3 7 3 7 1 7 0 7 -2 7 -4 2 -1 1585 1603 8 MP stroke
7 -1 7 0 7 0 7 1 7 0 7 0 7 0 7 -1 
7 0 7 0 7 0 7 0 7 1 7 0 7 0 7 0 
7 0 7 -1 7 0 7 0 7 0 7 0 7 1 7 0 
7 0 7 0 7 0 7 0 7 -1 7 0 7 0 7 0 
7 0 7 1 7 0 7 0 7 0 7 0 7 0 7 -1 
7 0 7 0 7 0 7 0 7 0 7 0 7 1 7 0 
8 1 6 0 7 0 7 0 7 -2 4 -1 1660 1603 55 MP stroke
/c11 { 0.000000 0.750000 0.750000 sr} bdef
c11
2 1 7 2 7 1 7 2 7 -1 7 -1 7 0 7 2 
7 8 7 14 7 23 7 30 7 37 7 43 7 49 7 54 
7 51 7 42 7 28 7 5 292 1213 21 MP stroke
5 7 7 15 7 23 7 31 7 42 7 52 7 58 7 59 
7 59 7 54 7 47 8 39 6 30 7 22 7 12 7 2 
7 -8 7 -17 7 -26 7 -35 7 -43 7 -48 7 -51 7 -51 
7 -46 7 -40 7 -28 7 -12 7 11 7 37 7 68 7 95 
7 110 7 112 7 102 7 79 7 52 7 29 7 11 7 0 
7 -6 7 -11 7 -20 7 -38 7 -62 7 -93 7 -127 7 -144 
7 -140 7 -113 7 -65 7 0 7 55 7 88 7 99 7 89 
7 56 7 21 7 -2 7 -14 7 -16 7 -7 7 6 7 12 
7 12 7 6 7 -8 7 -23 7 -31 7 -30 7 -22 7 -6 
7 16 7 35 7 48 7 54 7 57 7 52 7 47 7 37 
7 26 7 12 7 -3 7 -16 7 -25 7 -29 7 -28 7 -22 
7 -15 7 -9 7 -4 7 0 7 3 7 4 7 8 7 10 
7 15 7 19 7 25 7 27 7 29 7 29 7 28 7 23 
7 21 7 19 7 17 7 16 7 16 7 15 7 12 7 8 
7 1 7 -6 7 -14 7 -22 7 -27 7 -34 7 -37 7 -42 
7 -45 7 -47 7 -49 7 -51 7 -52 7 -52 7 -51 7 -51 
7 -50 7 -48 7 -44 7 -35 7 -24 7 -11 7 7 7 23 
7 38 7 51 7 62 7 72 7 78 7 77 7 69 7 56 
7 37 7 17 7 1 7 -7 7 -10 7 -7 7 -1 7 5 
7 11 7 15 7 19 7 20 7 18 7 10 7 -3 7 -23 
7 -44 7 -61 7 -69 7 -66 7 -54 7 -34 7 -14 7 -1 
7 6 7 7 7 1 7 -6 7 -10 7 -10 7 -7 7 -1 
7 6 7 7 7 3 7 -7 7 -22 7 -41 7 -53 7 -59 
7 -59 7 -52 7 -39 7 -28 7 -17 7 -10 7 -5 5 -1 
434 1603 193 MP stroke
2 1 7 1 7 1 7 2 7 0 7 0 7 -1 7 -3 
2 -1 1809 1603 10 MP stroke
1 1 7 2 7 1 7 0 7 0 7 -1 7 -1 6 -2 
1896 1603 9 MP stroke
3 2 7 2 7 1 7 -1 7 -2 6 -2 1973 1603 7 MP stroke
6 -5 2029 1603 2 MP stroke
/c12 { 0.750000 0.000000 0.750000 sr} bdef
c12
1 6 7 45 7 58 7 61 7 54 7 44 7 33 7 18 
7 4 7 -12 7 -24 7 -25 7 -16 7 4 7 33 7 63 
7 81 7 85 7 75 7 53 7 16 7 -32 7 -95 7 -169 
7 -258 292 1501 26 MP stroke
5 12 7 29 7 40 7 46 7 51 7 52 7 50 7 43 
7 32 7 15 7 -8 7 -34 7 -63 7 -79 7 -82 7 -69 
6 -35 475 1603 18 MP stroke
1 3 7 19 7 24 7 27 7 31 7 35 7 40 7 46 
7 50 7 51 7 49 7 42 7 32 7 20 7 12 7 7 
7 5 7 9 7 13 7 17 7 18 7 19 7 15 7 11 
7 5 7 -2 7 -10 7 -19 7 -30 7 -39 7 -45 7 -50 
7 -52 7 -52 7 -50 7 -47 7 -43 7 -39 7 -33 7 -28 
7 -21 7 -15 7 -8 7 -1 7 6 7 13 7 21 7 28 
7 35 7 41 7 45 7 45 7 43 7 36 7 26 7 17 
7 5 7 -4 7 -15 7 -24 7 -34 7 -39 7 -41 7 -42 
7 -40 7 -35 7 -30 7 -25 7 -19 7 -14 7 -7 7 1 
7 7 7 16 7 24 7 32 7 39 7 44 7 45 7 45 
7 43 7 36 7 28 7 15 7 -1 7 -18 7 -34 7 -44 
7 -46 7 -42 7 -31 7 -16 7 2 7 23 7 45 7 70 
7 93 7 103 7 99 7 80 7 49 7 8 7 -29 7 -56 
7 -75 7 -87 7 -90 7 -88 7 -83 7 -75 7 -61 7 -45 
7 -28 3 -6 604 1603 115 MP stroke
5 23 7 41 7 47 7 51 7 50 7 47 7 41 7 33 
7 25 7 15 7 4 7 -6 7 -11 7 -13 7 -10 7 -2 
7 7 7 10 7 6 7 -5 7 -23 7 -45 7 -61 7 -67 
7 -65 7 -53 7 -34 3 -5 1409 1603 29 MP stroke
6 34 7 49 7 55 7 57 7 53 7 44 8 33 6 19 
7 1 7 -20 7 -40 7 -56 7 -62 7 -63 7 -54 7 -41 
3 -9 1626 1603 18 MP stroke
3 5 7 9 7 6 7 0 7 -8 6 -12 1770 1603 7 MP stroke
6 4 7 3 7 2 7 -1 7 -4 5 -4 1841 1603 7 MP stroke
5 2 7 1 7 1 7 0 7 0 7 -2 5 -2 1911 1603 8 MP stroke
7 -1 7 0 7 1 7 0 7 0 7 0 7 0 7 -1 
2 -1 1977 1603 10 MP stroke
/c13 { 0.750000 0.750000 0.000000 sr} bdef
c13
4 22 7 60 7 91 7 112 7 121 7 119 7 104 7 82 
7 61 7 49 7 43 7 45 7 53 7 59 7 59 7 53 
7 39 7 21 7 -1 7 -23 7 -45 7 -68 7 -90 7 -109 
7 -115 7 -112 7 -96 7 -70 7 -38 7 -14 7 0 7 4 
7 -2 7 -15 7 -25 7 -30 7 -28 7 -23 7 -11 7 1 
7 10 7 17 7 23 7 27 7 28 7 28 7 27 7 22 
7 17 7 10 7 3 7 -4 7 -11 7 -19 7 -27 7 -32 
7 -38 7 -42 7 -46 7 -47 7 -47 7 -44 7 -40 7 -33 
7 -24 7 -17 7 -10 7 -6 7 -2 7 -2 7 0 7 0 
7 2 7 4 7 5 7 8 7 13 7 20 7 29 7 40 
7 51 7 60 7 64 7 68 7 66 7 63 7 55 7 45 
7 30 7 12 7 -8 7 -27 7 -45 7 -59 7 -71 7 -80 
7 -82 7 -76 7 -58 7 -32 7 4 7 40 7 71 7 96 
7 115 7 128 7 134 7 129 7 113 7 86 7 48 7 3 
7 -38 7 -76 7 -110 7 -140 292 899 117 MP stroke
2 1 7 2 7 1 7 2 7 1 7 1 7 1 7 0 
7 0 7 0 7 0 7 -1 7 0 8 0 6 0 7 1 
7 2 7 3 7 4 7 6 7 8 7 10 7 13 7 15 
7 18 7 20 7 22 7 25 7 25 7 27 7 26 7 25 
7 22 7 21 7 18 7 16 7 14 7 11 7 9 7 6 
7 3 7 1 7 -2 7 -5 7 -6 7 -7 7 -8 7 -6 
7 -4 7 -3 7 -2 7 -1 7 0 7 0 7 0 7 1 
7 3 7 6 7 8 7 11 7 10 7 7 7 2 7 -5 
7 -13 7 -21 7 -27 7 -33 7 -39 7 -41 7 -39 7 -33 
7 -22 7 -5 7 16 7 34 7 53 7 69 7 84 7 96 
7 98 7 88 7 64 7 29 7 -18 7 -60 7 -89 7 -104 
7 -105 7 -92 7 -76 7 -59 7 -47 7 -38 7 -30 6 -18 
1119 1603 97 MP stroke
7 1 7 0 7 0 7 -1 7 0 7 0 7 0 7 1 
7 0 7 0 7 0 7 0 7 -1 7 0 7 0 7 0 
7 0 7 0 7 1 7 0 7 0 7 1 7 0 7 0 
7 0 7 -1 7 -1 6 -1 1840 1603 29 MP stroke
0.25 sg
6 3 7 1 7 1 7 2 7 1 7 3 7 4 7 9 
7 16 7 29 7 43 7 63 7 80 7 91 7 94 7 89 
7 76 7 58 7 38 7 14 7 -12 7 -39 7 -66 7 -85 
7 -90 7 -85 7 -68 7 -41 7 -11 7 18 7 46 7 74 
7 101 7 120 7 131 7 130 7 120 7 100 7 74 7 48 
7 21 7 -7 7 -36 7 -61 7 -80 7 -88 7 -90 7 -83 
7 -69 7 -57 7 -47 7 -40 7 -34 7 -32 7 -30 7 -32 
7 -34 7 -39 7 -45 7 -49 7 -51 7 -47 7 -42 7 -33 
7 -22 7 -11 7 1 7 12 7 24 7 34 7 42 7 46 
7 47 7 45 7 40 7 32 7 20 7 7 7 -10 292 1221 80 MP stroke
1 1 7 1 7 1 7 0 7 0 7 -1 7 0 7 2 
7 5 7 9 7 14 7 21 7 29 7 39 7 49 7 58 
7 58 7 51 7 37 7 15 7 -8 7 -27 7 -40 7 -47 
7 -51 7 -48 7 -45 7 -39 7 -33 7 -25 7 -15 7 -9 
5 -2 854 1603 34 MP stroke
6 2 7 3 7 5 7 7 7 11 7 14 7 17 7 20 
7 24 7 27 7 30 7 33 7 36 7 39 7 41 7 42 
7 42 7 41 7 38 7 35 7 30 7 24 7 18 7 12 
7 6 7 -2 7 -8 7 -16 7 -24 7 -31 7 -38 7 -44 
7 -46 7 -47 7 -46 7 -41 7 -36 7 -29 7 -23 7 -14 
7 -4 7 4 7 13 7 21 7 28 7 34 7 38 7 40 
7 37 7 31 7 23 7 12 7 4 7 0 7 -3 7 -2 
7 0 7 1 7 1 7 -2 7 -6 7 -13 7 -19 7 -26 
7 -32 7 -39 7 -46 7 -50 7 -50 7 -47 7 -39 7 -29 
7 -16 7 -9 7 -2 7 1 7 1 7 -1 7 -1 7 -2 
7 -2 3 -1 1094 1603 83 MP stroke
3 1 7 1 7 1 7 1 7 0 7 0 8 -1 6 -1 
7 -1 5 -1 1673 1603 11 MP stroke
7 1 7 0 7 0 7 -1 7 0 7 0 7 0 7 1 
7 0 7 0 7 0 7 0 7 0 7 -1 7 0 7 0 
7 0 7 0 7 1 7 0 7 0 7 0 7 0 7 0 
7 0 7 -1 7 0 7 0 7 0 7 0 7 0 7 1 
7 0 7 0 7 0 7 0 7 0 7 -1 6 -1 1763 1603 40 MP stroke
c8
3 1 7 0 7 0 7 0 7 0 7 0 7 0 7 0 
7 0 7 0 7 1 7 0 7 0 7 0 7 0 7 -1 
7 0 7 0 7 0 7 0 7 1 7 0 7 0 7 0 
7 -1 7 0 7 0 7 0 7 1 7 0 7 0 7 -1 
4 -1 295 1603 34 MP stroke
2 1 7 0 7 1 7 0 7 0 7 0 7 0 7 0 
7 -1 7 0 7 0 7 0 7 1 7 0 7 0 7 -1 
7 0 7 0 7 -1 551 1603 20 MP stroke
4 1 7 2 7 0 7 0 7 0 7 -1 7 -1 5 -1 
693 1603 9 MP stroke
4 3 7 2 7 1 7 -1 7 -1 7 -3 4 -1 771 1603 8 MP stroke
2 10 7 26 7 26 7 19 7 7 7 -4 7 -13 7 -17 
7 -18 7 -15 7 -11 7 -7 4 -3 925 1603 14 MP stroke
5 6 7 7 7 4 7 -2 7 -8 4 -7 1044 1603 7 MP stroke
3 2 7 2 7 2 7 1 7 -2 7 -3 3 -2 1115 1603 8 MP stroke
6 1 7 1 7 1 7 0 7 0 7 0 7 -2 4 -1 
1184 1603 9 MP stroke
7 0 7 0 7 0 7 0 7 0 7 0 7 0 7 0 
7 0 7 1 7 0 7 0 7 0 7 0 7 0 7 0 
7 0 7 0 7 0 7 0 7 0 7 0 7 0 7 0 
7 0 7 0 7 0 7 0 7 0 7 0 7 0 7 0 
7 0 7 0 7 0 7 0 7 0 7 0 7 0 7 0 
7 0 7 0 7 0 7 0 7 0 7 0 7 0 7 0 
8 -1 6 0 7 0 7 0 7 0 7 1 7 0 7 0 
7 0 7 0 7 -1 7 0 7 0 7 0 7 0 7 0 
7 1 7 0 7 0 7 0 7 -1 7 0 7 0 7 0 
7 0 7 0 7 1 7 0 7 0 7 0 7 0 7 -1 
7 0 7 0 7 0 7 0 7 1 7 0 7 0 7 0 
7 0 7 -1 7 0 7 0 7 0 7 0 7 1 7 0 
7 0 7 0 7 0 7 0 7 -1 7 0 7 0 7 0 
7 0 7 1 7 0 7 0 7 0 7 0 7 -1 7 0 
5 -1 1246 1603 114 MP stroke
c9
6 18 7 37 7 56 7 76 7 92 7 107 7 120 7 123 
7 98 7 41 7 -46 7 -165 292 1046 13 MP stroke
4 1 7 5 7 9 7 14 7 20 7 27 7 35 7 44 
7 55 7 63 7 68 7 69 7 66 7 59 7 48 7 36 
7 21 7 4 7 -14 7 -33 7 -48 7 -59 7 -65 7 -67 
7 -64 7 -59 7 -53 7 -45 7 -36 7 -25 7 -14 7 -2 
7 10 7 23 7 37 7 48 7 52 7 52 7 45 7 34 
7 17 7 3 7 -10 7 -23 7 -35 7 -43 7 -49 7 -51 
7 -48 7 -42 7 -31 7 -22 7 -14 7 -8 7 -3 7 1 
7 2 7 3 7 1 7 -1 7 -4 4 -4 393 1603 63 MP stroke
0 1 7 4 7 2 7 0 7 -1 7 -2 7 -2 7 -2 
831 1603 9 MP stroke
2 4 7 28 7 43 7 53 7 59 7 59 7 55 7 43 
7 27 7 6 7 -16 7 -32 7 -43 7 -49 7 -50 7 -47 
7 -42 7 -37 7 -30 7 -20 7 -11 901 1603 22 MP stroke
2 5 7 32 7 48 7 63 7 79 7 94 7 107 7 108 
7 95 7 66 7 21 7 -35 7 -84 7 -111 7 -116 7 -98 
7 -60 7 -16 7 15 7 35 7 42 7 37 7 24 7 8 
7 -7 7 -23 7 -41 7 -57 7 -65 7 -65 7 -56 7 -38 
4 -7 1051 1603 34 MP stroke
4 4 7 5 7 3 7 1 7 -5 7 -8 1300 1603 7 MP stroke
0 1 7 3 7 2 7 1 7 0 7 -2 7 -2 7 -2 
1 -1 1376 1603 10 MP stroke
0 1 7 25 7 39 7 48 7 54 7 55 7 51 7 44 
7 32 7 18 7 0 7 -23 7 -44 7 -60 7 -65 7 -63 
7 -52 7 -34 7 -18 7 -8 1433 1603 21 MP stroke
3 2 7 2 7 2 7 2 7 0 7 -2 7 -3 7 -1 
7 4 7 11 7 21 7 30 7 39 7 44 7 49 7 50 
7 50 8 43 6 32 7 15 7 -7 7 -31 7 -49 7 -58 
7 -60 7 -53 7 -39 7 -27 7 -19 7 -13 7 -11 7 -13 
6 -10 1588 1603 34 MP stroke
6 2 7 1 7 1 7 0 7 0 7 -1 7 -1 7 -1 
1 -1 1852 1603 10 MP stroke
4 2 7 1 7 1 7 0 7 -1 7 -1 6 -2 1938 1603 8 MP stroke
4 3 7 1 7 -1 7 -2 1 -1 2006 1603 6 MP stroke
c10
0 4 7 41 7 46 7 44 7 35 7 25 7 22 7 28 
7 40 7 62 7 75 7 50 7 -21 7 -137 7 -298 292 1587 16 MP stroke
2 1 7 1 7 2 7 4 7 4 7 6 7 9 7 10 
7 13 7 16 7 18 7 21 7 22 7 25 7 27 7 26 
7 27 7 26 7 24 7 25 7 24 7 26 7 26 7 27 
7 27 7 23 7 17 7 11 7 2 7 -3 7 -7 7 -8 
7 -5 7 -3 7 -3 7 -11 7 -23 7 -40 7 -63 7 -74 
7 -71 7 -53 7 -18 7 29 7 72 7 99 7 106 7 96 
7 69 7 32 7 -1 7 -33 7 -59 7 -84 7 -101 7 -102 
7 -87 7 -53 7 -3 7 56 7 99 7 122 7 122 7 103 
7 65 7 29 7 5 7 -11 7 -16 7 -12 7 -5 7 -3 
7 -2 7 -3 7 -8 7 -13 7 -21 7 -27 7 -37 7 -45 
7 -53 7 -53 7 -49 7 -36 7 -18 7 4 7 17 7 23 
7 19 7 5 7 -14 7 -27 7 -31 7 -25 7 -7 7 17 
7 37 7 43 7 38 7 19 7 -12 7 -42 7 -62 7 -71 
7 -67 7 -55 7 -35 7 -21 7 -9 7 -3 7 1 7 0 
7 0 7 0 7 -1 7 -1 7 -2 7 -1 7 -1 7 0 
7 1 7 4 7 6 7 8 7 11 7 12 7 14 7 15 
7 18 7 18 7 19 7 20 7 21 7 20 7 21 7 20 
7 19 7 18 7 16 7 16 7 15 7 15 7 13 7 11 
7 10 7 7 7 3 7 0 7 -3 7 -6 7 -6 7 -6 
7 -4 7 -3 7 -4 7 -6 7 -10 7 -14 7 -20 7 -21 
7 -21 7 -19 7 -13 7 -9 7 -7 7 -7 7 -12 7 -21 
7 -29 7 -35 7 -34 7 -29 7 -18 7 -5 7 6 7 10 
7 9 7 0 7 -12 7 -21 4 -14 421 1603 182 MP stroke
5 1 7 2 7 1 7 1 7 1 7 1 7 0 7 0 
7 0 7 -1 7 -1 7 -1 7 -1 7 -2 7 -1 1706 1603 16 MP stroke
7 -1 7 0 7 0 7 1 7 0 7 0 7 0 7 0 
7 -1 7 0 7 0 7 0 7 0 7 0 7 0 7 1 
7 0 7 1 7 1 7 0 7 -1 7 0 7 -2 6 -1 
1868 1603 25 MP stroke
gr

c10

end %%Color Dict

eplot
%%EndObject

epage
end

showpage

%%Trailer
%%EOF
