%!PS-Adobe-3.0 EPSF-3.0
%%Creator: MATLAB, The Mathworks, Inc. Version 7.10.0.499 (R2010a). Operating System: Microsoft Windows 7.
%%Title: C:\Users\wwu\Desktop\warping\Ramsay_code\code_0418\comp_wave_mse.eps
%%CreationDate: 05/20/2011  10:57:46
%%DocumentNeededFonts: Helvetica
%%DocumentProcessColors: Cyan Magenta Yellow Black
%%LanguageLevel: 2
%%Pages: 1
%%BoundingBox:   212   320   399   470
%%EndComments

%%BeginProlog
% MathWorks dictionary
/MathWorks 160 dict begin
% definition operators
/bdef {bind def} bind def
/ldef {load def} bind def
/xdef {exch def} bdef
/xstore {exch store} bdef
% operator abbreviations
/c  /clip ldef
/cc /concat ldef
/cp /closepath ldef
/gr /grestore ldef
/gs /gsave ldef
/mt /moveto ldef
/np /newpath ldef
/cm /currentmatrix ldef
/sm /setmatrix ldef
/rm /rmoveto ldef
/rl /rlineto ldef
/s {show newpath} bdef
/sc {setcmykcolor} bdef
/sr /setrgbcolor ldef
/sg /setgray ldef
/w /setlinewidth ldef
/j /setlinejoin ldef
/cap /setlinecap ldef
/rc {rectclip} bdef
/rf {rectfill} bdef
% page state control
/pgsv () def
/bpage {/pgsv save def} bdef
/epage {pgsv restore} bdef
/bplot /gsave ldef
/eplot {stroke grestore} bdef
% orientation switch
/portraitMode 0 def /landscapeMode 1 def /rotateMode 2 def
% coordinate system mappings
/dpi2point 0 def
% font control
/FontSize 0 def
/FMS {/FontSize xstore findfont [FontSize 0 0 FontSize neg 0 0]
  makefont setfont} bdef
/ISOLatin1Encoding where {pop /WindowsLatin1Encoding 256 array bdef
ISOLatin1Encoding WindowsLatin1Encoding copy pop
/.notdef/.notdef/quotesinglbase/florin/quotedblbase/ellipsis/dagger
/daggerdbl/circumflex/perthousand/Scaron/guilsinglleft/OE/.notdef/.notdef
/.notdef/.notdef/quoteleft/quoteright/quotedblleft/quotedblright/bullet
/endash/emdash/tilde/trademark/scaron/guilsinglright/oe/.notdef/.notdef
/Ydieresis WindowsLatin1Encoding 128 32 getinterval astore pop}
{/WindowsLatin1Encoding StandardEncoding bdef} ifelse
/reencode {exch dup where {pop load} {pop StandardEncoding} ifelse
  exch dup 3 1 roll findfont dup length dict begin
  { 1 index /FID ne {def}{pop pop} ifelse } forall
  /Encoding exch def currentdict end definefont pop} bdef
/isroman {findfont /CharStrings get /Agrave known} bdef
/FMSR {3 1 roll 1 index dup isroman {reencode} {pop pop} ifelse
  exch FMS} bdef
/csm {1 dpi2point div -1 dpi2point div scale neg translate
 dup landscapeMode eq {pop -90 rotate}
  {rotateMode eq {90 rotate} if} ifelse} bdef
% line types: solid, dotted, dashed, dotdash
/SO { [] 0 setdash } bdef
/DO { [.5 dpi2point mul 4 dpi2point mul] 0 setdash } bdef
/DA { [6 dpi2point mul] 0 setdash } bdef
/DD { [.5 dpi2point mul 4 dpi2point mul 6 dpi2point mul 4
  dpi2point mul] 0 setdash } bdef
% macros for lines and objects
/L {lineto stroke} bdef
/MP {3 1 roll moveto 1 sub {rlineto} repeat} bdef
/AP {{rlineto} repeat} bdef
/PDlw -1 def
/W {/PDlw currentlinewidth def setlinewidth} def
/PP {closepath eofill} bdef
/DP {closepath stroke} bdef
/MR {4 -2 roll moveto dup  0 exch rlineto exch 0 rlineto
  neg 0 exch rlineto closepath} bdef
/FR {MR stroke} bdef
/PR {MR fill} bdef
/L1i {{currentfile picstr readhexstring pop} image} bdef
/tMatrix matrix def
/MakeOval {newpath tMatrix currentmatrix pop translate scale
0 0 1 0 360 arc tMatrix setmatrix} bdef
/FO {MakeOval stroke} bdef
/PO {MakeOval fill} bdef
/PD {currentlinewidth 2 div 0 360 arc fill
   PDlw -1 eq not {PDlw w /PDlw -1 def} if} def
/FA {newpath tMatrix currentmatrix pop translate scale
  0 0 1 5 -2 roll arc tMatrix setmatrix stroke} bdef
/PA {newpath tMatrix currentmatrix pop	translate 0 0 moveto scale
  0 0 1 5 -2 roll arc closepath tMatrix setmatrix fill} bdef
/FAn {newpath tMatrix currentmatrix pop translate scale
  0 0 1 5 -2 roll arcn tMatrix setmatrix stroke} bdef
/PAn {newpath tMatrix currentmatrix pop translate 0 0 moveto scale
  0 0 1 5 -2 roll arcn closepath tMatrix setmatrix fill} bdef
/vradius 0 def /hradius 0 def /lry 0 def
/lrx 0 def /uly 0 def /ulx 0 def /rad 0 def
/MRR {/vradius xdef /hradius xdef /lry xdef /lrx xdef /uly xdef
  /ulx xdef newpath tMatrix currentmatrix pop ulx hradius add uly
  vradius add translate hradius vradius scale 0 0 1 180 270 arc 
  tMatrix setmatrix lrx hradius sub uly vradius add translate
  hradius vradius scale 0 0 1 270 360 arc tMatrix setmatrix
  lrx hradius sub lry vradius sub translate hradius vradius scale
  0 0 1 0 90 arc tMatrix setmatrix ulx hradius add lry vradius sub
  translate hradius vradius scale 0 0 1 90 180 arc tMatrix setmatrix
  closepath} bdef
/FRR {MRR stroke } bdef
/PRR {MRR fill } bdef
/MlrRR {/lry xdef /lrx xdef /uly xdef /ulx xdef /rad lry uly sub 2 div def
  newpath tMatrix currentmatrix pop ulx rad add uly rad add translate
  rad rad scale 0 0 1 90 270 arc tMatrix setmatrix lrx rad sub lry rad
  sub translate rad rad scale 0 0 1 270 90 arc tMatrix setmatrix
  closepath} bdef
/FlrRR {MlrRR stroke } bdef
/PlrRR {MlrRR fill } bdef
/MtbRR {/lry xdef /lrx xdef /uly xdef /ulx xdef /rad lrx ulx sub 2 div def
  newpath tMatrix currentmatrix pop ulx rad add uly rad add translate
  rad rad scale 0 0 1 180 360 arc tMatrix setmatrix lrx rad sub lry rad
  sub translate rad rad scale 0 0 1 0 180 arc tMatrix setmatrix
  closepath} bdef
/FtbRR {MtbRR stroke } bdef
/PtbRR {MtbRR fill } bdef
/stri 6 array def /dtri 6 array def
/smat 6 array def /dmat 6 array def
/tmat1 6 array def /tmat2 6 array def /dif 3 array def
/asub {/ind2 exch def /ind1 exch def dup dup
  ind1 get exch ind2 get sub exch } bdef
/tri_to_matrix {
  2 0 asub 3 1 asub 4 0 asub 5 1 asub
  dup 0 get exch 1 get 7 -1 roll astore } bdef
/compute_transform {
  dmat dtri tri_to_matrix tmat1 invertmatrix 
  smat stri tri_to_matrix tmat2 concatmatrix } bdef
/ds {stri astore pop} bdef
/dt {dtri astore pop} bdef
/db {2 copy /cols xdef /rows xdef mul dup 3 mul string
  currentfile 
  3 index 0 eq {/ASCIIHexDecode filter}
  {/ASCII85Decode filter 3 index 2 eq {/RunLengthDecode filter} if }
  ifelse exch readstring pop
  dup 0 3 index getinterval /rbmap xdef
  dup 2 index dup getinterval /gbmap xdef
  1 index dup 2 mul exch getinterval /bbmap xdef pop pop}bdef
/it {gs np dtri aload pop moveto lineto lineto cp c
  cols rows 8 compute_transform 
  rbmap gbmap bbmap true 3 colorimage gr}bdef
/il {newpath moveto lineto stroke}bdef
currentdict end def
%%EndProlog

%%BeginSetup
MathWorks begin

0 cap

end
%%EndSetup

%%Page: 1 1
%%BeginPageSetup
%%PageBoundingBox:   212   320   399   470
MathWorks begin
bpage
%%EndPageSetup

%%BeginObject: obj1
bplot

/dpi2point 12 def
portraitMode 2544 5640 csm

    0     0  2249  1800 rc
85 dict begin %Colortable dictionary
/c0 { 0.000000 0.000000 0.000000 sr} bdef
/c1 { 1.000000 1.000000 1.000000 sr} bdef
/c2 { 0.900000 0.000000 0.000000 sr} bdef
/c3 { 0.000000 0.820000 0.000000 sr} bdef
/c4 { 0.000000 0.000000 0.800000 sr} bdef
/c5 { 0.910000 0.820000 0.320000 sr} bdef
/c6 { 1.000000 0.260000 0.820000 sr} bdef
/c7 { 0.000000 0.820000 0.820000 sr} bdef
c0
1 j
1 sg
   0    0 2250 1801 rf
6 w
0 1467 1743 0 0 -1467 292 1602 4 MP
PP
-1743 0 0 1467 1743 0 0 -1467 292 1602 5 MP stroke
4 w
DO
SO
6 w
0 sg
 292  135 mt 2035  135 L
 292 1602 mt 2035 1602 L
2035 1602 mt 2035  135 L
 292 1602 mt  292  135 L
 292 1602 mt 2035 1602 L
 292 1602 mt  292  135 L
 292 1602 mt  292 1584 L
 292  135 mt  292  152 L
%%IncludeResource: font Helvetica
/Helvetica /WindowsLatin1Encoding 120 FMSR

 259 1747 mt 
(0) s
 679 1602 mt  679 1584 L
 679  135 mt  679  152 L
 646 1747 mt 
(2) s
1066 1602 mt 1066 1584 L
1066  135 mt 1066  152 L
1033 1747 mt 
(4) s
1454 1602 mt 1454 1584 L
1454  135 mt 1454  152 L
1421 1747 mt 
(6) s
1841 1602 mt 1841 1584 L
1841  135 mt 1841  152 L
1808 1747 mt 
(8) s
 292 1479 mt  309 1479 L
2035 1479 mt 2017 1479 L
 121 1523 mt 
(-1) s
 292 1174 mt  309 1174 L
2035 1174 mt 2017 1174 L
  21 1218 mt 
(-0.5) s
 292  868 mt  309  868 L
2035  868 mt 2017  868 L
 191  912 mt 
(0) s
 292  562 mt  309  562 L
2035  562 mt 2017  562 L
  91  606 mt 
(0.5) s
 292  257 mt  309  257 L
2035  257 mt 2017  257 L
 191  301 mt 
(1) s
 292  135 mt 2035  135 L
 292 1602 mt 2035 1602 L
2035 1602 mt 2035  135 L
 292 1602 mt  292  135 L
gs 292 135 1744 1468 rc
/c8 { 0.000000 0.000000 1.000000 sr} bdef
c8
10 62 10 63 10 61 9 59 10 56 10 50 9 44 10 37 
10 28 9 20 10 10 10 -1 9 -10 10 -20 10 -29 9 -39 
10 -46 10 -53 9 -59 10 -63 10 -67 10 -69 9 -69 10 -69 
10 -67 9 -64 10 -60 10 -55 9 -50 10 -42 10 -36 9 -28 
10 -20 10 -13 9 -4 10 3 10 11 9 19 10 25 10 32 
10 38 9 43 10 48 10 52 9 56 10 57 10 60 9 61 
10 61 10 61 9 60 10 58 10 55 9 53 10 49 10 46 
9 40 10 36 10 31 9 26 10 19 10 14 10 8 9 2 
10 -5 10 -10 9 -16 10 -22 10 -28 9 -33 10 -38 10 -42 
9 -47 10 -50 10 -54 9 -56 10 -59 10 -60 9 -62 10 -62 
10 -61 10 -61 9 -59 10 -57 10 -54 9 -50 10 -46 10 -41 
9 -36 10 -29 10 -23 9 -15 10 -8 10 1 9 9 10 18 
10 27 9 36 10 44 10 53 10 61 9 68 10 74 10 80 
9 84 10 87 10 88 9 86 10 84 10 78 9 71 10 61 
10 49 9 34 10 18 10 1 9 -19 10 -39 10 -58 9 -76 
10 -94 10 -109 10 -119 9 -125 10 -126 10 -122 9 -111 10 -92 
10 -70 9 -42 10 -10 10 25 9 60 10 91 10 117 9 141 
10 153 10 154 9 144 10 125 10 97 10 60 9 17 10 -27 
10 -68 9 -102 10 -132 10 -149 9 -156 10 -148 10 -129 9 -104 
10 -72 10 -35 9 4 10 38 10 68 9 92 10 108 10 118 
10 119 9 114 10 103 10 89 9 72 10 53 10 34 9 17 
10 1 10 -14 9 -27 10 -36 10 -43 9 -49 10 -53 10 -55 
9 -56 10 -54 10 -53 9 -48 292 867 181 MP stroke
/c9 { 0.000000 0.500000 0.000000 sr} bdef
c9
10 62 10 63 10 61 9 59 10 56 10 50 9 44 10 37 
10 28 9 20 10 10 10 -1 9 -10 10 -20 10 -29 9 -38 
10 -46 10 -53 9 -59 10 -64 10 -66 10 -69 9 -70 10 -69 
10 -67 9 -64 10 -60 10 -55 9 -50 10 -42 10 -36 9 -28 
10 -20 10 -13 9 -4 10 3 10 11 9 19 10 26 10 32 
10 38 9 43 10 48 10 53 9 55 10 58 10 60 9 61 
10 61 10 61 9 59 10 58 10 56 9 53 10 49 10 45 
9 41 10 35 10 31 9 25 10 20 10 13 10 8 9 2 
10 -5 10 -10 9 -17 10 -22 10 -27 9 -33 10 -38 10 -42 
9 -47 10 -50 10 -54 9 -56 10 -59 10 -60 9 -61 10 -62 
10 -62 10 -60 9 -59 10 -57 10 -54 9 -51 10 -46 10 -41 
9 -35 10 -30 10 -23 9 -15 10 -8 10 1 9 9 10 18 
10 26 9 36 10 44 10 53 10 60 9 68 10 75 10 80 
9 84 10 87 10 87 9 87 10 84 10 78 9 71 10 62 
10 48 9 35 10 18 10 1 9 -19 10 -39 10 -58 9 -76 
10 -95 10 -109 10 -119 9 -125 10 -126 10 -122 9 -111 10 -92 
10 -70 9 -41 10 -10 10 26 9 60 10 91 10 119 9 140 
10 153 10 154 9 144 10 125 10 96 10 60 9 16 10 -28 
10 -68 9 -103 10 -131 10 -150 9 -155 10 -148 10 -129 9 -103 
10 -72 10 -35 9 4 10 38 10 68 9 91 10 108 10 117 
10 120 9 113 10 103 10 89 9 73 10 53 10 35 9 17 
10 1 10 -14 9 -26 10 -36 10 -44 9 -49 10 -52 10 -55 
9 -56 10 -54 10 -53 9 -50 292 868 181 MP stroke
/c10 { 1.000000 0.000000 0.000000 sr} bdef
c10
10 63 10 64 10 62 9 59 10 56 10 50 9 44 10 36 
10 28 9 18 10 10 10 -1 9 -10 10 -20 10 -29 9 -38 
10 -46 10 -53 9 -58 10 -63 10 -66 10 -69 9 -69 10 -69 
10 -67 9 -64 10 -60 10 -56 9 -49 10 -43 10 -36 9 -29 
10 -21 10 -13 9 -4 10 3 10 11 9 18 10 26 10 32 
10 38 9 43 10 49 10 52 9 56 10 58 10 60 9 61 
10 61 10 61 9 60 10 58 10 56 9 53 10 49 10 45 
9 40 10 36 10 31 9 25 10 19 10 14 10 7 9 2 
10 -5 10 -11 9 -16 10 -22 10 -28 9 -33 10 -37 10 -43 
9 -46 10 -51 10 -53 9 -56 10 -59 10 -60 9 -61 10 -62 
10 -61 10 -61 9 -58 10 -57 10 -54 9 -51 10 -46 10 -41 
9 -36 10 -29 10 -23 9 -16 10 -8 10 1 9 9 10 17 
10 26 9 36 10 44 10 52 10 61 9 68 10 74 10 80 
9 84 10 87 10 88 9 87 10 84 10 78 9 72 10 61 
10 49 9 35 10 18 10 1 9 -19 10 -39 10 -58 9 -77 
10 -95 10 -109 10 -119 9 -125 10 -127 10 -122 9 -110 10 -93 
10 -69 9 -41 10 -9 10 26 9 61 10 92 10 119 9 141 
10 152 10 154 9 144 10 124 10 96 10 59 9 16 10 -28 
10 -68 9 -103 10 -131 10 -150 9 -155 10 -147 10 -129 9 -103 
10 -73 10 -35 9 4 10 38 10 67 9 91 10 108 10 117 
10 119 9 114 10 103 10 89 9 73 10 54 10 35 9 17 
10 1 10 -14 9 -26 10 -36 10 -44 9 -49 10 -53 10 -54 
9 -56 10 -54 10 -53 9 -50 292 868 181 MP stroke
/c11 { 0.000000 0.750000 0.750000 sr} bdef
c11
10 64 10 63 10 62 9 60 10 55 10 50 9 44 10 36 
10 28 9 18 10 10 10 -1 9 -10 10 -20 10 -29 9 -38 
10 -45 10 -53 9 -58 10 -63 10 -66 10 -69 9 -69 10 -69 
10 -67 9 -64 10 -61 10 -55 9 -50 10 -43 10 -36 9 -29 
10 -21 10 -13 9 -4 10 3 10 11 9 19 10 25 10 33 
10 38 9 44 10 48 10 52 9 56 10 59 10 60 9 61 
10 61 10 61 9 60 10 58 10 56 9 52 10 49 10 45 
9 41 10 35 10 31 9 25 10 19 10 13 10 7 9 2 
10 -5 10 -11 9 -16 10 -23 10 -27 9 -33 10 -38 10 -42 
9 -47 10 -50 10 -53 9 -56 10 -59 10 -59 9 -61 10 -62 
10 -61 10 -61 9 -58 10 -57 10 -54 9 -50 10 -46 10 -42 
9 -36 10 -29 10 -23 9 -16 10 -8 10 0 9 8 10 17 
10 26 9 35 10 44 10 52 10 61 9 67 10 75 10 80 
9 84 10 87 10 88 9 87 10 84 10 79 9 72 10 62 
10 49 9 35 10 18 10 1 9 -19 10 -39 10 -58 9 -78 
10 -95 10 -109 10 -120 9 -125 10 -127 10 -122 9 -110 10 -92 
10 -69 9 -40 10 -9 10 27 9 62 10 92 10 120 9 141 
10 153 10 154 9 143 10 123 10 95 10 59 9 15 10 -29 
10 -68 9 -103 10 -131 10 -149 9 -155 10 -147 10 -129 9 -103 
10 -72 10 -36 9 3 10 38 10 67 9 90 10 108 10 117 
10 119 9 114 10 103 10 90 9 73 10 54 10 35 9 18 
10 1 10 -13 9 -26 10 -36 10 -44 9 -49 10 -53 10 -55 
9 -55 10 -55 10 -52 9 -51 292 868 181 MP stroke
/c12 { 0.750000 0.000000 0.750000 sr} bdef
c12
10 64 10 63 10 62 9 59 10 56 10 50 9 43 10 37 
10 27 9 19 10 10 10 -1 9 -10 10 -20 10 -28 9 -38 
10 -45 10 -53 9 -58 10 -63 10 -66 10 -68 9 -70 10 -69 
10 -67 9 -64 10 -61 10 -56 9 -50 10 -43 10 -36 9 -29 
10 -21 10 -13 9 -4 10 3 10 11 9 19 10 26 10 33 
10 38 9 44 10 49 10 53 9 56 10 58 10 61 9 61 
10 61 10 61 9 60 10 58 10 56 9 52 10 49 10 45 
9 40 10 35 10 30 9 25 10 18 10 13 10 7 9 2 
10 -5 10 -11 9 -17 10 -22 10 -28 9 -33 10 -38 10 -42 
9 -46 10 -50 10 -53 9 -56 10 -58 10 -60 9 -61 10 -61 
10 -61 10 -60 9 -59 10 -57 10 -53 9 -51 10 -46 10 -41 
9 -36 10 -30 10 -24 9 -16 10 -8 10 -1 9 9 10 16 
10 26 9 34 10 44 10 52 10 60 9 67 10 75 10 79 
9 85 10 87 10 88 9 87 10 85 10 79 9 72 10 62 
10 50 9 35 10 19 10 1 9 -19 10 -39 10 -59 9 -77 
10 -96 10 -109 10 -120 9 -127 10 -127 10 -122 9 -110 10 -92 
10 -67 9 -40 10 -8 10 29 9 63 10 93 10 120 9 142 
10 153 10 154 9 143 10 122 10 93 10 58 9 14 10 -30 
10 -69 9 -104 10 -131 10 -149 9 -154 10 -146 10 -128 9 -103 
10 -72 10 -36 9 3 10 37 10 66 9 90 10 107 10 117 
10 119 9 113 10 104 10 90 9 73 10 55 10 36 9 19 
10 2 10 -13 9 -26 10 -36 10 -43 9 -49 10 -54 10 -55 
9 -55 10 -55 10 -53 9 -51 292 868 181 MP stroke
/c13 { 0.750000 0.750000 0.000000 sr} bdef
c13
10 43 10 45 10 48 9 48 10 50 10 49 9 48 10 44 
10 41 9 33 10 25 10 14 9 1 10 -13 10 -31 9 -49 
10 -67 10 -83 9 -99 10 -112 10 -118 10 -119 9 -111 10 -98 
10 -76 9 -46 10 -9 10 29 9 66 10 101 10 133 9 153 
10 159 10 153 9 135 10 106 10 68 9 21 10 -28 10 -70 
10 -107 9 -137 10 -156 10 -162 9 -154 10 -136 10 -110 9 -78 
10 -42 10 -2 9 32 10 64 10 90 9 111 10 125 10 130 
9 130 10 123 10 112 9 98 10 78 10 59 10 39 9 18 
10 -1 10 -20 9 -37 10 -51 10 -62 9 -73 10 -79 10 -84 
9 -86 10 -87 10 -86 9 -83 10 -78 10 -73 9 -66 10 -59 
10 -52 10 -43 9 -35 10 -27 10 -18 9 -10 10 -2 10 5 
9 13 10 19 10 26 9 31 10 36 10 41 9 46 10 48 
10 52 9 54 10 56 10 57 10 58 9 58 10 57 10 57 
9 55 10 53 10 52 9 48 10 45 10 42 9 38 10 34 
10 30 9 24 10 20 10 15 9 9 10 5 10 -2 9 -6 
10 -12 10 -18 10 -22 9 -28 10 -32 10 -38 9 -41 10 -46 
10 -49 9 -52 10 -55 10 -57 9 -58 10 -60 10 -60 9 -59 
10 -59 10 -56 9 -54 10 -51 10 -47 10 -42 9 -37 10 -31 
10 -24 9 -17 10 -9 10 -2 9 7 10 15 10 23 9 32 
10 39 10 47 9 54 10 60 10 65 9 69 10 71 10 73 
10 73 9 72 10 68 10 63 9 57 10 50 10 40 9 30 
10 19 10 7 9 -6 10 -17 10 -29 9 -40 10 -51 10 -59 
9 -66 10 -72 10 -75 9 -76 292 868 181 MP stroke
0.25 sg
10 43 10 46 10 47 9 49 10 50 10 49 9 48 10 44 
10 40 9 34 10 25 10 13 9 1 10 -14 10 -31 9 -49 
10 -67 10 -84 9 -100 10 -112 10 -118 10 -118 9 -112 10 -97 
10 -75 9 -46 10 -8 10 30 9 68 10 102 10 133 9 153 
10 160 10 152 9 134 10 105 10 67 9 20 10 -29 10 -72 
10 -107 9 -138 10 -156 10 -161 9 -154 10 -135 10 -109 9 -78 
10 -41 10 -2 9 33 10 63 10 90 9 111 10 124 10 129 
9 130 10 122 10 113 9 97 10 79 10 60 10 39 9 19 
10 -1 10 -19 9 -35 10 -50 10 -62 9 -72 10 -78 10 -84 
9 -86 10 -87 10 -86 9 -82 10 -79 10 -73 9 -67 10 -60 
10 -52 10 -44 9 -36 10 -27 10 -19 9 -11 10 -2 10 5 
9 12 10 19 10 25 9 31 10 36 10 41 9 46 10 48 
10 52 9 55 10 56 10 57 10 58 9 58 10 58 10 57 
9 56 10 54 10 51 9 49 10 45 10 42 9 38 10 34 
10 29 9 25 10 19 10 15 9 9 10 4 10 -2 9 -7 
10 -13 10 -17 10 -24 9 -28 10 -33 10 -37 9 -42 10 -46 
10 -49 9 -53 10 -55 10 -57 9 -58 10 -59 10 -60 9 -59 
10 -58 10 -56 9 -54 10 -50 10 -47 10 -41 9 -37 10 -30 
10 -24 9 -17 10 -9 10 -2 9 7 10 14 10 23 9 32 
10 38 10 47 9 53 10 59 10 65 9 68 10 72 10 73 
10 72 9 72 10 69 10 63 9 58 10 50 10 41 9 31 
10 19 10 8 9 -5 10 -17 10 -29 9 -41 10 -50 10 -60 
9 -66 10 -72 10 -75 9 -76 292 868 181 MP stroke
c8
10 43 10 45 10 47 9 49 10 49 10 50 9 47 10 45 
10 40 9 33 10 25 10 15 9 1 10 -13 10 -30 9 -48 
10 -66 10 -83 9 -99 10 -111 10 -119 10 -118 9 -113 10 -98 
10 -77 9 -47 10 -9 10 29 9 66 10 101 10 133 9 154 
10 160 10 153 9 135 10 106 10 67 9 20 10 -29 10 -72 
10 -109 9 -138 10 -157 10 -162 9 -154 10 -135 10 -108 9 -77 
10 -40 10 -1 9 35 10 65 10 91 9 111 10 124 10 131 
9 129 10 122 10 112 9 96 10 78 10 59 10 38 9 18 
10 -1 10 -20 9 -36 10 -50 10 -62 9 -72 10 -79 10 -83 
9 -86 10 -87 10 -86 9 -82 10 -78 10 -73 9 -67 10 -59 
10 -52 10 -44 9 -36 10 -27 10 -19 9 -11 10 -2 10 4 
9 12 10 19 10 25 9 31 10 37 10 41 9 45 10 49 
10 52 9 54 10 56 10 57 10 59 9 58 10 58 10 57 
9 56 10 54 10 51 9 49 10 45 10 42 9 38 10 34 
10 30 9 24 10 20 10 14 9 9 10 4 10 -2 9 -7 
10 -13 10 -18 10 -23 9 -29 10 -33 10 -38 9 -42 10 -46 
10 -49 9 -52 10 -56 10 -57 9 -58 10 -59 10 -60 9 -59 
10 -58 10 -56 9 -53 10 -51 10 -46 10 -41 9 -37 10 -30 
10 -24 9 -16 10 -9 10 -2 9 7 10 15 10 23 9 31 
10 39 10 47 9 53 10 60 10 64 9 69 10 72 10 73 
10 73 9 72 10 69 10 63 9 58 10 50 10 40 9 30 
10 19 10 7 9 -6 10 -18 10 -30 9 -41 10 -51 10 -59 
9 -67 10 -71 10 -74 9 -74 292 868 181 MP stroke
c9
10 41 10 45 10 48 9 49 10 49 10 50 9 47 10 45 
10 40 9 33 10 25 10 15 9 1 10 -13 10 -30 9 -48 
10 -66 10 -83 9 -99 10 -111 10 -119 10 -119 9 -112 10 -98 
10 -77 9 -47 10 -9 10 29 9 66 10 101 10 134 9 153 
10 160 10 154 9 134 10 106 10 67 9 20 10 -29 10 -73 
10 -108 9 -138 10 -157 10 -162 9 -154 10 -135 10 -108 9 -77 
10 -40 10 -1 9 35 10 64 10 91 9 112 10 124 10 130 
9 129 10 123 10 111 9 97 10 78 10 59 10 38 9 18 
10 -1 10 -20 9 -36 10 -50 10 -62 9 -72 10 -79 10 -83 
9 -86 10 -87 10 -86 9 -82 10 -78 10 -73 9 -67 10 -60 
10 -51 10 -44 9 -36 10 -27 10 -19 9 -11 10 -2 10 5 
9 12 10 18 10 26 9 31 10 36 10 41 9 45 10 49 
10 52 9 54 10 56 10 58 10 58 9 58 10 58 10 57 
9 56 10 54 10 51 9 49 10 45 10 42 9 38 10 34 
10 29 9 25 10 19 10 15 9 9 10 4 10 -2 9 -7 
10 -13 10 -18 10 -23 9 -28 10 -33 10 -38 9 -42 10 -46 
10 -49 9 -53 10 -55 10 -57 9 -59 10 -59 10 -60 9 -59 
10 -58 10 -56 9 -54 10 -50 10 -46 10 -42 9 -36 10 -30 
10 -24 9 -16 10 -10 10 -1 9 7 10 15 10 24 9 31 
10 39 10 47 9 53 10 60 10 65 9 68 10 72 10 73 
10 73 9 71 10 69 10 64 9 57 10 49 10 41 9 30 
10 19 10 7 9 -6 10 -17 10 -30 9 -41 10 -50 10 -60 
9 -66 10 -72 10 -74 9 -75 292 868 181 MP stroke
gr

c9

end %%Color Dict

eplot
%%EndObject

epage
end

showpage

%%Trailer
%%EOF
