%!PS-Adobe-3.0 EPSF-3.0
%%Creator: MATLAB, The Mathworks, Inc. Version 7.10.0.499 (R2010a). Operating System: Microsoft Windows 7.
%%Title: C:\Users\wwu\Desktop\warping\Ramsay_code\code_0418\comp_gene_mse.eps
%%CreationDate: 05/20/2011  11:28:27
%%DocumentNeededFonts: Helvetica
%%DocumentProcessColors: Cyan Magenta Yellow Black
%%LanguageLevel: 2
%%Pages: 1
%%BoundingBox:   212   320   399   470
%%EndComments

%%BeginProlog
% MathWorks dictionary
/MathWorks 160 dict begin
% definition operators
/bdef {bind def} bind def
/ldef {load def} bind def
/xdef {exch def} bdef
/xstore {exch store} bdef
% operator abbreviations
/c  /clip ldef
/cc /concat ldef
/cp /closepath ldef
/gr /grestore ldef
/gs /gsave ldef
/mt /moveto ldef
/np /newpath ldef
/cm /currentmatrix ldef
/sm /setmatrix ldef
/rm /rmoveto ldef
/rl /rlineto ldef
/s {show newpath} bdef
/sc {setcmykcolor} bdef
/sr /setrgbcolor ldef
/sg /setgray ldef
/w /setlinewidth ldef
/j /setlinejoin ldef
/cap /setlinecap ldef
/rc {rectclip} bdef
/rf {rectfill} bdef
% page state control
/pgsv () def
/bpage {/pgsv save def} bdef
/epage {pgsv restore} bdef
/bplot /gsave ldef
/eplot {stroke grestore} bdef
% orientation switch
/portraitMode 0 def /landscapeMode 1 def /rotateMode 2 def
% coordinate system mappings
/dpi2point 0 def
% font control
/FontSize 0 def
/FMS {/FontSize xstore findfont [FontSize 0 0 FontSize neg 0 0]
  makefont setfont} bdef
/ISOLatin1Encoding where {pop /WindowsLatin1Encoding 256 array bdef
ISOLatin1Encoding WindowsLatin1Encoding copy pop
/.notdef/.notdef/quotesinglbase/florin/quotedblbase/ellipsis/dagger
/daggerdbl/circumflex/perthousand/Scaron/guilsinglleft/OE/.notdef/.notdef
/.notdef/.notdef/quoteleft/quoteright/quotedblleft/quotedblright/bullet
/endash/emdash/tilde/trademark/scaron/guilsinglright/oe/.notdef/.notdef
/Ydieresis WindowsLatin1Encoding 128 32 getinterval astore pop}
{/WindowsLatin1Encoding StandardEncoding bdef} ifelse
/reencode {exch dup where {pop load} {pop StandardEncoding} ifelse
  exch dup 3 1 roll findfont dup length dict begin
  { 1 index /FID ne {def}{pop pop} ifelse } forall
  /Encoding exch def currentdict end definefont pop} bdef
/isroman {findfont /CharStrings get /Agrave known} bdef
/FMSR {3 1 roll 1 index dup isroman {reencode} {pop pop} ifelse
  exch FMS} bdef
/csm {1 dpi2point div -1 dpi2point div scale neg translate
 dup landscapeMode eq {pop -90 rotate}
  {rotateMode eq {90 rotate} if} ifelse} bdef
% line types: solid, dotted, dashed, dotdash
/SO { [] 0 setdash } bdef
/DO { [.5 dpi2point mul 4 dpi2point mul] 0 setdash } bdef
/DA { [6 dpi2point mul] 0 setdash } bdef
/DD { [.5 dpi2point mul 4 dpi2point mul 6 dpi2point mul 4
  dpi2point mul] 0 setdash } bdef
% macros for lines and objects
/L {lineto stroke} bdef
/MP {3 1 roll moveto 1 sub {rlineto} repeat} bdef
/AP {{rlineto} repeat} bdef
/PDlw -1 def
/W {/PDlw currentlinewidth def setlinewidth} def
/PP {closepath eofill} bdef
/DP {closepath stroke} bdef
/MR {4 -2 roll moveto dup  0 exch rlineto exch 0 rlineto
  neg 0 exch rlineto closepath} bdef
/FR {MR stroke} bdef
/PR {MR fill} bdef
/L1i {{currentfile picstr readhexstring pop} image} bdef
/tMatrix matrix def
/MakeOval {newpath tMatrix currentmatrix pop translate scale
0 0 1 0 360 arc tMatrix setmatrix} bdef
/FO {MakeOval stroke} bdef
/PO {MakeOval fill} bdef
/PD {currentlinewidth 2 div 0 360 arc fill
   PDlw -1 eq not {PDlw w /PDlw -1 def} if} def
/FA {newpath tMatrix currentmatrix pop translate scale
  0 0 1 5 -2 roll arc tMatrix setmatrix stroke} bdef
/PA {newpath tMatrix currentmatrix pop	translate 0 0 moveto scale
  0 0 1 5 -2 roll arc closepath tMatrix setmatrix fill} bdef
/FAn {newpath tMatrix currentmatrix pop translate scale
  0 0 1 5 -2 roll arcn tMatrix setmatrix stroke} bdef
/PAn {newpath tMatrix currentmatrix pop translate 0 0 moveto scale
  0 0 1 5 -2 roll arcn closepath tMatrix setmatrix fill} bdef
/vradius 0 def /hradius 0 def /lry 0 def
/lrx 0 def /uly 0 def /ulx 0 def /rad 0 def
/MRR {/vradius xdef /hradius xdef /lry xdef /lrx xdef /uly xdef
  /ulx xdef newpath tMatrix currentmatrix pop ulx hradius add uly
  vradius add translate hradius vradius scale 0 0 1 180 270 arc 
  tMatrix setmatrix lrx hradius sub uly vradius add translate
  hradius vradius scale 0 0 1 270 360 arc tMatrix setmatrix
  lrx hradius sub lry vradius sub translate hradius vradius scale
  0 0 1 0 90 arc tMatrix setmatrix ulx hradius add lry vradius sub
  translate hradius vradius scale 0 0 1 90 180 arc tMatrix setmatrix
  closepath} bdef
/FRR {MRR stroke } bdef
/PRR {MRR fill } bdef
/MlrRR {/lry xdef /lrx xdef /uly xdef /ulx xdef /rad lry uly sub 2 div def
  newpath tMatrix currentmatrix pop ulx rad add uly rad add translate
  rad rad scale 0 0 1 90 270 arc tMatrix setmatrix lrx rad sub lry rad
  sub translate rad rad scale 0 0 1 270 90 arc tMatrix setmatrix
  closepath} bdef
/FlrRR {MlrRR stroke } bdef
/PlrRR {MlrRR fill } bdef
/MtbRR {/lry xdef /lrx xdef /uly xdef /ulx xdef /rad lrx ulx sub 2 div def
  newpath tMatrix currentmatrix pop ulx rad add uly rad add translate
  rad rad scale 0 0 1 180 360 arc tMatrix setmatrix lrx rad sub lry rad
  sub translate rad rad scale 0 0 1 0 180 arc tMatrix setmatrix
  closepath} bdef
/FtbRR {MtbRR stroke } bdef
/PtbRR {MtbRR fill } bdef
/stri 6 array def /dtri 6 array def
/smat 6 array def /dmat 6 array def
/tmat1 6 array def /tmat2 6 array def /dif 3 array def
/asub {/ind2 exch def /ind1 exch def dup dup
  ind1 get exch ind2 get sub exch } bdef
/tri_to_matrix {
  2 0 asub 3 1 asub 4 0 asub 5 1 asub
  dup 0 get exch 1 get 7 -1 roll astore } bdef
/compute_transform {
  dmat dtri tri_to_matrix tmat1 invertmatrix 
  smat stri tri_to_matrix tmat2 concatmatrix } bdef
/ds {stri astore pop} bdef
/dt {dtri astore pop} bdef
/db {2 copy /cols xdef /rows xdef mul dup 3 mul string
  currentfile 
  3 index 0 eq {/ASCIIHexDecode filter}
  {/ASCII85Decode filter 3 index 2 eq {/RunLengthDecode filter} if }
  ifelse exch readstring pop
  dup 0 3 index getinterval /rbmap xdef
  dup 2 index dup getinterval /gbmap xdef
  1 index dup 2 mul exch getinterval /bbmap xdef pop pop}bdef
/it {gs np dtri aload pop moveto lineto lineto cp c
  cols rows 8 compute_transform 
  rbmap gbmap bbmap true 3 colorimage gr}bdef
/il {newpath moveto lineto stroke}bdef
currentdict end def
%%EndProlog

%%BeginSetup
MathWorks begin

0 cap

end
%%EndSetup

%%Page: 1 1
%%BeginPageSetup
%%PageBoundingBox:   212   320   399   470
MathWorks begin
bpage
%%EndPageSetup

%%BeginObject: obj1
bplot

/dpi2point 12 def
portraitMode 2544 5640 csm

    0     0  2249  1800 rc
85 dict begin %Colortable dictionary
/c0 { 0.000000 0.000000 0.000000 sr} bdef
/c1 { 1.000000 1.000000 1.000000 sr} bdef
/c2 { 0.900000 0.000000 0.000000 sr} bdef
/c3 { 0.000000 0.820000 0.000000 sr} bdef
/c4 { 0.000000 0.000000 0.800000 sr} bdef
/c5 { 0.910000 0.820000 0.320000 sr} bdef
/c6 { 1.000000 0.260000 0.820000 sr} bdef
/c7 { 0.000000 0.820000 0.820000 sr} bdef
c0
1 j
1 sg
   0    0 2250 1801 rf
6 w
0 1467 1743 0 0 -1467 292 1602 4 MP
PP
-1743 0 0 1467 1743 0 0 -1467 292 1602 5 MP stroke
4 w
DO
SO
6 w
0 sg
 292  135 mt 2035  135 L
 292 1602 mt 2035 1602 L
2035 1602 mt 2035  135 L
 292 1602 mt  292  135 L
 292 1602 mt 2035 1602 L
 292 1602 mt  292  135 L
 292 1602 mt  292 1584 L
 292  135 mt  292  152 L
%%IncludeResource: font Helvetica
/Helvetica /WindowsLatin1Encoding 120 FMSR

 259 1747 mt 
(0) s
1024 1602 mt 1024 1584 L
1024  135 mt 1024  152 L
 958 1747 mt 
(50) s
1756 1602 mt 1756 1584 L
1756  135 mt 1756  152 L
1656 1747 mt 
(100) s
 292 1468 mt  309 1468 L
2035 1468 mt 2017 1468 L
 121 1512 mt 
(-2) s
 292 1201 mt  309 1201 L
2035 1201 mt 2017 1201 L
 121 1245 mt 
(-1) s
 292  935 mt  309  935 L
2035  935 mt 2017  935 L
 191  979 mt 
(0) s
 292  668 mt  309  668 L
2035  668 mt 2017  668 L
 191  712 mt 
(1) s
 292  401 mt  309  401 L
2035  401 mt 2017  401 L
 191  445 mt 
(2) s
 292  135 mt  309  135 L
2035  135 mt 2017  135 L
 191  179 mt 
(3) s
 292  135 mt 2035  135 L
 292 1602 mt 2035 1602 L
2035 1602 mt 2035  135 L
 292 1602 mt  292  135 L
gs 292 135 1744 1468 rc
/c8 { 0.000000 0.000000 1.000000 sr} bdef
c8
35 -62 34 -29 34 -38 34 -22 34 -22 35 -17 34 -12 34 -10 
34 -7 34 -6 34 -4 35 -6 34 -5 34 -3 34 4 34 15 
34 26 35 31 34 29 34 20 34 2 34 -13 35 -10 34 9 
34 26 34 27 34 5 34 -29 35 -38 34 -22 34 -1 34 8 
34 4 34 -4 35 -15 34 -22 34 -25 34 -26 34 -24 35 -21 
34 -14 34 -11 34 0 34 7 34 18 35 25 34 28 34 22 
34 -13 34 99 34 -336 292 1224 52 MP stroke
/c9 { 0.000000 0.500000 0.000000 sr} bdef
c9
35 98 34 -117 34 -37 34 0 34 -47 35 -37 34 -31 34 -18 
34 1 34 -10 34 -31 35 -37 34 -4 34 30 34 31 34 10 
34 7 35 34 34 64 34 69 34 52 34 27 35 9 34 2 
34 0 34 -2 34 -8 34 -19 35 -35 34 -43 34 -44 34 -30 
34 -5 34 15 35 20 34 2 34 -36 34 -69 34 -72 35 -44 
34 8 34 17 34 -15 34 -76 34 -32 35 122 34 214 34 124 
34 -128 34 32 34 -78 292 935 52 MP stroke
/c10 { 1.000000 0.000000 0.000000 sr} bdef
c10
35 -99 34 81 34 35 34 -26 34 -52 35 -53 34 -47 34 -36 
34 -23 34 -7 34 12 35 29 34 39 34 37 34 26 34 -3 
34 -29 35 -38 34 -19 34 32 34 80 34 83 35 27 34 -39 
34 -44 34 11 34 61 34 45 35 -20 34 -72 34 -85 34 -59 
34 -24 34 -3 35 1 34 -4 34 -18 34 -31 34 -36 35 -36 
34 -31 34 -16 34 -1 34 11 34 14 35 5 34 -15 34 -7 
34 95 34 149 34 -246 292 1146 52 MP stroke
/c11 { 0.000000 0.750000 0.750000 sr} bdef
c11
35 -155 34 92 34 -78 34 -33 34 11 35 -10 34 -16 34 -5 
34 -15 34 -31 34 -35 35 -38 34 -27 34 6 34 38 34 57 
34 50 35 43 34 71 34 118 34 103 34 18 35 -4 34 62 
34 81 34 20 34 -40 34 -72 35 -81 34 -68 34 -48 34 -36 
34 -35 34 -36 35 -43 34 -45 34 -44 34 -39 34 -32 35 -23 
34 -14 34 -3 34 5 34 11 34 18 35 20 34 22 34 24 
34 41 34 10 34 -355 292 1362 52 MP stroke
/c12 { 0.750000 0.000000 0.750000 sr} bdef
c12
35 -24 34 96 34 67 34 -20 34 -47 35 -57 34 -55 34 -41 
34 -26 34 -10 34 1 35 12 34 20 34 26 34 29 34 28 
34 29 35 31 34 39 34 51 34 59 34 46 35 3 34 -24 
34 22 34 74 34 34 34 -59 35 -96 34 -60 34 -18 34 -5 
34 -12 34 -29 35 -38 34 -42 34 -41 34 -37 34 -33 35 -29 
34 -23 34 -18 34 -12 34 -5 34 6 35 17 34 38 34 74 
34 119 34 103 34 -217 292 1065 52 MP stroke
/c13 { 0.750000 0.750000 0.000000 sr} bdef
c13
35 161 34 28 34 -57 34 -63 34 -27 35 9 34 29 34 13 
34 -59 34 -58 34 -3 35 17 34 76 34 39 34 -70 34 3 
34 -51 35 56 34 -4 34 81 34 -28 34 54 35 17 34 -49 
34 31 34 29 34 -16 34 -16 35 -30 34 -19 34 -17 34 -10 
34 -8 34 -6 35 -4 34 -4 34 -2 34 -3 34 -2 35 -1 
34 -2 34 -2 34 -1 34 -2 34 -2 35 -3 34 -5 34 -4 
34 -12 34 -33 34 -109 292 1133 52 MP stroke
0.25 sg
35 32 34 41 34 -23 34 -38 34 -34 35 -29 34 -26 34 -22 
34 -19 34 -16 34 -15 35 -11 34 -8 34 -5 34 0 34 9 
34 22 35 48 34 75 34 90 34 15 34 -83 35 -56 34 77 
34 30 34 -45 34 22 34 2 35 -68 34 -21 34 12 34 21 
34 6 34 -6 35 -19 34 -25 34 -26 34 -24 34 -21 35 -17 
34 -14 34 -11 34 -6 34 -2 34 5 35 14 34 33 34 49 
34 62 34 8 34 -404 292 1317 52 MP stroke
c8
35 562 34 3 34 -189 34 -186 34 -116 35 29 34 157 34 138 
34 -51 34 -208 34 -149 35 32 34 151 34 136 34 60 34 -12 
34 -55 35 -74 34 -53 34 15 34 99 34 147 35 127 34 48 
34 -37 34 -87 34 -85 34 -45 35 -5 34 15 34 9 34 -19 
34 -54 34 -79 35 -91 34 -91 34 -82 34 -70 34 -64 35 -62 
34 -65 34 -66 34 -51 34 -15 34 50 35 128 34 182 34 208 
34 152 34 15 34 -570 292 1376 52 MP stroke
c9
35 81 34 -88 34 7 34 -51 34 -15 35 -32 34 -42 34 -30 
34 -35 34 -26 34 -18 35 3 34 18 34 34 34 40 34 38 
34 18 35 0 34 -1 34 30 34 81 34 97 35 65 34 24 
34 18 34 23 34 7 34 -22 35 -51 34 -73 34 -80 34 -70 
34 -54 34 -48 35 -52 34 -64 34 -81 34 -88 34 -84 35 -71 
34 -48 34 -17 34 18 34 44 34 57 35 44 34 2 34 -51 
34 50 34 213 34 -544 292 1595 52 MP stroke
c10
35 -19 34 115 34 -71 34 -65 34 -11 35 1 34 3 34 2 
34 -1 34 0 34 -1 35 0 34 0 34 0 34 1 34 3 
34 5 35 8 34 12 34 17 34 21 34 25 35 25 34 23 
34 14 34 2 34 -11 34 -25 35 -35 34 -31 34 -7 34 15 
34 2 34 -10 35 -13 34 -36 34 -63 34 -79 34 -54 35 7 
34 24 34 2 34 -3 34 5 34 34 35 34 34 -18 34 -6 
34 31 34 40 34 33 292 952 52 MP stroke
c11
35 12 34 1 34 -21 34 -39 34 -36 35 -29 34 -22 34 -16 
34 -12 34 -8 34 -4 35 1 34 6 34 11 34 15 34 16 
34 11 35 4 34 1 34 16 34 35 34 16 35 -9 34 4 
34 27 34 -1 34 -56 34 -45 35 17 34 32 34 18 34 1 
34 -12 34 -15 35 -15 34 -14 34 -11 34 -10 34 -9 35 -7 
34 -6 34 -6 34 -4 34 -4 34 -2 35 0 34 4 34 6 
34 7 34 -20 34 -112 292 1131 52 MP stroke
c12
35 237 34 -54 34 97 34 -32 34 -8 35 -77 34 -99 34 -90 
34 -97 34 -48 34 -7 35 41 34 68 34 81 34 62 34 36 
34 15 35 4 34 8 34 29 34 66 34 84 35 40 34 -19 
34 12 34 104 34 95 34 -31 35 -136 34 -140 34 -82 34 -34 
34 -16 34 -19 35 -33 34 -45 34 -51 34 -49 34 -45 35 -37 
34 -28 34 -15 34 -2 34 12 34 24 35 34 34 35 34 16 
34 19 34 76 34 15 292 1033 52 MP stroke
c13
35 -139 34 2 34 -74 34 16 34 2 35 -4 34 7 34 -11 
34 -30 34 -40 34 -46 35 -34 34 -6 34 22 34 40 34 44 
34 46 35 59 34 79 34 86 34 69 34 47 35 39 34 35 
34 30 34 17 34 -11 34 -40 35 -56 34 -62 34 -60 34 -57 
34 -56 34 -53 35 -53 34 -49 34 -46 34 -40 34 -33 35 -27 
34 -17 34 -9 34 5 34 17 34 30 35 37 34 38 34 10 
34 -33 34 40 34 -259 292 1317 52 MP stroke
0.25 sg
35 88 34 79 34 -17 34 -77 34 -41 35 1 34 14 34 6 
34 -5 34 -10 34 -4 35 5 34 11 34 11 34 2 34 -10 
34 -16 35 -5 34 20 34 49 34 54 34 31 35 -4 34 -25 
34 -19 34 -3 34 8 34 10 35 5 34 -2 34 -9 34 -17 
34 -23 34 -29 35 -33 34 -33 34 -32 34 -30 34 -25 35 -21 
34 -15 34 -8 34 3 34 9 34 20 35 23 34 22 34 -2 
34 4 34 144 34 -270 292 1164 52 MP stroke
c8
35 -27 34 74 34 16 34 -36 34 -46 35 -40 34 -30 34 -20 
34 -16 34 -11 34 -11 35 -8 34 -6 34 1 34 12 34 28 
34 44 35 53 34 48 34 30 34 7 34 -19 35 -33 34 -19 
34 10 34 27 34 22 34 9 35 -2 34 -12 34 -20 34 -23 
34 -25 34 -26 35 -25 34 -25 34 -24 34 -22 34 -20 35 -18 
34 -16 34 -11 34 -8 34 -2 34 5 35 18 34 33 34 48 
34 54 34 13 34 -137 292 1082 52 MP stroke
c9
35 70 34 52 34 -23 34 -32 34 -18 35 -8 34 -2 34 -1 
34 1 34 1 34 0 35 -1 34 0 34 0 34 1 34 4 
34 7 35 13 34 16 34 19 34 15 34 8 35 1 34 -4 
34 -5 34 0 34 5 34 10 35 9 34 5 34 -1 34 -8 
34 -18 34 -33 35 -47 34 -50 34 -38 34 -14 34 9 35 15 
34 8 34 -13 34 -35 34 -33 34 -4 35 51 34 103 34 82 
34 -23 34 -112 34 -148 292 1159 52 MP stroke
c10
35 119 34 -107 34 76 34 -38 34 -1 35 -40 34 -71 34 -56 
34 -65 34 -32 34 4 35 38 34 55 34 55 34 22 34 -14 
34 -30 35 -9 34 41 34 76 34 80 34 59 35 31 34 3 
34 -7 34 5 34 20 34 12 35 -9 34 -33 34 -49 34 -62 
34 -69 34 -71 35 -67 34 -61 34 -51 34 -41 34 -31 35 -24 
34 -15 34 -11 34 -5 34 -4 34 5 35 3 34 10 34 15 
34 47 34 336 34 -599 292 1442 52 MP stroke
c11
35 30 34 23 34 -64 34 -50 34 15 35 29 34 -9 34 -46 
34 -39 34 -18 34 -14 35 -17 34 -13 34 4 34 24 34 41 
34 44 35 40 34 30 34 20 34 12 34 9 35 5 34 4 
34 3 34 1 34 -2 34 -6 35 -11 34 -15 34 -16 34 -14 
34 -10 34 -13 35 -27 34 -46 34 -51 34 -29 34 -4 35 13 
34 -4 34 -11 34 -9 34 -16 34 16 35 45 34 -9 34 -53 
34 1 34 67 34 76 292 946 52 MP stroke
c12
35 53 34 -55 34 74 34 20 34 6 35 9 34 22 34 30 
34 29 34 28 34 19 35 11 34 1 34 -12 34 -26 34 -40 
34 -44 35 -29 34 -7 34 -11 34 -35 34 -11 35 48 34 33 
34 -30 34 -42 34 -13 34 13 35 22 34 19 34 17 34 14 
34 11 34 9 35 8 34 6 34 5 34 4 34 4 35 3 
34 4 34 3 34 3 34 3 34 4 35 4 34 5 34 7 
34 10 34 22 34 133 292 701 52 MP stroke
c13
35 200 34 141 34 -72 34 -122 34 -6 35 7 34 -51 34 -69 
34 -36 34 6 34 28 35 30 34 21 34 12 34 3 34 -4 
34 -8 35 -4 34 10 34 27 34 45 34 53 35 51 34 42 
34 23 34 -2 34 -36 34 -59 35 -55 34 -22 34 19 34 29 
34 0 34 -46 35 -68 34 -56 34 -28 34 -13 34 -18 35 -29 
34 -28 34 -17 34 7 34 20 34 13 35 27 34 3 34 -54 
34 40 34 72 34 -161 292 1179 52 MP stroke
0.25 sg
35 115 34 -40 34 24 34 -47 34 -30 35 21 34 7 34 -64 
34 -3 34 51 34 -38 35 -50 34 15 34 46 34 53 34 39 
34 17 35 -13 34 -33 34 -31 34 -9 34 21 35 40 34 39 
34 28 34 12 34 -4 34 -17 35 -23 34 -25 34 -24 34 -23 
34 -19 34 -18 35 -15 34 -14 34 -11 34 -11 34 -10 35 -9 
34 -8 34 -8 34 -9 34 -7 34 -10 35 -7 34 -8 34 8 
34 53 34 38 34 50 292 930 52 MP stroke
c8
35 65 34 4 34 -2 34 -31 34 -14 35 -10 34 -9 34 -3 
34 -3 34 -2 34 -2 35 -2 34 -2 34 -1 34 -1 34 1 
34 5 35 10 34 15 34 19 34 18 34 13 35 10 34 3 
34 -3 34 -9 34 -10 34 -9 35 -7 34 -5 34 -5 34 -4 
34 -2 34 -1 35 -1 34 -2 34 -1 34 -2 34 -1 35 -1 
34 -1 34 -1 34 0 34 -1 34 0 35 -1 34 0 34 -2 
34 -4 34 -5 34 -116 292 1072 52 MP stroke
c9
35 -51 34 -83 34 -187 34 -43 34 26 35 35 34 -20 34 -67 
34 -66 34 -38 34 10 35 32 34 33 34 7 34 -21 34 -23 
34 3 35 56 34 91 34 82 34 28 34 -28 35 -33 34 12 
34 61 34 59 34 2 34 -52 35 -60 34 -21 34 19 34 18 
34 -17 34 -71 35 -93 34 -81 34 -36 34 12 34 42 35 38 
34 17 34 -22 34 -34 34 -32 34 1 35 33 34 18 34 -6 
34 -105 34 -20 34 -39 292 1199 52 MP stroke
c10
35 170 34 49 34 40 34 -2 34 -39 35 -46 34 -48 34 -50 
34 -41 34 -25 34 -7 35 10 34 27 34 39 34 37 34 25 
34 15 35 21 34 41 34 23 34 -52 34 -72 35 16 34 88 
34 68 34 13 34 -23 34 -32 35 -28 34 -23 34 -17 34 -14 
34 -10 34 -8 35 -7 34 -6 34 -4 34 -4 34 -4 35 -3 
34 -2 34 -3 34 -3 34 -2 34 -2 35 -3 34 -3 34 -3 
34 -5 34 -8 34 126 292 888 52 MP stroke
c11
35 143 34 62 34 77 34 -11 34 -72 35 -87 34 -74 34 -37 
34 -7 34 11 34 23 35 22 34 15 34 7 34 4 34 5 
34 12 35 26 34 38 34 48 34 54 34 55 35 49 34 34 
34 13 34 -7 34 -21 34 -31 35 -31 34 -25 34 -14 34 -13 
34 -25 34 -52 35 -73 34 -76 34 -54 34 -14 34 23 35 41 
34 28 34 -11 34 -54 34 -68 34 -30 35 46 34 109 34 94 
34 31 34 2 34 77 292 833 52 MP stroke
c12
35 136 34 -29 34 -31 34 30 34 7 35 2 34 9 34 11 
34 14 34 8 34 -1 35 -9 34 -8 34 -1 34 12 34 9 
34 -51 35 13 34 21 34 12 34 -34 34 -21 35 -20 34 -19 
34 -80 34 -59 34 68 34 36 35 7 34 89 34 19 34 14 
34 -3 34 2 35 -2 34 1 34 0 34 0 34 2 35 -1 
34 3 34 -2 34 5 34 -4 34 5 35 2 34 -7 34 28 
34 -34 34 16 34 330 292 585 52 MP stroke
c13
35 22 34 22 34 7 34 5 34 4 35 1 34 2 34 2 
34 2 34 2 34 1 35 2 34 2 34 1 34 2 34 2 
34 2 35 1 34 0 34 -4 34 -12 34 -34 35 -60 34 -92 
34 -62 34 59 34 140 34 70 35 -40 34 -59 34 -18 34 18 
34 38 34 34 35 30 34 23 34 17 34 13 34 9 35 6 
34 4 34 2 34 1 34 -1 34 0 35 -4 34 -8 34 -10 
34 -52 34 -77 34 422 292 582 52 MP stroke
0.25 sg
35 -98 34 82 34 -41 34 -12 34 12 35 22 34 24 34 21 
34 19 34 14 34 11 35 7 34 2 34 -3 34 -10 34 -19 
34 -26 35 -34 34 -39 34 -35 34 -21 34 1 35 22 34 33 
34 21 34 -4 34 -17 34 -11 35 0 34 8 34 13 34 13 
34 11 34 9 35 8 34 6 34 6 34 4 34 4 35 4 
34 3 34 2 34 2 34 2 34 0 35 -1 34 -4 34 -12 
34 -23 34 -19 34 167 292 781 52 MP stroke
c8
35 189 34 -210 34 46 34 13 34 -49 35 -37 34 -17 34 -11 
34 -21 34 -23 34 -6 35 7 34 12 34 22 34 29 34 14 
34 -9 35 -26 34 7 34 82 34 95 34 3 35 -27 34 40 
34 31 34 -38 34 -27 34 6 35 -33 34 -67 34 -29 34 32 
34 51 34 30 35 -5 34 -31 34 -41 34 -41 34 -31 35 -19 
34 -6 34 4 34 12 34 19 34 22 35 17 34 -3 34 -11 
34 30 34 52 34 -323 292 1212 52 MP stroke
c9
35 -59 34 25 34 19 34 5 34 0 35 -10 34 -18 34 -22 
34 -24 34 -24 34 -21 35 -12 34 -1 34 11 34 20 34 24 
34 21 35 17 34 24 34 42 34 46 34 10 35 -31 34 -35 
34 -15 34 -2 34 0 34 -1 35 -4 34 -4 34 -4 34 -4 
34 -3 34 -3 35 -3 34 -3 34 -2 34 -3 34 -1 35 -2 
34 -1 34 -2 34 -3 34 -4 34 0 35 -2 34 -2 34 -2 
34 13 34 12 34 79 292 857 52 MP stroke
c10
35 66 34 -1 34 24 34 -12 34 -17 35 -17 34 -14 34 -2 
34 -7 34 -20 34 -29 35 -21 34 0 34 32 34 58 34 46 
34 -5 35 -33 34 -19 34 15 34 32 34 29 35 16 34 3 
34 -7 34 -11 34 -12 34 -11 35 -10 34 -8 34 -7 34 -6 
34 -6 34 -4 35 -4 34 -3 34 -3 34 -3 34 -2 35 -2 
34 -2 34 -3 34 0 34 -3 34 -2 35 0 34 -5 34 1 
34 -4 34 30 34 -14 292 954 52 MP stroke
c11
35 -55 34 58 34 33 34 -11 34 -28 35 -29 34 -24 34 -19 
34 -14 34 -9 34 -5 35 -1 34 5 34 13 34 20 34 26 
34 26 35 12 34 8 34 50 34 123 34 61 35 -92 34 -107 
34 5 34 64 34 45 34 6 35 -21 34 -31 34 -32 34 -30 
34 -27 34 -23 35 -20 34 -18 34 -15 34 -14 34 -13 35 -11 
34 -11 34 -9 34 -10 34 -8 34 -8 35 -5 34 -2 34 7 
34 33 34 93 34 39 292 936 52 MP stroke
c12
35 -64 34 19 34 23 34 0 34 -16 35 -21 34 -20 34 -17 
34 -12 34 -7 34 -3 35 1 34 7 34 12 34 15 34 16 
34 12 35 1 34 -3 34 3 34 30 34 55 35 52 34 19 
34 -9 34 -17 34 -10 34 -6 35 -10 34 -17 34 -23 34 -26 
34 -24 34 -24 35 -21 34 -18 34 -16 34 -15 34 -11 35 -10 
34 -7 34 -5 34 -1 34 3 34 11 35 16 34 26 34 21 
34 -35 34 17 34 19 292 968 52 MP stroke
c13
35 -89 34 60 34 -127 34 -14 34 -8 35 57 34 46 34 -18 
34 -60 34 -73 34 -13 35 41 34 71 34 35 34 -17 34 -51 
34 -30 35 14 34 44 34 36 34 8 34 -1 35 18 34 41 
34 24 34 -25 34 -58 34 -36 35 29 34 71 34 50 34 -14 
34 -73 34 -85 35 -54 34 -5 34 30 34 34 34 17 35 -13 
34 -28 34 -31 34 -9 34 8 34 30 35 29 34 9 34 13 
34 -38 34 35 34 -100 292 1031 52 MP stroke
0.25 sg
35 53 34 11 34 -74 34 6 34 44 35 35 34 3 34 -29 
34 -26 34 13 34 51 35 38 34 -31 34 -78 34 -18 34 75 
34 52 35 -35 34 -95 34 -59 34 69 34 87 35 -8 34 -64 
34 -52 34 -20 34 4 34 18 35 21 34 18 34 15 34 13 
34 10 34 8 35 7 34 6 34 6 34 4 34 5 35 3 
34 5 34 3 34 5 34 3 34 4 35 4 34 2 34 5 
34 -16 34 -29 34 31 292 872 52 MP stroke
c8
35 145 34 25 34 -40 34 -30 34 -19 35 -14 34 -8 34 -6 
34 -4 34 -3 34 -1 35 -1 34 1 34 2 34 3 34 5 
34 6 35 8 34 9 34 10 34 10 34 6 35 5 34 2 
34 18 34 30 34 34 34 -22 35 -18 34 -15 34 -138 34 101 
34 31 34 -79 35 76 34 -38 34 -30 34 3 34 -14 35 -28 
34 -9 34 7 34 7 34 3 34 2 35 2 34 0 34 1 
34 26 34 47 34 -72 292 990 52 MP stroke
c9
35 34 34 119 34 -82 34 -27 34 -23 35 -5 34 -2 34 -3 
34 3 34 -1 34 4 35 1 34 4 34 5 34 6 34 8 
34 8 35 7 34 0 34 -7 34 -9 34 5 35 31 34 51 
34 47 34 21 34 -3 34 -16 35 -25 34 -36 34 -46 34 -45 
34 -29 34 -11 35 -3 34 -6 34 -10 34 -14 34 -13 35 -13 
34 -10 34 -8 34 -4 34 0 34 5 35 11 34 16 34 15 
34 -11 34 -28 34 75 292 971 52 MP stroke
c10
35 -260 34 16 34 82 34 22 34 -37 35 -54 34 -56 34 -49 
34 -38 34 -23 34 -7 35 5 34 14 34 23 34 31 34 34 
34 34 35 29 34 21 34 11 34 3 34 -6 35 -10 34 -13 
34 -12 34 -4 34 0 34 -1 35 -3 34 -4 34 -1 34 1 
34 2 34 0 35 -5 34 -7 34 -9 34 -8 34 -9 35 -7 
34 -6 34 -6 34 -5 34 -3 34 -3 35 1 34 6 34 17 
34 56 34 15 34 24 292 884 52 MP stroke
c11
35 -142 34 34 34 -16 34 -35 34 -34 35 -28 34 -20 34 -18 
34 -11 34 -7 34 -3 35 1 34 4 34 9 34 12 34 17 
34 15 35 8 34 0 34 7 34 49 34 77 35 2 34 2 
34 60 34 -13 34 -74 34 -19 35 7 34 -3 34 -17 34 -26 
34 -24 34 -22 35 -17 34 -15 34 -12 34 -9 34 -8 35 -6 
34 -6 34 -4 34 -4 34 -3 34 -1 35 0 34 1 34 2 
34 20 34 21 34 -363 292 1342 52 MP stroke
c12
35 -38 34 -6 34 -7 34 -5 34 -3 35 -3 34 -1 34 -2 
34 -1 34 0 34 -1 35 0 34 0 34 1 34 1 34 1 
34 2 35 3 34 3 34 5 34 6 34 8 35 9 34 11 
34 6 34 0 34 -10 34 -9 35 3 34 20 34 8 34 -59 
34 -52 34 -45 35 -33 34 3 34 -88 34 22 34 -81 35 -85 
34 -7 34 36 34 47 34 -34 34 -44 35 83 34 111 34 11 
34 -52 34 -87 34 -91 292 1234 52 MP stroke
c13
35 67 34 -3 34 31 34 -15 34 -17 35 -9 34 -12 34 -16 
34 -12 34 -4 34 0 35 5 34 5 34 -2 34 -17 34 -28 
34 -18 35 8 34 39 34 51 34 107 34 1 35 -120 34 19 
34 45 34 -32 34 -17 34 0 35 10 34 4 34 -4 34 -8 
34 -9 34 -9 35 -9 34 -9 34 -7 34 -7 34 -6 35 -6 
34 -5 34 -5 34 -4 34 -4 34 -2 35 -1 34 3 34 15 
34 36 34 60 34 -108 292 1002 52 MP stroke
0.25 sg
35 -42 34 86 34 -10 34 -35 34 -31 35 -24 34 -17 34 -13 
34 -8 34 -5 34 -2 35 2 34 5 34 8 34 12 34 14 
34 17 35 18 34 17 34 15 34 13 34 11 35 9 34 10 
34 18 34 29 34 24 34 -8 35 -39 34 -35 34 -15 34 -11 
34 -30 34 -46 35 -36 34 -3 34 31 34 38 34 20 35 -18 
34 -47 34 -53 34 -30 34 13 34 47 35 51 34 18 34 -33 
34 -48 34 -34 34 170 292 881 52 MP stroke
c8
35 86 34 -67 34 32 34 -21 34 -5 35 -4 34 3 34 5 
34 -24 34 -37 34 -13 35 34 34 45 34 9 34 -23 34 -26 
34 -16 35 1 34 19 34 28 34 29 34 23 35 12 34 -6 
34 -14 34 2 34 32 34 26 35 -45 34 -87 34 -28 34 39 
34 45 34 14 35 -39 34 -62 34 -43 34 -12 34 3 35 5 
34 14 34 14 34 -16 34 -25 34 10 35 38 34 37 34 11 
34 -22 34 -41 34 -46 292 1053 52 MP stroke
c9
35 71 34 148 34 -51 34 -111 34 -46 35 2 34 9 34 -2 
34 -10 34 -13 34 -10 35 -5 34 4 34 10 34 16 34 20 
34 23 35 24 34 25 34 23 34 24 34 24 35 25 34 27 
34 25 34 19 34 5 34 -13 35 -25 34 -27 34 -30 34 -53 
34 -62 34 -12 35 12 34 -89 34 -93 34 -1 34 17 35 -10 
34 -7 34 -1 34 10 34 4 34 -25 35 20 34 76 34 14 
34 -23 34 -27 34 -43 292 1104 52 MP stroke
c10
35 76 34 -52 34 -91 34 -30 34 -34 35 -68 34 -80 34 -63 
34 -39 34 -18 34 1 35 12 34 17 34 17 34 19 34 25 
34 35 35 46 34 51 34 55 34 54 34 48 35 32 34 11 
34 -3 34 -5 34 5 34 14 35 11 34 -10 34 -40 34 -65 
34 -83 34 -91 35 -88 34 -76 34 -48 34 -25 34 -11 35 -17 
34 -34 34 -41 34 -26 34 5 34 60 35 74 34 75 34 79 
34 -67 34 87 34 -241 292 1235 52 MP stroke
c11
35 -17 34 -18 34 -117 34 -75 34 -40 35 26 34 30 34 -23 
34 -56 34 -61 34 -34 35 -2 34 40 34 68 34 64 34 35 
34 -1 35 -14 34 -8 34 11 34 29 34 39 35 43 34 41 
34 33 34 20 34 -1 34 -21 35 -36 34 -41 34 -38 34 -34 
34 -35 34 -44 35 -57 34 -58 34 -38 34 2 34 34 35 35 
34 -7 34 -49 34 -52 34 -15 34 34 35 46 34 43 34 30 
34 7 34 16 34 -45 292 1013 52 MP stroke
c12
35 28 34 -21 34 -8 34 5 34 -17 35 -10 34 -11 34 -21 
34 -25 34 -25 34 -23 35 -11 34 13 34 34 34 40 34 18 
34 -6 35 7 34 25 34 -6 34 -1 34 58 35 -5 34 -14 
34 44 34 -10 34 -76 34 -35 35 22 34 33 34 22 34 4 
34 -10 34 -18 35 -20 34 -21 34 -19 34 -17 34 -15 35 -15 
34 -11 34 -13 34 -9 34 -11 34 -6 35 -5 34 0 34 28 
34 46 34 59 34 384 292 572 52 MP stroke
c13
35 68 34 64 34 -34 34 -29 34 -19 35 -11 34 -7 34 -5 
34 -3 34 -3 34 -2 35 -1 34 -2 34 -1 34 -1 34 -1 
34 0 35 1 34 5 34 10 34 25 34 53 35 115 34 91 
34 -103 34 -152 34 11 34 80 35 31 34 -8 34 -27 34 -32 
34 -32 34 -27 35 -23 34 -18 34 -15 34 -12 34 -10 35 -9 
34 -8 34 -5 34 -7 34 -2 34 -4 35 4 34 21 34 35 
34 48 34 -44 34 -19 292 1018 52 MP stroke
0.25 sg
35 -15 34 15 34 -64 34 -41 34 8 35 35 34 8 34 -48 
34 -42 34 10 34 39 35 9 34 -18 34 -6 34 9 34 -7 
34 -15 35 15 34 32 34 18 34 9 34 8 35 0 34 -6 
34 -3 34 2 34 -3 34 -12 35 -10 34 0 34 9 34 7 
34 -1 34 -7 35 -14 34 -18 34 -16 34 -11 34 -8 35 -10 
34 -12 34 -11 34 -5 34 3 34 13 35 17 34 13 34 -2 
34 -27 34 -13 34 115 292 906 52 MP stroke
c8
35 92 34 38 34 -10 34 -47 34 -66 35 -52 34 -20 34 9 
34 25 34 23 34 6 35 -8 34 -10 34 2 34 13 34 13 
34 7 35 6 34 12 34 16 34 13 34 9 35 8 34 6 
34 3 34 -2 34 -6 34 -8 35 -9 34 -9 34 -8 34 -8 
34 -8 34 -7 35 -6 34 -6 34 -7 34 -4 34 -9 35 -2 
34 -9 34 -5 34 -4 34 -8 34 6 35 6 34 41 34 40 
34 -72 34 12 34 83 292 877 52 MP stroke
c9
35 28 34 20 34 1 34 -7 34 -12 35 -12 34 -8 34 -11 
34 -8 34 -9 34 -7 35 -7 34 -6 34 -3 34 -1 34 4 
34 12 35 21 34 31 34 46 34 61 34 68 35 53 34 -3 
34 -69 34 -88 34 -56 34 -11 35 25 34 46 34 37 34 13 
34 -17 34 -39 35 -47 34 -46 34 -42 34 -34 34 -26 35 -16 
34 -8 34 -2 34 3 34 6 34 12 35 13 34 4 34 -13 
34 -32 34 58 34 322 292 736 52 MP stroke
c10
35 -35 34 -31 34 -19 34 -4 34 5 35 9 34 10 34 1 
34 -16 34 -31 34 -38 35 -35 34 -16 34 22 34 48 34 33 
34 4 35 17 34 52 34 55 34 30 34 7 35 2 34 1 
34 -1 34 -7 34 -12 34 -16 35 -17 34 -16 34 -15 34 -13 
34 -11 34 -10 35 -9 34 -8 34 -6 34 -6 34 -5 35 -5 
34 -3 34 -5 34 -2 34 -3 34 -2 35 -1 34 0 34 7 
34 9 34 -19 34 281 292 703 52 MP stroke
c11
35 -4 34 72 34 8 34 -69 34 -85 35 -70 34 -47 34 -21 
34 -2 34 5 34 3 35 0 34 2 34 15 34 35 34 48 
34 42 35 15 34 -20 34 -35 34 -15 34 33 35 77 34 90 
34 67 34 28 34 -7 34 -35 35 -56 34 -63 34 -57 34 -44 
34 -38 34 -44 35 -59 34 -68 34 -66 34 -53 34 -29 35 -14 
34 -4 34 -8 34 -13 34 -14 34 -6 35 17 34 26 34 32 
34 -9 34 -72 34 -133 292 1402 52 MP stroke
c12
35 9 34 7 34 -37 34 -28 34 -31 35 -22 34 -14 34 -13 
34 -11 34 -14 34 -14 35 -8 34 5 34 20 34 31 34 30 
34 16 35 2 34 -4 34 1 34 5 34 2 35 -1 34 9 
34 28 34 29 34 -4 34 -39 35 -45 34 -22 34 10 34 23 
34 21 34 6 35 -13 34 -26 34 -33 34 -32 34 -28 35 -20 
34 -8 34 4 34 11 34 17 34 16 35 5 34 -10 34 -7 
34 60 34 49 34 -15 292 931 52 MP stroke
c13
35 108 34 -15 34 2 34 8 34 -11 35 30 34 10 34 -21 
34 1 34 45 34 45 35 6 34 8 34 -6 34 -56 34 -49 
34 46 35 0 34 -98 34 -97 34 49 34 79 35 5 34 -31 
34 -59 34 -35 34 41 34 50 35 11 34 -4 34 -5 34 2 
34 10 34 19 35 21 34 21 34 19 34 16 34 13 35 10 
34 8 34 6 34 1 34 -2 34 -10 35 -22 34 -32 34 -29 
34 27 34 6 34 148 292 746 52 MP stroke
0.25 sg
35 -21 34 -17 34 -80 34 -37 34 -21 35 1 34 0 34 -14 
34 -23 34 -25 34 -10 35 12 34 29 34 25 34 4 34 -21 
34 -17 35 15 34 46 34 35 34 3 34 -2 35 28 34 39 
34 10 34 -15 34 -3 34 20 35 14 34 -16 34 -45 34 -55 
34 -49 34 -35 35 -21 34 -13 34 -8 34 -8 34 -10 35 -12 
34 -16 34 -16 34 -15 34 -10 34 -3 35 12 34 28 34 30 
34 -1 34 -82 34 -95 292 1214 52 MP stroke
c8
35 6 34 25 34 -1 34 6 34 8 35 -18 34 -45 34 -30 
34 10 34 19 34 9 35 -1 34 -1 34 -2 34 -4 34 -5 
34 0 35 11 34 20 34 22 34 15 34 6 35 2 34 3 
34 9 34 15 34 15 34 9 35 -3 34 -19 34 -31 34 -37 
34 -34 34 -23 35 -6 34 11 34 17 34 19 34 7 35 -9 
34 -19 34 -22 34 -9 34 1 34 15 35 -1 34 -21 34 -21 
34 -44 34 65 34 62 292 932 52 MP stroke
c9
35 14 34 18 34 4 34 -32 34 9 35 6 34 1 34 1 
34 -2 34 0 34 -1 35 -1 34 0 34 0 34 0 34 1 
34 1 35 1 34 0 34 -1 34 0 34 0 35 1 34 2 
34 2 34 3 34 3 34 -3 35 -7 34 -9 34 -6 34 7 
34 2 34 -1 35 -3 34 -3 34 -2 34 -2 34 -2 35 -1 
34 -2 34 0 34 -1 34 0 34 -3 35 1 34 5 34 -2 
34 20 34 -17 34 -57 292 1002 52 MP stroke
c10
35 92 34 -11 34 -18 34 -28 34 -11 35 -10 34 -8 34 -5 
34 -6 34 -2 34 -4 35 -1 34 -2 34 0 34 1 34 4 
34 7 35 10 34 16 34 21 34 26 34 32 35 13 34 -14 
34 -74 34 -3 34 107 34 -51 35 -56 34 91 34 -99 34 32 
34 -29 34 25 35 11 34 -34 34 -49 34 -34 34 -16 35 0 
34 8 34 7 34 8 34 9 34 9 35 1 34 -1 34 8 
34 -3 34 22 34 -64 292 1039 52 MP stroke
c11
35 -15 34 5 34 7 34 8 34 7 35 19 34 10 34 -24 
34 -71 34 -47 34 11 35 1 34 23 34 33 34 -28 34 -76 
34 -56 35 85 34 172 34 136 34 56 34 -66 35 -30 34 66 
34 20 34 -72 34 -17 34 32 35 -49 34 -42 34 14 34 -12 
34 -30 34 -26 35 -22 34 -9 34 20 34 32 34 2 35 -42 
34 -61 34 -35 34 -1 34 23 34 19 35 34 34 63 34 -12 
34 -18 34 12 34 22 292 909 52 MP stroke
c12
35 187 34 64 34 -158 34 -20 34 48 35 -52 34 -70 34 -31 
34 30 34 9 34 -53 35 26 34 72 34 -6 34 -35 34 20 
34 46 35 20 34 -15 34 -20 34 -3 34 18 35 31 34 29 
34 14 34 -5 34 -20 34 -28 35 -27 34 -14 34 6 34 25 
34 34 34 31 35 9 34 -17 34 -34 34 -26 34 4 35 31 
34 23 34 -16 34 -33 34 3 34 48 35 24 34 -37 34 -71 
34 -38 34 -14 34 80 292 915 52 MP stroke
c13
35 8 34 -38 34 42 34 3 34 5 35 -19 34 -44 34 -38 
34 -32 34 -13 34 10 35 25 34 26 34 18 34 5 34 -4 
34 -3 35 6 34 19 34 35 34 51 34 47 35 24 34 -4 
34 -5 34 16 34 34 34 23 35 -11 34 -46 34 -63 34 -62 
34 -50 34 -35 35 -21 34 -12 34 -5 34 -1 34 0 35 1 
34 1 34 -2 34 -1 34 -5 34 -1 35 -2 34 1 34 8 
34 -68 34 152 34 -231 292 1171 52 MP stroke
0.25 sg
35 -412 34 61 34 -35 34 -13 34 -17 35 -10 34 -8 34 -8 
34 -4 34 -6 34 -2 35 -3 34 0 34 2 34 5 34 8 
34 13 35 19 34 25 34 25 34 17 34 6 35 10 34 48 
34 68 34 -9 34 -63 34 -2 35 30 34 -37 34 -67 34 -38 
34 -14 34 -10 35 -18 34 -26 34 -28 34 -28 34 -23 35 -21 
34 -13 34 -13 34 -4 34 -1 34 7 35 14 34 16 34 25 
34 -25 34 24 34 -239 292 1292 52 MP stroke
c8
35 -153 34 103 34 5 34 -46 34 -64 35 -64 34 -57 34 -46 
34 -34 34 -23 34 -11 35 1 34 15 34 30 34 43 34 50 
34 49 35 38 34 20 34 9 34 7 34 19 35 33 34 47 
34 49 34 24 34 -18 34 -36 35 -22 34 -8 34 -18 34 -46 
34 -65 34 -67 35 -56 34 -42 34 -31 34 -28 34 -29 35 -33 
34 -36 34 -31 34 -18 34 1 34 32 35 59 34 68 34 45 
34 -33 34 -91 34 -196 292 1370 52 MP stroke
c9
35 -17 34 27 34 -6 34 -17 34 -17 35 -17 34 -15 34 -11 
34 -9 34 -6 34 -3 35 1 34 5 34 7 34 9 34 11 
34 11 35 9 34 4 34 -2 34 -9 34 -7 35 30 34 52 
34 10 34 -20 34 -14 34 -27 35 -30 34 6 34 32 34 24 
34 2 34 -21 35 -31 34 -32 34 -27 34 -22 34 -17 35 -9 
34 -4 34 2 34 5 34 10 34 10 35 12 34 14 34 6 
34 -7 34 10 34 32 292 946 52 MP stroke
c10
35 215 34 -34 34 -28 34 -117 34 -50 35 12 34 22 34 12 
34 -11 34 -31 34 -26 35 6 34 23 34 -6 34 -19 34 17 
34 44 35 35 34 16 34 12 34 19 34 24 35 18 34 6 
34 -5 34 -12 34 -12 34 -10 35 -8 34 -5 34 -2 34 -2 
34 0 34 -1 35 0 34 -1 34 0 34 -1 34 -1 35 1 
34 -5 34 0 34 2 34 -17 34 10 35 -16 34 -32 34 12 
34 -89 34 300 33 -885 293 1603 52 MP stroke
c11
35 -50 34 74 34 13 34 -22 34 -28 35 -24 34 -17 34 -11 
34 -7 34 -2 34 2 35 8 34 12 34 14 34 13 34 6 
34 -11 35 -27 34 -22 34 25 34 104 34 117 35 2 34 -99 
34 -33 34 70 34 48 34 -27 35 -56 34 -43 34 -26 34 -17 
34 -12 34 -12 35 -12 34 -13 34 -13 34 -11 34 -11 35 -8 
34 -8 34 -5 34 -5 34 0 34 3 35 9 34 17 34 21 
34 17 34 -16 34 -134 292 1124 52 MP stroke
c12
35 -16 34 15 34 -13 34 -1 34 -4 35 -5 34 -23 34 -52 
34 -44 34 0 34 34 35 27 34 2 34 -14 34 -18 34 -6 
34 17 35 38 34 29 34 3 34 -13 34 -6 35 10 34 24 
34 31 34 29 34 8 34 -26 35 -50 34 -46 34 -19 34 8 
34 18 34 9 35 -5 34 -15 34 -21 34 -21 34 -21 35 -17 
34 -13 34 -7 34 -2 34 5 34 10 35 13 34 25 34 30 
34 14 34 15 34 48 292 887 52 MP stroke
c13
35 0 34 1 34 4 34 1 34 -7 35 -19 34 -38 34 -43 
34 -24 34 -17 34 -23 35 -14 34 -2 34 7 34 11 34 12 
34 15 35 57 34 110 34 76 34 86 34 149 35 58 34 -50 
34 -8 34 45 34 2 34 -61 35 -82 34 -74 34 -59 34 -45 
34 -38 34 -32 35 -29 34 -25 34 -22 34 -20 34 -16 35 -14 
34 -11 34 -7 34 -4 34 1 34 8 35 19 34 33 34 45 
34 24 34 -62 34 -306 292 1323 52 MP stroke
0.25 sg
35 -213 34 61 34 -42 34 -16 34 -21 35 -9 34 -7 34 -7 
34 -3 34 -5 34 -2 35 -3 34 -1 34 0 34 1 34 4 
34 7 35 12 34 19 34 26 34 21 34 4 35 -25 34 -8 
34 22 34 -14 34 50 34 15 35 -102 34 93 34 63 34 -163 
34 -67 34 25 35 44 34 13 34 -16 34 -30 34 -30 35 -26 
34 -19 34 -12 34 -4 34 6 34 12 35 8 34 10 34 2 
34 -37 34 -24 34 -96 292 1191 52 MP stroke
c8
35 -89 34 -31 34 5 34 20 34 20 35 11 34 2 34 0 
34 -1 34 -3 34 -2 35 -2 34 -3 34 -2 34 -3 34 -3 
34 -5 35 -8 34 -11 34 -23 34 -33 34 -41 35 27 34 27 
34 -55 34 -19 34 44 34 22 35 8 34 1 34 7 34 7 
34 8 34 9 35 9 34 8 34 7 34 6 34 5 35 4 
34 5 34 2 34 2 34 2 34 -1 35 -2 34 -4 34 -12 
34 -24 34 -15 34 113 292 829 52 MP stroke
c9
35 -36 34 2 34 -12 34 -20 34 -14 35 -11 34 -5 34 -3 
34 -2 34 1 34 1 35 2 34 2 34 3 34 2 34 0 
34 -1 35 -2 34 -3 34 0 34 6 34 17 35 29 34 12 
34 -10 34 0 34 7 34 -27 35 -44 34 -11 34 25 34 26 
34 9 34 -13 35 -30 34 -36 34 -36 34 -31 34 -27 35 -20 
34 -18 34 -10 34 -8 34 2 34 7 35 18 34 36 34 37 
34 52 34 -134 34 348 292 748 52 MP stroke
c10
35 244 34 -84 34 78 34 -20 34 -29 35 2 34 35 34 56 
34 56 34 50 34 29 35 5 34 -25 34 -48 34 -60 34 -56 
34 -32 35 8 34 39 34 37 34 -4 34 -43 35 -28 34 17 
34 6 34 -27 34 9 34 58 35 31 34 -23 34 -41 34 -22 
34 0 34 21 35 33 34 35 34 31 34 24 34 22 35 15 
34 18 34 8 34 10 34 0 34 -13 35 -17 34 -29 34 -3 
34 -62 34 -33 34 -162 292 1072 52 MP stroke
c11
35 62 34 -18 34 -6 34 -49 34 -51 35 -30 34 -30 34 -54 
34 -52 34 -16 34 17 35 36 34 24 34 -4 34 -17 34 -3 
34 21 35 40 34 47 34 48 34 43 34 37 35 29 34 19 
34 6 34 -3 34 -7 34 -3 35 14 34 24 34 -10 34 -103 
34 -150 34 -17 35 10 34 -79 34 -60 34 -30 34 -43 35 26 
34 5 34 -57 34 -12 34 28 34 26 35 38 34 24 34 6 
34 -8 34 37 34 -45 292 1105 52 MP stroke
c12
35 -25 34 49 34 4 34 -14 34 -18 35 -21 34 -23 34 -20 
34 -19 34 -17 34 -16 35 -11 34 -4 34 6 34 18 34 30 
34 36 35 24 34 -1 34 -9 34 15 34 55 35 48 34 -24 
34 -71 34 -39 34 13 34 29 35 24 34 6 34 -10 34 -17 
34 -20 34 -18 35 -15 34 -12 34 -9 34 -7 34 -6 35 -4 
34 -2 34 -1 34 1 34 2 34 3 35 5 34 7 34 9 
34 10 34 -2 34 67 292 903 52 MP stroke
c13
35 22 34 -5 34 1 34 0 34 0 35 1 34 -1 34 0 
34 0 34 0 34 0 35 0 34 0 34 0 34 0 34 0 
34 0 35 0 34 0 34 0 34 0 34 0 35 0 34 0 
34 0 34 0 34 0 34 0 35 0 34 0 34 0 34 0 
34 0 34 0 35 0 34 0 34 0 34 0 34 0 35 0 
34 0 34 0 34 0 34 0 34 0 35 0 34 1 34 -1 
34 1 34 -1 34 -36 292 971 52 MP stroke
0.25 sg
35 106 34 84 34 16 34 -2 34 12 35 -3 34 -25 34 -45 
34 -52 34 -50 34 -48 35 37 34 112 34 44 34 36 34 -20 
34 34 35 -81 34 -29 34 2 34 57 34 54 35 21 34 4 
34 -3 34 -10 34 -13 34 -13 35 -12 34 -12 34 -10 34 -11 
34 -9 34 -9 35 -8 34 -7 34 -7 34 -7 34 -6 35 -6 
34 -5 34 -6 34 -5 34 -4 34 -5 35 -5 34 -5 34 -5 
34 -3 34 20 34 139 292 875 52 MP stroke
c8
35 -84 34 10 34 -6 34 -4 34 10 35 6 34 1 34 -2 
34 -3 34 -3 34 -3 35 -3 34 -3 34 -3 34 -4 34 0 
34 6 35 21 34 12 34 -21 34 -133 34 -42 35 180 34 11 
34 -157 34 -57 34 7 34 -5 35 -5 34 80 34 168 34 24 
34 -36 34 -23 35 12 34 27 34 26 34 18 34 13 35 9 
34 5 34 4 34 1 34 -1 34 -6 35 -11 34 -20 34 -37 
34 -23 34 16 34 148 292 737 52 MP stroke
c9
35 -32 34 -57 34 -16 34 -15 34 -20 35 -11 34 -14 34 -18 
34 -19 34 -16 34 -15 35 -7 34 5 34 16 34 24 34 24 
34 14 35 5 34 4 34 17 34 39 34 60 35 75 34 68 
34 38 34 -1 34 -29 34 -45 35 -53 34 -53 34 -48 34 -42 
34 -35 34 -30 35 -26 34 -21 34 -19 34 -16 34 -14 35 -13 
34 -13 34 -9 34 -11 34 -13 34 -5 35 -13 34 -3 34 13 
34 -6 34 -44 34 492 292 675 52 MP stroke
c10
35 -188 34 23 34 25 34 -21 34 -31 35 -23 34 -10 34 1 
34 6 34 7 34 5 35 0 34 -9 34 -14 34 -16 34 -9 
34 9 35 35 34 51 34 40 34 4 34 -15 35 4 34 20 
34 10 34 2 34 -2 34 -22 35 -35 34 -13 34 15 34 18 
34 0 34 -21 35 -37 34 -44 34 -42 34 -35 34 -30 35 -23 
34 -15 34 -9 34 0 34 8 34 9 35 11 34 13 34 11 
34 -4 34 -50 34 -37 292 1170 52 MP stroke
c11
35 107 34 18 34 -14 34 -69 34 -66 35 -42 34 -28 34 -33 
34 -45 34 -40 34 -18 35 16 34 40 34 46 34 35 34 15 
34 5 35 6 34 20 34 36 34 43 34 41 35 33 34 21 
34 6 34 -10 34 -16 34 -8 35 4 34 6 34 -12 34 -38 
34 -56 34 -62 35 -60 34 -52 34 -39 34 -29 34 -23 35 -28 
34 -36 34 -28 34 -9 34 24 34 52 35 50 34 57 34 23 
34 -36 34 76 34 -153 292 1138 52 MP stroke
c12
35 24 34 -40 34 -10 34 21 34 14 35 6 34 4 34 2 
34 0 34 -1 34 -2 35 -3 34 -5 34 -6 34 -8 34 -10 
34 -13 35 -16 34 -19 34 -22 34 -25 34 -27 35 -28 34 -25 
34 -19 34 -11 34 3 34 18 35 35 34 46 34 47 34 29 
34 -9 34 -11 35 51 34 4 34 65 34 209 34 270 35 123 
34 -83 34 -53 34 13 34 -32 34 -69 35 -81 34 -62 34 -113 
34 -156 34 -34 34 114 292 841 52 MP stroke
c13
35 22 34 9 34 -4 34 5 34 -2 35 3 34 -23 34 19 
34 27 34 -21 34 3 35 8 34 -16 34 2 34 1 34 0 
34 0 35 1 34 2 34 2 34 6 34 7 35 20 34 -22 
34 -63 34 -11 34 22 34 21 35 30 34 2 34 5 34 0 
34 1 34 -1 35 1 34 1 34 1 34 0 34 1 35 0 
34 1 34 -2 34 2 34 -3 34 2 35 -1 34 -6 34 14 
34 -19 34 35 34 155 292 744 52 MP stroke
0.25 sg
35 -69 34 -4 34 -3 34 4 34 -4 35 -11 34 -17 34 -22 
34 -24 34 -23 34 -13 35 5 34 28 34 37 34 22 34 -10 
34 -31 35 -21 34 6 34 45 34 78 34 63 35 13 34 -31 
34 -50 34 -35 34 1 34 23 35 26 34 16 34 2 34 -15 
34 -31 34 -44 35 -52 34 -53 34 -50 34 -45 34 -37 35 -29 
34 -20 34 -9 34 4 34 18 34 30 35 40 34 49 34 47 
34 -3 34 -27 34 207 292 835 52 MP stroke
c8
35 -17 34 -3 34 -9 34 -20 34 -18 35 -5 34 -11 34 -25 
34 0 34 27 34 7 35 -32 34 -24 34 40 34 48 34 -19 
34 -45 35 -9 34 40 34 36 34 12 34 0 35 1 34 4 
34 4 34 3 34 2 34 -1 35 -6 34 -14 34 -18 34 -21 
34 -20 34 -16 35 -12 34 -8 34 -14 34 -35 34 -59 35 -68 
34 -55 34 -31 34 -6 34 28 34 39 35 38 34 80 34 88 
34 47 34 10 34 -5 292 900 52 MP stroke
c9
35 -44 34 84 34 6 34 -32 34 -39 35 -35 34 -26 34 -17 
34 -8 34 0 34 4 35 7 34 10 34 11 34 11 34 9 
34 7 35 8 34 13 34 25 34 45 34 78 35 104 34 103 
34 63 34 -14 34 -85 34 -107 35 -85 34 -41 34 -5 34 1 
34 -8 34 -21 35 -36 34 -40 34 -40 34 -36 34 -33 35 -27 
34 -28 34 -24 34 -24 34 -12 34 26 35 90 34 158 34 29 
34 -136 34 130 34 -119 292 1030 52 MP stroke
c10
35 78 34 11 34 -10 34 -15 34 -31 35 -29 34 -19 34 4 
34 20 34 14 34 -8 35 -21 34 -10 34 11 34 20 34 8 
34 -12 35 -11 34 13 34 43 34 46 34 25 35 -1 34 -14 
34 -13 34 -7 34 -1 34 5 35 7 34 5 34 -3 34 -15 
34 -27 34 -32 35 -29 34 -23 34 -10 34 1 34 7 35 10 
34 6 34 -1 34 -9 34 -13 34 -9 35 8 34 28 34 35 
34 7 34 -30 34 -121 292 1078 52 MP stroke
c11
35 248 34 164 34 -101 34 -245 34 24 35 41 34 -81 34 -126 
34 -38 34 64 34 -30 35 -102 34 36 34 63 34 -48 34 123 
34 100 35 39 34 10 34 15 34 17 34 16 35 12 34 5 
34 -2 34 -7 34 -10 34 -12 35 -11 34 -11 34 -10 34 -10 
34 -8 34 -7 35 -7 34 -6 34 -5 34 -6 34 -5 35 -5 
34 -4 34 -6 34 -4 34 -4 34 -5 35 -6 34 2 34 8 
34 40 34 50 34 181 292 682 52 MP stroke
c12
35 12 34 4 34 83 34 -42 34 -24 35 -18 34 -23 34 -5 
34 -5 34 -1 34 4 35 5 34 6 34 9 34 8 34 10 
34 8 35 5 34 3 34 4 34 11 34 22 35 17 34 -20 
34 32 34 86 34 -37 34 -125 35 -34 34 33 34 33 34 15 
34 -2 34 -11 35 -14 34 -12 34 -11 34 -8 34 -8 35 -6 
34 -4 34 -3 34 -1 34 1 34 4 35 7 34 10 34 12 
34 18 34 4 34 -63 292 995 52 MP stroke
c13
35 16 34 57 34 12 34 -19 34 -17 35 -20 34 -16 34 -12 
34 -10 34 -6 34 -3 35 1 34 3 34 7 34 11 34 18 
34 23 35 21 34 12 34 0 34 18 34 32 35 -2 34 27 
34 27 34 -27 34 -37 34 -17 35 -1 34 5 34 -2 34 -7 
34 -12 34 -13 35 -11 34 -11 34 -9 34 -8 34 -7 35 -6 
34 -5 34 -5 34 -3 34 -4 34 -1 35 -3 34 0 34 6 
34 5 34 24 34 133 292 836 52 MP stroke
0.25 sg
35 219 34 75 34 -180 34 -47 34 54 35 -72 34 -112 34 -87 
34 -1 34 7 34 -95 35 -31 34 39 34 -8 34 89 34 127 
34 37 35 8 34 27 34 39 34 31 34 16 35 3 34 -6 
34 -10 34 -12 34 -11 34 -12 35 -10 34 -10 34 -9 34 -8 
34 -7 34 -7 35 -7 34 -6 34 -6 34 -6 34 -5 35 -6 
34 -5 34 -6 34 -6 34 -6 34 -6 35 -2 34 1 34 15 
34 55 34 -21 34 286 292 629 52 MP stroke
c8
35 -2 34 -3 34 -124 34 -27 34 19 35 61 34 19 34 -34 
34 -40 34 -37 34 -14 35 -3 34 10 34 11 34 4 34 1 
34 12 35 30 34 44 34 46 34 36 34 14 35 -18 34 -35 
34 -22 34 9 34 31 34 28 35 10 34 -18 34 -34 34 -39 
34 -37 34 -29 35 -19 34 -11 34 -6 34 -4 34 -4 35 -5 
34 -9 34 -12 34 -14 34 -11 34 -3 35 15 34 44 34 66 
34 42 34 -70 34 -146 292 1107 52 MP stroke
c9
35 22 34 27 34 9 34 -13 34 -19 35 -18 34 -11 34 -6 
34 -2 34 1 34 1 35 -1 34 -3 34 -7 34 -8 34 -4 
34 6 35 24 34 40 34 40 34 9 34 -27 35 -28 34 5 
34 28 34 24 34 2 34 -24 35 -24 34 6 34 23 34 9 
34 -18 34 -36 35 -34 34 -24 34 -9 34 2 34 5 35 6 
34 2 34 -2 34 -6 34 -5 34 -4 35 4 34 14 34 18 
34 7 34 -28 34 -45 292 1027 52 MP stroke
c10
35 -24 34 -11 34 -8 34 -7 34 -12 35 -21 34 -29 34 -34 
34 -33 34 -28 34 -19 35 -3 34 16 34 28 34 35 34 37 
34 28 35 10 34 -10 34 -10 34 21 34 63 35 74 34 44 
34 -2 34 -28 34 -29 34 -20 35 -18 34 -19 34 -19 34 -14 
34 -8 34 -18 35 -43 34 -66 34 -62 34 -30 34 3 35 17 
34 6 34 -10 34 -12 34 -5 34 17 35 20 34 26 34 27 
34 -40 34 111 34 -118 292 1052 52 MP stroke
c11
35 -154 34 41 34 11 34 -12 34 -17 35 -23 34 -26 34 -22 
34 -20 34 -18 34 -17 35 -10 34 -2 34 9 34 20 34 34 
34 43 35 45 34 28 34 -4 34 -23 34 1 35 35 34 12 
34 17 34 42 34 -37 34 -97 35 -18 34 39 34 27 34 5 
34 -11 34 -18 35 -23 34 -23 34 -22 34 -20 34 -16 35 -13 
34 -9 34 -3 34 1 34 7 34 13 35 16 34 17 34 6 
34 -39 34 -6 34 160 292 866 52 MP stroke
c12
35 -314 34 77 34 150 34 -87 34 -100 35 -70 34 -45 34 -19 
34 -10 34 1 34 5 35 10 34 13 34 17 34 20 34 23 
34 25 35 28 34 31 34 33 34 32 34 30 35 26 34 19 
34 13 34 6 34 1 34 -4 35 -7 34 -13 34 -25 34 -38 
34 -50 34 -58 35 -63 34 -61 34 -56 34 -46 34 -37 35 -29 
34 -23 34 -16 34 -10 34 6 34 24 35 54 34 83 34 80 
34 61 34 -84 34 -273 292 1313 52 MP stroke
c13
35 -30 34 -22 34 30 34 -7 34 -36 35 -76 34 -85 34 -69 
34 -51 34 -29 34 -17 35 1 34 16 34 35 34 51 34 55 
34 46 35 31 34 26 34 34 34 55 34 68 35 65 34 43 
34 18 34 -7 34 -28 34 -41 35 -42 34 -34 34 -25 34 -19 
34 -19 34 -38 35 -76 34 -116 34 -113 34 -50 34 35 35 74 
34 44 34 -12 34 -41 34 -34 34 27 35 37 34 42 34 48 
34 -153 34 202 34 -365 292 1309 52 MP stroke
0.25 sg
35 -22 34 42 34 3 34 -24 34 -25 35 -21 34 -14 34 -10 
34 -6 34 -3 34 0 35 3 34 4 34 7 34 9 34 12 
34 13 35 15 34 15 34 13 34 10 34 6 35 5 34 11 
34 21 34 24 34 16 34 -2 35 -24 34 -38 34 -27 34 -2 
34 -11 34 -41 35 -66 34 -72 34 -69 34 -84 34 -88 35 -46 
34 -7 34 17 34 31 34 11 34 11 35 51 34 46 34 13 
34 -11 34 -8 34 -27 292 1184 52 MP stroke
c8
35 43 34 -77 34 -8 34 -48 34 -30 35 -6 34 25 34 21 
34 -21 34 -38 34 -18 35 14 34 33 34 39 34 22 34 -11 
34 -36 35 -31 34 -6 34 25 34 44 34 43 35 34 34 17 
34 -1 34 -10 34 -15 34 -19 35 -18 34 -17 34 -15 34 -13 
34 -11 34 -9 35 -9 34 -12 34 -17 34 -14 34 0 35 22 
34 19 34 -31 34 -85 34 -63 34 48 35 103 34 67 34 8 
34 -25 34 15 34 -7 292 920 52 MP stroke
c9
35 62 34 -31 34 11 34 3 34 -12 35 1 34 1 34 -1 
34 -1 34 -2 34 -2 35 -2 34 -1 34 -1 34 -1 34 -1 
34 0 35 -1 34 1 34 0 34 1 34 1 35 1 34 1 
34 1 34 0 34 1 34 1 35 0 34 0 34 2 34 2 
34 -3 34 4 35 -1 34 1 34 -1 34 0 34 -4 35 10 
34 -15 34 24 34 -33 34 -9 34 58 35 -35 34 5 34 -1 
34 10 34 26 34 39 292 860 52 MP stroke
c10
35 -17 34 -1 34 1 34 -1 34 0 35 0 34 0 34 0 
34 0 34 0 34 0 35 0 34 0 34 0 34 0 34 0 
34 0 35 0 34 0 34 0 34 0 34 0 35 0 34 0 
34 0 34 0 34 0 34 0 35 0 34 0 34 0 34 0 
34 0 34 0 35 0 34 0 34 0 34 0 34 0 35 0 
34 0 34 0 34 0 34 0 34 0 35 0 34 0 34 0 
34 0 34 2 34 -63 292 996 52 MP stroke
c11
35 29 34 -15 34 -50 34 -51 34 -21 35 0 34 -2 34 -14 
34 -10 34 0 34 4 35 1 34 5 34 6 34 1 34 0 
34 -9 35 -11 34 0 34 35 34 64 34 38 35 -31 34 -48 
34 21 34 63 34 2 34 -56 35 -6 34 48 34 -19 34 -107 
34 -80 34 -9 35 -8 34 -61 34 -83 34 -50 34 -23 35 -36 
34 -77 34 -93 34 -57 34 6 34 65 35 102 34 127 34 125 
34 116 34 49 34 40 292 815 52 MP stroke
c12
35 -40 34 51 34 24 34 -7 34 -25 35 -30 34 -31 34 -32 
34 -29 34 -26 34 -20 35 -10 34 7 34 30 34 49 34 59 
34 45 35 22 34 19 34 41 34 55 34 53 35 71 34 45 
34 -47 34 -30 34 62 34 30 35 -66 34 -94 34 -73 34 -49 
34 -35 34 -27 35 -23 34 -20 34 -17 34 -14 34 -13 35 -11 
34 -9 34 -8 34 -8 34 -6 34 -7 35 -6 34 -7 34 -10 
34 -19 34 -50 34 -166 292 1358 52 MP stroke
c13
35 48 34 -17 34 -76 34 -18 34 -12 35 -43 34 -69 34 -59 
34 -28 34 -13 34 -12 35 -16 34 -4 34 23 34 52 34 58 
34 44 35 18 34 9 34 23 34 47 34 57 35 42 34 15 
34 -4 34 0 34 12 34 10 35 -19 34 -64 34 -88 34 -75 
34 -32 34 8 35 17 34 -6 34 -43 34 -67 34 -65 35 -48 
34 -20 34 -2 34 10 34 22 34 15 35 26 34 25 34 -4 
34 70 34 -77 34 58 292 1050 52 MP stroke
0.25 sg
35 -23 34 -5 34 -50 34 -25 34 -30 35 -42 34 -56 34 -43 
34 -5 34 16 34 13 35 -7 34 -17 34 -10 34 7 34 22 
34 30 35 34 34 35 34 40 34 43 34 42 35 31 34 9 
34 -12 34 -19 34 -6 34 14 35 20 34 0 34 -41 34 -74 
34 -78 34 -53 35 -17 34 2 34 -5 34 -31 34 -55 35 -61 
34 -45 34 -14 34 7 34 29 34 32 35 27 34 37 34 9 
34 31 34 -18 34 -3 292 1056 52 MP stroke
c8
35 25 34 18 34 -114 34 1 34 23 35 -48 34 -74 34 0 
34 42 34 -14 34 -51 35 -25 34 29 34 42 34 21 34 -6 
34 -7 35 10 34 34 34 45 34 41 34 25 35 8 34 -5 
34 -11 34 -11 34 -4 34 2 35 6 34 5 34 -2 34 -15 
34 -31 34 -42 35 -44 34 -35 34 -12 34 20 34 41 35 42 
34 20 34 -27 34 -48 34 -47 34 11 35 45 34 4 34 -48 
34 -165 34 26 34 -8 292 1135 52 MP stroke
c9
35 84 34 -82 34 36 34 17 34 25 35 12 34 7 34 6 
34 1 34 2 34 -2 35 -1 34 -3 34 -3 34 -5 34 -5 
34 -7 35 -8 34 -8 34 -10 34 -11 34 -11 35 -12 34 -7 
34 -4 34 5 34 13 34 12 35 1 34 -39 34 -11 34 72 
34 -21 34 43 35 -67 34 70 34 71 34 -36 34 5 35 45 
34 24 34 -7 34 -10 34 -11 34 -16 35 -16 34 -50 34 -33 
34 28 34 -22 34 69 292 876 52 MP stroke
c10
35 -70 34 -4 34 4 34 -3 34 2 35 -30 34 19 34 17 
34 -7 34 5 34 -4 35 3 34 -3 34 -1 34 0 34 0 
34 0 35 0 34 0 34 0 34 0 34 0 35 2 34 3 
34 9 34 -1 34 -11 34 1 35 2 34 0 34 0 34 0 
34 1 34 -1 35 -1 34 0 34 0 34 0 34 0 35 0 
34 -5 34 10 34 1 34 -9 34 4 35 0 34 1 34 -2 
34 1 34 -1 34 21 292 913 52 MP stroke
c11
35 50 34 11 34 -46 34 -56 34 -66 35 -61 34 -52 34 -45 
34 -35 34 -25 34 -6 35 20 34 45 34 49 34 22 34 -16 
34 -28 35 2 34 42 34 55 34 41 34 40 35 69 34 87 
34 45 34 -28 34 -61 34 -40 35 -14 34 -22 34 -55 34 -76 
34 -62 34 -24 35 18 34 25 34 9 34 -33 34 -71 35 -99 
34 -74 34 -60 34 14 34 45 34 69 35 69 34 -6 34 9 
34 -135 34 62 34 -218 292 1371 52 MP stroke
c12
35 33 34 -3 34 -14 34 5 34 -3 35 -2 34 2 34 0 
34 3 34 10 34 -2 35 -13 34 -2 34 -4 34 9 34 5 
34 -11 35 14 34 -4 34 2 34 -1 34 0 35 0 34 0 
34 0 34 0 34 0 34 0 35 0 34 0 34 0 34 0 
34 0 34 0 35 0 34 0 34 0 34 0 34 0 35 0 
34 0 34 0 34 0 34 0 34 0 35 0 34 0 34 0 
34 0 34 0 34 -8 292 943 52 MP stroke
c13
35 50 34 12 34 -23 34 -38 34 -20 35 7 34 13 34 -6 
34 -13 34 -5 34 -4 35 -5 34 2 34 10 34 6 34 -6 
34 -10 35 32 34 18 34 -43 34 64 34 23 35 -18 34 99 
34 -25 34 -46 34 83 34 -30 35 -110 34 -41 34 18 34 24 
34 7 34 -12 35 -24 34 -27 34 -25 34 -21 34 -18 35 -15 
34 -13 34 -8 34 -5 34 -1 34 4 35 6 34 6 34 7 
34 4 34 -40 34 -148 292 1232 52 MP stroke
0.25 sg
35 81 34 -57 34 -69 34 -46 34 -44 35 -49 34 -50 34 -46 
34 -38 34 -28 34 -13 35 5 34 19 34 28 34 31 34 29 
34 27 35 27 34 32 34 39 34 47 34 59 35 65 34 49 
34 5 34 -41 34 -46 34 -10 35 29 34 22 34 -24 34 -74 
34 -94 34 -85 35 -65 34 -53 34 -55 34 -66 34 -73 35 -63 
34 -43 34 -10 34 17 34 27 34 35 35 16 34 12 34 10 
34 -13 34 46 34 -26 292 1241 52 MP stroke
c8
35 -135 34 38 34 46 34 10 34 -22 35 -37 34 -40 34 -31 
34 -17 34 0 34 14 35 24 34 27 34 23 34 9 34 -10 
34 -25 35 -25 34 1 34 40 34 50 34 4 35 -40 34 0 
34 33 34 -9 34 -9 34 48 35 27 34 -34 34 -47 34 -32 
34 -21 34 -13 35 -11 34 -11 34 -13 34 -17 34 -19 35 -20 
34 -19 34 -15 34 -13 34 -8 34 -1 35 8 34 12 34 23 
34 48 34 47 34 129 292 847 52 MP stroke
c9
35 5 34 -14 34 -28 34 -33 34 -39 35 -39 34 -39 34 -35 
34 -29 34 -22 34 -13 35 -7 34 -6 34 -8 34 0 34 28 
34 62 35 77 34 60 34 34 34 18 34 12 35 8 34 5 
34 2 34 -4 34 -10 34 -15 35 -17 34 -18 34 -19 34 -19 
34 -21 34 -22 35 -23 34 -26 34 -27 34 -29 34 -30 35 -29 
34 -28 34 -25 34 -23 34 -14 34 -4 35 10 34 30 34 52 
34 84 34 186 34 -262 292 1091 52 MP stroke
c10
35 28 34 57 34 -50 34 7 34 -77 35 -108 34 -85 34 3 
34 70 34 31 34 -31 35 -51 34 -12 34 28 34 46 34 39 
34 28 35 23 34 21 34 24 34 28 34 36 35 45 34 51 
34 49 34 31 34 -2 34 -37 35 -58 34 -51 34 -23 34 -13 
34 -48 34 -108 35 -113 34 -48 34 5 34 -15 34 -39 35 -26 
34 4 34 2 34 -13 34 -3 34 -7 35 24 34 66 34 -11 
34 -30 34 34 34 124 292 983 52 MP stroke
c11
35 -150 34 33 34 -5 34 -57 34 -47 35 -36 34 -23 34 -13 
34 -7 34 -1 34 1 35 4 34 6 34 8 34 10 34 11 
34 13 35 14 34 15 34 13 34 11 34 8 35 4 34 4 
34 9 34 26 34 33 34 8 35 -46 34 -34 34 23 34 -65 
34 -84 34 67 35 -54 34 -120 34 0 34 -74 34 -91 35 -21 
34 -12 34 -25 34 -22 34 -7 34 59 35 69 34 -52 34 -42 
34 66 34 110 34 77 292 1024 52 MP stroke
c12
35 -69 34 -10 34 -75 34 -11 34 13 35 34 34 12 34 -26 
34 -45 34 -49 34 -24 35 2 34 20 34 18 34 9 34 4 
34 14 35 31 34 43 34 40 34 29 34 6 35 -19 34 -34 
34 -28 34 10 34 46 34 19 35 -45 34 -58 34 -13 34 30 
34 34 34 7 35 -25 34 -44 34 -46 34 -42 34 -28 35 -13 
34 8 34 7 34 16 34 13 34 28 35 9 34 -22 34 31 
34 -57 34 84 34 -69 292 1030 52 MP stroke
c13
35 -77 34 -27 34 -113 34 -34 34 2 35 36 34 -4 34 -56 
34 -70 34 -53 34 -4 35 19 34 29 34 22 34 21 34 18 
34 20 35 24 34 31 34 37 34 24 34 -7 35 -23 34 -18 
34 -5 34 2 34 2 34 0 35 -2 34 -5 34 -6 34 -6 
34 -6 34 -6 35 -6 34 -5 34 -5 34 -5 34 -5 35 -4 
34 -5 34 -4 34 -5 34 -4 34 -6 35 -5 34 -5 34 -8 
34 7 34 50 34 58 292 898 52 MP stroke
0.25 sg
35 -62 34 54 34 -88 34 -12 34 -3 35 41 34 34 34 -30 
34 -66 34 -51 34 26 35 61 34 13 34 -53 34 -28 34 54 
34 56 35 -30 34 -49 34 36 34 84 34 40 35 -15 34 -17 
34 5 34 14 34 5 34 -10 35 -19 34 -22 34 -22 34 -20 
34 -19 34 -15 35 -14 34 -11 34 -9 34 -7 34 -6 35 -5 
34 -3 34 -3 34 -1 34 0 34 2 35 3 34 6 34 10 
34 8 34 -16 34 15 292 975 52 MP stroke
c8
35 -72 34 15 34 32 34 16 34 14 35 9 34 6 34 5 
34 2 34 2 34 1 35 0 34 -1 34 -1 34 -2 34 -3 
34 -4 35 -7 34 -8 34 -11 34 -15 34 -17 35 -16 34 -10 
34 -2 34 5 34 5 34 -1 35 -4 34 -3 34 7 34 26 
34 47 34 55 35 49 34 37 34 20 34 5 34 6 35 23 
34 43 34 51 34 48 34 26 34 -14 35 -62 34 -76 34 -88 
34 -150 34 -32 34 123 292 915 52 MP stroke
c9
35 23 34 20 34 -16 34 -31 34 -19 35 -24 34 -3 34 7 
34 2 34 -14 34 -34 35 -14 34 37 34 53 34 -9 34 -48 
34 19 35 35 34 -41 34 16 34 93 34 29 35 -28 34 -20 
34 -5 34 -5 34 -6 34 -8 35 -6 34 -5 34 -4 34 -4 
34 -2 34 -2 35 -2 34 -1 34 -2 34 -1 34 -1 35 0 
34 -1 34 -1 34 -1 34 -1 34 0 35 -1 34 -1 34 -1 
34 -4 34 -4 34 77 292 882 52 MP stroke
c10
35 -203 34 88 34 -98 34 3 34 6 35 -4 34 -9 34 -47 
34 -64 34 -54 34 -14 35 31 34 46 34 38 34 21 34 8 
34 0 35 -1 34 9 34 24 34 37 34 45 35 50 34 53 
34 48 34 29 34 -11 34 -54 35 -71 34 -53 34 -19 34 -6 
34 -21 34 -57 35 -76 34 -72 34 -41 34 -12 34 8 35 -8 
34 -29 34 -55 34 -40 34 -3 34 59 35 86 34 52 34 25 
34 -84 34 10 34 -172 292 1266 52 MP stroke
c11
35 -86 34 -1 34 -113 34 -62 34 -72 35 -43 34 -32 34 -54 
34 -72 34 -80 34 -38 35 22 34 79 34 86 34 60 34 19 
34 3 35 13 34 36 34 46 34 42 34 32 35 34 34 51 
34 66 34 55 34 14 34 -32 35 -57 34 -56 34 -51 34 -59 
34 -84 34 -106 35 -100 34 -64 34 -19 34 4 34 -16 35 -56 
34 -89 34 -81 34 -24 34 32 34 83 35 85 34 73 34 69 
34 0 34 49 34 -157 292 1184 52 MP stroke
c12
35 50 34 24 34 25 34 -13 34 -71 35 -55 34 22 34 19 
34 -13 34 2 34 -1 35 -16 34 -27 34 -56 34 67 34 166 
34 -143 35 -7 34 114 34 -36 34 71 34 -4 35 -64 34 55 
34 87 34 6 34 -47 34 -47 35 -29 34 -16 34 -11 34 -9 
34 -7 34 -9 35 -8 34 -9 34 -8 34 -7 34 -6 35 -4 
34 -4 34 -3 34 -1 34 1 34 4 35 7 34 7 34 3 
34 -11 34 -53 34 8 292 1017 52 MP stroke
c13
35 307 34 -346 34 137 34 -39 34 -146 35 -77 34 -59 34 -84 
34 -66 34 -8 34 26 35 51 34 67 34 18 34 -44 34 -58 
34 16 35 139 34 147 34 27 34 -40 34 29 35 99 34 85 
34 21 34 -26 34 -42 34 -38 35 -33 34 -36 34 -32 34 -42 
34 -63 34 -57 35 -43 34 -33 34 -32 34 -33 34 -35 35 -39 
34 -38 34 -35 34 -29 34 -19 34 5 35 36 34 65 34 21 
34 -139 34 35 34 835 292 458 52 MP stroke
0.25 sg
35 -100 34 -70 34 38 34 3 34 -19 35 -28 34 -26 34 -23 
34 -17 34 -7 34 2 35 11 34 19 34 25 34 23 34 11 
34 -6 35 -17 34 -13 34 15 34 42 34 22 35 -33 34 -9 
34 53 34 6 34 -58 34 -29 35 10 34 20 34 12 34 4 
34 -5 34 -9 35 -11 34 -9 34 -9 34 -7 34 -7 35 -5 
34 -3 34 -3 34 -2 34 1 34 1 35 6 34 11 34 15 
34 17 34 -1 34 -118 292 1054 52 MP stroke
c8
35 -167 34 -9 34 23 34 24 34 2 35 -37 34 -57 34 -54 
34 -40 34 -14 34 6 35 18 34 19 34 13 34 1 34 -4 
34 -1 35 20 34 46 34 60 34 44 34 -6 35 -49 34 -40 
34 9 34 41 34 32 34 -15 35 -60 34 7 34 93 34 -34 
34 -125 34 -13 35 40 34 -1 34 -21 34 -15 34 -7 35 -12 
34 5 34 -2 34 -49 34 -32 34 43 35 69 34 38 34 -10 
34 -42 34 -56 34 -51 292 1097 52 MP stroke
c9
35 -58 34 -7 34 0 34 -3 34 0 35 0 34 -1 34 0 
34 0 34 0 34 0 35 0 34 0 34 0 34 1 34 0 
34 1 35 0 34 2 34 2 34 3 34 4 35 6 34 9 
34 14 34 19 34 1 34 -39 35 -26 34 38 34 10 34 -50 
34 -8 34 -10 35 -82 34 -6 34 41 34 -13 34 -60 35 -10 
34 31 34 -10 34 -34 34 0 34 10 35 45 34 30 34 -44 
34 67 34 -30 34 33 292 943 52 MP stroke
c10
35 -3 34 34 34 8 34 -15 34 -29 35 -29 34 -19 34 -5 
34 -1 34 -11 34 -24 35 -24 34 -3 34 27 34 41 34 16 
34 -23 35 -23 34 34 34 84 34 71 34 24 35 -8 34 -19 
34 -16 34 -7 34 -2 34 -4 35 -10 34 -14 34 -16 34 -16 
34 -15 34 -15 35 -13 34 -11 34 -9 34 -8 34 -6 35 -5 
34 -3 34 -2 34 0 34 2 34 3 35 6 34 7 34 6 
34 3 34 -25 34 -64 292 1053 52 MP stroke
c11
35 -45 34 -19 34 -16 34 -14 34 -10 35 -13 34 -13 34 -15 
34 -19 34 -19 34 -17 35 -14 34 -6 34 3 34 15 34 27 
34 43 35 55 34 48 34 16 34 -25 34 -33 35 -9 34 28 
34 56 34 40 34 -1 34 -28 35 -36 34 -29 34 -14 34 -7 
34 -12 34 -21 35 -32 34 -38 34 -39 34 -36 34 -30 35 -25 
34 -18 34 -10 34 -4 34 1 34 2 35 4 34 1 34 -9 
34 9 34 149 34 63 292 928 52 MP stroke
c12
35 0 34 0 34 1 34 -1 34 1 35 0 34 -2 34 8 
34 16 34 12 34 12 35 -4 34 -28 34 -6 34 12 34 -13 
34 -13 35 -6 34 3 34 -13 34 -20 34 4 35 12 34 -5 
34 -30 34 -42 34 -6 34 49 35 46 34 -9 34 -34 34 -19 
34 22 34 59 35 54 34 10 34 -47 34 -12 34 62 35 52 
34 -2 34 6 34 30 34 17 34 11 35 -54 34 -97 34 34 
34 33 34 -100 34 -151 292 1083 52 MP stroke
c13
35 -188 34 -54 34 7 34 6 34 -2 35 -22 34 -33 34 -34 
34 -35 34 -30 34 -24 35 -11 34 2 34 15 34 28 34 39 
34 46 35 48 34 41 34 32 34 24 34 21 35 26 34 32 
34 24 34 2 34 -11 34 1 35 6 34 -47 34 -110 34 -75 
34 23 34 43 35 -45 34 -116 34 -90 34 -16 34 27 35 5 
34 -34 34 -54 34 -19 34 21 34 59 35 54 34 14 34 14 
34 -63 34 48 34 -109 292 1174 52 MP stroke
0.25 sg
35 -44 34 12 34 12 34 0 34 2 35 -12 34 -19 34 -26 
34 -28 34 -19 34 -11 35 5 34 17 34 23 34 25 34 16 
34 4 35 -3 34 -3 34 9 34 22 34 16 35 -13 34 -33 
34 0 34 46 34 19 34 -34 35 2 34 41 34 -27 34 -72 
34 -11 34 25 35 1 34 -18 34 -16 34 -7 34 -4 35 -6 
34 -9 34 -5 34 -3 34 -5 34 7 35 21 34 13 34 -12 
34 -26 34 14 34 67 292 929 52 MP stroke
c8
35 3 34 -7 34 -27 34 -34 34 -41 35 -47 34 -53 34 -51 
34 -43 34 -29 34 -5 35 12 34 25 34 22 34 9 34 5 
34 27 35 54 34 24 34 -14 34 89 34 120 35 -8 34 -51 
34 -1 34 16 34 -3 34 -23 35 -31 34 -29 34 -27 34 -21 
34 -18 34 -15 35 -13 34 -10 34 -9 34 -8 34 -7 35 -6 
34 -6 34 -6 34 -5 34 -7 34 -4 35 -8 34 -7 34 -6 
34 -22 34 -26 34 349 292 737 52 MP stroke
c9
35 -30 34 -4 34 0 34 -1 34 1 35 0 34 -1 34 0 
34 0 34 0 34 0 35 1 34 -1 34 0 34 0 34 1 
34 0 35 -1 34 -2 34 4 34 6 34 -6 35 0 34 5 
34 -2 34 0 34 1 34 -1 35 0 34 0 34 0 34 0 
34 0 34 0 35 0 34 0 34 0 34 0 34 0 35 0 
34 0 34 0 34 0 34 0 34 0 35 0 34 0 34 0 
34 0 34 -2 34 -1 292 938 52 MP stroke
c10
35 432 34 -421 34 2 34 -20 34 -75 35 120 34 159 34 -154 
34 -123 34 99 34 -3 35 -22 34 77 34 46 34 -29 34 -58 
34 -25 35 19 34 54 34 69 34 68 34 58 35 43 34 26 
34 11 34 -2 34 -14 34 -24 35 -32 34 -39 34 -44 34 -46 
34 -45 34 -39 35 -28 34 -16 34 -2 34 11 34 19 35 9 
34 -13 34 -36 34 -38 34 -6 34 54 35 114 34 47 34 -82 
34 30 34 32 34 -106 292 939 52 MP stroke
c11
35 32 34 44 34 -22 34 -21 34 -14 35 -20 34 -7 34 -26 
34 -56 34 -51 34 -9 35 49 34 66 34 -7 34 -71 34 -55 
34 15 35 109 34 82 34 14 34 -5 34 0 35 8 34 14 
34 15 34 8 34 -2 34 -13 35 -20 34 -22 34 -21 34 -19 
34 -16 34 -14 35 -12 34 -9 34 -8 34 -7 34 -6 35 -5 
34 -3 34 -4 34 -1 34 -2 34 0 35 3 34 3 34 13 
34 12 34 10 34 63 292 897 52 MP stroke
c12
35 -11 34 101 34 7 34 -93 34 -98 35 -74 34 -43 34 -16 
34 -1 34 9 34 14 35 17 34 15 34 11 34 3 34 0 
34 4 35 16 34 31 34 39 34 36 34 20 35 5 34 -6 
34 -8 34 -1 34 8 34 11 35 5 34 -6 34 -20 34 -29 
34 -33 34 -33 35 -33 34 -33 34 -34 34 -33 34 -30 35 -25 
34 -14 34 -3 34 4 34 11 34 12 35 15 34 19 34 18 
34 35 34 10 34 46 292 970 52 MP stroke
c13
35 -77 34 -2 34 -86 34 -27 34 -27 35 11 34 17 34 0 
34 -17 34 -32 34 -16 35 4 34 28 34 26 34 8 34 -19 
34 -23 35 -2 34 36 34 55 34 41 34 4 35 -19 34 -16 
34 5 34 17 34 10 34 -8 35 -20 34 -21 34 -19 34 -13 
34 -8 34 -1 35 1 34 1 34 -3 34 -10 34 -20 35 -36 
34 -46 34 -46 34 -21 34 8 34 42 35 51 34 41 34 43 
34 13 34 69 34 -6 292 866 52 MP stroke
0.25 sg
35 26 34 34 34 -53 34 -9 34 10 35 15 34 13 34 7 
34 6 34 1 34 0 35 -2 34 -4 34 -4 34 -6 34 -6 
34 -6 35 -7 34 -7 34 -6 34 -6 34 -5 35 -2 34 -1 
34 1 34 3 34 4 34 4 35 5 34 6 34 5 34 6 
34 5 34 5 35 4 34 5 34 4 34 4 34 4 35 5 
34 4 34 5 34 5 34 6 34 7 35 8 34 11 34 6 
34 -2 34 -10 34 -184 292 1059 52 MP stroke
c8
35 -143 34 -195 34 49 34 29 34 -29 35 54 34 96 34 87 
34 54 34 4 34 -38 35 -54 34 -52 34 -27 34 6 34 27 
34 20 35 -6 34 -37 34 -48 34 -35 34 -15 35 -6 34 -11 
34 -18 34 -12 34 5 34 21 35 27 34 22 34 17 34 11 
34 9 34 4 35 7 34 -2 34 9 34 2 34 -18 35 24 
34 9 34 -17 34 3 34 2 34 5 35 4 34 -11 34 21 
34 -26 34 -64 34 424 292 576 52 MP stroke
c9
35 -17 34 -8 34 -1 34 0 34 3 35 3 34 0 34 2 
34 0 34 1 34 -1 35 0 34 0 34 -2 34 -2 34 -2 
34 0 35 3 34 -1 34 0 34 -1 34 1 35 -3 34 -1 
34 -14 34 -21 34 14 34 -51 35 -62 34 73 34 -4 34 12 
34 -2 34 7 35 0 34 4 34 0 34 3 34 0 35 -7 
34 19 34 0 34 -13 34 6 34 1 35 2 34 4 34 8 
34 15 34 24 34 38 292 878 52 MP stroke
c10
35 -49 34 61 34 -22 34 -18 34 4 35 -7 34 -15 34 -12 
34 -17 34 -25 34 -27 35 -24 34 -6 34 26 34 51 34 49 
34 28 35 -4 34 -12 34 18 34 44 34 21 35 -46 34 -46 
34 5 34 27 34 18 34 3 35 -5 34 -10 34 -13 34 -15 
34 -14 34 -13 35 -12 34 -11 34 -10 34 -9 34 -7 35 -7 
34 -6 34 -5 34 -4 34 -2 34 0 35 2 34 8 34 19 
34 34 34 48 34 -57 292 963 52 MP stroke
c11
35 -65 34 -93 34 -101 34 -38 34 -8 35 -27 34 -48 34 -61 
34 -53 34 -19 34 19 35 48 34 51 34 32 34 3 34 -17 
34 -26 35 -20 34 6 34 41 34 64 34 70 35 60 34 34 
34 -3 34 -43 34 -61 34 -42 35 -8 34 13 34 10 34 -4 
34 -19 34 -32 35 -42 34 -42 34 -40 34 -36 34 -32 35 -28 
34 -24 34 -18 34 -13 34 -1 34 9 35 21 34 39 34 36 
34 -44 34 -52 34 364 292 811 52 MP stroke
c12
35 180 34 -10 34 -5 34 -1 34 0 35 0 34 0 34 0 
34 0 34 0 34 1 35 1 34 1 34 1 34 1 34 2 
34 2 35 3 34 3 34 5 34 5 34 7 35 8 34 9 
34 9 34 6 34 8 34 20 35 38 34 1 34 -137 34 -178 
34 51 34 121 35 -182 34 -318 34 -53 34 182 34 147 35 -58 
34 -162 34 -145 34 -19 34 56 34 98 35 54 34 -27 34 -8 
34 -177 34 144 34 -318 292 1562 52 MP stroke
c13
35 -52 34 -15 34 -13 34 -5 34 -11 35 -18 34 -24 34 -30 
34 -31 34 -28 34 -14 35 5 34 23 34 30 34 27 34 19 
34 13 35 6 34 2 34 5 34 14 34 28 35 37 34 39 
34 32 34 15 34 -18 34 -45 35 -40 34 -6 34 26 34 10 
34 -43 34 -84 35 -73 34 -28 34 8 34 6 34 -19 35 -36 
34 -33 34 -13 34 2 34 13 34 10 35 9 34 14 34 -2 
34 43 34 -27 34 58 292 1003 52 MP stroke
0.25 sg
35 -126 34 -95 34 -23 34 112 34 114 35 81 34 88 34 67 
34 17 34 -24 34 -37 35 -30 34 -17 34 -7 34 -4 34 -5 
34 -6 35 -9 34 -11 34 -11 34 -12 34 -11 35 -10 34 -9 
34 -9 34 -6 34 -4 34 -2 35 2 34 8 34 13 34 20 
34 26 34 31 35 35 34 38 34 41 34 45 34 51 35 56 
34 58 34 46 34 22 34 -10 34 -46 35 -59 34 -81 34 -85 
34 -40 34 -140 34 17 292 945 52 MP stroke
c8
35 66 34 64 34 20 34 -75 34 -78 35 36 34 -6 34 -38 
34 -16 34 -2 34 -30 35 -52 34 85 34 96 34 -16 34 2 
34 -13 35 -40 34 1 34 68 34 77 34 27 35 -16 34 -18 
34 16 34 50 34 47 34 2 35 -58 34 -87 34 -60 34 -18 
34 0 34 5 35 0 34 -51 34 -98 34 -91 34 -45 35 6 
34 -19 34 -15 34 18 34 23 34 19 35 7 34 29 34 45 
34 4 34 -24 34 -33 292 1140 52 MP stroke
c9
35 -140 34 -20 34 -17 34 -18 34 -27 35 -33 34 -40 34 -41 
34 -36 34 -26 34 -9 35 6 34 18 34 24 34 26 34 25 
34 24 35 24 34 25 34 26 34 26 34 26 35 32 34 47 
34 58 34 39 34 -18 34 -64 35 -63 34 -31 34 -6 34 -9 
34 -27 34 -53 35 -65 34 -68 34 -63 34 -53 34 -41 35 -29 
34 -18 34 -7 34 8 34 20 34 31 35 32 34 21 34 -5 
34 -11 34 46 34 9 292 1088 52 MP stroke
c10
35 -15 34 59 34 -88 34 -40 34 -21 35 -5 34 31 34 38 
34 7 34 -41 34 -59 35 -39 34 12 34 22 34 -14 34 2 
34 74 35 45 34 -11 34 25 34 44 34 20 35 -2 34 -9 
34 -11 34 -9 34 -9 34 -8 35 -7 34 -6 34 -6 34 -6 
34 -4 34 -5 35 -4 34 -3 34 -3 34 -3 34 -4 35 -2 
34 -4 34 -1 34 -6 34 -2 34 -6 35 -4 34 -9 34 -17 
34 -4 34 -28 34 143 292 879 52 MP stroke
c11
35 8 34 1 34 -2 34 2 34 -1 35 0 34 0 34 2 
34 0 34 -2 34 1 35 -1 34 0 34 0 34 0 34 0 
34 0 35 0 34 0 34 0 34 0 34 0 35 0 34 0 
34 0 34 0 34 0 34 0 35 0 34 0 34 0 34 0 
34 0 34 0 35 0 34 0 34 0 34 0 34 0 35 0 
34 0 34 0 34 0 34 0 34 0 35 0 34 0 34 1 
34 -1 34 1 34 6 292 928 52 MP stroke
c12
35 28 34 -5 34 -20 34 15 34 21 35 5 34 18 34 -54 
34 -22 34 44 34 20 35 31 34 7 34 2 34 -55 34 -55 
34 27 35 1 34 -2 34 -8 34 37 34 -6 35 -2 34 3 
34 -3 34 2 34 -1 34 1 35 -1 34 0 34 0 34 0 
34 0 34 0 35 0 34 0 34 0 34 0 34 0 35 0 
34 0 34 0 34 0 34 0 34 0 35 0 34 0 34 0 
34 1 34 0 34 -45 292 979 52 MP stroke
c13
35 -9 34 -46 34 29 34 -14 34 7 35 -15 34 -29 34 -28 
34 -37 34 -34 34 -31 35 -16 34 -4 34 12 34 24 34 32 
34 39 35 49 34 64 34 76 34 58 34 6 35 -23 34 0 
34 20 34 13 34 -6 34 -20 35 -26 34 -30 34 -31 34 -28 
34 -25 34 -21 35 -19 34 -17 34 -15 34 -13 34 -12 35 -11 
34 -10 34 -11 34 -8 34 -9 34 -7 35 -7 34 -7 34 2 
34 -2 34 -35 34 524 292 592 52 MP stroke
0.25 sg
35 -18 34 0 34 0 34 1 34 0 35 -4 34 9 34 -4 
34 -15 34 10 34 20 35 5 34 -7 34 -8 34 -10 34 -11 
34 12 35 30 34 14 34 -22 34 -9 34 -1 35 -38 34 -30 
34 17 34 45 34 -48 34 -36 35 122 34 45 34 -53 34 -36 
34 -20 34 8 35 14 34 17 34 15 34 10 34 8 35 6 
34 3 34 2 34 1 34 -1 34 0 35 -2 34 -3 34 -2 
34 -14 34 -24 34 59 292 860 52 MP stroke
c8
35 -321 34 26 34 14 34 -84 34 -25 35 33 34 29 34 1 
34 -22 34 -24 34 -17 35 0 34 12 34 17 34 17 34 12 
34 6 35 6 34 13 34 23 34 29 34 25 35 -1 34 -27 
34 -35 34 -12 34 28 34 47 35 30 34 -10 34 -41 34 -47 
34 -37 34 -18 35 -4 34 -1 34 -2 34 -9 34 -15 35 -19 
34 -15 34 -12 34 -3 34 9 34 19 35 20 34 17 34 5 
34 -20 34 4 34 -42 292 1040 52 MP stroke
c9
35 -63 34 21 34 -70 34 -31 34 1 35 32 34 27 34 -21 
34 -60 34 -57 34 -4 35 35 34 17 34 -22 34 -3 34 56 
34 34 35 -42 34 13 34 74 34 29 34 -8 35 -4 34 16 
34 23 34 4 34 -16 34 -21 35 -20 34 -17 34 -14 34 -10 
34 -8 34 -6 35 -5 34 -4 34 -4 34 -3 34 -2 35 -2 
34 -1 34 -2 34 -1 34 -1 34 -1 35 0 34 0 34 5 
34 8 34 44 34 -248 292 1147 52 MP stroke
c10
35 54 34 -3 34 -145 34 87 34 -51 35 -25 34 16 34 -8 
34 30 34 -38 34 -48 35 36 34 33 34 24 34 -6 34 -18 
34 -14 35 -1 34 13 34 23 34 25 34 24 35 21 34 17 
34 11 34 3 34 -6 34 -15 35 -23 34 -30 34 -30 34 -21 
34 -9 34 4 35 14 34 9 34 -14 34 -60 34 -70 35 -65 
34 -25 34 20 34 9 34 11 34 30 35 40 34 79 34 38 
34 -23 34 14 34 -49 292 978 52 MP stroke
c11
35 -357 34 -225 34 -4 34 49 34 24 35 -31 34 -58 34 -65 
34 -61 34 -37 34 -5 35 24 34 43 34 49 34 32 34 -5 
34 -35 35 -30 34 32 34 114 34 123 34 43 35 11 34 88 
34 81 34 -57 34 -130 34 -61 35 20 34 33 34 5 34 -32 
34 -59 34 -67 35 -65 34 -58 34 -51 34 -42 34 -32 35 -22 
34 -15 34 -5 34 0 34 11 34 15 35 24 34 28 34 10 
34 -33 34 5 34 -396 292 1525 52 MP stroke
c12
35 -30 34 11 34 -219 34 -83 34 -59 35 17 34 -6 34 -69 
34 -83 34 -78 34 -10 35 33 34 60 34 46 34 25 34 11 
34 19 35 37 34 53 34 51 34 37 34 25 35 34 34 60 
34 79 34 54 34 -17 34 -85 35 -101 34 -56 34 3 34 17 
34 -18 34 -83 35 -115 34 -108 34 -61 34 -22 34 -11 35 -42 
34 -74 34 -90 34 -33 34 37 34 120 35 123 34 53 34 26 
34 -88 34 113 34 -62 292 1106 52 MP stroke
gr

c12

end %%Color Dict

eplot
%%EndObject

epage
end

showpage

%%Trailer
%%EOF
