%!PS-Adobe-3.0 EPSF-3.0
%%Creator: MATLAB, The Mathworks, Inc. Version 7.10.0.499 (R2010a). Operating System: Microsoft Windows 7.
%%Title: C:\Users\wwu\Desktop\warping\Ramsay_code\code_0418\comp_toy_mse.eps
%%CreationDate: 05/20/2011  10:53:16
%%DocumentNeededFonts: Helvetica
%%DocumentProcessColors: Cyan Magenta Yellow Black
%%LanguageLevel: 2
%%Pages: 1
%%BoundingBox:   211   320   399   470
%%EndComments

%%BeginProlog
% MathWorks dictionary
/MathWorks 160 dict begin
% definition operators
/bdef {bind def} bind def
/ldef {load def} bind def
/xdef {exch def} bdef
/xstore {exch store} bdef
% operator abbreviations
/c  /clip ldef
/cc /concat ldef
/cp /closepath ldef
/gr /grestore ldef
/gs /gsave ldef
/mt /moveto ldef
/np /newpath ldef
/cm /currentmatrix ldef
/sm /setmatrix ldef
/rm /rmoveto ldef
/rl /rlineto ldef
/s {show newpath} bdef
/sc {setcmykcolor} bdef
/sr /setrgbcolor ldef
/sg /setgray ldef
/w /setlinewidth ldef
/j /setlinejoin ldef
/cap /setlinecap ldef
/rc {rectclip} bdef
/rf {rectfill} bdef
% page state control
/pgsv () def
/bpage {/pgsv save def} bdef
/epage {pgsv restore} bdef
/bplot /gsave ldef
/eplot {stroke grestore} bdef
% orientation switch
/portraitMode 0 def /landscapeMode 1 def /rotateMode 2 def
% coordinate system mappings
/dpi2point 0 def
% font control
/FontSize 0 def
/FMS {/FontSize xstore findfont [FontSize 0 0 FontSize neg 0 0]
  makefont setfont} bdef
/ISOLatin1Encoding where {pop /WindowsLatin1Encoding 256 array bdef
ISOLatin1Encoding WindowsLatin1Encoding copy pop
/.notdef/.notdef/quotesinglbase/florin/quotedblbase/ellipsis/dagger
/daggerdbl/circumflex/perthousand/Scaron/guilsinglleft/OE/.notdef/.notdef
/.notdef/.notdef/quoteleft/quoteright/quotedblleft/quotedblright/bullet
/endash/emdash/tilde/trademark/scaron/guilsinglright/oe/.notdef/.notdef
/Ydieresis WindowsLatin1Encoding 128 32 getinterval astore pop}
{/WindowsLatin1Encoding StandardEncoding bdef} ifelse
/reencode {exch dup where {pop load} {pop StandardEncoding} ifelse
  exch dup 3 1 roll findfont dup length dict begin
  { 1 index /FID ne {def}{pop pop} ifelse } forall
  /Encoding exch def currentdict end definefont pop} bdef
/isroman {findfont /CharStrings get /Agrave known} bdef
/FMSR {3 1 roll 1 index dup isroman {reencode} {pop pop} ifelse
  exch FMS} bdef
/csm {1 dpi2point div -1 dpi2point div scale neg translate
 dup landscapeMode eq {pop -90 rotate}
  {rotateMode eq {90 rotate} if} ifelse} bdef
% line types: solid, dotted, dashed, dotdash
/SO { [] 0 setdash } bdef
/DO { [.5 dpi2point mul 4 dpi2point mul] 0 setdash } bdef
/DA { [6 dpi2point mul] 0 setdash } bdef
/DD { [.5 dpi2point mul 4 dpi2point mul 6 dpi2point mul 4
  dpi2point mul] 0 setdash } bdef
% macros for lines and objects
/L {lineto stroke} bdef
/MP {3 1 roll moveto 1 sub {rlineto} repeat} bdef
/AP {{rlineto} repeat} bdef
/PDlw -1 def
/W {/PDlw currentlinewidth def setlinewidth} def
/PP {closepath eofill} bdef
/DP {closepath stroke} bdef
/MR {4 -2 roll moveto dup  0 exch rlineto exch 0 rlineto
  neg 0 exch rlineto closepath} bdef
/FR {MR stroke} bdef
/PR {MR fill} bdef
/L1i {{currentfile picstr readhexstring pop} image} bdef
/tMatrix matrix def
/MakeOval {newpath tMatrix currentmatrix pop translate scale
0 0 1 0 360 arc tMatrix setmatrix} bdef
/FO {MakeOval stroke} bdef
/PO {MakeOval fill} bdef
/PD {currentlinewidth 2 div 0 360 arc fill
   PDlw -1 eq not {PDlw w /PDlw -1 def} if} def
/FA {newpath tMatrix currentmatrix pop translate scale
  0 0 1 5 -2 roll arc tMatrix setmatrix stroke} bdef
/PA {newpath tMatrix currentmatrix pop	translate 0 0 moveto scale
  0 0 1 5 -2 roll arc closepath tMatrix setmatrix fill} bdef
/FAn {newpath tMatrix currentmatrix pop translate scale
  0 0 1 5 -2 roll arcn tMatrix setmatrix stroke} bdef
/PAn {newpath tMatrix currentmatrix pop translate 0 0 moveto scale
  0 0 1 5 -2 roll arcn closepath tMatrix setmatrix fill} bdef
/vradius 0 def /hradius 0 def /lry 0 def
/lrx 0 def /uly 0 def /ulx 0 def /rad 0 def
/MRR {/vradius xdef /hradius xdef /lry xdef /lrx xdef /uly xdef
  /ulx xdef newpath tMatrix currentmatrix pop ulx hradius add uly
  vradius add translate hradius vradius scale 0 0 1 180 270 arc 
  tMatrix setmatrix lrx hradius sub uly vradius add translate
  hradius vradius scale 0 0 1 270 360 arc tMatrix setmatrix
  lrx hradius sub lry vradius sub translate hradius vradius scale
  0 0 1 0 90 arc tMatrix setmatrix ulx hradius add lry vradius sub
  translate hradius vradius scale 0 0 1 90 180 arc tMatrix setmatrix
  closepath} bdef
/FRR {MRR stroke } bdef
/PRR {MRR fill } bdef
/MlrRR {/lry xdef /lrx xdef /uly xdef /ulx xdef /rad lry uly sub 2 div def
  newpath tMatrix currentmatrix pop ulx rad add uly rad add translate
  rad rad scale 0 0 1 90 270 arc tMatrix setmatrix lrx rad sub lry rad
  sub translate rad rad scale 0 0 1 270 90 arc tMatrix setmatrix
  closepath} bdef
/FlrRR {MlrRR stroke } bdef
/PlrRR {MlrRR fill } bdef
/MtbRR {/lry xdef /lrx xdef /uly xdef /ulx xdef /rad lrx ulx sub 2 div def
  newpath tMatrix currentmatrix pop ulx rad add uly rad add translate
  rad rad scale 0 0 1 180 360 arc tMatrix setmatrix lrx rad sub lry rad
  sub translate rad rad scale 0 0 1 0 180 arc tMatrix setmatrix
  closepath} bdef
/FtbRR {MtbRR stroke } bdef
/PtbRR {MtbRR fill } bdef
/stri 6 array def /dtri 6 array def
/smat 6 array def /dmat 6 array def
/tmat1 6 array def /tmat2 6 array def /dif 3 array def
/asub {/ind2 exch def /ind1 exch def dup dup
  ind1 get exch ind2 get sub exch } bdef
/tri_to_matrix {
  2 0 asub 3 1 asub 4 0 asub 5 1 asub
  dup 0 get exch 1 get 7 -1 roll astore } bdef
/compute_transform {
  dmat dtri tri_to_matrix tmat1 invertmatrix 
  smat stri tri_to_matrix tmat2 concatmatrix } bdef
/ds {stri astore pop} bdef
/dt {dtri astore pop} bdef
/db {2 copy /cols xdef /rows xdef mul dup 3 mul string
  currentfile 
  3 index 0 eq {/ASCIIHexDecode filter}
  {/ASCII85Decode filter 3 index 2 eq {/RunLengthDecode filter} if }
  ifelse exch readstring pop
  dup 0 3 index getinterval /rbmap xdef
  dup 2 index dup getinterval /gbmap xdef
  1 index dup 2 mul exch getinterval /bbmap xdef pop pop}bdef
/it {gs np dtri aload pop moveto lineto lineto cp c
  cols rows 8 compute_transform 
  rbmap gbmap bbmap true 3 colorimage gr}bdef
/il {newpath moveto lineto stroke}bdef
currentdict end def
%%EndProlog

%%BeginSetup
MathWorks begin

0 cap

end
%%EndSetup

%%Page: 1 1
%%BeginPageSetup
%%PageBoundingBox:   211   320   399   470
MathWorks begin
bpage
%%EndPageSetup

%%BeginObject: obj1
bplot

/dpi2point 12 def
portraitMode 2532 5640 csm

    0     0  2259  1800 rc
85 dict begin %Colortable dictionary
/c0 { 0.000000 0.000000 0.000000 sr} bdef
/c1 { 1.000000 1.000000 1.000000 sr} bdef
/c2 { 0.900000 0.000000 0.000000 sr} bdef
/c3 { 0.000000 0.820000 0.000000 sr} bdef
/c4 { 0.000000 0.000000 0.800000 sr} bdef
/c5 { 0.910000 0.820000 0.320000 sr} bdef
/c6 { 1.000000 0.260000 0.820000 sr} bdef
/c7 { 0.000000 0.820000 0.820000 sr} bdef
c0
1 j
1 sg
   0    0 2260 1801 rf
6 w
0 1467 1750 0 0 -1467 294 1602 4 MP
PP
-1750 0 0 1467 1750 0 0 -1467 294 1602 5 MP stroke
4 w
DO
SO
6 w
0 sg
 294  135 mt 2044  135 L
 294 1602 mt 2044 1602 L
2044 1602 mt 2044  135 L
 294 1602 mt  294  135 L
 294 1602 mt 2044 1602 L
 294 1602 mt  294  135 L
 294 1602 mt  294 1584 L
 294  135 mt  294  152 L
%%IncludeResource: font Helvetica
/Helvetica /WindowsLatin1Encoding 120 FMSR

 261 1747 mt 
(0) s
1169 1602 mt 1169 1584 L
1169  135 mt 1169  152 L
1086 1747 mt 
(0.5) s
2044 1602 mt 2044 1584 L
2044  135 mt 2044  152 L
2011 1747 mt 
(1) s
 294 1602 mt  311 1602 L
2044 1602 mt 2026 1602 L
 193 1646 mt 
(0) s
 294 1276 mt  311 1276 L
2044 1276 mt 2026 1276 L
 193 1320 mt 
(2) s
 294  950 mt  311  950 L
2044  950 mt 2026  950 L
 193  994 mt 
(4) s
 294  624 mt  311  624 L
2044  624 mt 2026  624 L
 193  668 mt 
(6) s
 294  298 mt  311  298 L
2044  298 mt 2026  298 L
 193  342 mt 
(8) s
 294  135 mt 2044  135 L
 294 1602 mt 2044 1602 L
2044 1602 mt 2044  135 L
 294 1602 mt  294  135 L
gs 294 135 1751 1468 rc
/c8 { 0.000000 0.000000 1.000000 sr} bdef
c8
18 1 17 -1 18 1 17 0 18 -1 17 0 18 1 17 0 
18 0 17 2 18 6 17 15 18 28 17 44 18 59 17 73 
18 83 17 89 18 92 17 90 18 86 17 82 18 75 17 68 
18 62 17 55 18 49 17 43 18 38 17 34 18 29 17 25 
18 23 18 19 17 17 17 15 18 14 17 10 18 9 17 10 
18 9 17 7 18 3 17 4 18 8 17 6 18 4 17 3 
18 3 17 -4 18 -15 17 -1 18 31 17 29 18 -14 17 -32 
18 -2 17 20 18 4 17 -11 18 -7 17 0 18 -3 17 -9 
18 -12 17 -12 18 -16 17 -22 18 -26 17 -32 18 -39 17 -47 
18 -55 17 -63 18 -72 17 -81 18 -87 17 -93 18 -95 17 -95 
18 -93 17 -86 18 -78 17 -67 18 -56 17 -44 18 -34 17 -25 
18 -17 17 -12 18 -7 17 -5 18 -3 17 -1 18 -1 17 -1 
18 0 17 0 18 0 17 0 294 1601 101 MP stroke
/c9 { 0.000000 0.500000 0.000000 sr} bdef
c9
18 1 17 -1 18 1 17 0 18 -1 17 0 18 1 17 0 
18 0 17 0 18 3 17 10 18 22 17 40 18 57 17 76 
18 88 17 94 18 97 17 94 18 89 17 81 18 74 17 66 
18 59 17 51 18 45 17 39 18 35 17 30 18 26 17 23 
18 20 18 17 17 16 17 14 18 12 17 11 18 10 17 9 
18 8 17 7 18 6 17 7 18 5 17 6 18 4 17 5 
18 4 17 4 18 4 17 4 18 3 17 3 18 3 17 2 
18 2 17 1 18 1 17 -1 18 -2 17 -3 18 -5 17 -7 
18 -10 17 -13 18 -18 17 -22 18 -28 17 -34 18 -41 17 -50 
18 -57 17 -66 18 -74 17 -82 18 -87 17 -91 18 -92 17 -91 
18 -86 17 -79 18 -71 17 -62 18 -51 17 -42 18 -33 17 -26 
18 -19 17 -14 18 -10 17 -7 18 -5 17 -4 18 -2 17 -1 
18 -1 17 0 18 0 17 0 294 1601 101 MP stroke
/c10 { 1.000000 0.000000 0.000000 sr} bdef
c10
18 1 17 -1 18 1 17 0 18 -1 17 0 18 1 17 0 
18 0 17 3 18 8 17 17 18 29 17 44 18 58 17 71 
18 79 17 85 18 87 17 86 18 83 17 79 18 73 17 67 
18 61 17 56 18 49 17 44 18 39 17 34 18 30 17 27 
18 23 18 20 17 17 17 16 18 13 17 12 18 9 17 9 
18 9 17 6 18 3 17 5 18 9 17 2 18 -5 17 3 
18 18 17 6 18 -26 17 -19 18 24 17 34 18 -4 17 -24 
18 -8 17 7 18 3 17 -5 18 -6 17 -4 18 -6 17 -8 
18 -11 17 -13 18 -16 17 -20 18 -25 17 -30 18 -36 17 -44 
18 -51 17 -59 18 -68 17 -77 18 -84 17 -91 18 -94 17 -97 
18 -94 17 -89 18 -81 17 -69 18 -58 17 -45 18 -32 17 -23 
18 -15 17 -10 18 -5 17 -3 18 -1 17 -1 18 0 17 0 
18 0 17 0 18 0 17 0 294 1601 101 MP stroke
/c11 { 0.000000 0.750000 0.750000 sr} bdef
c11
18 1 17 -1 18 1 17 0 18 -1 17 0 18 1 17 0 
18 0 17 3 18 9 17 18 18 29 17 44 18 58 17 69 
18 78 17 83 18 85 17 84 18 82 17 78 18 73 17 67 
18 61 17 55 18 50 17 44 18 39 17 35 18 30 17 27 
18 23 18 21 17 17 17 16 18 13 17 12 18 9 17 9 
18 7 17 6 18 5 17 5 18 4 17 3 18 3 17 2 
18 -1 17 1 18 4 17 3 18 -3 17 -3 18 2 17 3 
18 -1 17 -6 18 -3 17 -1 18 -3 17 -6 18 -8 17 -7 
18 -11 17 -13 18 -16 17 -20 18 -24 17 -29 18 -36 17 -42 
18 -49 17 -58 18 -67 17 -75 18 -82 17 -90 18 -94 17 -96 
18 -95 17 -90 18 -82 17 -70 18 -58 17 -45 18 -33 17 -22 
18 -14 17 -8 18 -5 17 -2 18 -1 17 0 18 0 17 0 
18 0 17 0 18 0 17 -1 294 1602 101 MP stroke
/c12 { 0.750000 0.000000 0.750000 sr} bdef
c12
18 1 17 -1 18 1 17 0 18 -1 17 0 18 1 17 0 
18 0 17 3 18 9 17 17 18 29 17 43 18 57 17 68 
18 78 17 82 18 85 17 85 18 81 17 78 18 72 17 67 
18 60 17 54 18 49 17 44 18 39 17 32 18 29 17 28 
18 24 18 17 17 14 17 19 18 19 17 6 18 -1 17 15 
18 26 17 0 18 -26 17 4 18 50 17 23 18 -41 17 -37 
18 22 17 39 18 10 17 -19 18 -29 17 -12 18 29 17 37 
18 -7 17 -32 18 -9 17 13 18 3 17 -12 18 -11 17 -5 
18 -8 17 -15 18 -18 17 -20 18 -24 17 -30 18 -36 17 -43 
18 -50 17 -58 18 -67 17 -74 18 -82 17 -88 18 -92 17 -93 
18 -93 17 -88 18 -80 17 -70 18 -58 17 -45 18 -33 17 -23 
18 -14 17 -8 18 -5 17 -2 18 -1 17 0 18 0 17 0 
18 0 17 0 18 0 17 -1 294 1602 101 MP stroke
/c13 { 0.750000 0.750000 0.000000 sr} bdef
c13
18 1 17 -1 18 1 17 0 18 -1 17 0 18 1 17 0 
18 1 17 3 18 9 17 17 18 30 17 43 18 56 17 68 
18 76 17 81 18 84 17 83 18 81 17 76 18 72 17 66 
18 60 17 55 18 48 17 44 18 38 17 34 18 30 17 27 
18 23 18 20 17 17 17 15 18 14 17 11 18 9 17 9 
18 8 17 5 18 4 17 5 18 7 17 2 18 -3 17 1 
18 11 17 8 18 -7 17 -9 18 1 17 6 18 3 17 -2 
18 -3 17 -2 18 -2 17 -3 18 -4 17 -6 18 -7 17 -8 
18 -11 17 -13 18 -16 17 -20 18 -24 17 -29 18 -35 17 -41 
18 -48 17 -56 18 -65 17 -73 18 -80 17 -88 18 -92 17 -95 
18 -94 17 -90 18 -82 17 -71 18 -58 17 -45 18 -32 17 -22 
18 -12 17 -8 18 -3 17 -2 18 0 17 0 18 0 17 0 
18 0 17 -1 18 1 17 -1 294 1602 101 MP stroke
0.25 sg
18 1 17 -1 18 1 17 0 18 -1 17 0 18 1 17 0 
18 1 17 3 18 9 17 18 18 29 17 43 18 55 17 68 
18 75 17 81 18 82 17 83 18 80 17 76 18 71 17 66 
18 60 17 54 18 49 17 43 18 39 17 33 18 30 17 26 
18 24 18 19 17 16 17 16 18 15 17 10 18 5 17 10 
18 15 17 4 18 -9 17 5 18 24 17 11 18 -19 17 -17 
18 13 17 20 18 3 17 -8 18 -9 17 -1 18 11 17 11 
18 -7 17 -15 18 -4 17 6 18 -1 17 -10 18 -9 17 -7 
18 -9 17 -14 18 -17 17 -20 18 -23 17 -29 18 -35 17 -41 
18 -48 17 -56 18 -64 17 -72 18 -80 17 -87 18 -91 17 -94 
18 -93 17 -89 18 -82 17 -71 18 -59 17 -45 18 -32 17 -21 
18 -12 17 -7 18 -4 17 -1 18 0 17 0 18 0 17 0 
18 0 17 -1 18 1 17 -1 294 1602 101 MP stroke
c8
18 1 17 -1 18 1 17 0 18 -1 17 0 18 1 17 0 
18 1 17 3 18 10 17 17 18 30 17 43 18 55 17 66 
18 75 17 79 18 82 17 82 18 80 17 75 18 71 17 66 
18 60 17 54 18 49 17 43 18 38 17 34 18 30 17 26 
18 22 18 20 17 17 17 15 18 12 17 11 18 10 17 8 
18 6 17 6 18 5 17 5 18 3 17 1 18 0 17 8 
18 19 17 5 18 -26 17 -24 18 14 17 26 18 2 17 -13 
18 -4 17 4 18 0 17 -6 18 -5 17 -4 18 -6 17 -9 
18 -11 17 -12 18 -16 17 -20 18 -24 17 -29 18 -35 17 -41 
18 -49 17 -56 18 -64 17 -72 18 -79 17 -86 18 -91 17 -93 
18 -92 17 -89 18 -81 17 -70 18 -59 17 -45 18 -32 17 -21 
18 -13 17 -7 18 -3 17 -1 18 0 17 0 18 0 17 -1 
18 1 17 0 18 -1 17 1 294 1601 101 MP stroke
c9
18 1 17 -1 18 1 17 0 18 -1 17 0 18 1 17 0 
18 1 17 4 18 9 17 18 18 30 17 43 18 54 17 66 
18 74 17 79 18 81 17 81 18 79 17 75 18 70 17 66 
18 59 17 54 18 49 17 43 18 39 17 34 18 29 17 26 
18 23 18 20 17 17 17 14 18 13 17 11 18 9 17 8 
18 7 17 6 18 4 17 5 18 4 17 1 18 -3 17 8 
18 22 17 7 18 -28 17 -27 18 14 17 28 18 2 17 -14 
18 -5 17 5 18 0 17 -7 18 -5 17 -4 18 -6 17 -9 
18 -11 17 -13 18 -15 17 -20 18 -24 17 -29 18 -34 17 -40 
18 -48 17 -55 18 -64 17 -71 18 -78 17 -86 18 -90 17 -93 
18 -93 17 -89 18 -81 17 -71 18 -59 17 -45 18 -32 17 -20 
18 -12 17 -6 18 -3 17 -1 18 0 17 0 18 0 17 -1 
18 1 17 0 18 -1 17 1 294 1601 101 MP stroke
c10
18 1 17 -1 18 1 17 0 18 -1 17 0 18 1 17 0 
18 1 17 4 18 9 17 18 18 30 17 42 18 54 17 65 
18 74 17 78 18 81 17 81 18 79 17 75 18 70 17 65 
18 60 17 53 18 48 17 43 18 39 17 32 18 29 17 27 
18 24 18 17 17 14 17 17 18 18 17 7 18 0 17 13 
18 23 17 -1 18 -24 17 7 18 53 17 20 18 -52 17 -39 
18 35 17 46 18 -7 17 -29 18 -6 17 11 18 9 17 3 
18 -4 17 -5 18 -3 17 -1 18 -3 17 -6 18 -8 17 -8 
18 -10 17 -14 18 -16 17 -20 18 -24 17 -29 18 -34 17 -41 
18 -48 17 -55 18 -63 17 -71 18 -78 17 -85 18 -89 17 -92 
18 -91 17 -88 18 -81 17 -71 18 -59 17 -45 18 -32 17 -21 
18 -12 17 -6 18 -2 17 -1 18 0 17 0 18 -1 17 1 
18 0 17 -1 18 1 17 -1 294 1602 101 MP stroke
c11
18 1 17 -1 18 1 17 0 18 -1 17 0 18 1 17 0 
18 1 17 5 18 10 17 19 18 30 17 42 18 53 17 65 
18 71 17 77 18 80 17 79 18 78 17 74 18 71 17 65 
18 60 17 54 18 49 17 44 18 39 17 34 18 30 17 26 
18 24 18 19 17 17 17 15 18 14 17 10 18 7 17 8 
18 10 17 6 18 1 17 0 18 3 17 19 18 27 17 -21 
18 -85 17 -34 18 104 17 103 18 -47 17 -97 18 2 17 60 
18 13 17 -31 18 -16 17 5 18 2 17 -8 18 -9 17 -9 
18 -10 17 -13 18 -17 17 -20 18 -24 17 -28 18 -35 17 -40 
18 -47 17 -55 18 -62 17 -69 18 -77 17 -83 18 -88 17 -91 
18 -91 17 -87 18 -81 17 -71 18 -59 17 -45 18 -33 17 -21 
18 -12 17 -6 18 -2 17 -1 18 0 17 0 18 -1 17 0 
18 1 17 0 18 -1 17 1 294 1601 101 MP stroke
c12
18 1 17 -1 18 1 17 0 18 -1 17 0 18 1 17 0 
18 1 17 4 18 10 17 18 18 30 17 42 18 53 17 65 
18 72 17 78 18 80 17 80 18 77 17 75 18 70 17 64 
18 60 17 53 18 48 17 43 18 38 17 34 18 30 17 26 
18 22 18 20 17 18 17 14 18 12 17 11 18 11 17 7 
18 4 17 8 18 10 17 2 18 -7 17 4 18 21 17 9 
18 -21 17 -19 18 15 17 23 18 -2 17 -13 18 -3 17 4 
18 0 17 -5 18 -4 17 -2 18 -4 17 -7 18 -8 17 -8 
18 -11 17 -13 18 -17 17 -19 18 -23 17 -28 18 -33 17 -39 
18 -45 17 -53 18 -61 17 -69 18 -76 17 -84 18 -89 17 -93 
18 -93 17 -90 18 -84 17 -72 18 -60 17 -45 18 -31 17 -18 
18 -10 17 -5 18 -2 17 0 18 0 17 0 18 -1 17 0 
18 1 17 0 18 -1 17 1 294 1601 101 MP stroke
c13
18 1 17 -1 18 1 17 0 18 -1 17 0 18 1 17 0 
18 2 17 4 18 11 17 19 18 29 17 42 18 54 17 63 
18 72 17 76 18 79 17 79 18 78 17 74 18 70 17 65 
18 60 17 54 18 48 17 44 18 38 17 34 18 30 17 26 
18 23 18 20 17 17 17 14 18 12 17 11 18 11 17 7 
18 3 17 7 18 11 17 2 18 -9 17 2 18 22 17 14 
18 -15 17 -18 18 1 17 10 18 6 17 0 18 0 17 -1 
18 -4 17 -5 18 -2 17 -1 18 -4 17 -7 18 -8 17 -8 
18 -10 17 -14 18 -16 17 -19 18 -23 17 -28 18 -33 17 -39 
18 -46 17 -53 18 -61 17 -69 18 -76 17 -84 18 -89 17 -93 
18 -93 17 -90 18 -83 17 -73 18 -59 17 -45 18 -31 17 -19 
18 -10 17 -4 18 -2 17 0 18 0 17 -1 18 0 17 1 
18 0 17 -1 18 1 17 -1 294 1602 101 MP stroke
0.25 sg
18 1 17 -1 18 1 17 0 18 -1 17 0 18 1 17 0 
18 1 17 5 18 10 17 18 18 29 17 41 18 54 17 63 
18 72 17 78 18 80 17 79 18 79 17 74 18 70 17 65 
18 59 17 53 18 48 17 43 18 38 17 33 18 30 17 25 
18 23 18 19 17 16 17 15 18 12 17 11 18 8 17 8 
18 9 17 6 18 3 17 1 18 3 17 8 18 12 17 2 
18 -13 17 -9 18 11 17 14 18 -2 17 -9 18 0 17 4 
18 -1 17 -4 18 -4 17 -2 18 -4 17 -6 18 -8 17 -8 
18 -11 17 -13 18 -17 17 -19 18 -24 17 -28 18 -34 17 -39 
18 -46 17 -54 18 -60 17 -69 18 -76 17 -83 18 -89 17 -92 
18 -92 17 -89 18 -83 17 -72 18 -60 17 -45 18 -31 17 -19 
18 -11 17 -4 18 -2 17 0 18 0 17 -1 18 0 17 1 
18 0 17 -1 18 1 17 -1 294 1602 101 MP stroke
c8
18 1 17 -1 18 1 17 0 18 0 17 0 18 0 17 0 
18 2 17 5 18 11 17 20 18 30 17 42 18 53 17 63 
18 70 17 76 18 78 17 78 18 77 17 74 18 70 17 64 
18 60 17 54 18 49 17 43 18 39 17 34 18 31 17 26 
18 23 18 20 17 17 17 15 18 13 17 10 18 9 17 8 
18 9 17 4 18 2 17 5 18 9 17 2 18 -9 17 0 
18 18 17 14 18 -14 17 -22 18 -5 17 10 18 15 17 9 
18 -10 17 -17 18 -4 17 5 18 -2 17 -10 18 -10 17 -7 
18 -9 17 -14 18 -17 17 -18 18 -23 17 -27 18 -33 17 -38 
18 -45 17 -52 18 -60 17 -68 18 -76 17 -83 18 -89 17 -94 
18 -94 17 -91 18 -85 17 -74 18 -60 17 -44 18 -30 17 -18 
18 -9 17 -4 18 -1 17 0 18 0 17 0 18 -1 17 0 
18 1 17 0 18 -1 17 1 294 1601 101 MP stroke
c9
18 0 17 1 18 0 17 -1 18 1 17 0 18 -1 17 0 
18 0 17 1 18 1 17 8 18 23 17 44 18 63 17 80 
18 86 17 86 18 83 17 77 18 71 17 66 18 61 17 56 
18 52 17 49 18 45 17 42 18 40 17 36 18 33 17 30 
18 27 18 24 17 21 17 18 18 15 17 14 18 11 17 9 
18 8 17 6 18 4 17 4 18 3 17 2 18 1 17 1 
18 0 17 -1 18 -1 17 -1 18 -2 17 -2 18 -3 17 -3 
18 -4 17 -4 18 -5 17 -6 18 -7 17 -7 18 -9 17 -10 
18 -12 17 -13 18 -16 17 -19 18 -22 17 -25 18 -30 17 -34 
18 -41 17 -47 18 -55 17 -63 18 -72 17 -81 18 -89 17 -96 
18 -100 17 -100 18 -92 17 -81 18 -63 17 -42 18 -25 17 -12 
18 -4 17 -1 18 0 17 -1 18 0 17 1 18 0 17 -1 
18 0 17 1 18 -1 17 1 294 1601 101 MP stroke
c10
18 0 17 -1 18 1 17 0 18 -1 17 0 18 1 17 0 
18 1 17 4 18 13 17 25 18 37 17 49 18 58 17 62 
18 66 17 68 18 69 17 68 18 68 17 68 18 66 17 65 
18 62 17 59 18 56 17 52 18 47 17 42 18 37 17 32 
18 26 18 23 17 18 17 15 18 12 17 9 18 8 17 5 
18 4 17 3 18 2 17 1 18 1 17 0 18 -1 17 0 
18 -1 17 -2 18 -1 17 -2 18 -2 17 -3 18 -2 17 -3 
18 -4 17 -4 18 -4 17 -5 18 -6 17 -7 18 -8 17 -9 
18 -11 17 -12 18 -14 17 -17 18 -20 17 -24 18 -28 17 -34 
18 -39 17 -47 18 -54 17 -64 18 -73 17 -83 18 -92 17 -101 
18 -104 17 -104 18 -96 17 -81 18 -63 17 -41 18 -22 17 -10 
18 -3 17 0 18 0 17 -1 18 0 17 1 18 0 17 -1 
18 0 17 1 18 -1 17 1 294 1601 101 MP stroke
c11
18 -1 17 1 18 0 17 -1 18 1 17 0 18 0 17 1 
18 2 17 6 18 12 17 20 18 31 17 41 18 53 17 62 
18 69 17 75 18 78 17 78 18 77 17 74 18 71 17 65 
18 61 17 55 18 49 17 45 18 40 17 35 18 30 17 27 
18 23 18 20 17 17 17 15 18 12 17 11 18 8 17 8 
18 8 17 5 18 3 17 2 18 4 17 10 18 10 17 -6 
18 -31 17 -13 18 37 17 37 18 -14 17 -33 18 -3 17 16 
18 1 17 -11 18 -6 17 1 18 -3 17 -9 18 -8 17 -8 
18 -10 17 -14 18 -16 17 -19 18 -22 17 -28 18 -32 17 -39 
18 -44 17 -52 18 -60 17 -68 18 -76 17 -83 18 -90 17 -93 
18 -95 17 -92 18 -86 17 -75 18 -61 17 -45 18 -30 17 -17 
18 -9 17 -3 18 -1 17 0 18 0 17 -1 18 0 17 1 
18 0 17 -1 18 1 17 -1 294 1602 101 MP stroke
c12
18 -1 17 1 18 0 17 -1 18 1 17 0 18 0 17 1 
18 3 17 6 18 13 17 21 18 31 17 42 18 52 17 61 
18 69 17 75 18 77 17 77 18 77 17 74 18 71 17 65 
18 61 17 55 18 51 17 45 18 40 17 35 18 31 17 27 
18 24 18 20 17 17 17 15 18 13 17 11 18 9 17 8 
18 6 17 5 18 5 17 4 18 3 17 -1 18 -2 17 7 
18 21 17 5 18 -32 17 -27 18 18 17 30 18 -1 17 -20 
18 -6 17 6 18 0 17 -9 18 -7 17 -4 18 -6 17 -10 
18 -12 17 -12 18 -15 17 -19 18 -23 17 -27 18 -32 17 -37 
18 -45 17 -51 18 -60 17 -67 18 -76 17 -84 18 -91 17 -95 
18 -96 17 -94 18 -88 17 -75 18 -62 17 -44 18 -29 17 -17 
18 -8 17 -2 18 -1 17 0 18 0 17 -1 18 0 17 1 
18 0 17 -1 18 1 17 -1 294 1602 101 MP stroke
c13
18 -1 17 1 18 0 17 -1 18 1 17 0 18 0 17 1 
18 3 17 8 18 13 17 22 18 31 17 42 18 52 17 61 
18 68 17 74 18 76 17 78 18 76 17 74 18 70 17 66 
18 62 17 56 18 51 17 45 18 41 17 36 18 32 17 28 
18 24 18 21 17 17 17 16 18 13 17 11 18 8 17 8 
18 8 17 5 18 2 17 4 18 6 17 2 18 -5 17 -1 
18 9 17 7 18 -3 17 -13 18 -17 17 -3 18 23 17 24 
18 -13 17 -32 18 -8 17 13 18 1 17 -14 18 -13 17 -5 
18 -8 17 -15 18 -17 17 -18 18 -21 17 -27 18 -31 17 -37 
18 -43 17 -51 18 -59 17 -67 18 -76 17 -84 18 -91 17 -96 
18 -98 17 -96 18 -90 17 -77 18 -61 17 -45 18 -28 17 -16 
18 -6 17 -3 18 0 17 0 18 0 17 -1 18 0 17 1 
18 0 17 -1 18 1 17 -1 294 1602 101 MP stroke
0.25 sg
18 -1 17 1 18 0 17 -1 18 1 17 0 18 0 17 1 
18 4 17 7 18 14 17 21 18 31 17 42 18 52 17 61 
18 69 17 74 18 77 17 78 18 77 17 75 18 72 17 66 
18 62 17 57 18 51 17 46 18 41 17 36 18 31 17 27 
18 24 18 21 17 17 17 15 18 12 17 11 18 10 17 7 
18 4 17 7 18 9 17 1 18 -8 17 3 18 20 17 10 
18 -18 17 -19 18 6 17 15 18 2 17 -6 18 -3 17 0 
18 -2 17 -5 18 -3 17 -3 18 -5 17 -7 18 -7 17 -9 
18 -11 17 -13 18 -16 17 -19 18 -23 17 -27 18 -32 17 -37 
18 -45 17 -51 18 -60 17 -68 18 -76 17 -84 18 -92 17 -95 
18 -98 17 -95 18 -89 17 -77 18 -62 17 -45 18 -29 17 -17 
18 -7 17 -3 18 0 17 0 18 0 17 -1 18 0 17 1 
18 0 17 -1 18 1 17 -1 294 1602 101 MP stroke
c8
18 0 17 0 18 1 17 0 18 0 17 0 18 0 17 2 
18 4 17 9 18 14 17 23 18 31 17 42 18 52 17 60 
18 68 17 73 18 76 17 78 18 77 17 74 18 72 17 67 
18 63 17 57 18 52 17 48 18 42 17 36 18 31 17 30 
18 26 18 18 17 14 17 18 18 19 17 6 18 -2 17 14 
18 24 17 -3 18 -30 17 10 18 65 17 18 18 -77 17 -57 
18 49 17 66 18 -6 17 -38 18 -13 17 10 18 8 17 2 
18 -3 17 -6 18 -3 17 -3 18 -4 17 -7 18 -7 17 -9 
18 -10 17 -13 18 -16 17 -19 18 -23 17 -28 18 -32 17 -39 
18 -45 17 -53 18 -60 17 -69 18 -77 17 -86 18 -91 17 -96 
18 -97 17 -95 18 -88 17 -77 18 -63 17 -45 18 -30 17 -17 
18 -8 17 -3 18 0 17 0 18 0 17 -1 18 0 17 1 
18 0 17 -1 18 1 17 -1 294 1602 101 MP stroke
c9
18 1 17 -1 18 1 17 0 18 0 17 0 18 0 17 1 
18 3 17 7 18 12 17 19 18 30 17 41 18 52 17 63 
18 71 17 78 18 81 17 81 18 80 17 77 18 73 17 66 
18 61 17 56 18 49 17 44 18 39 17 34 18 29 17 26 
18 23 18 20 17 17 17 15 18 13 17 11 18 10 17 8 
18 8 17 6 18 5 17 5 18 4 17 4 18 2 17 3 
18 2 17 1 18 1 17 0 18 0 17 0 18 -1 17 -2 
18 -2 17 -3 18 -3 17 -5 18 -5 17 -7 18 -9 17 -10 
18 -12 17 -14 18 -17 17 -20 18 -24 17 -28 18 -33 17 -39 
18 -45 17 -51 18 -60 17 -68 18 -75 17 -84 18 -91 17 -96 
18 -97 17 -97 18 -89 17 -79 18 -64 17 -46 18 -29 17 -17 
18 -7 17 -2 18 0 17 0 18 0 17 -1 18 0 17 1 
18 0 17 -1 18 1 17 -1 294 1602 101 MP stroke
c10
18 -1 17 1 18 0 17 0 18 0 17 0 18 1 17 3 
18 5 17 10 18 17 17 24 18 33 17 42 18 51 17 60 
18 66 17 71 18 74 17 76 18 76 17 74 18 71 17 68 
18 64 17 59 18 54 17 49 18 44 17 40 18 34 17 31 
18 26 18 22 17 20 17 16 18 14 17 11 18 9 17 7 
18 7 17 4 18 2 17 2 18 4 17 0 18 -3 17 -1 
18 5 17 1 18 -13 17 -7 18 17 17 13 18 -21 17 -32 
18 0 17 20 18 3 17 -14 18 -12 17 -5 18 -6 17 -10 
18 -11 17 -13 18 -15 17 -17 18 -22 17 -24 18 -30 17 -34 
18 -42 17 -48 18 -58 17 -66 18 -77 17 -86 18 -95 17 -102 
18 -106 17 -104 18 -96 17 -82 18 -63 17 -43 18 -25 17 -12 
18 -4 17 -1 18 0 17 -1 18 0 17 1 18 0 17 -1 
18 0 17 1 18 -1 17 1 294 1601 101 MP stroke
c11
18 0 17 0 18 0 17 0 18 0 17 0 18 0 17 1 
18 3 17 6 18 12 17 19 18 30 17 41 18 53 17 65 
18 73 17 79 18 83 17 83 18 81 17 77 18 72 17 66 
18 61 17 55 18 49 17 43 18 39 17 34 18 30 17 27 
18 23 18 21 17 18 17 16 18 14 17 12 18 11 17 10 
18 8 17 7 18 6 17 5 18 5 17 4 18 3 17 2 
18 2 17 1 18 0 17 0 18 0 17 -1 18 -2 17 -2 
18 -4 17 -4 18 -4 17 -6 18 -7 17 -8 18 -10 17 -11 
18 -13 17 -16 18 -17 17 -21 18 -24 17 -27 18 -32 17 -37 
18 -43 17 -50 18 -57 17 -65 18 -75 17 -83 18 -91 17 -99 
18 -102 17 -103 18 -97 17 -84 18 -67 17 -45 18 -26 17 -13 
18 -4 17 0 18 0 17 -1 18 0 17 1 18 0 17 -1 
18 0 17 1 18 -1 17 1 294 1601 101 MP stroke
c12
18 -1 17 0 18 1 17 -1 18 0 17 1 18 0 17 -1 
18 1 17 1 18 3 17 10 18 24 17 43 18 64 17 82 
18 90 17 92 18 88 17 82 18 75 17 68 18 63 17 58 
18 53 17 51 18 47 17 45 18 41 17 39 18 35 17 32 
18 28 18 26 17 22 17 20 18 16 17 14 18 12 17 10 
18 7 17 7 18 4 17 4 18 3 17 1 18 1 17 1 
18 0 17 -1 18 -1 17 -2 18 -2 17 -2 18 -3 17 -4 
18 -4 17 -4 18 -5 17 -7 18 -7 17 -8 18 -9 17 -11 
18 -12 17 -15 18 -16 17 -20 18 -22 17 -27 18 -31 17 -35 
18 -42 17 -49 18 -57 17 -66 18 -75 17 -84 18 -94 17 -101 
18 -105 17 -105 18 -99 17 -85 18 -67 17 -45 18 -25 17 -11 
18 -4 17 0 18 0 17 -1 18 0 17 1 18 0 17 -1 
18 0 17 1 18 -1 17 1 294 1601 101 MP stroke
c13
18 0 17 0 18 0 17 0 18 0 17 0 18 1 17 2 
18 4 17 7 18 13 17 20 18 30 17 42 18 53 17 64 
18 73 17 79 18 83 17 84 18 82 17 78 18 74 17 68 
18 62 17 56 18 51 17 45 18 39 17 36 18 31 17 27 
18 24 18 21 17 19 17 16 18 14 17 13 18 11 17 9 
18 9 17 7 18 6 17 5 18 4 17 3 18 3 17 2 
18 2 17 1 18 0 17 0 18 -1 17 -1 18 -2 17 -3 
18 -3 17 -4 18 -5 17 -7 18 -7 17 -8 18 -10 17 -12 
18 -13 17 -16 18 -18 17 -21 18 -24 17 -27 18 -32 17 -37 
18 -43 17 -50 18 -57 17 -66 18 -75 17 -83 18 -93 17 -101 
18 -106 17 -107 18 -101 17 -87 18 -69 17 -46 18 -24 17 -11 
18 -3 17 0 18 0 17 -1 18 0 17 1 18 0 17 -1 
18 0 17 1 18 -1 17 1 294 1601 101 MP stroke
0.25 sg
18 0 17 0 18 0 17 0 18 1 17 1 18 3 17 4 
18 8 17 12 18 18 17 25 18 33 17 41 18 51 17 58 
18 66 17 71 18 76 17 79 18 79 17 79 18 76 17 72 
18 69 17 63 18 57 17 52 18 46 17 41 18 36 17 30 
18 26 18 23 17 19 17 15 18 12 17 11 18 10 17 6 
18 3 17 5 18 6 17 1 18 -4 17 1 18 9 17 5 
18 -7 17 -10 18 -3 17 1 18 2 17 2 18 1 17 -2 
18 -7 17 -9 18 -4 17 -1 18 -4 17 -9 18 -9 17 -9 
18 -10 17 -14 18 -16 17 -19 18 -22 17 -26 18 -31 17 -37 
18 -44 17 -52 18 -60 17 -70 18 -79 17 -90 18 -98 17 -104 
18 -108 17 -106 18 -99 17 -84 18 -67 17 -45 18 -27 17 -13 
18 -5 17 -1 18 0 17 0 18 -1 17 0 18 0 17 1 
18 0 17 -1 18 1 17 -1 294 1602 101 MP stroke
c8
18 -1 17 1 18 0 17 0 18 0 17 0 18 0 17 1 
18 2 17 4 18 8 17 16 18 28 17 43 18 60 17 75 
18 84 17 89 18 89 17 85 18 80 17 73 18 69 17 63 
18 58 17 54 18 49 17 46 18 42 17 39 18 35 17 32 
18 29 18 25 17 22 17 20 18 16 17 14 18 12 17 10 
18 8 17 6 18 5 17 3 18 3 17 2 18 1 17 1 
18 0 17 -1 18 -1 17 -2 18 -1 17 -3 18 -3 17 -3 
18 -4 17 -5 18 -5 17 -6 18 -8 17 -8 18 -9 17 -11 
18 -13 17 -15 18 -17 17 -20 18 -23 17 -27 18 -32 17 -37 
18 -43 17 -51 18 -58 17 -68 18 -77 17 -87 18 -96 17 -104 
18 -109 17 -109 18 -102 17 -88 18 -69 17 -46 18 -25 17 -11 
18 -4 17 0 18 0 17 -1 18 0 17 1 18 0 17 -1 
18 0 17 1 18 -1 17 1 294 1601 101 MP stroke
gr

c8

end %%Color Dict

eplot
%%EndObject

epage
end

showpage

%%Trailer
%%EOF
