%!PS-Adobe-3.0 EPSF-3.0
%%Creator: MATLAB, The Mathworks, Inc. Version 7.10.0.499 (R2010a). Operating System: Microsoft Windows 7.
%%Title: C:\Users\wwu\Desktop\warping\Ramsay_code\code_0418\comp_signa_mse.eps
%%CreationDate: 05/20/2011  11:08:13
%%DocumentNeededFonts: Helvetica
%%DocumentProcessColors: Cyan Magenta Yellow Black
%%LanguageLevel: 2
%%Pages: 1
%%BoundingBox:   212   320   399   470
%%EndComments

%%BeginProlog
% MathWorks dictionary
/MathWorks 160 dict begin
% definition operators
/bdef {bind def} bind def
/ldef {load def} bind def
/xdef {exch def} bdef
/xstore {exch store} bdef
% operator abbreviations
/c  /clip ldef
/cc /concat ldef
/cp /closepath ldef
/gr /grestore ldef
/gs /gsave ldef
/mt /moveto ldef
/np /newpath ldef
/cm /currentmatrix ldef
/sm /setmatrix ldef
/rm /rmoveto ldef
/rl /rlineto ldef
/s {show newpath} bdef
/sc {setcmykcolor} bdef
/sr /setrgbcolor ldef
/sg /setgray ldef
/w /setlinewidth ldef
/j /setlinejoin ldef
/cap /setlinecap ldef
/rc {rectclip} bdef
/rf {rectfill} bdef
% page state control
/pgsv () def
/bpage {/pgsv save def} bdef
/epage {pgsv restore} bdef
/bplot /gsave ldef
/eplot {stroke grestore} bdef
% orientation switch
/portraitMode 0 def /landscapeMode 1 def /rotateMode 2 def
% coordinate system mappings
/dpi2point 0 def
% font control
/FontSize 0 def
/FMS {/FontSize xstore findfont [FontSize 0 0 FontSize neg 0 0]
  makefont setfont} bdef
/ISOLatin1Encoding where {pop /WindowsLatin1Encoding 256 array bdef
ISOLatin1Encoding WindowsLatin1Encoding copy pop
/.notdef/.notdef/quotesinglbase/florin/quotedblbase/ellipsis/dagger
/daggerdbl/circumflex/perthousand/Scaron/guilsinglleft/OE/.notdef/.notdef
/.notdef/.notdef/quoteleft/quoteright/quotedblleft/quotedblright/bullet
/endash/emdash/tilde/trademark/scaron/guilsinglright/oe/.notdef/.notdef
/Ydieresis WindowsLatin1Encoding 128 32 getinterval astore pop}
{/WindowsLatin1Encoding StandardEncoding bdef} ifelse
/reencode {exch dup where {pop load} {pop StandardEncoding} ifelse
  exch dup 3 1 roll findfont dup length dict begin
  { 1 index /FID ne {def}{pop pop} ifelse } forall
  /Encoding exch def currentdict end definefont pop} bdef
/isroman {findfont /CharStrings get /Agrave known} bdef
/FMSR {3 1 roll 1 index dup isroman {reencode} {pop pop} ifelse
  exch FMS} bdef
/csm {1 dpi2point div -1 dpi2point div scale neg translate
 dup landscapeMode eq {pop -90 rotate}
  {rotateMode eq {90 rotate} if} ifelse} bdef
% line types: solid, dotted, dashed, dotdash
/SO { [] 0 setdash } bdef
/DO { [.5 dpi2point mul 4 dpi2point mul] 0 setdash } bdef
/DA { [6 dpi2point mul] 0 setdash } bdef
/DD { [.5 dpi2point mul 4 dpi2point mul 6 dpi2point mul 4
  dpi2point mul] 0 setdash } bdef
% macros for lines and objects
/L {lineto stroke} bdef
/MP {3 1 roll moveto 1 sub {rlineto} repeat} bdef
/AP {{rlineto} repeat} bdef
/PDlw -1 def
/W {/PDlw currentlinewidth def setlinewidth} def
/PP {closepath eofill} bdef
/DP {closepath stroke} bdef
/MR {4 -2 roll moveto dup  0 exch rlineto exch 0 rlineto
  neg 0 exch rlineto closepath} bdef
/FR {MR stroke} bdef
/PR {MR fill} bdef
/L1i {{currentfile picstr readhexstring pop} image} bdef
/tMatrix matrix def
/MakeOval {newpath tMatrix currentmatrix pop translate scale
0 0 1 0 360 arc tMatrix setmatrix} bdef
/FO {MakeOval stroke} bdef
/PO {MakeOval fill} bdef
/PD {currentlinewidth 2 div 0 360 arc fill
   PDlw -1 eq not {PDlw w /PDlw -1 def} if} def
/FA {newpath tMatrix currentmatrix pop translate scale
  0 0 1 5 -2 roll arc tMatrix setmatrix stroke} bdef
/PA {newpath tMatrix currentmatrix pop	translate 0 0 moveto scale
  0 0 1 5 -2 roll arc closepath tMatrix setmatrix fill} bdef
/FAn {newpath tMatrix currentmatrix pop translate scale
  0 0 1 5 -2 roll arcn tMatrix setmatrix stroke} bdef
/PAn {newpath tMatrix currentmatrix pop translate 0 0 moveto scale
  0 0 1 5 -2 roll arcn closepath tMatrix setmatrix fill} bdef
/vradius 0 def /hradius 0 def /lry 0 def
/lrx 0 def /uly 0 def /ulx 0 def /rad 0 def
/MRR {/vradius xdef /hradius xdef /lry xdef /lrx xdef /uly xdef
  /ulx xdef newpath tMatrix currentmatrix pop ulx hradius add uly
  vradius add translate hradius vradius scale 0 0 1 180 270 arc 
  tMatrix setmatrix lrx hradius sub uly vradius add translate
  hradius vradius scale 0 0 1 270 360 arc tMatrix setmatrix
  lrx hradius sub lry vradius sub translate hradius vradius scale
  0 0 1 0 90 arc tMatrix setmatrix ulx hradius add lry vradius sub
  translate hradius vradius scale 0 0 1 90 180 arc tMatrix setmatrix
  closepath} bdef
/FRR {MRR stroke } bdef
/PRR {MRR fill } bdef
/MlrRR {/lry xdef /lrx xdef /uly xdef /ulx xdef /rad lry uly sub 2 div def
  newpath tMatrix currentmatrix pop ulx rad add uly rad add translate
  rad rad scale 0 0 1 90 270 arc tMatrix setmatrix lrx rad sub lry rad
  sub translate rad rad scale 0 0 1 270 90 arc tMatrix setmatrix
  closepath} bdef
/FlrRR {MlrRR stroke } bdef
/PlrRR {MlrRR fill } bdef
/MtbRR {/lry xdef /lrx xdef /uly xdef /ulx xdef /rad lrx ulx sub 2 div def
  newpath tMatrix currentmatrix pop ulx rad add uly rad add translate
  rad rad scale 0 0 1 180 360 arc tMatrix setmatrix lrx rad sub lry rad
  sub translate rad rad scale 0 0 1 0 180 arc tMatrix setmatrix
  closepath} bdef
/FtbRR {MtbRR stroke } bdef
/PtbRR {MtbRR fill } bdef
/stri 6 array def /dtri 6 array def
/smat 6 array def /dmat 6 array def
/tmat1 6 array def /tmat2 6 array def /dif 3 array def
/asub {/ind2 exch def /ind1 exch def dup dup
  ind1 get exch ind2 get sub exch } bdef
/tri_to_matrix {
  2 0 asub 3 1 asub 4 0 asub 5 1 asub
  dup 0 get exch 1 get 7 -1 roll astore } bdef
/compute_transform {
  dmat dtri tri_to_matrix tmat1 invertmatrix 
  smat stri tri_to_matrix tmat2 concatmatrix } bdef
/ds {stri astore pop} bdef
/dt {dtri astore pop} bdef
/db {2 copy /cols xdef /rows xdef mul dup 3 mul string
  currentfile 
  3 index 0 eq {/ASCIIHexDecode filter}
  {/ASCII85Decode filter 3 index 2 eq {/RunLengthDecode filter} if }
  ifelse exch readstring pop
  dup 0 3 index getinterval /rbmap xdef
  dup 2 index dup getinterval /gbmap xdef
  1 index dup 2 mul exch getinterval /bbmap xdef pop pop}bdef
/it {gs np dtri aload pop moveto lineto lineto cp c
  cols rows 8 compute_transform 
  rbmap gbmap bbmap true 3 colorimage gr}bdef
/il {newpath moveto lineto stroke}bdef
currentdict end def
%%EndProlog

%%BeginSetup
MathWorks begin

0 cap

end
%%EndSetup

%%Page: 1 1
%%BeginPageSetup
%%PageBoundingBox:   212   320   399   470
MathWorks begin
bpage
%%EndPageSetup

%%BeginObject: obj1
bplot

/dpi2point 12 def
portraitMode 2544 5640 csm

    0     0  2249  1800 rc
85 dict begin %Colortable dictionary
/c0 { 0.000000 0.000000 0.000000 sr} bdef
/c1 { 1.000000 1.000000 1.000000 sr} bdef
/c2 { 0.900000 0.000000 0.000000 sr} bdef
/c3 { 0.000000 0.820000 0.000000 sr} bdef
/c4 { 0.000000 0.000000 0.800000 sr} bdef
/c5 { 0.910000 0.820000 0.320000 sr} bdef
/c6 { 1.000000 0.260000 0.820000 sr} bdef
/c7 { 0.000000 0.820000 0.820000 sr} bdef
c0
1 j
1 sg
   0    0 2250 1801 rf
6 w
0 1467 1743 0 0 -1467 292 1602 4 MP
PP
-1743 0 0 1467 1743 0 0 -1467 292 1602 5 MP stroke
4 w
DO
SO
6 w
0 sg
 292  135 mt 2035  135 L
 292 1602 mt 2035 1602 L
2035 1602 mt 2035  135 L
 292 1602 mt  292  135 L
 292 1602 mt 2035 1602 L
 292 1602 mt  292  135 L
 633 1602 mt  633 1584 L
 633  135 mt  633  152 L
%%IncludeResource: font Helvetica
/Helvetica /WindowsLatin1Encoding 120 FMSR

 567 1747 mt 
(20) s
 992 1602 mt  992 1584 L
 992  135 mt  992  152 L
 926 1747 mt 
(40) s
1352 1602 mt 1352 1584 L
1352  135 mt 1352  152 L
1286 1747 mt 
(60) s
1711 1602 mt 1711 1584 L
1711  135 mt 1711  152 L
1645 1747 mt 
(80) s
 292 1602 mt  309 1602 L
2035 1602 mt 2017 1602 L
 191 1646 mt 
(0) s
 292 1113 mt  309 1113 L
2035 1113 mt 2017 1113 L
  91 1157 mt 
(0.5) s
 292  624 mt  309  624 L
2035  624 mt 2017  624 L
 191  668 mt 
(1) s
 292  135 mt  309  135 L
2035  135 mt 2017  135 L
  91  179 mt 
(1.5) s
 292  135 mt 2035  135 L
 292 1602 mt 2035 1602 L
2035 1602 mt 2035  135 L
 292 1602 mt  292  135 L
gs 292 135 1744 1468 rc
/c8 { 0.000000 0.000000 1.000000 sr} bdef
c8
18 224 18 181 18 69 18 8 18 18 18 41 18 57 18 49 
18 14 18 -29 18 -72 18 -89 18 -65 18 -9 18 71 18 108 
18 79 18 18 18 -58 18 -90 18 -60 18 -11 18 31 18 45 
18 25 18 1 18 -9 18 -30 18 -66 18 -89 18 -81 18 -51 
17 -5 18 38 18 62 18 77 18 86 18 73 18 27 18 -23 
18 -51 18 -52 18 -21 18 13 18 23 18 17 18 6 18 -2 
18 5 18 0 18 -46 18 -87 18 -84 18 -38 18 37 18 106 
18 131 18 105 18 28 18 -57 18 -92 18 -75 18 -9 18 63 
17 82 18 55 18 1 18 -58 18 -81 18 -72 18 -39 18 -1 
18 10 18 2 18 -9 18 -17 18 -16 18 -7 18 5 18 21 
18 31 18 36 18 35 18 27 18 7 18 -23 18 -48 18 -61 
18 -42 18 8 18 73 18 132 18 124 18 36 18 -106 18 -266 
17 -309 292 1547 98 MP stroke
/c9 { 0.000000 0.500000 0.000000 sr} bdef
c9
18 172 18 155 18 103 18 57 18 32 18 26 18 34 18 28 
18 -1 18 -49 18 -105 18 -120 18 -80 18 -14 18 60 18 95 
18 75 18 30 18 -25 18 -54 18 -43 18 -21 18 2 18 14 
18 9 18 0 18 -9 18 -30 18 -65 18 -86 18 -73 18 -40 
17 5 18 45 18 75 18 90 18 91 18 77 18 48 18 11 
18 -28 18 -44 18 -24 18 6 18 17 18 14 18 -7 18 -22 
18 -17 18 -17 18 -45 18 -74 18 -76 18 -45 18 26 18 94 
18 106 18 70 18 -5 18 -80 18 -109 18 -91 18 -33 18 39 
17 87 18 100 18 70 18 12 18 -43 18 -78 18 -72 18 -42 
18 -20 18 -12 18 -12 18 -16 18 -10 18 4 18 17 18 27 
18 30 18 26 18 20 18 7 18 -23 18 -63 18 -81 18 -70 
18 -22 18 51 18 109 18 136 18 101 18 5 18 -106 18 -200 
17 -177 292 1511 98 MP stroke
/c10 { 1.000000 0.000000 0.000000 sr} bdef
c10
18 179 18 171 18 126 18 86 18 60 18 46 18 40 18 11 
18 -45 18 -103 18 -149 18 -147 18 -89 18 -9 18 73 18 118 
18 112 18 73 18 12 18 -34 18 -50 18 -40 18 -10 18 15 
18 23 18 17 18 0 18 -30 18 -73 18 -93 18 -74 18 -36 
17 10 18 51 18 80 18 91 18 81 18 49 18 -8 18 -57 
18 -73 18 -58 18 -16 18 13 18 -1 18 -30 18 -46 18 -35 
18 7 18 45 18 43 18 13 18 -29 18 -46 18 6 18 83 
18 131 18 125 18 39 18 -74 18 -145 18 -158 18 -97 18 1 
17 77 18 106 18 59 18 -28 18 -91 18 -116 18 -88 18 -33 
18 0 18 13 18 14 18 12 18 16 18 25 18 34 18 38 
18 28 18 9 18 3 18 5 18 -5 18 -28 18 -49 18 -58 
18 -28 18 30 18 84 18 114 18 94 18 29 18 -32 18 -68 
17 -53 292 1168 98 MP stroke
/c11 { 0.000000 0.750000 0.750000 sr} bdef
c11
18 283 18 216 18 105 18 44 18 49 18 65 18 69 18 33 
18 -42 18 -112 18 -159 18 -154 18 -97 18 -14 18 74 18 121 
18 111 18 74 18 23 18 -22 18 -53 18 -59 18 -38 18 -14 
18 0 18 -2 18 -24 18 -55 18 -88 18 -103 18 -82 18 -41 
17 15 18 65 18 94 18 110 18 111 18 93 18 49 18 -2 
18 -41 18 -54 18 -27 18 2 18 4 18 -9 18 -27 18 -28 
18 3 18 32 18 21 18 -13 18 -51 18 -53 18 19 18 105 
18 135 18 97 18 -18 18 -139 18 -182 18 -150 18 -59 18 51 
17 134 18 165 18 123 18 38 18 -43 18 -100 18 -110 18 -89 
18 -75 18 -63 18 -37 18 -4 18 18 18 28 18 35 18 36 
18 29 18 14 18 2 18 -9 18 -25 18 -42 18 -48 18 -35 
18 6 18 66 18 104 18 109 18 68 18 -7 18 -78 18 -129 
17 -128 292 1310 98 MP stroke
/c12 { 0.750000 0.000000 0.750000 sr} bdef
c12
18 247 18 235 18 169 18 102 18 53 18 27 18 17 18 -10 
18 -61 18 -112 18 -153 18 -145 18 -85 18 -10 18 62 18 107 
18 119 18 97 18 44 18 -8 18 -43 18 -43 18 -9 18 21 
18 29 18 13 18 -21 18 -57 18 -82 18 -91 18 -77 18 -44 
17 3 18 53 18 96 18 120 18 118 18 88 18 35 18 -17 
18 -43 18 -41 18 -10 18 24 18 34 18 25 18 1 18 -23 
18 -27 18 -27 18 -37 18 -45 18 -41 18 -13 18 53 18 112 
18 115 18 64 18 -26 18 -121 18 -173 18 -172 18 -113 18 -22 
17 65 18 121 18 115 18 56 18 -29 18 -107 18 -117 18 -77 
18 -27 18 14 18 19 18 2 18 3 18 19 18 30 18 34 
18 39 18 37 18 11 18 -35 18 -78 18 -104 18 -94 18 -49 
18 11 18 73 18 111 18 118 18 94 18 40 18 -34 18 -114 
17 -157 292 1305 98 MP stroke
/c13 { 0.750000 0.750000 0.000000 sr} bdef
c13
18 187 18 171 18 118 18 77 18 60 18 59 18 64 18 35 
18 -37 18 -111 18 -171 18 -165 18 -87 18 0 18 71 18 98 
18 76 18 29 18 -26 18 -50 18 -35 18 -9 18 13 18 23 
18 19 18 18 18 23 18 17 18 -9 18 -38 18 -56 18 -50 
17 -13 18 30 18 61 18 72 18 55 18 21 18 -24 18 -55 
18 -57 18 -37 18 -3 18 24 18 27 18 18 18 12 18 8 
18 10 18 0 18 -31 18 -59 18 -55 18 -19 18 44 18 99 
18 109 18 78 18 11 18 -65 18 -113 18 -124 18 -82 18 -10 
17 59 18 95 18 61 18 -12 18 -68 18 -95 18 -83 18 -48 
18 -26 18 -18 18 -14 18 -12 18 4 18 26 18 39 18 41 
18 35 18 21 18 10 18 1 18 -18 18 -38 18 -51 18 -45 
18 -4 18 57 18 94 18 96 18 72 18 25 18 -30 18 -81 
17 -82 292 1216 98 MP stroke
0.25 sg
18 204 18 193 18 144 18 99 18 71 18 56 18 49 18 13 
18 -54 18 -118 18 -161 18 -149 18 -80 18 2 18 73 18 104 
18 90 18 50 18 -1 18 -33 18 -34 18 -17 18 10 18 26 
18 24 18 8 18 -18 18 -48 18 -75 18 -86 18 -69 18 -38 
17 -1 18 34 18 66 18 85 18 87 18 64 18 11 18 -36 
18 -53 18 -44 18 -15 18 10 18 13 18 5 18 -5 18 -6 
18 13 18 22 18 -8 18 -42 18 -44 18 -15 18 49 18 103 
18 100 18 53 18 -21 18 -93 18 -129 18 -123 18 -74 18 -2 
17 63 18 103 18 92 18 43 18 -20 18 -78 18 -89 18 -67 
18 -32 18 -1 18 11 18 10 18 10 18 10 18 14 18 17 
18 19 18 16 18 7 18 -11 18 -43 18 -78 18 -85 18 -59 
18 -10 18 49 18 89 18 100 18 69 18 2 18 -73 18 -132 
17 -122 292 1476 98 MP stroke
c8
18 90 18 93 18 66 18 48 18 48 18 52 18 54 18 26 
18 -31 18 -91 18 -140 18 -141 18 -87 18 -11 18 68 18 115 
18 112 18 65 18 -16 18 -67 18 -68 18 -44 18 -10 18 11 
18 12 18 15 18 24 18 16 18 -25 18 -63 18 -80 18 -66 
17 -20 18 30 18 64 18 84 18 92 18 75 18 27 18 -25 
18 -54 18 -48 18 1 18 45 18 41 18 13 18 -10 18 -23 
18 -12 18 -13 18 -49 18 -87 18 -77 18 -21 18 83 18 169 
18 164 18 86 18 -36 18 -148 18 -187 18 -154 18 -63 18 52 
17 137 18 173 18 136 18 54 18 -20 18 -66 18 -53 18 -17 
18 -21 18 -53 18 -69 18 -64 18 -36 18 3 18 27 18 35 
18 23 18 0 18 -28 18 -55 18 -67 18 -63 18 -42 18 -9 
18 31 18 67 18 84 18 78 18 41 18 -21 18 -99 18 -179 
17 -232 292 1568 98 MP stroke
c9
18 167 18 139 18 65 18 21 18 16 18 25 18 32 18 21 
18 -12 18 -45 18 -73 18 -81 18 -64 18 -12 18 68 18 120 
18 123 18 83 18 9 18 -42 18 -47 18 -31 18 -4 18 3 
18 -22 18 -42 18 -45 18 -45 18 -54 18 -62 18 -59 18 -44 
17 -9 18 29 18 64 18 93 18 113 18 106 18 62 18 5 
18 -47 18 -68 18 -41 18 -4 18 13 18 8 18 -13 18 -27 
18 -14 18 -6 18 -32 18 -57 18 -40 18 13 18 89 18 143 
18 119 18 49 18 -22 18 -84 18 -124 18 -126 18 -64 18 27 
17 98 18 131 18 106 18 39 18 -38 18 -108 18 -141 18 -129 
18 -70 18 6 18 37 18 27 18 12 18 0 18 6 18 23 
18 34 18 35 18 11 18 -29 18 -67 18 -92 18 -86 18 -54 
18 -8 18 39 18 68 18 74 18 48 18 -5 18 -76 18 -151 
17 -204 292 1582 98 MP stroke
c10
18 137 18 138 18 109 18 81 18 58 18 39 18 19 18 -11 
18 -48 18 -79 18 -97 18 -89 18 -53 18 -2 18 53 18 86 
18 87 18 61 18 15 18 -23 18 -38 18 -30 18 2 18 29 
18 45 18 34 18 -1 18 -42 18 -76 18 -92 18 -85 18 -54 
17 -1 18 37 18 45 18 40 18 38 18 34 18 20 18 -8 
18 -50 18 -69 18 -39 18 7 18 35 18 35 18 5 18 -19 
18 7 18 38 18 38 18 16 18 -13 18 -12 18 52 18 121 
18 118 18 52 18 -62 18 -172 18 -211 18 -185 18 -104 18 5 
17 104 18 163 18 136 18 58 18 -8 18 -36 18 7 18 65 
18 20 18 -82 18 -126 18 -114 18 -64 18 0 18 39 18 52 
18 47 18 25 18 -8 18 -45 18 -76 18 -89 18 -68 18 -15 
18 45 18 101 18 118 18 96 18 40 18 -37 18 -108 18 -158 
17 -158 292 1432 98 MP stroke
c11
18 289 18 137 18 332 18 245 18 -165 18 -328 18 -146 18 75 
18 209 18 106 18 -196 18 -248 18 21 18 141 18 -10 18 -88 
18 3 18 30 18 -74 18 -113 18 -20 18 58 18 60 18 54 
18 69 18 68 18 38 18 1 18 -30 18 -52 18 -64 18 -56 
17 -30 18 1 18 22 18 35 18 33 18 24 18 6 18 -9 
18 -16 18 -12 18 5 18 19 18 21 18 15 18 3 18 -13 
18 -30 18 -39 18 -23 18 9 18 52 18 93 18 122 18 126 
18 93 18 33 18 -46 18 -119 18 -159 18 -156 18 -109 18 -31 
17 45 18 100 18 102 18 61 18 -7 18 -78 18 -115 18 -118 
18 -91 18 -50 18 -23 18 -8 18 14 18 39 18 61 18 75 
18 76 18 60 18 18 18 -41 18 -89 18 -114 18 -89 18 -25 
18 39 18 90 18 107 18 93 18 49 18 -15 18 -82 18 -143 
17 -171 292 1301 98 MP stroke
c12
18 133 18 109 18 58 18 44 18 72 18 86 18 68 18 20 
18 -51 18 -120 18 -169 18 -160 18 -90 18 3 18 96 18 146 
18 136 18 87 18 11 18 -49 18 -73 18 -64 18 -30 18 -2 
18 9 18 12 18 16 18 8 18 -12 18 -44 18 -80 18 -86 
17 -40 18 20 18 73 18 104 18 104 18 77 18 28 18 -19 
18 -39 18 -33 18 -3 18 23 18 20 18 -3 18 -41 18 -60 
18 -40 18 -21 18 -47 18 -70 18 -43 18 27 18 127 18 193 
18 158 18 58 18 -55 18 -149 18 -187 18 -168 18 -95 18 6 
17 104 18 170 18 162 18 94 18 -10 18 -112 18 -153 18 -132 
18 -70 18 2 18 20 18 1 18 -13 18 -16 18 -2 18 20 
18 40 18 50 18 39 18 9 18 -38 18 -87 18 -107 18 -85 
18 -18 18 84 18 178 18 225 18 143 18 -55 18 -249 18 -369 
17 -259 292 1557 98 MP stroke
c13
13 -224 18 -264 18 -148 18 -43 18 26 18 48 18 25 18 -10 
18 -51 18 -91 18 -120 18 -108 18 -44 18 34 18 107 18 140 
18 117 18 54 18 -36 18 -97 18 -104 18 -70 18 -9 18 32 
18 31 18 14 18 -6 18 -31 18 -62 18 -83 18 -87 18 -66 
17 -15 18 40 18 82 18 114 18 127 18 109 18 44 18 -16 
18 -44 18 -39 18 -9 18 19 18 30 18 16 18 -25 18 -54 
18 -35 18 -3 18 7 18 -10 18 -55 18 -76 18 -16 18 74 
18 131 18 125 18 28 18 -91 18 -142 18 -126 18 -47 18 51 
17 108 18 114 18 55 18 -34 18 -103 18 -136 18 -116 18 -62 
18 -10 18 25 18 29 18 15 18 2 18 -1 18 12 18 33 
18 45 18 47 18 37 18 18 18 -12 18 -47 18 -69 18 -73 
18 -51 18 2 18 77 18 151 18 138 18 33 18 -125 18 -278 
17 -248 292 1490 98 MP stroke
0.25 sg
18 227 18 205 18 125 18 75 18 73 18 89 18 103 18 66 
18 -28 18 -127 18 -203 18 -207 18 -125 18 -10 18 116 18 195 
18 210 18 139 18 -5 18 -119 18 -155 18 -114 18 -9 18 57 
18 42 18 8 18 -12 18 -54 18 -125 18 -158 18 -115 18 -39 
17 37 18 92 18 110 18 105 18 82 18 46 18 1 18 -31 
18 -36 18 -14 18 31 18 54 18 19 18 -27 18 -42 18 -24 
18 24 18 52 18 6 18 -62 18 -102 18 -92 18 -10 18 86 
18 126 18 107 18 28 18 -65 18 -111 18 -103 18 -36 18 45 
17 76 18 59 18 4 18 -58 18 -78 18 -63 18 -32 18 1 
18 6 18 -6 18 -15 18 -15 18 -5 18 14 18 32 18 47 
18 52 18 45 18 28 18 2 18 -35 18 -73 18 -89 18 -80 
18 -40 18 25 18 95 18 152 18 138 18 49 18 -108 18 -293 
17 -371 292 1533 98 MP stroke
c8
18 222 18 182 18 85 18 33 18 42 18 56 18 57 18 36 
18 -8 18 -52 18 -91 18 -104 18 -83 18 -11 18 106 18 181 
18 185 18 119 18 -4 18 -101 18 -136 18 -114 18 -48 18 7 
18 25 18 21 18 5 18 -31 18 -87 18 -120 18 -113 18 -68 
17 4 18 69 18 100 18 103 18 77 18 30 18 -34 18 -76 
18 -75 18 -32 18 40 18 78 18 35 18 -21 18 -29 18 -1 
18 46 18 66 18 23 18 -41 18 -80 18 -72 18 0 18 87 
18 125 18 101 18 -2 18 -119 18 -168 18 -150 18 -77 18 11 
17 63 18 74 18 47 18 1 18 -39 18 -59 18 -53 18 -29 
18 -6 18 9 18 9 18 0 18 -6 18 -6 18 9 18 32 
18 49 18 57 18 58 18 46 18 13 18 -33 18 -73 18 -91 
18 -52 18 40 18 134 18 193 18 122 18 -53 18 -169 18 -154 
17 119 292 930 98 MP stroke
c9
18 278 18 244 18 148 18 80 18 56 18 55 18 59 18 29 
18 -39 18 -105 18 -149 18 -149 18 -99 18 -14 18 93 18 163 
18 171 18 114 18 3 18 -90 18 -131 18 -105 18 -19 18 38 
18 29 18 0 18 -22 18 -39 18 -52 18 -67 18 -82 18 -69 
17 -14 18 50 18 99 18 124 18 115 18 83 18 31 18 -18 
18 -48 18 -48 18 -9 18 32 18 53 18 44 18 9 18 -16 
18 -2 18 6 18 -38 18 -94 18 -112 18 -70 18 51 18 165 
18 178 18 103 18 -35 18 -175 18 -236 18 -219 18 -128 18 -6 
17 88 18 135 18 116 18 50 18 -28 18 -93 18 -100 18 -61 
18 -12 18 31 18 35 18 15 18 8 18 18 18 34 18 52 
18 54 18 41 18 10 18 -32 18 -68 18 -93 18 -91 18 -62 
18 -12 18 50 18 96 18 114 18 89 18 22 18 -76 18 -186 
17 -261 292 1432 98 MP stroke
c10
18 376 18 254 18 110 18 60 18 104 18 123 18 86 18 23 
18 -58 18 -139 18 -206 18 -196 18 -96 18 21 18 127 18 181 
18 172 18 113 18 17 18 -65 18 -111 18 -108 18 -56 18 -9 
18 11 18 13 18 2 18 -10 18 -18 18 -34 18 -62 18 -65 
17 -25 18 26 18 65 18 85 18 82 18 52 18 -5 18 -51 
18 -56 18 -23 18 40 18 83 18 64 18 16 18 -22 18 -37 
18 -16 18 -8 18 -56 18 -107 18 -102 18 -41 18 72 18 158 
18 132 18 40 18 -47 18 -114 18 -146 18 -143 18 -103 18 -35 
17 48 18 118 18 129 18 87 18 6 18 -85 18 -136 18 -138 
18 -84 18 -3 18 43 18 56 18 48 18 31 18 33 18 46 
18 59 18 63 18 48 18 14 18 -31 18 -77 18 -95 18 -74 
18 -12 18 77 18 137 18 152 18 98 18 -6 18 -74 18 -78 
17 17 292 772 98 MP stroke
c11
18 321 18 249 18 98 18 22 18 45 18 73 18 81 18 58 
18 4 18 -70 18 -150 18 -178 18 -132 18 -25 18 126 18 204 
18 173 18 76 18 -62 18 -138 18 -119 18 -53 18 26 18 61 
18 28 18 -3 18 0 18 -10 18 -56 18 -93 18 -95 18 -65 
17 -6 18 57 18 106 18 129 18 116 18 81 18 30 18 -21 
18 -59 18 -61 18 -11 18 40 18 44 18 13 18 -42 18 -72 
18 -37 18 1 18 -22 18 -67 18 -93 18 -72 18 23 18 129 
18 177 18 151 18 45 18 -83 18 -151 18 -149 18 -75 18 22 
17 67 18 58 18 4 18 -64 18 -99 18 -97 18 -68 18 -23 
18 15 18 40 18 41 18 29 18 24 18 27 18 34 18 42 
18 47 18 43 18 24 18 -10 18 -46 18 -79 18 -92 18 -83 
18 -44 18 18 18 80 18 131 18 135 18 82 18 -44 18 -225 
17 -386 292 1453 98 MP stroke
c12
18 396 18 166 18 28 18 -1 18 60 18 94 18 79 18 68 
18 62 18 -17 18 -163 18 -200 18 -93 18 37 18 141 18 167 
18 107 18 24 18 -54 18 -88 18 -70 18 -35 18 -3 18 9 
18 -5 18 -22 18 -30 18 -44 18 -68 18 -80 18 -69 18 -40 
17 1 18 40 18 69 18 89 18 103 18 96 18 61 18 16 
18 -20 18 -40 18 -36 18 -14 18 19 18 39 18 20 18 -5 
18 -7 18 6 18 25 18 21 18 -39 18 -83 18 -33 18 57 
18 122 18 120 18 8 18 -134 18 -195 18 -171 18 -69 18 63 
17 157 18 187 18 125 18 7 18 -113 18 -196 18 -184 18 -109 
18 -31 18 24 18 24 18 -6 18 -12 18 5 18 30 18 53 
18 65 18 60 18 40 18 6 18 -36 18 -77 18 -93 18 -80 
18 -36 18 27 18 76 18 100 18 73 18 0 18 -102 18 -217 
17 -297 292 1586 98 MP stroke
c13
18 226 18 268 18 98 18 10 18 53 18 107 18 134 18 105 
18 21 18 -77 18 -167 18 -180 18 -101 18 21 18 149 18 174 
18 72 18 -44 18 -120 18 -126 18 -53 18 26 18 75 18 83 
18 47 18 17 18 11 18 -11 18 -71 18 -123 18 -140 18 -112 
17 -41 18 39 18 99 18 121 18 95 18 48 18 0 18 -36 
18 -54 18 -39 18 13 18 64 18 81 18 65 18 19 18 -16 
18 -8 18 5 18 -17 18 -57 18 -88 18 -72 18 35 18 158 
18 205 18 155 18 -9 18 -188 18 -247 18 -199 18 -72 18 77 
17 165 18 179 18 115 18 7 18 -86 18 -140 18 -122 18 -65 
18 -23 18 -3 18 1 18 -2 18 1 18 11 18 29 18 45 
18 45 18 28 18 -4 18 -43 18 -83 18 -113 18 -114 18 -82 
18 -26 18 44 18 99 18 125 18 104 18 32 18 -88 18 -242 
17 -373 292 1544 98 MP stroke
gr

c13

end %%Color Dict

eplot
%%EndObject

epage
end

showpage

%%Trailer
%%EOF
